 
    OUTPUT FILES FOR THE Sun  
 
 Solar Constant= 0.950   F_CH4= 1.0000E-60  F_CO2= 2.8339E-01  F_O2= 2.1000E-01  F_N2= 5.0661E-01  IO3 =  1   IUP=  0
 ICONSERV= 1  FAC= 4.0  ND=101  SRFALB= 0.663  G= 980.0  IMW= 1

 FNO2 = 1.000E-60
 
 NST=     1 JCONV= 84 CHG=1.26E-03 dt0=7.50E+03 DIVF(1)= 1.25E-03 DIVFrms= 6.57E-03 DT(ND)= 4.72E-02 T(ND)=2.8384E+02

 TIME= 5.000E+03  TIME IN DAYS = 5.787E-02

 PLANETARY ALBEDO:  ALBP = 0.4965

  J     P         ALT         T        CONVEC       DT          TOLD        FH20       FSAVE       TCOOL       THEAT
  1 5.4323E-05 5.3118E+01 2.1995E+02  0.00E+00  -7.9676E-01  2.2075E+02  2.0883E-06  2.0920E-06 -6.0016E+02  6.0483E+02
  2 6.4083E-05 5.2217E+01 2.1159E+02  0.00E+00  -2.6690E-01  2.1186E+02  2.0883E-06  2.0920E-06 -1.4260E+02  1.1278E+02
  3 7.5501E-05 5.1348E+01 2.0813E+02  0.00E+00   8.1488E-02  2.0805E+02  2.0883E-06  2.0920E-06 -9.8288E+01  9.5470E+01
  4 8.8843E-05 5.0495E+01 2.0677E+02  0.00E+00  -1.0746E-01  2.0688E+02  2.0883E-06  2.0920E-06 -8.2918E+01  8.5589E+01
  5 1.0441E-04 4.9655E+01 2.0496E+02  0.00E+00  -9.4408E-02  2.0505E+02  2.0883E-06  2.0920E-06 -7.1181E+01  7.5650E+01
  6 1.2255E-04 4.8832E+01 2.0198E+02  0.00E+00  -3.1032E-02  2.0201E+02  2.0883E-06  2.0920E-06 -6.4750E+01  6.5819E+01
  7 1.4367E-04 4.8028E+01 1.9822E+02  0.00E+00   8.5090E-03  1.9821E+02  2.0883E-06  2.0920E-06 -5.6089E+01  5.6316E+01
  8 1.6821E-04 4.7246E+01 1.9427E+02  0.00E+00  -2.0378E-02  1.9429E+02  2.0883E-06  2.0920E-06 -4.8366E+01  4.7363E+01
  9 1.9670E-04 4.6485E+01 1.9062E+02  0.00E+00  -6.7384E-02  1.9069E+02  2.0883E-06  2.0920E-06 -4.0953E+01  3.9181E+01
 10 2.2972E-04 4.5744E+01 1.8756E+02  0.00E+00  -9.8608E-02  1.8766E+02  2.0883E-06  2.0920E-06 -3.4148E+01  3.1953E+01
 11 2.6796E-04 4.5019E+01 1.8526E+02  0.00E+00  -1.0808E-01  1.8537E+02  2.0883E-06  2.0920E-06 -2.8089E+01  2.5801E+01
 12 3.1216E-04 4.4307E+01 1.8375E+02  0.00E+00  -9.8672E-02  1.8384E+02  2.0883E-06  2.0920E-06 -2.2911E+01  2.0819E+01
 13 3.6320E-04 4.3606E+01 1.8294E+02  0.00E+00  -7.8711E-02  1.8302E+02  2.0883E-06  2.0920E-06 -1.9020E+01  1.7421E+01
 14 4.2206E-04 4.2912E+01 1.8268E+02  0.00E+00  -5.9575E-02  1.8274E+02  2.0883E-06  2.0920E-06 -1.6069E+01  1.5071E+01
 15 4.8984E-04 4.2224E+01 1.8279E+02  0.00E+00  -4.2853E-02  1.8283E+02  2.0883E-06  2.0920E-06 -1.4095E+01  1.3513E+01
 16 5.6779E-04 4.1542E+01 1.8311E+02  0.00E+00  -2.6498E-02  1.8314E+02  2.0883E-06  2.0920E-06 -1.2895E+01  1.2555E+01
 17 6.5733E-04 4.0863E+01 1.8355E+02  0.00E+00  -1.5243E-02  1.8357E+02  2.0883E-06  2.0920E-06 -1.2150E+01  1.2008E+01
 18 7.6003E-04 4.0189E+01 1.8405E+02  0.00E+00  -5.0322E-04  1.8406E+02  2.0883E-06  2.0920E-06 -1.1799E+01  1.1702E+01
 19 8.7768E-04 3.9519E+01 1.8457E+02  0.00E+00   1.0409E-02  1.8456E+02  2.0883E-06  2.0920E-06 -1.1339E+01  1.1503E+01
 20 1.0123E-03 3.8853E+01 1.8496E+02  0.00E+00  -3.3085E-02  1.8499E+02  2.0883E-06  2.0920E-06 -1.0961E+01  1.1484E+01
 21 1.1660E-03 3.8192E+01 1.8535E+02  0.00E+00  -5.1869E-02  1.8540E+02  2.0883E-06  2.0920E-06 -1.3594E+01  1.2613E+01
 22 1.3415E-03 3.7534E+01 1.8601E+02  0.00E+00  -3.6684E-02  1.8605E+02  2.0883E-06  2.0920E-06 -1.4728E+01  1.3369E+01
 23 1.5414E-03 3.6879E+01 1.8709E+02  0.00E+00  -2.2492E-02  1.8711E+02  2.0883E-06  2.0920E-06 -1.4677E+01  1.3647E+01
 24 1.7688E-03 3.6226E+01 1.8849E+02  0.00E+00  -5.4699E-03  1.8849E+02  2.0883E-06  2.0920E-06 -1.3771E+01  1.3454E+01
 25 2.0274E-03 3.5574E+01 1.9001E+02  0.00E+00   8.3809E-03  1.9000E+02  2.0883E-06  2.0920E-06 -1.2491E+01  1.2859E+01
 26 2.3207E-03 3.4923E+01 1.9144E+02  0.00E+00   1.9085E-02  1.9142E+02  2.0883E-06  2.0920E-06 -1.1321E+01  1.1970E+01
 27 2.6532E-03 3.4273E+01 1.9266E+02  0.00E+00   2.2938E-02  1.9264E+02  2.0883E-06  2.0920E-06 -1.0204E+01  1.0914E+01
 28 3.0295E-03 3.3626E+01 1.9364E+02  0.00E+00   1.8058E-02  1.9362E+02  2.0883E-06  2.0920E-06 -9.2584E+00  9.7983E+00
 29 3.4549E-03 3.2982E+01 1.9443E+02  0.00E+00   1.0723E-02  1.9442E+02  2.0883E-06  2.0920E-06 -8.4030E+00  8.6288E+00
 30 3.9351E-03 3.2341E+01 1.9513E+02  0.00E+00   6.9323E-03  1.9513E+02  2.0883E-06  2.0920E-06 -7.5821E+00  7.5474E+00
 31 4.4764E-03 3.1705E+01 1.9582E+02  0.00E+00   2.6554E-03  1.9582E+02  2.0883E-06  2.0920E-06 -6.6888E+00  6.6248E+00
 32 5.0858E-03 3.1072E+01 1.9652E+02  0.00E+00   6.9401E-04  1.9652E+02  2.0883E-06  2.0920E-06 -5.9440E+00  5.8637E+00
 33 5.7708E-03 3.0444E+01 1.9724E+02  0.00E+00   4.1689E-03  1.9723E+02  2.0883E-06  2.0920E-06 -5.2735E+00  5.2561E+00
 34 6.5400E-03 2.9819E+01 1.9795E+02  0.00E+00   7.3321E-03  1.9794E+02  2.0883E-06  2.0920E-06 -4.6459E+00  4.7819E+00
 35 7.4024E-03 2.9198E+01 1.9861E+02  0.00E+00   1.1405E-02  1.9860E+02  2.0883E-06  2.0920E-06 -4.1974E+00  4.4101E+00
 36 8.3681E-03 2.8582E+01 1.9919E+02  0.00E+00   1.7457E-02  1.9917E+02  2.0883E-06  2.0920E-06 -3.8114E+00  4.1056E+00
 37 9.4478E-03 2.7971E+01 1.9964E+02  0.00E+00   1.3407E-02  1.9963E+02  2.0883E-06  2.0920E-06 -3.4012E+00  3.8316E+00
 38 1.0654E-02 2.7364E+01 1.9996E+02  0.00E+00   2.1845E-03  1.9995E+02  2.0883E-06  2.0920E-06 -3.3270E+00  3.5801E+00
 39 1.1998E-02 2.6764E+01 2.0019E+02  0.00E+00  -2.6790E-03  2.0019E+02  2.0883E-06  2.0920E-06 -3.4107E+00  3.3184E+00
 40 1.3495E-02 2.6168E+01 2.0043E+02  0.00E+00  -5.0092E-03  2.0043E+02  2.0883E-06  2.0920E-06 -3.2638E+00  3.0404E+00
 41 1.5161E-02 2.5579E+01 2.0072E+02  0.00E+00  -9.5711E-03  2.0073E+02  2.0883E-06  2.0920E-06 -2.9995E+00  2.7621E+00
 42 1.7010E-02 2.4995E+01 2.0108E+02  0.00E+00  -9.5619E-03  2.0109E+02  2.0883E-06  2.0920E-06 -2.7607E+00  2.4956E+00
 43 1.9061E-02 2.4416E+01 2.0151E+02  0.00E+00  -9.6351E-03  2.0152E+02  2.0883E-06  2.0920E-06 -2.4057E+00  2.2518E+00
 44 2.1332E-02 2.3842E+01 2.0199E+02  0.00E+00  -8.4297E-03  2.0200E+02  2.0883E-06  2.0920E-06 -2.1879E+00  2.0381E+00
 45 2.3845E-02 2.3273E+01 2.0250E+02  0.00E+00  -7.6780E-03  2.0251E+02  2.0883E-06  2.0920E-06 -1.9480E+00  1.8576E+00
 46 2.6619E-02 2.2709E+01 2.0304E+02  0.00E+00  -5.7063E-03  2.0304E+02  2.0883E-06  2.0920E-06 -1.8273E+00  1.7092E+00
 47 2.9680E-02 2.2150E+01 2.0358E+02  0.00E+00  -3.8537E-03  2.0359E+02  2.0883E-06  2.0920E-06 -1.6553E+00  1.5881E+00
 48 3.3051E-02 2.1596E+01 2.0414E+02  0.00E+00  -7.7634E-04  2.0414E+02  2.0883E-06  2.0920E-06 -1.5412E+00  1.4863E+00
 49 3.6758E-02 2.1047E+01 2.0469E+02  0.00E+00   2.2760E-03  2.0469E+02  2.0883E-06  2.0920E-06 -1.3610E+00  1.3962E+00
 50 4.0831E-02 2.0503E+01 2.0522E+02  0.00E+00   5.9497E-03  2.0521E+02  2.0883E-06  2.0920E-06 -1.2245E+00  1.3124E+00
 51 4.5297E-02 1.9964E+01 2.0569E+02  0.00E+00   8.9688E-03  2.0568E+02  2.0883E-06  2.0920E-06 -1.0505E+00  1.2305E+00
 52 5.0190E-02 1.9430E+01 2.0608E+02  0.00E+00   1.1615E-02  2.0607E+02  2.0883E-06  2.0920E-06 -9.2905E-01  1.1477E+00
 53 5.5541E-02 1.8902E+01 2.0637E+02  0.00E+00   1.3452E-02  2.0636E+02  2.0883E-06  2.0920E-06 -7.9951E-01  1.0629E+00
 54 6.1385E-02 1.8380E+01 2.0656E+02  0.00E+00   1.3727E-02  2.0654E+02  2.0883E-06  2.0920E-06 -7.0185E-01  9.7557E-01
 55 6.7760E-02 1.7865E+01 2.0663E+02  0.00E+00   1.2932E-02  2.0661E+02  2.0883E-06  2.0920E-06 -6.2982E-01  8.8611E-01
 56 7.4703E-02 1.7356E+01 2.0659E+02  0.00E+00   1.1111E-02  2.0658E+02  2.0883E-06  2.0920E-06 -5.7755E-01  7.9520E-01
 57 8.2255E-02 1.6853E+01 2.0646E+02  0.00E+00   8.2821E-03  2.0645E+02  2.0883E-06  2.0920E-06 -5.4004E-01  7.0384E-01
 58 9.0456E-02 1.6358E+01 2.0625E+02  0.00E+00   5.6788E-03  2.0625E+02  2.0883E-06  2.0920E-06 -5.1408E-01  6.1315E-01
 59 9.9350E-02 1.5869E+01 2.0600E+02  0.00E+00   3.3598E-03  2.0600E+02  2.0883E-06  2.0920E-06 -4.7910E-01  5.2753E-01
 60 1.0898E-01 1.5388E+01 2.0573E+02  0.00E+00   3.7530E-04  2.0573E+02  2.0883E-06  2.0920E-06 -4.9802E-01  4.9959E-01
 61 1.1940E-01 1.4914E+01 2.0545E+02  0.00E+00  -2.5091E-03  2.0545E+02  2.0883E-06  2.0920E-06 -5.1335E-01  4.6879E-01
 62 1.3065E-01 1.4447E+01 2.0519E+02  0.00E+00  -4.2572E-03  2.0519E+02  2.0883E-06  2.0920E-06 -5.2049E-01  4.3345E-01
 63 1.4278E-01 1.3987E+01 2.0495E+02  0.00E+00  -5.8193E-03  2.0496E+02  2.0883E-06  2.0920E-06 -5.0469E-01  3.9785E-01
 64 1.5583E-01 1.3534E+01 2.0477E+02  0.00E+00  -6.9975E-03  2.0478E+02  2.0883E-06  2.0920E-06 -4.9549E-01  3.6520E-01
 65 1.6987E-01 1.3088E+01 2.0464E+02  0.00E+00  -7.4975E-03  2.0465E+02  2.0883E-06  2.0920E-06 -4.7939E-01  3.3716E-01
 66 1.8495E-01 1.2648E+01 2.0459E+02  0.00E+00  -7.5354E-03  2.0459E+02  2.0883E-06  2.0920E-06 -4.5731E-01  3.1405E-01
 67 2.0111E-01 1.2215E+01 2.0461E+02  0.00E+00  -7.1521E-03  2.0461E+02  2.0883E-06  2.0920E-06 -4.3044E-01  2.9536E-01
 68 2.1840E-01 1.1788E+01 2.0470E+02  0.00E+00  -6.4294E-03  2.0471E+02  2.0883E-06  2.0920E-06 -3.9990E-01  2.8014E-01
 69 2.3689E-01 1.1368E+01 2.0488E+02  0.00E+00  -5.5693E-03  2.0488E+02  2.0883E-06  2.0920E-06 -3.6682E-01  2.6735E-01
 70 2.5662E-01 1.0954E+01 2.0513E+02  0.00E+00  -4.2045E-03  2.0513E+02  2.0883E-06  2.0920E-06 -3.3772E-01  2.5605E-01
 71 2.7765E-01 1.0545E+01 2.0546E+02  0.00E+00  -2.4735E-03  2.0546E+02  2.0883E-06  2.0920E-06 -2.9706E-01  2.4548E-01
 72 3.0002E-01 1.0142E+01 2.0585E+02  0.00E+00  -3.4452E-04  2.0585E+02  2.0883E-06  2.0920E-06 -2.5475E-01  2.3523E-01
 73 3.2379E-01 9.7455E+00 2.0630E+02  0.00E+00   2.5061E-03  2.0630E+02  2.0883E-06  2.0920E-06 -2.0851E-01  2.2633E-01
 74 3.4900E-01 9.3542E+00 2.0681E+02  0.00E+00   7.6082E-03  2.0680E+02  2.1243E-06  2.1284E-06 -1.4794E-01  2.2001E-01
 75 3.7571E-01 8.9684E+00 2.0733E+02  0.00E+00   5.6467E-04  2.0733E+02  2.2685E-06  2.2737E-06 -8.3270E-02  2.1399E-01
 76 4.0395E-01 8.5880E+00 2.0808E+02  0.00E+00   1.2236E-02  2.0807E+02  2.5385E-06  2.5427E-06  3.3058E-03  2.0813E-01
 77 4.3378E-01 8.2127E+00 2.0904E+02  0.00E+00   1.0436E-02  2.0903E+02  2.9227E-06  2.9283E-06 -2.2546E-02  2.0289E-01
 78 4.6522E-01 7.8401E+00 2.1254E+02  0.00E+00  -2.9150E-03  2.1254E+02  4.7633E-06  4.7813E-06 -2.5333E-01  2.0296E-01
 79 4.9831E-01 7.4675E+00 2.1656E+02  0.00E+00  -1.8680E-02  2.1658E+02  8.1810E-06  8.2286E-06 -5.3141E-01  2.0861E-01
 80 5.3310E-01 7.0950E+00 2.2056E+02  0.00E+00  -3.2548E-02  2.2060E+02  1.3744E-05  1.3847E-05 -7.8217E-01  2.1974E-01
 81 5.6959E-01 6.7226E+00 2.2455E+02  0.00E+00  -4.3326E-02  2.2459E+02  2.2596E-05  2.2791E-05 -9.8556E-01  2.3689E-01
 82 6.0782E-01 6.3508E+00 2.2849E+02  0.00E+00  -5.1321E-02  2.2855E+02  3.6362E-05  3.6705E-05 -1.1488E+00  2.6201E-01
 83 6.4780E-01 5.9799E+00 2.3241E+02  0.00E+00  -5.0826E-02  2.3246E+02  5.7318E-05  5.7843E-05 -1.2725E+00  2.9683E-01
 84 6.8955E-01 5.6101E+00 2.3626E+02  1.00E+00  -4.9224E-02  2.3631E+02  8.8422E-05  8.9200E-05 -1.3338E+00  3.3565E-01
 85 7.3307E-01 5.2418E+00 2.4004E+02  1.00E+00  -4.6805E-02  2.4009E+02  1.3348E-04  1.3459E-04 -1.3214E+00  3.6548E-01
 86 7.7837E-01 4.8754E+00 2.4374E+02  1.00E+00  -4.3574E-02  2.4378E+02  1.9714E-04  1.9869E-04 -1.2614E+00  3.7885E-01
 87 8.2542E-01 4.5113E+00 2.4733E+02  1.00E+00  -3.9559E-02  2.4737E+02  2.8486E-04  2.8695E-04 -1.2108E+00  3.8454E-01
 88 8.7422E-01 4.1497E+00 2.5081E+02  1.00E+00  -3.4811E-02  2.5084E+02  4.0272E-04  4.0545E-04 -1.1698E+00  3.9935E-01
 89 9.2475E-01 3.7912E+00 2.5416E+02  1.00E+00  -2.9408E-02  2.5419E+02  5.5718E-04  5.6061E-04 -1.1904E+00  4.2675E-01
 90 9.7698E-01 3.4361E+00 2.5738E+02  1.00E+00  -2.3448E-02  2.5740E+02  7.5474E-04  7.5891E-04 -1.1225E+00  4.5602E-01
 91 1.0309E+00 3.0848E+00 2.6045E+02  1.00E+00  -1.7044E-02  2.6047E+02  1.0016E-03  1.0065E-03 -1.0634E+00  4.9725E-01
 92 1.0863E+00 2.7376E+00 2.6338E+02  1.00E+00  -1.0317E-02  2.6339E+02  1.3034E-03  1.3090E-03 -9.5578E-01  5.1284E-01
 93 1.1434E+00 2.3951E+00 2.6616E+02  1.00E+00  -3.3842E-03  2.6617E+02  1.6651E-03  1.6712E-03 -7.9752E-01  5.0844E-01
 94 1.2019E+00 2.0574E+00 2.6880E+02  1.00E+00   3.6390E-03  2.6880E+02  2.0906E-03  2.0969E-03 -6.4495E-01  5.0180E-01
 95 1.2619E+00 1.7250E+00 2.7130E+02  1.00E+00   1.0642E-02  2.7129E+02  2.5828E-03  2.5891E-03 -5.4850E-01  4.9925E-01
 96 1.3231E+00 1.3981E+00 2.7372E+02  1.00E+00   1.7512E-02  2.7370E+02  3.1645E-03  3.1706E-03 -4.9930E-01  5.0060E-01
 97 1.3857E+00 1.0769E+00 2.7615E+02  1.00E+00   2.4103E-02  2.7612E+02  3.7958E-03  3.8023E-03 -4.9922E-01  5.0246E-01
 98 1.4493E+00 7.6163E-01 2.7847E+02  1.00E+00   3.1443E-02  2.7844E+02  4.4292E-03  4.4329E-03 -5.1103E-01  5.0747E-01
 99 1.5140E+00 4.5257E-01 2.8069E+02  1.00E+00   3.7269E-02  2.8065E+02  5.2156E-03  5.2198E-03 -6.0800E-01  5.3083E-01
100 1.5795E+00 1.4995E-01 2.8280E+02  1.00E+00   4.2812E-02  2.8276E+02  5.9646E-03  5.9694E-03 -6.7354E-01  5.6325E-01
101 1.6129E+00 0.0000E+00 2.8384E+02  1.00E+00   4.7184E-02  2.8379E+02  6.4161E-03  6.4151E-03 -9.0391E-01  3.1587E+00

 FCO2
  2.83E-01 2.83E-01 2.83E-01 2.83E-01 2.83E-01 2.83E-01 2.83E-01 2.83E-01 2.83E-01 2.83E-01
  2.83E-01 2.83E-01 2.83E-01 2.83E-01 2.83E-01 2.83E-01 2.83E-01 2.83E-01 2.83E-01 2.83E-01
  2.83E-01 2.83E-01 2.83E-01 2.83E-01 2.83E-01 2.83E-01 2.83E-01 2.83E-01 2.83E-01 2.83E-01
  2.83E-01 2.83E-01 2.83E-01 2.83E-01 2.83E-01 2.83E-01 2.83E-01 2.83E-01 2.83E-01 2.83E-01
  2.83E-01 2.83E-01 2.83E-01 2.83E-01 2.83E-01 2.83E-01 2.83E-01 2.83E-01 2.83E-01 2.83E-01
  2.83E-01 2.83E-01 2.83E-01 2.83E-01 2.83E-01 2.83E-01 2.83E-01 2.83E-01 2.83E-01 2.83E-01
  2.83E-01 2.83E-01 2.83E-01 2.83E-01 2.83E-01 2.83E-01 2.83E-01 2.83E-01 2.83E-01 2.83E-01
  2.83E-01 2.83E-01 2.83E-01 2.83E-01 2.83E-01 2.83E-01 2.83E-01 2.83E-01 2.83E-01 2.83E-01
  2.83E-01 2.83E-01 2.83E-01 2.83E-01 2.83E-01 2.83E-01 2.83E-01 2.83E-01 2.83E-01 2.83E-01
  2.83E-01 2.83E-01 2.83E-01 2.83E-01 2.83E-01 2.83E-01 2.83E-01 2.83E-01 2.83E-01 2.83E-01
  2.83E-01

  J    PF         ALT       FTOTAL       FTIR       FDNIR       FUPIR       FTSOL       FDNSOL       FUPSOL       DIVF
  1 5.0000E-05 5.3118E+01  2.0246E+02 -1.6241E+05  0.0000E+00  1.6241E+05  1.6261E+05  3.2300E+05  1.6038E+05  1.2466E-03
  2 5.9020E-05 5.2217E+01  1.9795E+02 -1.6183E+05  4.7628E+02  1.6231E+05  1.6203E+05  3.2241E+05  1.6038E+05  1.2196E-03
  3 6.9580E-05 5.1348E+01  2.3150E+02 -1.6167E+05  5.8338E+02  1.6226E+05  1.6190E+05  3.2228E+05  1.6038E+05  1.4268E-03
  4 8.1927E-05 5.0495E+01  2.3520E+02 -1.6154E+05  6.7207E+02  1.6222E+05  1.6178E+05  3.2216E+05  1.6038E+05  1.4499E-03
  5 9.6343E-05 4.9655E+01  2.3111E+02 -1.6142E+05  7.4952E+02  1.6217E+05  1.6165E+05  3.2203E+05  1.6038E+05  1.4251E-03
  6 1.1315E-04 4.8832E+01  2.2313E+02 -1.6129E+05  8.1489E+02  1.6210E+05  1.6151E+05  3.2189E+05  1.6038E+05  1.3765E-03
  7 1.3273E-04 4.8028E+01  2.2091E+02 -1.6116E+05  8.7835E+02  1.6203E+05  1.6138E+05  3.2176E+05  1.6038E+05  1.3634E-03
  8 1.5551E-04 4.7246E+01  2.2036E+02 -1.6102E+05  9.4336E+02  1.6196E+05  1.6124E+05  3.2162E+05  1.6038E+05  1.3606E-03
  9 1.8195E-04 4.6485E+01  2.2316E+02 -1.6088E+05  1.0158E+03  1.6190E+05  1.6111E+05  3.2149E+05  1.6038E+05  1.3784E-03
 10 2.1264E-04 4.5744E+01  2.2890E+02 -1.6075E+05  1.0982E+03  1.6185E+05  1.6098E+05  3.2136E+05  1.6038E+05  1.4142E-03
 11 2.4818E-04 4.5019E+01  2.3711E+02 -1.6062E+05  1.1913E+03  1.6182E+05  1.6086E+05  3.2124E+05  1.6038E+05  1.4653E-03
 12 2.8930E-04 4.4307E+01  2.4701E+02 -1.6050E+05  1.2943E+03  1.6180E+05  1.6075E+05  3.2113E+05  1.6038E+05  1.5267E-03
 13 3.3682E-04 4.3606E+01  2.5745E+02 -1.6039E+05  1.4055E+03  1.6179E+05  1.6065E+05  3.2102E+05  1.6038E+05  1.5912E-03
 14 3.9165E-04 4.2912E+01  2.6667E+02 -1.6028E+05  1.5246E+03  1.6180E+05  1.6055E+05  3.2092E+05  1.6037E+05  1.6481E-03
 15 4.5483E-04 4.2224E+01  2.7329E+02 -1.6017E+05  1.6508E+03  1.6182E+05  1.6045E+05  3.2082E+05  1.6037E+05  1.6888E-03
 16 5.2754E-04 4.1542E+01  2.7774E+02 -1.6006E+05  1.7856E+03  1.6185E+05  1.6034E+05  3.2072E+05  1.6037E+05  1.7160E-03
 17 6.1111E-04 4.0863E+01  2.8072E+02 -1.5995E+05  1.9320E+03  1.6188E+05  1.6023E+05  3.2060E+05  1.6037E+05  1.7341E-03
 18 7.0704E-04 4.0189E+01  2.8216E+02 -1.5983E+05  2.0920E+03  1.6192E+05  1.6011E+05  3.2048E+05  1.6037E+05  1.7426E-03
 19 8.1699E-04 3.9519E+01  2.8328E+02 -1.5969E+05  2.2692E+03  1.6196E+05  1.5998E+05  3.2035E+05  1.6037E+05  1.7490E-03
 20 9.4287E-04 3.8853E+01  2.8110E+02 -1.5954E+05  2.4625E+03  1.6201E+05  1.5982E+05  3.2019E+05  1.6037E+05  1.7352E-03
 21 1.0868E-03 3.8192E+01  2.7319E+02 -1.5938E+05  2.6784E+03  1.6206E+05  1.5965E+05  3.2002E+05  1.6037E+05  1.6858E-03
 22 1.2511E-03 3.7534E+01  2.9014E+02 -1.5914E+05  2.9948E+03  1.6214E+05  1.5943E+05  3.1980E+05  1.6037E+05  1.7895E-03
 23 1.4384E-03 3.6879E+01  3.1693E+02 -1.5885E+05  3.4049E+03  1.6226E+05  1.5917E+05  3.1953E+05  1.6037E+05  1.9533E-03
 24 1.6517E-03 3.6226E+01  3.4007E+02 -1.5852E+05  3.8865E+03  1.6241E+05  1.5886E+05  3.1923E+05  1.6037E+05  2.0939E-03
 25 1.8943E-03 3.5574E+01  3.4818E+02 -1.5817E+05  4.4077E+03  1.6258E+05  1.5852E+05  3.1888E+05  1.6037E+05  2.1416E-03
 26 2.1698E-03 3.4923E+01  3.3749E+02 -1.5781E+05  4.9403E+03  1.6275E+05  1.5814E+05  3.1851E+05  1.6037E+05  2.0737E-03
 27 2.4822E-03 3.4273E+01  3.1611E+02 -1.5743E+05  5.4731E+03  1.6291E+05  1.5775E+05  3.1812E+05  1.6037E+05  1.9405E-03
 28 2.8360E-03 3.3626E+01  2.8960E+02 -1.5705E+05  5.9995E+03  1.6305E+05  1.5734E+05  3.1772E+05  1.6038E+05  1.7761E-03
 29 3.2363E-03 3.2982E+01  2.6678E+02 -1.5666E+05  6.5259E+03  1.6319E+05  1.5693E+05  3.1731E+05  1.6038E+05  1.6348E-03
 30 3.6884E-03 3.2341E+01  2.5600E+02 -1.5626E+05  7.0609E+03  1.6332E+05  1.5652E+05  3.1691E+05  1.6039E+05  1.5674E-03
 31 4.1983E-03 3.1705E+01  2.5786E+02 -1.5585E+05  7.6088E+03  1.6346E+05  1.5611E+05  3.1651E+05  1.6040E+05  1.5775E-03
 32 4.7729E-03 3.1072E+01  2.6175E+02 -1.5545E+05  8.1610E+03  1.6361E+05  1.5571E+05  3.1612E+05  1.6041E+05  1.5999E-03
 33 5.4192E-03 3.0444E+01  2.6724E+02 -1.5504E+05  8.7191E+03  1.6376E+05  1.5531E+05  3.1573E+05  1.6042E+05  1.6319E-03
 34 6.1453E-03 2.9819E+01  2.6858E+02 -1.5463E+05  9.2768E+03  1.6391E+05  1.5490E+05  3.1534E+05  1.6043E+05  1.6386E-03
 35 6.9601E-03 2.9198E+01  2.5685E+02 -1.5423E+05  9.8223E+03  1.6406E+05  1.5449E+05  3.1494E+05  1.6045E+05  1.5656E-03
 36 7.8729E-03 2.8582E+01  2.3629E+02 -1.5383E+05  1.0359E+04  1.6419E+05  1.5406E+05  3.1454E+05  1.6047E+05  1.4392E-03
 37 8.8944E-03 2.7971E+01  2.0448E+02 -1.5342E+05  1.0883E+04  1.6430E+05  1.5362E+05  3.1412E+05  1.6049E+05  1.2446E-03
 38 1.0036E-02 2.7364E+01  1.5246E+02 -1.5301E+05  1.1385E+04  1.6439E+05  1.5316E+05  3.1368E+05  1.6052E+05  9.2745E-04
 39 1.1309E-02 2.6764E+01  1.1832E+02 -1.5256E+05  1.1918E+04  1.6447E+05  1.5267E+05  3.1323E+05  1.6055E+05  7.1941E-04
 40 1.2729E-02 2.6168E+01  1.3220E+02 -1.5204E+05  1.2529E+04  1.6457E+05  1.5218E+05  3.1276E+05  1.6058E+05  8.0327E-04
 41 1.4308E-02 2.5579E+01  1.6958E+02 -1.5150E+05  1.3199E+04  1.6470E+05  1.5167E+05  3.1228E+05  1.6061E+05  1.0297E-03
 42 1.6064E-02 2.4995E+01  2.1374E+02 -1.5094E+05  1.3907E+04  1.6485E+05  1.5115E+05  3.1180E+05  1.6065E+05  1.2966E-03
 43 1.8012E-02 2.4416E+01  2.6846E+02 -1.5037E+05  1.4656E+04  1.6503E+05  1.5064E+05  3.1132E+05  1.6068E+05  1.6268E-03
 44 2.0171E-02 2.3842E+01  3.0369E+02 -1.4982E+05  1.5408E+04  1.6523E+05  1.5012E+05  3.1084E+05  1.6071E+05  1.8380E-03
 45 2.2561E-02 2.3273E+01  3.4164E+02 -1.4926E+05  1.6186E+04  1.6545E+05  1.4961E+05  3.1035E+05  1.6075E+05  2.0649E-03
 46 2.5202E-02 2.2709E+01  3.6696E+02 -1.4872E+05  1.6969E+04  1.6569E+05  1.4909E+05  3.0986E+05  1.6078E+05  2.2148E-03
 47 2.8117E-02 2.2150E+01  4.0345E+02 -1.4815E+05  1.7788E+04  1.6594E+05  1.4856E+05  3.0937E+05  1.6081E+05  2.4313E-03
 48 3.1330E-02 2.1596E+01  4.2636E+02 -1.4759E+05  1.8614E+04  1.6620E+05  1.4802E+05  3.0885E+05  1.6084E+05  2.5653E-03
 49 3.4866E-02 2.1047E+01  4.4695E+02 -1.4701E+05  1.9461E+04  1.6647E+05  1.4746E+05  3.0832E+05  1.6086E+05  2.6849E-03
 50 3.8753E-02 2.0503E+01  4.3244E+02 -1.4645E+05  2.0283E+04  1.6673E+05  1.4688E+05  3.0777E+05  1.6089E+05  2.5936E-03
 51 4.3019E-02 1.9964E+01  3.9263E+02 -1.4589E+05  2.1084E+04  1.6698E+05  1.4629E+05  3.0719E+05  1.6090E+05  2.3514E-03
 52 4.7696E-02 1.9430E+01  3.0321E+02 -1.4537E+05  2.1825E+04  1.6720E+05  1.4568E+05  3.0659E+05  1.6092E+05  1.8135E-03
 53 5.2814E-02 1.8902E+01  1.8430E+02 -1.4487E+05  2.2517E+04  1.6738E+05  1.4505E+05  3.0597E+05  1.6092E+05  1.1011E-03
 54 5.8408E-02 1.8380E+01  2.7748E+01 -1.4439E+05  2.3139E+04  1.6753E+05  1.4442E+05  3.0534E+05  1.6092E+05  1.6563E-04
 55 6.4514E-02 1.7865E+01 -1.4985E+02 -1.4394E+05  2.3701E+04  1.6764E+05  1.4379E+05  3.0469E+05  1.6090E+05 -8.9391E-04
 56 7.1169E-02 1.7356E+01 -3.3111E+02 -1.4349E+05  2.4216E+04  1.6771E+05  1.4316E+05  3.0404E+05  1.6088E+05 -1.9743E-03
 57 7.8413E-02 1.6853E+01 -4.9864E+02 -1.4305E+05  2.4699E+04  1.6775E+05  1.4255E+05  3.0338E+05  1.6084E+05 -2.9726E-03
 58 8.6285E-02 1.6358E+01 -6.3567E+02 -1.4259E+05  2.5167E+04  1.6776E+05  1.4196E+05  3.0274E+05  1.6078E+05 -3.7891E-03
 59 9.4828E-02 1.5869E+01 -7.2560E+02 -1.4213E+05  2.5635E+04  1.6776E+05  1.4140E+05  3.0211E+05  1.6071E+05 -4.3252E-03
 60 1.0409E-01 1.5388E+01 -7.7325E+02 -1.4166E+05  2.6102E+04  1.6776E+05  1.4088E+05  3.0150E+05  1.6061E+05 -4.6093E-03
 61 1.1411E-01 1.4914E+01 -7.7492E+02 -1.4113E+05  2.6649E+04  1.6778E+05  1.4035E+05  3.0086E+05  1.6051E+05 -4.6188E-03
 62 1.2494E-01 1.4447E+01 -7.2368E+02 -1.4054E+05  2.7290E+04  1.6783E+05  1.3981E+05  3.0021E+05  1.6039E+05 -4.3121E-03
 63 1.3662E-01 1.3987E+01 -6.1569E+02 -1.3989E+05  2.8035E+04  1.6793E+05  1.3928E+05  2.9954E+05  1.6027E+05 -3.6664E-03
 64 1.4921E-01 1.3534E+01 -4.7287E+02 -1.3922E+05  2.8860E+04  1.6808E+05  1.3874E+05  2.9888E+05  1.6013E+05 -2.8134E-03
 65 1.6275E-01 1.3088E+01 -2.8549E+02 -1.3850E+05  2.9790E+04  1.6829E+05  1.3822E+05  2.9820E+05  1.5998E+05 -1.6964E-03
 66 1.7731E-01 1.2648E+01 -6.5728E+01 -1.3776E+05  3.0825E+04  1.6859E+05  1.3770E+05  2.9752E+05  1.5982E+05 -3.8987E-04
 67 1.9292E-01 1.2215E+01  1.7173E+02 -1.3700E+05  3.1962E+04  1.6897E+05  1.3718E+05  2.9683E+05  1.5965E+05  1.0163E-03
 68 2.0964E-01 1.1788E+01  4.1157E+02 -1.3624E+05  3.3195E+04  1.6944E+05  1.3665E+05  2.9611E+05  1.5946E+05  2.4291E-03
 69 2.2753E-01 1.1368E+01  6.3902E+02 -1.3548E+05  3.4519E+04  1.7000E+05  1.3612E+05  2.9538E+05  1.5926E+05  3.7590E-03
 70 2.4664E-01 1.0954E+01  8.4080E+02 -1.3474E+05  3.5929E+04  1.7067E+05  1.3558E+05  2.9461E+05  1.5904E+05  4.9266E-03
 71 2.6701E-01 1.0545E+01  1.0175E+03 -1.3401E+05  3.7457E+04  1.7146E+05  1.3502E+05  2.9382E+05  1.5880E+05  5.9342E-03
 72 2.8871E-01 1.0142E+01  1.1364E+03 -1.3332E+05  3.9058E+04  1.7238E+05  1.3446E+05  2.9300E+05  1.5854E+05  6.5923E-03
 73 3.1178E-01 9.7455E+00  1.1842E+03 -1.3270E+05  4.0726E+04  1.7342E+05  1.3388E+05  2.9215E+05  1.5827E+05  6.8285E-03
 74 3.3627E-01 9.3542E+00  1.1378E+03 -1.3215E+05  4.2494E+04  1.7465E+05  1.3329E+05  2.9127E+05  1.5798E+05  6.5150E-03
 75 3.6222E-01 8.9684E+00  9.3899E+02 -1.3175E+05  4.4319E+04  1.7607E+05  1.3269E+05  2.9036E+05  1.5768E+05  5.3332E-03
 76 3.8970E-01 8.5880E+00  5.5721E+02 -1.3150E+05  4.6362E+04  1.7787E+05  1.3206E+05  2.8942E+05  1.5736E+05  3.1327E-03
 77 4.1873E-01 8.2127E+00 -9.5599E+01 -1.3151E+05  4.8676E+04  1.8019E+05  1.3142E+05  2.8844E+05  1.5702E+05 -5.3055E-04
 78 4.4936E-01 7.8401E+00 -6.8336E+02 -1.3144E+05  5.2633E+04  1.8407E+05  1.3076E+05  2.8743E+05  1.5667E+05 -3.7125E-03
 79 4.8163E-01 7.4675E+00 -5.1012E+02 -1.3057E+05  5.8094E+04  1.8866E+05  1.3006E+05  2.8636E+05  1.5630E+05 -2.7039E-03
 80 5.1557E-01 7.0950E+00  6.5991E+02 -1.2864E+05  6.5126E+04  1.9377E+05  1.2930E+05  2.8523E+05  1.5592E+05  3.4056E-03
 81 5.5121E-01 6.7226E+00  2.8050E+03 -1.2566E+05  7.3740E+04  1.9940E+05  1.2846E+05  2.8399E+05  1.5553E+05  1.4067E-02
 82 5.8858E-01 6.3508E+00  5.8045E+03 -1.2171E+05  8.3848E+04  2.0556E+05  1.2752E+05  2.8263E+05  1.5512E+05  2.8238E-02
 83 6.2769E-01 5.9799E+00  9.5310E+03 -1.1688E+05  9.5355E+04  2.1224E+05  1.2641E+05  2.8111E+05  1.5469E+05  4.4907E-02
 84 6.6856E-01 5.6101E+00  1.3824E+04 -1.1129E+05  1.0813E+05  2.1942E+05  1.2511E+05  2.7936E+05  1.5425E+05  6.3001E-02
 85 7.1120E-01 5.2418E+00  1.8414E+04 -1.0515E+05  1.2192E+05  2.2707E+05  1.2356E+05  2.7737E+05  1.5380E+05  8.1096E-02
 86 7.5562E-01 4.8754E+00  2.3002E+04 -9.8809E+04  1.3633E+05  2.3514E+05  1.2181E+05  2.7515E+05  1.5334E+05  9.7823E-02
 87 8.0180E-01 4.5113E+00  2.7415E+04 -9.2502E+04  1.5102E+05  2.4352E+05  1.1992E+05  2.7279E+05  1.5287E+05  1.1258E-01
 88 8.4974E-01 4.1497E+00  3.1711E+04 -8.6207E+04  1.6596E+05  2.5217E+05  1.1792E+05  2.7032E+05  1.5240E+05  1.2575E-01
 89 8.9942E-01 3.7912E+00  3.5869E+04 -7.9893E+04  1.8099E+05  2.6089E+05  1.1576E+05  2.6769E+05  1.5193E+05  1.3749E-01
 90 9.5080E-01 3.4361E+00  4.0140E+04 -7.3235E+04  1.9674E+05  2.6997E+05  1.1337E+05  2.6483E+05  1.5145E+05  1.4868E-01
 91 1.0039E+00 3.0848E+00  4.3996E+04 -6.6741E+04  2.1244E+05  2.7919E+05  1.1074E+05  2.6173E+05  1.5099E+05  1.5759E-01
 92 1.0586E+00 2.7376E+00  4.7377E+04 -6.0390E+04  2.2811E+05  2.8850E+05  1.0777E+05  2.5831E+05  1.5055E+05  1.6422E-01
 93 1.1149E+00 2.3951E+00  5.0103E+04 -5.4508E+04  2.4336E+05  2.9787E+05  1.0461E+05  2.5474E+05  1.5013E+05  1.6821E-01
 94 1.1727E+00 2.0574E+00  5.1933E+04 -4.9461E+04  2.5779E+05  3.0725E+05  1.0139E+05  2.5115E+05  1.4976E+05  1.6903E-01
 95 1.2319E+00 1.7250E+00  5.2863E+04 -4.5271E+04  2.7125E+05  3.1652E+05  9.8133E+04  2.4758E+05  1.4945E+05  1.6701E-01
 96 1.2925E+00 1.3981E+00  5.3190E+04 -4.1620E+04  2.8428E+05  3.2590E+05  9.4810E+04  2.4402E+05  1.4921E+05  1.6321E-01
 97 1.3545E+00 1.0769E+00  5.3181E+04 -3.8222E+04  2.9725E+05  3.3547E+05  9.1404E+04  2.4048E+05  1.4907E+05  1.5853E-01
 98 1.4176E+00 7.6163E-01  5.3159E+04 -3.4756E+04  3.1009E+05  3.4485E+05  8.7915E+04  2.3699E+05  1.4907E+05  1.5415E-01
 99 1.4817E+00 4.5257E-01  5.3184E+04 -3.1142E+04  3.2274E+05  3.5388E+05  8.4326E+04  2.3356E+05  1.4923E+05  1.5029E-01
100 1.5469E+00 1.4995E-01  5.3739E+04 -2.6773E+04  3.3525E+05  3.6202E+05  8.0512E+04  2.3014E+05  1.4962E+05  1.4844E-01
101 1.6129E+00 0.0000E+00  5.4542E+04 -2.1865E+04  3.4397E+05  3.6583E+05  7.6408E+04  2.2673E+05  1.5032E+05  1.4909E-01
 
 NST=     2 JCONV= 82 CHG=2.72E-03 dt0=1.00E+04 DIVF(1)= 1.12E-03 DIVFrms= 2.99E-03 DT(ND)= 4.89E-02 T(ND)=2.8389E+02
 NST=     3 JCONV= 82 CHG=2.18E-03 dt0=1.00E+04 DIVF(1)= 1.18E-03 DIVFrms= 2.99E-03 DT(ND)= 5.11E-02 T(ND)=2.8394E+02
 NST=     4 JCONV= 81 CHG=9.05E-04 dt0=1.00E+04 DIVF(1)= 1.35E-03 DIVFrms= 2.63E-03 DT(ND)= 3.29E-02 T(ND)=2.8397E+02
 NST=     5 JCONV= 81 CHG=5.91E-04 dt0=1.00E+04 DIVF(1)= 1.46E-03 DIVFrms= 2.66E-03 DT(ND)= 2.20E-02 T(ND)=2.8399E+02
 NST=     6 JCONV= 81 CHG=4.71E-04 dt0=1.00E+04 DIVF(1)= 1.54E-03 DIVFrms= 2.68E-03 DT(ND)= 1.50E-02 T(ND)=2.8401E+02
 NST=     7 JCONV= 81 CHG=4.04E-04 dt0=1.00E+04 DIVF(1)= 1.60E-03 DIVFrms= 2.69E-03 DT(ND)= 1.04E-02 T(ND)=2.8402E+02
 NST=     8 JCONV= 81 CHG=3.27E-04 dt0=1.00E+04 DIVF(1)= 1.30E-03 DIVFrms= 2.42E-03 DT(ND)= 7.21E-03 T(ND)=2.8402E+02
 NST=     9 JCONV= 80 CHG=2.78E-04 dt0=1.00E+04 DIVF(1)= 1.68E-03 DIVFrms= 2.68E-03 DT(ND)= 5.03E-03 T(ND)=2.8403E+02
 NST=    10 JCONV= 80 CHG=2.31E-04 dt0=1.00E+04 DIVF(1)= 1.36E-03 DIVFrms= 2.40E-03 DT(ND)= 3.54E-03 T(ND)=2.8403E+02
 NST=    11 JCONV= 80 CHG=2.02E-04 dt0=1.00E+04 DIVF(1)= 1.73E-03 DIVFrms= 2.68E-03 DT(ND)= 2.53E-03 T(ND)=2.8404E+02
 NST=    12 JCONV= 80 CHG=1.75E-04 dt0=1.00E+04 DIVF(1)= 1.40E-03 DIVFrms= 2.39E-03 DT(ND)= 1.80E-03 T(ND)=2.8404E+02
 NST=    13 JCONV= 80 CHG=1.54E-04 dt0=1.00E+04 DIVF(1)= 1.41E-03 DIVFrms= 2.38E-03 DT(ND)= 1.23E-03 T(ND)=2.8404E+02
 NST=    14 JCONV= 80 CHG=1.38E-04 dt0=1.00E+04 DIVF(1)= 1.78E-03 DIVFrms= 2.67E-03 DT(ND)= 7.94E-04 T(ND)=2.8404E+02
 NST=    15 JCONV= 80 CHG=1.26E-04 dt0=1.00E+04 DIVF(1)= 1.43E-03 DIVFrms= 2.36E-03 DT(ND)= 4.84E-04 T(ND)=2.8404E+02
 NST=    16 JCONV= 80 CHG=1.24E-04 dt0=1.00E+04 DIVF(1)= 1.44E-03 DIVFrms= 2.35E-03 DT(ND)= 2.70E-04 T(ND)=2.8404E+02
 NST=    17 JCONV= 80 CHG=1.18E-04 dt0=1.00E+04 DIVF(1)= 1.45E-03 DIVFrms= 2.34E-03 DT(ND)= 1.15E-04 T(ND)=2.8404E+02
 NST=    18 JCONV= 80 CHG=1.17E-04 dt0=1.00E+04 DIVF(1)= 1.46E-03 DIVFrms= 2.33E-03 DT(ND)= 4.65E-06 T(ND)=2.8404E+02
 NST=    19 JCONV= 80 CHG=1.12E-04 dt0=1.00E+04 DIVF(1)= 1.37E-03 DIVFrms= 2.27E-03 DT(ND)=-7.34E-05 T(ND)=2.8404E+02
 NST=    20 JCONV= 80 CHG=1.11E-04 dt0=1.00E+04 DIVF(1)= 1.37E-03 DIVFrms= 2.26E-03 DT(ND)=-1.28E-04 T(ND)=2.8404E+02
 NST=    21 JCONV= 80 CHG=1.12E-04 dt0=1.00E+04 DIVF(1)= 1.38E-03 DIVFrms= 2.24E-03 DT(ND)=-1.65E-04 T(ND)=2.8404E+02
 NST=    22 JCONV= 80 CHG=1.11E-04 dt0=1.00E+04 DIVF(1)= 1.39E-03 DIVFrms= 2.23E-03 DT(ND)=-1.90E-04 T(ND)=2.8404E+02
 NST=    23 JCONV= 80 CHG=1.10E-04 dt0=1.00E+04 DIVF(1)= 1.39E-03 DIVFrms= 2.22E-03 DT(ND)=-2.06E-04 T(ND)=2.8404E+02
 NST=    24 JCONV= 80 CHG=1.08E-04 dt0=1.00E+04 DIVF(1)= 1.39E-03 DIVFrms= 2.21E-03 DT(ND)=-2.17E-04 T(ND)=2.8404E+02
 NST=    25 JCONV= 80 CHG=1.07E-04 dt0=1.00E+04 DIVF(1)= 1.39E-03 DIVFrms= 2.20E-03 DT(ND)=-2.23E-04 T(ND)=2.8404E+02
 NST=    26 JCONV= 80 CHG=1.06E-04 dt0=1.00E+04 DIVF(1)= 1.39E-03 DIVFrms= 2.19E-03 DT(ND)=-2.26E-04 T(ND)=2.8404E+02
 NST=    27 JCONV= 80 CHG=1.05E-04 dt0=1.00E+04 DIVF(1)= 1.36E-03 DIVFrms= 2.18E-03 DT(ND)=-2.28E-04 T(ND)=2.8404E+02
 NST=    28 JCONV= 80 CHG=1.03E-04 dt0=1.00E+04 DIVF(1)= 1.36E-03 DIVFrms= 2.17E-03 DT(ND)=-2.29E-04 T(ND)=2.8404E+02
 NST=    29 JCONV= 80 CHG=1.02E-04 dt0=1.00E+04 DIVF(1)= 1.37E-03 DIVFrms= 2.15E-03 DT(ND)=-2.29E-04 T(ND)=2.8404E+02
 NST=    30 JCONV= 80 CHG=1.00E-04 dt0=1.00E+04 DIVF(1)= 1.37E-03 DIVFrms= 2.14E-03 DT(ND)=-2.28E-04 T(ND)=2.8404E+02
 NST=    31 JCONV= 80 CHG=1.06E-04 dt0=1.00E+04 DIVF(1)= 1.06E-03 DIVFrms= 2.11E-03 DT(ND)=-2.26E-04 T(ND)=2.8404E+02
 NST=    32 JCONV= 80 CHG=9.82E-05 dt0=1.00E+04 DIVF(1)= 1.36E-03 DIVFrms= 2.12E-03 DT(ND)=-2.30E-04 T(ND)=2.8404E+02
 NST=    33 JCONV= 80 CHG=1.04E-04 dt0=1.00E+04 DIVF(1)= 1.06E-03 DIVFrms= 2.09E-03 DT(ND)=-2.36E-04 T(ND)=2.8404E+02
 NST=    34 JCONV= 80 CHG=9.77E-05 dt0=1.00E+04 DIVF(1)= 1.36E-03 DIVFrms= 2.10E-03 DT(ND)=-2.40E-04 T(ND)=2.8404E+02
 NST=    35 JCONV= 80 CHG=1.02E-04 dt0=1.00E+04 DIVF(1)= 1.06E-03 DIVFrms= 2.06E-03 DT(ND)=-2.42E-04 T(ND)=2.8404E+02
 NST=    36 JCONV= 80 CHG=9.41E-05 dt0=1.00E+04 DIVF(1)= 1.36E-03 DIVFrms= 2.08E-03 DT(ND)=-2.43E-04 T(ND)=2.8404E+02
 NST=    37 JCONV= 80 CHG=9.95E-05 dt0=1.00E+04 DIVF(1)= 1.05E-03 DIVFrms= 2.04E-03 DT(ND)=-2.43E-04 T(ND)=2.8404E+02
 NST=    38 JCONV= 80 CHG=9.15E-05 dt0=1.00E+04 DIVF(1)= 1.35E-03 DIVFrms= 2.06E-03 DT(ND)=-2.42E-04 T(ND)=2.8404E+02
 NST=    39 JCONV= 80 CHG=9.72E-05 dt0=1.00E+04 DIVF(1)= 1.04E-03 DIVFrms= 2.02E-03 DT(ND)=-2.41E-04 T(ND)=2.8404E+02
 NST=    40 JCONV= 80 CHG=9.60E-05 dt0=1.00E+04 DIVF(1)= 1.04E-03 DIVFrms= 2.01E-03 DT(ND)=-2.39E-04 T(ND)=2.8404E+02
 NST=    41 JCONV= 80 CHG=8.83E-05 dt0=1.00E+04 DIVF(1)= 1.33E-03 DIVFrms= 2.03E-03 DT(ND)=-2.43E-04 T(ND)=2.8404E+02
 NST=    42 JCONV= 80 CHG=9.42E-05 dt0=1.00E+04 DIVF(1)= 1.03E-03 DIVFrms= 2.00E-03 DT(ND)=-2.43E-04 T(ND)=2.8403E+02
 NST=    43 JCONV= 80 CHG=9.32E-05 dt0=1.00E+04 DIVF(1)= 1.02E-03 DIVFrms= 1.99E-03 DT(ND)=-2.39E-04 T(ND)=2.8403E+02
 NST=    44 JCONV= 80 CHG=8.57E-05 dt0=1.00E+04 DIVF(1)= 1.32E-03 DIVFrms= 2.00E-03 DT(ND)=-2.42E-04 T(ND)=2.8403E+02
 NST=    45 JCONV= 80 CHG=9.16E-05 dt0=1.00E+04 DIVF(1)= 1.01E-03 DIVFrms= 1.97E-03 DT(ND)=-2.41E-04 T(ND)=2.8403E+02
 NST=    46 JCONV= 80 CHG=9.07E-05 dt0=1.00E+04 DIVF(1)= 9.45E-04 DIVFrms= 1.96E-03 DT(ND)=-2.36E-04 T(ND)=2.8403E+02
 NST=    47 JCONV= 80 CHG=8.99E-05 dt0=1.00E+04 DIVF(1)= 9.42E-04 DIVFrms= 1.95E-03 DT(ND)=-2.38E-04 T(ND)=2.8403E+02
 NST=    48 JCONV= 80 CHG=8.27E-05 dt0=1.00E+04 DIVF(1)= 1.24E-03 DIVFrms= 1.94E-03 DT(ND)=-2.43E-04 T(ND)=2.8403E+02
 NST=    49 JCONV= 80 CHG=8.86E-05 dt0=1.00E+04 DIVF(1)= 9.24E-04 DIVFrms= 1.94E-03 DT(ND)=-2.41E-04 T(ND)=2.8403E+02
 NST=    50 JCONV= 80 CHG=8.78E-05 dt0=1.00E+04 DIVF(1)= 8.53E-04 DIVFrms= 1.93E-03 DT(ND)=-2.36E-04 T(ND)=2.8403E+02
 NST=    51 JCONV= 80 CHG=8.71E-05 dt0=1.00E+04 DIVF(1)= 8.46E-04 DIVFrms= 1.92E-03 DT(ND)=-2.37E-04 T(ND)=2.8403E+02
 NST=    52 JCONV= 80 CHG=8.63E-05 dt0=1.00E+04 DIVF(1)= 8.40E-04 DIVFrms= 1.91E-03 DT(ND)=-2.41E-04 T(ND)=2.8403E+02
 NST=    53 JCONV= 80 CHG=8.70E-05 dt0=1.00E+04 DIVF(1)= 8.38E-04 DIVFrms= 1.89E-03 DT(ND)=-2.44E-04 T(ND)=2.8403E+02
 NST=    54 JCONV= 80 CHG=8.63E-05 dt0=1.00E+04 DIVF(1)= 7.75E-04 DIVFrms= 1.89E-03 DT(ND)=-2.47E-04 T(ND)=2.8403E+02
 NST=    55 JCONV= 80 CHG=1.47E-04 dt0=1.00E+04 DIVF(1)= 7.67E-04 DIVFrms= 1.88E-03 DT(ND)=-2.48E-04 T(ND)=2.8403E+02
 NST=    56 JCONV= 80 CHG=8.11E-05 dt0=1.00E+04 DIVF(1)= 1.07E-03 DIVFrms= 1.81E-03 DT(ND)=-2.49E-04 T(ND)=2.8403E+02
 NST=    57 JCONV= 80 CHG=8.40E-05 dt0=1.00E+04 DIVF(1)= 7.46E-04 DIVFrms= 1.87E-03 DT(ND)=-2.44E-04 T(ND)=2.8403E+02
 NST=    58 JCONV= 80 CHG=8.30E-05 dt0=1.00E+04 DIVF(1)= 7.49E-04 DIVFrms= 1.86E-03 DT(ND)=-2.35E-04 T(ND)=2.8403E+02
 NST=    59 JCONV= 80 CHG=8.21E-05 dt0=1.00E+04 DIVF(1)= 8.87E-04 DIVFrms= 1.85E-03 DT(ND)=-2.32E-04 T(ND)=2.8403E+02
 NST=    60 JCONV= 80 CHG=8.14E-05 dt0=1.00E+04 DIVF(1)= 8.80E-04 DIVFrms= 1.84E-03 DT(ND)=-2.31E-04 T(ND)=2.8403E+02
 NST=    61 JCONV= 80 CHG=8.05E-05 dt0=1.00E+04 DIVF(1)= 1.02E-03 DIVFrms= 1.84E-03 DT(ND)=-2.27E-04 T(ND)=2.8403E+02
 NST=    62 JCONV= 80 CHG=7.98E-05 dt0=1.00E+04 DIVF(1)= 1.02E-03 DIVFrms= 1.83E-03 DT(ND)=-2.22E-04 T(ND)=2.8403E+02
 NST=    63 JCONV= 80 CHG=7.97E-05 dt0=1.00E+04 DIVF(1)= 1.02E-03 DIVFrms= 1.82E-03 DT(ND)=-2.16E-04 T(ND)=2.8403E+02
 NST=    64 JCONV= 80 CHG=7.91E-05 dt0=1.00E+04 DIVF(1)= 1.01E-03 DIVFrms= 1.81E-03 DT(ND)=-2.11E-04 T(ND)=2.8403E+02
 NST=    65 JCONV= 80 CHG=7.86E-05 dt0=1.00E+04 DIVF(1)= 1.01E-03 DIVFrms= 1.79E-03 DT(ND)=-2.06E-04 T(ND)=2.8403E+02
 NST=    66 JCONV= 80 CHG=7.91E-05 dt0=1.00E+04 DIVF(1)= 1.01E-03 DIVFrms= 1.78E-03 DT(ND)=-2.02E-04 T(ND)=2.8403E+02
 NST=    67 JCONV= 80 CHG=7.82E-05 dt0=1.00E+04 DIVF(1)= 9.98E-04 DIVFrms= 1.77E-03 DT(ND)=-1.99E-04 T(ND)=2.8403E+02
 NST=    68 JCONV= 80 CHG=7.73E-05 dt0=1.00E+04 DIVF(1)= 9.91E-04 DIVFrms= 1.77E-03 DT(ND)=-1.96E-04 T(ND)=2.8403E+02
 NST=    69 JCONV= 80 CHG=7.18E-05 dt0=1.00E+04 DIVF(1)= 9.05E-04 DIVFrms= 1.74E-03 DT(ND)=-1.94E-04 T(ND)=2.8403E+02
 NST=    70 JCONV= 80 CHG=7.17E-05 dt0=1.00E+04 DIVF(1)= 9.00E-04 DIVFrms= 1.73E-03 DT(ND)=-1.92E-04 T(ND)=2.8403E+02
 NST=    71 JCONV= 80 CHG=7.16E-05 dt0=1.00E+04 DIVF(1)= 8.93E-04 DIVFrms= 1.72E-03 DT(ND)=-1.91E-04 T(ND)=2.8403E+02
 NST=    72 JCONV= 80 CHG=7.00E-05 dt0=1.00E+04 DIVF(1)= 8.91E-04 DIVFrms= 1.70E-03 DT(ND)=-1.90E-04 T(ND)=2.8403E+02
 NST=    73 JCONV= 80 CHG=6.91E-05 dt0=1.00E+04 DIVF(1)= 8.83E-04 DIVFrms= 1.69E-03 DT(ND)=-1.89E-04 T(ND)=2.8403E+02
 NST=    74 JCONV= 80 CHG=6.86E-05 dt0=1.00E+04 DIVF(1)= 8.76E-04 DIVFrms= 1.69E-03 DT(ND)=-1.87E-04 T(ND)=2.8403E+02
 NST=    75 JCONV= 80 CHG=6.81E-05 dt0=1.00E+04 DIVF(1)= 8.69E-04 DIVFrms= 1.68E-03 DT(ND)=-1.86E-04 T(ND)=2.8403E+02
 NST=    76 JCONV= 80 CHG=6.77E-05 dt0=1.00E+04 DIVF(1)= 8.61E-04 DIVFrms= 1.67E-03 DT(ND)=-1.84E-04 T(ND)=2.8403E+02
 NST=    77 JCONV= 80 CHG=6.73E-05 dt0=1.00E+04 DIVF(1)= 8.54E-04 DIVFrms= 1.67E-03 DT(ND)=-1.83E-04 T(ND)=2.8403E+02
 NST=    78 JCONV= 80 CHG=6.68E-05 dt0=1.00E+04 DIVF(1)= 8.46E-04 DIVFrms= 1.66E-03 DT(ND)=-1.81E-04 T(ND)=2.8403E+02
 NST=    79 JCONV= 80 CHG=6.64E-05 dt0=1.00E+04 DIVF(1)= 7.53E-04 DIVFrms= 1.65E-03 DT(ND)=-1.89E-04 T(ND)=2.8403E+02
 NST=    80 JCONV= 80 CHG=6.60E-05 dt0=1.00E+04 DIVF(1)= 7.52E-04 DIVFrms= 1.63E-03 DT(ND)=-1.96E-04 T(ND)=2.8403E+02
 NST=    81 JCONV= 80 CHG=6.34E-05 dt0=1.00E+04 DIVF(1)= 7.45E-04 DIVFrms= 1.62E-03 DT(ND)=-1.94E-04 T(ND)=2.8403E+02
 NST=    82 JCONV= 80 CHG=6.23E-05 dt0=1.00E+04 DIVF(1)= 8.18E-04 DIVFrms= 1.63E-03 DT(ND)=-1.90E-04 T(ND)=2.8403E+02
 NST=    83 JCONV= 80 CHG=6.17E-05 dt0=1.00E+04 DIVF(1)= 8.11E-04 DIVFrms= 1.62E-03 DT(ND)=-1.86E-04 T(ND)=2.8403E+02
 NST=    84 JCONV= 80 CHG=6.15E-05 dt0=1.00E+04 DIVF(1)= 8.23E-04 DIVFrms= 1.60E-03 DT(ND)=-1.81E-04 T(ND)=2.8403E+02
 NST=    85 JCONV= 80 CHG=6.13E-05 dt0=1.00E+04 DIVF(1)= 8.16E-04 DIVFrms= 1.59E-03 DT(ND)=-1.77E-04 T(ND)=2.8403E+02
 NST=    86 JCONV= 80 CHG=6.08E-05 dt0=1.00E+04 DIVF(1)= 8.08E-04 DIVFrms= 1.59E-03 DT(ND)=-1.74E-04 T(ND)=2.8403E+02
 NST=    87 JCONV= 80 CHG=6.06E-05 dt0=1.00E+04 DIVF(1)= 8.01E-04 DIVFrms= 1.58E-03 DT(ND)=-1.71E-04 T(ND)=2.8403E+02
 NST=    88 JCONV= 80 CHG=6.11E-05 dt0=1.00E+04 DIVF(1)= 7.93E-04 DIVFrms= 1.58E-03 DT(ND)=-1.68E-04 T(ND)=2.8403E+02
 NST=    89 JCONV= 80 CHG=6.66E-05 dt0=1.00E+04 DIVF(1)= 5.35E-04 DIVFrms= 1.89E-03 DT(ND)=-1.66E-04 T(ND)=2.8402E+02
 NST=    90 JCONV= 80 CHG=6.11E-05 dt0=1.00E+04 DIVF(1)= 7.71E-04 DIVFrms= 1.57E-03 DT(ND)=-1.68E-04 T(ND)=2.8402E+02
 NST=    91 JCONV= 80 CHG=6.68E-05 dt0=1.00E+04 DIVF(1)= 5.22E-04 DIVFrms= 1.87E-03 DT(ND)=-1.73E-04 T(ND)=2.8402E+02
 NST=    92 JCONV= 80 CHG=6.15E-05 dt0=1.00E+04 DIVF(1)= 7.59E-04 DIVFrms= 1.55E-03 DT(ND)=-1.76E-04 T(ND)=2.8402E+02
 NST=    93 JCONV= 80 CHG=6.63E-05 dt0=1.00E+04 DIVF(1)= 5.03E-04 DIVFrms= 1.87E-03 DT(ND)=-1.79E-04 T(ND)=2.8402E+02
 NST=    94 JCONV= 80 CHG=6.16E-05 dt0=1.00E+04 DIVF(1)= 7.45E-04 DIVFrms= 1.52E-03 DT(ND)=-1.80E-04 T(ND)=2.8402E+02
 NST=    95 JCONV= 80 CHG=6.61E-05 dt0=1.00E+04 DIVF(1)= 4.89E-04 DIVFrms= 1.84E-03 DT(ND)=-1.81E-04 T(ND)=2.8402E+02
 NST=    96 JCONV= 80 CHG=6.16E-05 dt0=1.00E+04 DIVF(1)= 7.26E-04 DIVFrms= 1.51E-03 DT(ND)=-1.80E-04 T(ND)=2.8402E+02
 NST=    97 JCONV= 80 CHG=6.48E-05 dt0=1.00E+04 DIVF(1)= 4.71E-04 DIVFrms= 1.84E-03 DT(ND)=-1.80E-04 T(ND)=2.8402E+02
 NST=    98 JCONV= 80 CHG=6.15E-05 dt0=1.00E+04 DIVF(1)= 7.09E-04 DIVFrms= 1.50E-03 DT(ND)=-1.79E-04 T(ND)=2.8402E+02
 NST=    99 JCONV= 80 CHG=6.37E-05 dt0=1.00E+04 DIVF(1)= 4.54E-04 DIVFrms= 1.83E-03 DT(ND)=-1.79E-04 T(ND)=2.8402E+02
 NST=   100 JCONV= 80 CHG=6.13E-05 dt0=1.00E+04 DIVF(1)= 6.91E-04 DIVFrms= 1.49E-03 DT(ND)=-1.78E-04 T(ND)=2.8402E+02
 NST=   101 JCONV= 80 CHG=6.28E-05 dt0=1.00E+04 DIVF(1)= 4.36E-04 DIVFrms= 1.83E-03 DT(ND)=-1.77E-04 T(ND)=2.8402E+02
 NST=   102 JCONV= 80 CHG=6.11E-05 dt0=1.00E+04 DIVF(1)= 6.73E-04 DIVFrms= 1.47E-03 DT(ND)=-1.76E-04 T(ND)=2.8402E+02
 NST=   103 JCONV= 80 CHG=6.19E-05 dt0=1.00E+04 DIVF(1)= 4.18E-04 DIVFrms= 1.82E-03 DT(ND)=-1.75E-04 T(ND)=2.8402E+02
 NST=   104 JCONV= 80 CHG=6.13E-05 dt0=1.00E+04 DIVF(1)= 5.49E-04 DIVFrms= 1.47E-03 DT(ND)=-1.75E-04 T(ND)=2.8402E+02
 NST=   105 JCONV= 80 CHG=6.10E-05 dt0=1.00E+04 DIVF(1)= 4.01E-04 DIVFrms= 1.82E-03 DT(ND)=-1.75E-04 T(ND)=2.8402E+02
 NST=   106 JCONV= 80 CHG=6.09E-05 dt0=1.00E+04 DIVF(1)= 5.32E-04 DIVFrms= 1.46E-03 DT(ND)=-1.75E-04 T(ND)=2.8402E+02
 NST=   107 JCONV= 80 CHG=6.03E-05 dt0=1.00E+04 DIVF(1)= 2.77E-04 DIVFrms= 1.86E-03 DT(ND)=-1.75E-04 T(ND)=2.8402E+02
 NST=   108 JCONV= 80 CHG=6.03E-05 dt0=1.00E+04 DIVF(1)= 5.14E-04 DIVFrms= 1.45E-03 DT(ND)=-1.75E-04 T(ND)=2.8402E+02
 NST=   109 JCONV= 80 CHG=5.95E-05 dt0=1.00E+04 DIVF(1)= 2.60E-04 DIVFrms= 1.86E-03 DT(ND)=-1.75E-04 T(ND)=2.8402E+02
 NST=   110 JCONV= 80 CHG=5.98E-05 dt0=1.00E+04 DIVF(1)= 4.97E-04 DIVFrms= 1.44E-03 DT(ND)=-1.75E-04 T(ND)=2.8402E+02
 NST=   111 JCONV= 80 CHG=6.05E-05 dt0=1.00E+04 DIVF(1)= 2.51E-04 DIVFrms= 1.83E-03 DT(ND)=-1.75E-04 T(ND)=2.8402E+02
 NST=   112 JCONV= 80 CHG=5.92E-05 dt0=1.00E+04 DIVF(1)= 4.89E-04 DIVFrms= 1.41E-03 DT(ND)=-1.74E-04 T(ND)=2.8402E+02
 NST=   113 JCONV= 80 CHG=5.73E-05 dt0=1.00E+04 DIVF(1)= 2.34E-04 DIVFrms= 1.82E-03 DT(ND)=-1.73E-04 T(ND)=2.8402E+02
 NST=   114 JCONV= 80 CHG=5.88E-05 dt0=1.00E+04 DIVF(1)= 4.72E-04 DIVFrms= 1.41E-03 DT(ND)=-1.72E-04 T(ND)=2.8402E+02
 NST=   115 JCONV= 80 CHG=5.61E-05 dt0=1.00E+04 DIVF(1)= 2.18E-04 DIVFrms= 1.82E-03 DT(ND)=-1.71E-04 T(ND)=2.8402E+02
 NST=   116 JCONV= 80 CHG=5.83E-05 dt0=1.00E+04 DIVF(1)= 4.60E-04 DIVFrms= 1.38E-03 DT(ND)=-1.70E-04 T(ND)=2.8402E+02
 NST=   117 JCONV= 80 CHG=5.67E-05 dt0=1.00E+04 DIVF(1)= 2.06E-04 DIVFrms= 1.80E-03 DT(ND)=-1.69E-04 T(ND)=2.8402E+02
 NST=   118 JCONV= 80 CHG=5.80E-05 dt0=1.00E+04 DIVF(1)= 4.44E-04 DIVFrms= 1.38E-03 DT(ND)=-1.68E-04 T(ND)=2.8402E+02
 NST=   119 JCONV= 80 CHG=5.59E-05 dt0=1.00E+04 DIVF(1)= 1.90E-04 DIVFrms= 1.80E-03 DT(ND)=-1.67E-04 T(ND)=2.8402E+02
 NST=   120 JCONV= 80 CHG=5.85E-05 dt0=1.00E+04 DIVF(1)= 3.36E-04 DIVFrms= 1.39E-03 DT(ND)=-1.67E-04 T(ND)=2.8402E+02
 NST=   121 JCONV= 80 CHG=5.56E-05 dt0=1.00E+04 DIVF(1)= 9.31E-05 DIVFrms= 1.84E-03 DT(ND)=-1.67E-04 T(ND)=2.8402E+02
 NST=   122 JCONV= 80 CHG=5.83E-05 dt0=1.00E+04 DIVF(1)= 3.31E-04 DIVFrms= 1.38E-03 DT(ND)=-1.67E-04 T(ND)=2.8402E+02
 NST=   123 JCONV= 80 CHG=5.48E-05 dt0=1.00E+04 DIVF(1)= 7.73E-05 DIVFrms= 1.84E-03 DT(ND)=-1.68E-04 T(ND)=2.8402E+02
 NST=   124 JCONV= 80 CHG=5.81E-05 dt0=1.00E+04 DIVF(1)= 3.15E-04 DIVFrms= 1.37E-03 DT(ND)=-1.67E-04 T(ND)=2.8402E+02
 NST=   125 JCONV= 80 CHG=5.40E-05 dt0=1.00E+04 DIVF(1)= 1.96E-04 DIVFrms= 1.77E-03 DT(ND)=-1.65E-04 T(ND)=2.8402E+02
 NST=   126 JCONV= 80 CHG=5.75E-05 dt0=1.00E+04 DIVF(1)= 3.11E-04 DIVFrms= 1.36E-03 DT(ND)=-1.64E-04 T(ND)=2.8402E+02
 NST=   127 JCONV= 80 CHG=5.34E-05 dt0=1.00E+04 DIVF(1)= 5.76E-05 DIVFrms= 1.83E-03 DT(ND)=-1.63E-04 T(ND)=2.8402E+02
 NST=   128 JCONV= 80 CHG=5.73E-05 dt0=1.00E+04 DIVF(1)= 2.95E-04 DIVFrms= 1.36E-03 DT(ND)=-1.62E-04 T(ND)=2.8402E+02
 NST=   129 JCONV= 80 CHG=5.30E-05 dt0=1.00E+04 DIVF(1)= 4.20E-05 DIVFrms= 1.83E-03 DT(ND)=-1.61E-04 T(ND)=2.8402E+02
 NST=   130 JCONV= 80 CHG=5.70E-05 dt0=1.00E+04 DIVF(1)= 2.80E-04 DIVFrms= 1.35E-03 DT(ND)=-1.60E-04 T(ND)=2.8402E+02
 NST=   131 JCONV= 80 CHG=5.28E-05 dt0=1.00E+04 DIVF(1)= 2.65E-05 DIVFrms= 1.83E-03 DT(ND)=-1.60E-04 T(ND)=2.8402E+02
 NST=   132 JCONV= 80 CHG=5.68E-05 dt0=1.00E+04 DIVF(1)= 2.64E-04 DIVFrms= 1.35E-03 DT(ND)=-1.59E-04 T(ND)=2.8402E+02
 NST=   133 JCONV= 80 CHG=5.26E-05 dt0=1.00E+04 DIVF(1)= 1.11E-05 DIVFrms= 1.83E-03 DT(ND)=-1.59E-04 T(ND)=2.8402E+02
 NST=   134 JCONV= 80 CHG=5.65E-05 dt0=1.00E+04 DIVF(1)= 2.49E-04 DIVFrms= 1.34E-03 DT(ND)=-1.58E-04 T(ND)=2.8402E+02
 NST=   135 JCONV= 80 CHG=5.23E-05 dt0=1.00E+04 DIVF(1)=-4.16E-06 DIVFrms= 1.83E-03 DT(ND)=-1.57E-04 T(ND)=2.8402E+02
 NST=   136 JCONV= 80 CHG=5.63E-05 dt0=1.00E+04 DIVF(1)= 2.33E-04 DIVFrms= 1.34E-03 DT(ND)=-1.56E-04 T(ND)=2.8402E+02
 NST=   137 JCONV= 80 CHG=5.21E-05 dt0=1.00E+04 DIVF(1)=-1.94E-05 DIVFrms= 1.83E-03 DT(ND)=-1.56E-04 T(ND)=2.8402E+02
 NST=   138 JCONV= 80 CHG=5.58E-05 dt0=1.00E+04 DIVF(1)= 2.32E-04 DIVFrms= 1.31E-03 DT(ND)=-1.55E-04 T(ND)=2.8402E+02
 NST=   139 JCONV= 80 CHG=5.16E-05 dt0=1.00E+04 DIVF(1)=-2.08E-05 DIVFrms= 1.80E-03 DT(ND)=-1.54E-04 T(ND)=2.8402E+02
 NST=   140 JCONV= 80 CHG=5.56E-05 dt0=1.00E+04 DIVF(1)= 2.17E-04 DIVFrms= 1.30E-03 DT(ND)=-1.53E-04 T(ND)=2.8402E+02
 NST=   141 JCONV= 80 CHG=4.98E-05 dt0=1.00E+04 DIVF(1)=-3.59E-05 DIVFrms= 1.80E-03 DT(ND)=-1.52E-04 T(ND)=2.8402E+02
 NST=   142 JCONV= 80 CHG=6.53E-05 dt0=1.00E+04 DIVF(1)=-4.29E-05 DIVFrms= 1.79E-03 DT(ND)=-1.51E-04 T(ND)=2.8402E+02
 NST=   143 JCONV= 80 CHG=5.64E-05 dt0=1.00E+04 DIVF(1)= 1.90E-04 DIVFrms= 1.30E-03 DT(ND)=-1.55E-04 T(ND)=2.8402E+02
 NST=   144 JCONV= 80 CHG=5.33E-05 dt0=1.00E+04 DIVF(1)=-6.08E-05 DIVFrms= 1.80E-03 DT(ND)=-1.56E-04 T(ND)=2.8402E+02
 NST=   145 JCONV= 80 CHG=5.61E-05 dt0=1.00E+04 DIVF(1)= 1.86E-04 DIVFrms= 1.29E-03 DT(ND)=-1.54E-04 T(ND)=2.8402E+02
 NST=   146 JCONV= 80 CHG=4.95E-05 dt0=1.00E+04 DIVF(1)=-7.50E-05 DIVFrms= 1.80E-03 DT(ND)=-1.53E-04 T(ND)=2.8402E+02
 NST=   147 JCONV= 80 CHG=6.60E-05 dt0=1.00E+04 DIVF(1)=-7.19E-05 DIVFrms= 1.79E-03 DT(ND)=-1.51E-04 T(ND)=2.8402E+02
 NST=   148 JCONV= 80 CHG=5.65E-05 dt0=1.00E+04 DIVF(1)= 1.61E-04 DIVFrms= 1.29E-03 DT(ND)=-1.54E-04 T(ND)=2.8402E+02
 NST=   149 JCONV= 80 CHG=4.91E-05 dt0=1.00E+04 DIVF(1)=-8.88E-05 DIVFrms= 1.80E-03 DT(ND)=-1.55E-04 T(ND)=2.8401E+02
 NST=   150 JCONV= 80 CHG=6.77E-05 dt0=1.00E+04 DIVF(1)=-9.08E-05 DIVFrms= 1.77E-03 DT(ND)=-1.52E-04 T(ND)=2.8401E+02
 NST=   151 JCONV= 80 CHG=5.68E-05 dt0=1.00E+04 DIVF(1)= 1.42E-04 DIVFrms= 1.26E-03 DT(ND)=-1.55E-04 T(ND)=2.8401E+02
 NST=   152 JCONV= 80 CHG=4.89E-05 dt0=1.00E+04 DIVF(1)=-1.08E-04 DIVFrms= 1.78E-03 DT(ND)=-1.55E-04 T(ND)=2.8401E+02
 NST=   153 JCONV= 80 CHG=6.84E-05 dt0=1.00E+04 DIVF(1)=-1.13E-04 DIVFrms= 1.77E-03 DT(ND)=-1.52E-04 T(ND)=2.8401E+02
 NST=   154 JCONV= 80 CHG=5.69E-05 dt0=1.00E+04 DIVF(1)= 1.23E-04 DIVFrms= 1.23E-03 DT(ND)=-1.54E-04 T(ND)=2.8401E+02
 NST=   155 JCONV= 80 CHG=4.87E-05 dt0=1.00E+04 DIVF(1)=-1.26E-04 DIVFrms= 1.75E-03 DT(ND)=-1.53E-04 T(ND)=2.8401E+02
 NST=   156 JCONV= 80 CHG=6.85E-05 dt0=1.00E+04 DIVF(1)=-1.31E-04 DIVFrms= 1.74E-03 DT(ND)=-1.50E-04 T(ND)=2.8401E+02
 NST=   157 JCONV= 80 CHG=5.70E-05 dt0=1.00E+04 DIVF(1)= 1.01E-04 DIVFrms= 1.23E-03 DT(ND)=-1.52E-04 T(ND)=2.8401E+02
 NST=   158 JCONV= 80 CHG=4.87E-05 dt0=1.00E+04 DIVF(1)=-1.48E-04 DIVFrms= 1.75E-03 DT(ND)=-1.52E-04 T(ND)=2.8401E+02
 NST=   159 JCONV= 80 CHG=6.86E-05 dt0=1.00E+04 DIVF(1)=-1.53E-04 DIVFrms= 1.74E-03 DT(ND)=-1.49E-04 T(ND)=2.8401E+02
 NST=   160 JCONV= 80 CHG=5.70E-05 dt0=1.00E+04 DIVF(1)= 7.90E-05 DIVFrms= 1.22E-03 DT(ND)=-1.51E-04 T(ND)=2.8401E+02
 NST=   161 JCONV= 80 CHG=4.85E-05 dt0=1.00E+04 DIVF(1)=-1.70E-04 DIVFrms= 1.75E-03 DT(ND)=-1.51E-04 T(ND)=2.8401E+02
 NST=   162 JCONV= 80 CHG=6.85E-05 dt0=1.00E+04 DIVF(1)=-1.75E-04 DIVFrms= 1.75E-03 DT(ND)=-1.48E-04 T(ND)=2.8401E+02
 NST=   163 JCONV= 80 CHG=5.69E-05 dt0=1.00E+04 DIVF(1)= 6.06E-05 DIVFrms= 1.20E-03 DT(ND)=-1.50E-04 T(ND)=2.8401E+02
 NST=   164 JCONV= 80 CHG=4.87E-05 dt0=1.00E+04 DIVF(1)=-4.47E-05 DIVFrms= 1.64E-03 DT(ND)=-1.47E-04 T(ND)=2.8401E+02
 NST=   165 JCONV= 80 CHG=6.86E-05 dt0=1.00E+04 DIVF(1)=-5.01E-05 DIVFrms= 1.63E-03 DT(ND)=-1.41E-04 T(ND)=2.8401E+02
 NST=   166 JCONV= 80 CHG=5.72E-05 dt0=1.00E+04 DIVF(1)= 1.84E-04 DIVFrms= 1.14E-03 DT(ND)=-1.39E-04 T(ND)=2.8401E+02
 NST=   167 JCONV= 80 CHG=4.85E-05 dt0=1.00E+04 DIVF(1)=-6.60E-05 DIVFrms= 1.64E-03 DT(ND)=-1.35E-04 T(ND)=2.8401E+02
 NST=   168 JCONV= 80 CHG=6.85E-05 dt0=1.00E+04 DIVF(1)=-6.88E-05 DIVFrms= 1.63E-03 DT(ND)=-1.29E-04 T(ND)=2.8401E+02
 NST=   169 JCONV= 80 CHG=5.70E-05 dt0=1.00E+04 DIVF(1)= 1.61E-04 DIVFrms= 1.13E-03 DT(ND)=-1.30E-04 T(ND)=2.8401E+02
 NST=   170 JCONV= 80 CHG=4.84E-05 dt0=1.00E+04 DIVF(1)=-8.46E-05 DIVFrms= 1.64E-03 DT(ND)=-1.28E-04 T(ND)=2.8401E+02
 NST=   171 JCONV= 80 CHG=6.83E-05 dt0=1.00E+04 DIVF(1)=-9.20E-05 DIVFrms= 1.63E-03 DT(ND)=-1.24E-04 T(ND)=2.8401E+02
 NST=   172 JCONV= 80 CHG=5.69E-05 dt0=1.00E+04 DIVF(1)= 1.43E-04 DIVFrms= 1.13E-03 DT(ND)=-1.25E-04 T(ND)=2.8401E+02
 NST=   173 JCONV= 80 CHG=4.76E-05 dt0=1.00E+04 DIVF(1)=-2.35E-04 DIVFrms= 1.73E-03 DT(ND)=-1.26E-04 T(ND)=2.8401E+02
 NST=   174 JCONV= 80 CHG=6.77E-05 dt0=1.00E+04 DIVF(1)=-2.39E-04 DIVFrms= 1.72E-03 DT(ND)=-1.25E-04 T(ND)=2.8401E+02
 NST=   175 JCONV= 80 CHG=5.62E-05 dt0=1.00E+04 DIVF(1)=-7.44E-06 DIVFrms= 1.18E-03 DT(ND)=-1.29E-04 T(ND)=2.8401E+02
 NST=   176 JCONV= 80 CHG=4.75E-05 dt0=1.00E+04 DIVF(1)=-2.56E-04 DIVFrms= 1.73E-03 DT(ND)=-1.31E-04 T(ND)=2.8401E+02
 NST=   177 JCONV= 80 CHG=6.75E-05 dt0=1.00E+04 DIVF(1)=-2.54E-04 DIVFrms= 1.69E-03 DT(ND)=-1.29E-04 T(ND)=2.8401E+02
 NST=   178 JCONV= 80 CHG=5.60E-05 dt0=1.00E+04 DIVF(1)=-2.27E-05 DIVFrms= 1.15E-03 DT(ND)=-1.32E-04 T(ND)=2.8401E+02
 NST=   179 JCONV= 80 CHG=4.72E-05 dt0=1.00E+04 DIVF(1)=-2.69E-04 DIVFrms= 1.70E-03 DT(ND)=-1.32E-04 T(ND)=2.8401E+02
 NST=   180 JCONV= 80 CHG=6.73E-05 dt0=1.00E+04 DIVF(1)=-2.74E-04 DIVFrms= 1.70E-03 DT(ND)=-1.30E-04 T(ND)=2.8401E+02
 NST=   181 JCONV= 80 CHG=5.57E-05 dt0=1.00E+04 DIVF(1)=-3.21E-05 DIVFrms= 1.12E-03 DT(ND)=-1.33E-04 T(ND)=2.8401E+02
 NST=   182 JCONV= 80 CHG=4.69E-05 dt0=1.00E+04 DIVF(1)=-2.80E-04 DIVFrms= 1.68E-03 DT(ND)=-1.32E-04 T(ND)=2.8401E+02
 NST=   183 JCONV= 80 CHG=6.70E-05 dt0=1.00E+04 DIVF(1)=-2.84E-04 DIVFrms= 1.67E-03 DT(ND)=-1.29E-04 T(ND)=2.8401E+02
 NST=   184 JCONV= 80 CHG=5.56E-05 dt0=1.00E+04 DIVF(1)=-5.19E-05 DIVFrms= 1.12E-03 DT(ND)=-1.31E-04 T(ND)=2.8401E+02
 NST=   185 JCONV= 80 CHG=4.67E-05 dt0=1.00E+04 DIVF(1)=-2.88E-04 DIVFrms= 1.67E-03 DT(ND)=-1.31E-04 T(ND)=2.8401E+02
 NST=   186 JCONV= 80 CHG=6.68E-05 dt0=1.00E+04 DIVF(1)=-2.91E-04 DIVFrms= 1.66E-03 DT(ND)=-1.28E-04 T(ND)=2.8401E+02
 NST=   187 JCONV= 80 CHG=5.54E-05 dt0=1.00E+04 DIVF(1)=-5.02E-05 DIVFrms= 1.10E-03 DT(ND)=-1.30E-04 T(ND)=2.8401E+02
 NST=   188 JCONV= 80 CHG=4.66E-05 dt0=1.00E+04 DIVF(1)=-2.95E-04 DIVFrms= 1.66E-03 DT(ND)=-1.30E-04 T(ND)=2.8401E+02
 NST=   189 JCONV= 80 CHG=6.67E-05 dt0=1.00E+04 DIVF(1)=-3.00E-04 DIVFrms= 1.65E-03 DT(ND)=-1.27E-04 T(ND)=2.8401E+02
 NST=   190 JCONV= 80 CHG=5.53E-05 dt0=1.00E+04 DIVF(1)=-6.34E-05 DIVFrms= 1.10E-03 DT(ND)=-1.30E-04 T(ND)=2.8401E+02
 NST=   191 JCONV= 80 CHG=4.64E-05 dt0=1.00E+04 DIVF(1)=-3.13E-04 DIVFrms= 1.66E-03 DT(ND)=-1.29E-04 T(ND)=2.8401E+02
 NST=   192 JCONV= 80 CHG=6.65E-05 dt0=1.00E+04 DIVF(1)=-3.15E-04 DIVFrms= 1.65E-03 DT(ND)=-1.27E-04 T(ND)=2.8401E+02
 NST=   193 JCONV= 80 CHG=5.52E-05 dt0=1.00E+04 DIVF(1)=-8.37E-05 DIVFrms= 1.10E-03 DT(ND)=-1.29E-04 T(ND)=2.8401E+02
 NST=   194 JCONV= 80 CHG=4.63E-05 dt0=1.00E+04 DIVF(1)=-3.30E-04 DIVFrms= 1.66E-03 DT(ND)=-1.29E-04 T(ND)=2.8401E+02
 NST=   195 JCONV= 80 CHG=6.64E-05 dt0=1.00E+04 DIVF(1)=-3.30E-04 DIVFrms= 1.66E-03 DT(ND)=-1.26E-04 T(ND)=2.8401E+02
 NST=   196 JCONV= 80 CHG=5.51E-05 dt0=1.00E+04 DIVF(1)=-1.01E-04 DIVFrms= 1.09E-03 DT(ND)=-1.28E-04 T(ND)=2.8401E+02
 NST=   197 JCONV= 80 CHG=4.62E-05 dt0=1.00E+04 DIVF(1)=-3.47E-04 DIVFrms= 1.67E-03 DT(ND)=-1.28E-04 T(ND)=2.8401E+02
 NST=   198 JCONV= 80 CHG=6.63E-05 dt0=1.00E+04 DIVF(1)=-3.47E-04 DIVFrms= 1.66E-03 DT(ND)=-1.26E-04 T(ND)=2.8401E+02
 NST=   199 JCONV= 80 CHG=5.50E-05 dt0=1.00E+04 DIVF(1)=-1.18E-04 DIVFrms= 1.09E-03 DT(ND)=-1.28E-04 T(ND)=2.8401E+02
 NST=   200 JCONV= 80 CHG=4.60E-05 dt0=1.00E+04 DIVF(1)=-3.64E-04 DIVFrms= 1.67E-03 DT(ND)=-1.28E-04 T(ND)=2.8401E+02
 NST=   201 JCONV= 80 CHG=6.62E-05 dt0=1.00E+04 DIVF(1)=-3.64E-04 DIVFrms= 1.66E-03 DT(ND)=-1.25E-04 T(ND)=2.8401E+02
 NST=   202 JCONV= 80 CHG=5.49E-05 dt0=1.00E+04 DIVF(1)=-1.36E-04 DIVFrms= 1.09E-03 DT(ND)=-1.28E-04 T(ND)=2.8401E+02
 NST=   203 JCONV= 80 CHG=4.59E-05 dt0=1.00E+04 DIVF(1)=-3.78E-04 DIVFrms= 1.67E-03 DT(ND)=-1.27E-04 T(ND)=2.8401E+02
 NST=   204 JCONV= 80 CHG=4.05E-05 dt0=1.00E+04 DIVF(1)=-5.57E-04 DIVFrms= 1.79E-03 DT(ND)=-2.11E-04 T(ND)=2.8401E+02
 NST=   205 JCONV= 80 CHG=7.57E-05 dt0=1.00E+04 DIVF(1)=-5.61E-04 DIVFrms= 1.79E-03 DT(ND)=-2.04E-04 T(ND)=2.8401E+02
 NST=   206 JCONV= 80 CHG=5.60E-05 dt0=1.00E+04 DIVF(1)=-3.35E-04 DIVFrms= 1.20E-03 DT(ND)=-1.92E-04 T(ND)=2.8401E+02
 NST=   207 JCONV= 80 CHG=4.58E-05 dt0=1.00E+04 DIVF(1)=-5.75E-04 DIVFrms= 1.80E-03 DT(ND)=-1.79E-04 T(ND)=2.8401E+02
 NST=   208 JCONV= 80 CHG=6.85E-05 dt0=1.00E+04 DIVF(1)=-5.82E-04 DIVFrms= 1.79E-03 DT(ND)=-1.67E-04 T(ND)=2.8401E+02
 NST=   209 JCONV= 80 CHG=5.56E-05 dt0=1.00E+04 DIVF(1)=-3.48E-04 DIVFrms= 1.20E-03 DT(ND)=-1.63E-04 T(ND)=2.8401E+02
 NST=   210 JCONV= 80 CHG=4.59E-05 dt0=1.00E+04 DIVF(1)=-5.94E-04 DIVFrms= 1.81E-03 DT(ND)=-1.58E-04 T(ND)=2.8401E+02
 NST=   211 JCONV= 80 CHG=4.04E-05 dt0=1.00E+04 DIVF(1)=-5.94E-04 DIVFrms= 1.80E-03 DT(ND)=-1.52E-04 T(ND)=2.8401E+02
 NST=   212 JCONV= 80 CHG=7.83E-05 dt0=1.00E+04 DIVF(1)=-6.01E-04 DIVFrms= 1.80E-03 DT(ND)=-1.52E-04 T(ND)=2.8401E+02
 NST=   213 JCONV= 80 CHG=5.64E-05 dt0=1.00E+04 DIVF(1)=-3.69E-04 DIVFrms= 1.18E-03 DT(ND)=-1.55E-04 T(ND)=2.8401E+02
 NST=   214 JCONV= 80 CHG=4.57E-05 dt0=1.00E+04 DIVF(1)=-6.14E-04 DIVFrms= 1.79E-03 DT(ND)=-1.53E-04 T(ND)=2.8401E+02
 NST=   215 JCONV= 80 CHG=6.89E-05 dt0=1.00E+04 DIVF(1)=-6.14E-04 DIVFrms= 1.78E-03 DT(ND)=-1.48E-04 T(ND)=2.8401E+02
 NST=   216 JCONV= 80 CHG=5.58E-05 dt0=1.00E+04 DIVF(1)=-3.84E-04 DIVFrms= 1.18E-03 DT(ND)=-1.50E-04 T(ND)=2.8401E+02
 NST=   217 JCONV= 80 CHG=4.58E-05 dt0=1.00E+04 DIVF(1)=-6.29E-04 DIVFrms= 1.79E-03 DT(ND)=-1.48E-04 T(ND)=2.8401E+02
 NST=   218 JCONV= 80 CHG=4.01E-05 dt0=1.00E+04 DIVF(1)=-6.30E-04 DIVFrms= 1.78E-03 DT(ND)=-1.45E-04 T(ND)=2.8401E+02
 NST=   219 JCONV= 80 CHG=8.03E-05 dt0=1.00E+04 DIVF(1)=-6.36E-04 DIVFrms= 1.78E-03 DT(ND)=-1.47E-04 T(ND)=2.8400E+02
 NST=   220 JCONV= 80 CHG=5.66E-05 dt0=1.00E+04 DIVF(1)=-4.08E-04 DIVFrms= 1.19E-03 DT(ND)=-1.51E-04 T(ND)=2.8400E+02
 NST=   221 JCONV= 80 CHG=4.56E-05 dt0=1.00E+04 DIVF(1)=-6.49E-04 DIVFrms= 1.80E-03 DT(ND)=-1.50E-04 T(ND)=2.8400E+02
 NST=   222 JCONV= 80 CHG=6.90E-05 dt0=1.00E+04 DIVF(1)=-6.52E-04 DIVFrms= 1.79E-03 DT(ND)=-1.47E-04 T(ND)=2.8400E+02
 NST=   223 JCONV= 80 CHG=5.59E-05 dt0=1.00E+04 DIVF(1)=-4.22E-04 DIVFrms= 1.19E-03 DT(ND)=-1.48E-04 T(ND)=2.8400E+02
 NST=   224 JCONV= 80 CHG=4.57E-05 dt0=1.00E+04 DIVF(1)=-6.67E-04 DIVFrms= 1.80E-03 DT(ND)=-1.47E-04 T(ND)=2.8400E+02
 NST=   225 JCONV= 80 CHG=3.99E-05 dt0=1.00E+04 DIVF(1)=-6.67E-04 DIVFrms= 1.79E-03 DT(ND)=-1.44E-04 T(ND)=2.8400E+02
 NST=   226 JCONV= 80 CHG=8.20E-05 dt0=1.00E+04 DIVF(1)=-6.41E-04 DIVFrms= 1.75E-03 DT(ND)=-1.46E-04 T(ND)=2.8400E+02
 NST=   227 JCONV= 80 CHG=5.63E-05 dt0=1.00E+04 DIVF(1)=-4.05E-04 DIVFrms= 1.14E-03 DT(ND)=-1.50E-04 T(ND)=2.8400E+02
 NST=   228 JCONV= 80 CHG=4.51E-05 dt0=1.00E+04 DIVF(1)=-6.45E-04 DIVFrms= 1.75E-03 DT(ND)=-1.48E-04 T(ND)=2.8400E+02
 NST=   229 JCONV= 80 CHG=6.93E-05 dt0=1.00E+04 DIVF(1)=-6.48E-04 DIVFrms= 1.74E-03 DT(ND)=-1.45E-04 T(ND)=2.8400E+02
 NST=   230 JCONV= 80 CHG=5.56E-05 dt0=1.00E+04 DIVF(1)=-4.18E-04 DIVFrms= 1.14E-03 DT(ND)=-1.46E-04 T(ND)=2.8400E+02
 NST=   231 JCONV= 80 CHG=4.52E-05 dt0=1.00E+04 DIVF(1)=-6.59E-04 DIVFrms= 1.75E-03 DT(ND)=-1.45E-04 T(ND)=2.8400E+02
 NST=   232 JCONV= 80 CHG=3.94E-05 dt0=1.00E+04 DIVF(1)=-6.62E-04 DIVFrms= 1.74E-03 DT(ND)=-1.42E-04 T(ND)=2.8400E+02
 NST=   233 JCONV= 80 CHG=8.31E-05 dt0=1.00E+04 DIVF(1)=-6.68E-04 DIVFrms= 1.74E-03 DT(ND)=-1.44E-04 T(ND)=2.8400E+02
 NST=   234 JCONV= 80 CHG=5.63E-05 dt0=1.00E+04 DIVF(1)=-4.41E-04 DIVFrms= 1.15E-03 DT(ND)=-1.48E-04 T(ND)=2.8400E+02
 NST=   235 JCONV= 80 CHG=4.50E-05 dt0=1.00E+04 DIVF(1)=-6.80E-04 DIVFrms= 1.76E-03 DT(ND)=-1.47E-04 T(ND)=2.8400E+02
 NST=   236 JCONV= 80 CHG=7.02E-05 dt0=1.00E+04 DIVF(1)=-6.83E-04 DIVFrms= 1.75E-03 DT(ND)=-1.44E-04 T(ND)=2.8400E+02
 NST=   237 JCONV= 80 CHG=5.56E-05 dt0=1.00E+04 DIVF(1)=-4.54E-04 DIVFrms= 1.15E-03 DT(ND)=-1.45E-04 T(ND)=2.8400E+02
 NST=   238 JCONV= 80 CHG=4.51E-05 dt0=1.00E+04 DIVF(1)=-6.94E-04 DIVFrms= 1.76E-03 DT(ND)=-1.45E-04 T(ND)=2.8400E+02
 NST=   239 JCONV= 80 CHG=3.92E-05 dt0=1.00E+04 DIVF(1)=-6.97E-04 DIVFrms= 1.75E-03 DT(ND)=-1.42E-04 T(ND)=2.8400E+02
 NST=   240 JCONV= 80 CHG=8.41E-05 dt0=1.00E+04 DIVF(1)=-7.02E-04 DIVFrms= 1.75E-03 DT(ND)=-1.44E-04 T(ND)=2.8400E+02
 NST=   241 JCONV= 80 CHG=5.62E-05 dt0=1.00E+04 DIVF(1)=-4.76E-04 DIVFrms= 1.15E-03 DT(ND)=-1.48E-04 T(ND)=2.8400E+02
 NST=   242 JCONV= 80 CHG=4.58E-05 dt0=1.00E+04 DIVF(1)=-8.16E-04 DIVFrms= 1.86E-03 DT(ND)=-1.48E-04 T(ND)=2.8400E+02
 NST=   243 JCONV= 80 CHG=7.08E-05 dt0=1.00E+04 DIVF(1)=-8.18E-04 DIVFrms= 1.85E-03 DT(ND)=-1.46E-04 T(ND)=2.8400E+02
 NST=   244 JCONV= 80 CHG=5.65E-05 dt0=1.00E+04 DIVF(1)=-5.90E-04 DIVFrms= 1.24E-03 DT(ND)=-1.49E-04 T(ND)=2.8400E+02
 NST=   245 JCONV= 80 CHG=4.58E-05 dt0=1.00E+04 DIVF(1)=-8.30E-04 DIVFrms= 1.86E-03 DT(ND)=-1.50E-04 T(ND)=2.8400E+02
 NST=   246 JCONV= 80 CHG=6.78E-05 dt0=1.00E+04 DIVF(1)=-8.32E-04 DIVFrms= 1.85E-03 DT(ND)=-1.48E-04 T(ND)=2.8400E+02
 NST=   247 JCONV= 80 CHG=5.58E-05 dt0=1.00E+04 DIVF(1)=-6.04E-04 DIVFrms= 1.24E-03 DT(ND)=-1.51E-04 T(ND)=2.8400E+02
 NST=   248 JCONV= 80 CHG=4.54E-05 dt0=1.00E+04 DIVF(1)=-8.36E-04 DIVFrms= 1.85E-03 DT(ND)=-1.51E-04 T(ND)=2.8400E+02
 NST=   249 JCONV= 80 CHG=6.66E-05 dt0=1.00E+04 DIVF(1)=-8.32E-04 DIVFrms= 1.81E-03 DT(ND)=-1.48E-04 T(ND)=2.8400E+02
 NST=   250 JCONV= 80 CHG=5.51E-05 dt0=1.00E+04 DIVF(1)=-6.05E-04 DIVFrms= 1.20E-03 DT(ND)=-1.51E-04 T(ND)=2.8400E+02

 TIME= 2.492E+06  TIME IN DAYS = 2.885E+01

 PLANETARY ALBEDO:  ALBP = 0.4965

  J     P         ALT         T        CONVEC       DT          TOLD        FH20       FSAVE       TCOOL       THEAT
  1 5.4323E-05 5.3146E+01 2.2022E+02  0.00E+00  -4.9835E-04  2.2022E+02  1.4514E-06  2.0920E-06 -5.9125E+02  6.0499E+02
  2 6.4083E-05 5.2247E+01 2.1045E+02  0.00E+00  -6.1788E-05  2.1045E+02  1.4514E-06  2.0920E-06 -1.3367E+02  1.1286E+02
  3 7.5501E-05 5.1383E+01 2.0708E+02  0.00E+00  -5.5105E-05  2.0708E+02  1.4514E-06  2.0920E-06 -9.4800E+01  9.5515E+01
  4 8.8843E-05 5.0533E+01 2.0623E+02  0.00E+00  -1.1155E-04  2.0623E+02  1.4514E-06  2.0920E-06 -8.3534E+01  8.5617E+01
  5 1.0441E-04 4.9695E+01 2.0474E+02  0.00E+00  -1.5356E-04  2.0474E+02  1.4514E-06  2.0920E-06 -7.1449E+01  7.5661E+01
  6 1.2255E-04 4.8872E+01 2.0180E+02  0.00E+00  -1.7411E-04  2.0180E+02  1.4514E-06  2.0920E-06 -6.5102E+01  6.5826E+01
  7 1.4367E-04 4.8069E+01 1.9792E+02  0.00E+00  -1.7714E-04  1.9793E+02  1.4514E-06  2.0920E-06 -5.6382E+01  5.6323E+01
  8 1.6821E-04 4.7289E+01 1.9379E+02  0.00E+00  -1.7893E-04  1.9379E+02  1.4514E-06  2.0920E-06 -4.7708E+01  4.7374E+01
  9 1.9670E-04 4.6530E+01 1.8993E+02  0.00E+00  -1.7873E-04  1.8993E+02  1.4514E-06  2.0920E-06 -3.9504E+01  3.9195E+01
 10 2.2972E-04 4.5792E+01 1.8668E+02  0.00E+00  -1.8043E-04  1.8668E+02  1.4514E-06  2.0920E-06 -3.2225E+01  3.1968E+01
 11 2.6796E-04 4.5071E+01 1.8426E+02  0.00E+00  -1.8727E-04  1.8426E+02  1.4514E-06  2.0920E-06 -2.6073E+01  2.5814E+01
 12 3.1216E-04 4.4363E+01 1.8272E+02  0.00E+00  -1.9660E-04  1.8272E+02  1.4514E-06  2.0920E-06 -2.1131E+01  2.0831E+01
 13 3.6320E-04 4.3665E+01 1.8196E+02  0.00E+00  -2.0867E-04  1.8196E+02  1.4514E-06  2.0920E-06 -1.7508E+01  1.7429E+01
 14 4.2206E-04 4.2975E+01 1.8179E+02  0.00E+00  -2.2250E-04  1.8179E+02  1.4514E-06  2.0920E-06 -1.5040E+01  1.5078E+01
 15 4.8984E-04 4.2291E+01 1.8201E+02  0.00E+00  -2.3918E-04  1.8201E+02  1.4514E-06  2.0920E-06 -1.3480E+01  1.3518E+01
 16 5.6779E-04 4.1611E+01 1.8244E+02  0.00E+00  -2.5355E-04  1.8244E+02  1.4514E-06  2.0920E-06 -1.2437E+01  1.2559E+01
 17 6.5733E-04 4.0935E+01 1.8299E+02  0.00E+00  -2.6622E-04  1.8299E+02  1.4514E-06  2.0920E-06 -1.1949E+01  1.2011E+01
 18 7.6003E-04 4.0262E+01 1.8363E+02  0.00E+00  -2.7898E-04  1.8363E+02  1.4514E-06  2.0920E-06 -1.1921E+01  1.1704E+01
 19 8.7768E-04 3.9594E+01 1.8424E+02  0.00E+00  -2.6871E-04  1.8424E+02  1.4514E-06  2.0920E-06 -1.1442E+01  1.1504E+01
 20 1.0123E-03 3.8929E+01 1.8460E+02  0.00E+00  -3.2615E-04  1.8460E+02  1.4514E-06  2.0920E-06 -1.0596E+01  1.1486E+01
 21 1.1660E-03 3.8269E+01 1.8491E+02  0.00E+00  -4.4869E-04  1.8491E+02  1.4514E-06  2.0920E-06 -1.2784E+01  1.2616E+01
 22 1.3415E-03 3.7613E+01 1.8557E+02  0.00E+00  -5.8080E-04  1.8557E+02  1.4514E-06  2.0920E-06 -1.3893E+01  1.3372E+01
 23 1.5414E-03 3.6959E+01 1.8675E+02  0.00E+00  -7.0002E-04  1.8675E+02  1.4514E-06  2.0920E-06 -1.4036E+01  1.3649E+01
 24 1.7688E-03 3.6307E+01 1.8836E+02  0.00E+00  -7.9565E-04  1.8836E+02  1.4514E-06  2.0920E-06 -1.3598E+01  1.3455E+01
 25 2.0274E-03 3.5655E+01 1.9013E+02  0.00E+00  -8.4881E-04  1.9013E+02  1.4514E-06  2.0920E-06 -1.2795E+01  1.2858E+01
 26 2.3207E-03 3.5003E+01 1.9179E+02  0.00E+00  -8.5150E-04  1.9179E+02  1.4514E-06  2.0920E-06 -1.1713E+01  1.1967E+01
 27 2.6532E-03 3.4352E+01 1.9316E+02  0.00E+00  -7.9467E-04  1.9316E+02  1.4514E-06  2.0920E-06 -1.0719E+01  1.0911E+01
 28 3.0295E-03 3.3703E+01 1.9421E+02  0.00E+00  -6.8120E-04  1.9421E+02  1.4514E-06  2.0920E-06 -9.6388E+00  9.7952E+00
 29 3.4549E-03 3.3057E+01 1.9501E+02  0.00E+00  -5.1729E-04  1.9501E+02  1.4514E-06  2.0920E-06 -8.6285E+00  8.6260E+00
 30 3.9351E-03 3.2414E+01 1.9569E+02  0.00E+00  -3.2511E-04  1.9569E+02  1.4514E-06  2.0920E-06 -7.5760E+00  7.5450E+00
 31 4.4764E-03 3.1776E+01 1.9635E+02  0.00E+00  -1.2654E-04  1.9635E+02  1.4514E-06  2.0920E-06 -6.7275E+00  6.6227E+00
 32 5.0858E-03 3.1142E+01 1.9706E+02  0.00E+00   6.7846E-05  1.9706E+02  1.4514E-06  2.0920E-06 -5.9773E+00  5.8618E+00
 33 5.7708E-03 3.0511E+01 1.9784E+02  0.00E+00   2.4545E-04  1.9784E+02  1.4514E-06  2.0920E-06 -5.2793E+00  5.2541E+00
 34 6.5400E-03 2.9885E+01 1.9864E+02  0.00E+00   4.0104E-04  1.9864E+02  1.4514E-06  2.0920E-06 -4.8087E+00  4.7799E+00
 35 7.4024E-03 2.9262E+01 1.9941E+02  0.00E+00   5.3267E-04  1.9941E+02  1.4514E-06  2.0920E-06 -4.4429E+00  4.4080E+00
 36 8.3681E-03 2.8643E+01 2.0006E+02  0.00E+00   6.6466E-04  2.0006E+02  1.4514E-06  2.0920E-06 -4.0838E+00  4.1033E+00
 37 9.4478E-03 2.8029E+01 2.0050E+02  0.00E+00   7.6861E-04  2.0050E+02  1.4514E-06  2.0920E-06 -3.5956E+00  3.8295E+00
 38 1.0654E-02 2.7420E+01 2.0068E+02  0.00E+00   8.0671E-04  2.0068E+02  1.4514E-06  2.0920E-06 -3.4075E+00  3.5783E+00
 39 1.1998E-02 2.6817E+01 2.0073E+02  0.00E+00   8.1513E-04  2.0073E+02  1.4514E-06  2.0920E-06 -3.3420E+00  3.3171E+00
 40 1.3495E-02 2.6221E+01 2.0077E+02  0.00E+00   8.3561E-04  2.0077E+02  1.4514E-06  2.0920E-06 -3.1303E+00  3.0394E+00
 41 1.5161E-02 2.5631E+01 2.0091E+02  0.00E+00   8.7643E-04  2.0091E+02  1.4514E-06  2.0920E-06 -2.8298E+00  2.7613E+00
 42 1.7010E-02 2.5046E+01 2.0120E+02  0.00E+00   9.3123E-04  2.0120E+02  1.4514E-06  2.0920E-06 -2.5775E+00  2.4949E+00
 43 1.9061E-02 2.4467E+01 2.0161E+02  0.00E+00   1.0126E-03  2.0161E+02  1.4514E-06  2.0920E-06 -2.2303E+00  2.2510E+00
 44 2.1332E-02 2.3892E+01 2.0214E+02  0.00E+00   9.7776E-04  2.0213E+02  1.4514E-06  2.0920E-06 -2.0223E+00  2.0372E+00
 45 2.3845E-02 2.3323E+01 2.0274E+02  0.00E+00   1.4001E-03  2.0274E+02  1.4514E-06  2.0920E-06 -1.7987E+00  1.8566E+00
 46 2.6619E-02 2.2758E+01 2.0342E+02  0.00E+00   1.5397E-03  2.0342E+02  1.4514E-06  2.0920E-06 -1.6998E+00  1.7081E+00
 47 2.9680E-02 2.2198E+01 2.0420E+02  0.00E+00   8.1469E-04  2.0420E+02  1.4514E-06  2.0920E-06 -1.6156E+00  1.5868E+00
 48 3.3051E-02 2.1642E+01 2.0507E+02  0.00E+00   4.8506E-04  2.0507E+02  1.4514E-06  2.0920E-06 -1.5301E+00  1.4847E+00
 49 3.6758E-02 2.1089E+01 2.0601E+02  0.00E+00   1.3753E-03  2.0601E+02  1.4514E-06  2.0920E-06 -1.4307E+00  1.3944E+00
 50 4.0831E-02 2.0541E+01 2.0696E+02  0.00E+00   2.8269E-03  2.0696E+02  1.4514E-06  2.0920E-06 -1.2845E+00  1.3103E+00
 51 4.5297E-02 1.9997E+01 2.0785E+02  0.00E+00   3.9609E-03  2.0785E+02  1.4514E-06  2.0920E-06 -1.1877E+00  1.2282E+00
 52 5.0190E-02 1.9458E+01 2.0863E+02  0.00E+00   4.5243E-03  2.0862E+02  1.4514E-06  2.0920E-06 -1.0876E+00  1.1452E+00
 53 5.5541E-02 1.8923E+01 2.0921E+02  0.00E+00   4.6428E-03  2.0921E+02  1.4514E-06  2.0920E-06 -9.9325E-01  1.0603E+00
 54 6.1385E-02 1.8394E+01 2.0956E+02  0.00E+00   4.9737E-03  2.0956E+02  1.4514E-06  2.0920E-06 -8.8407E-01  9.7303E-01
 55 6.7760E-02 1.7870E+01 2.0964E+02  0.00E+00   4.6162E-03  2.0964E+02  1.4514E-06  2.0920E-06 -7.9193E-01  8.8368E-01
 56 7.4703E-02 1.7354E+01 2.0945E+02  0.00E+00   3.8314E-03  2.0945E+02  1.4514E-06  2.0920E-06 -7.1133E-01  7.9295E-01
 57 8.2255E-02 1.6845E+01 2.0901E+02  0.00E+00   3.5389E-03  2.0901E+02  1.4514E-06  2.0920E-06 -6.4246E-01  7.0181E-01
 58 9.0456E-02 1.6344E+01 2.0837E+02  0.00E+00   3.5946E-03  2.0837E+02  1.4514E-06  2.0920E-06 -5.6643E-01  6.1135E-01
 59 9.9350E-02 1.5851E+01 2.0760E+02  0.00E+00   3.4096E-03  2.0759E+02  1.4514E-06  2.0920E-06 -4.9956E-01  5.2594E-01
 60 1.0898E-01 1.5367E+01 2.0674E+02  0.00E+00   2.8259E-03  2.0674E+02  1.4514E-06  2.0920E-06 -4.7352E-01  4.9806E-01
 61 1.1940E-01 1.4891E+01 2.0587E+02  0.00E+00   2.0512E-03  2.0587E+02  1.4514E-06  2.0920E-06 -4.5090E-01  4.6732E-01
 62 1.3065E-01 1.4423E+01 2.0505E+02  0.00E+00   1.1961E-03  2.0504E+02  1.4514E-06  2.0920E-06 -4.4095E-01  4.3201E-01
 63 1.4278E-01 1.3964E+01 2.0432E+02  0.00E+00   3.3844E-04  2.0432E+02  1.4514E-06  2.0920E-06 -4.1598E-01  3.9643E-01
 64 1.5583E-01 1.3513E+01 2.0374E+02  0.00E+00  -2.5326E-04  2.0374E+02  1.4514E-06  2.0920E-06 -3.8876E-01  3.6377E-01
 65 1.6987E-01 1.3070E+01 2.0333E+02  0.00E+00  -1.1558E-03  2.0333E+02  1.4514E-06  2.0920E-06 -3.7159E-01  3.3570E-01
 66 1.8495E-01 1.2633E+01 2.0311E+02  0.00E+00  -1.1830E-03  2.0311E+02  1.4514E-06  2.0920E-06 -3.5382E-01  3.1255E-01
 67 2.0111E-01 1.2203E+01 2.0309E+02  0.00E+00  -1.9864E-03  2.0309E+02  1.4514E-06  2.0920E-06 -3.3536E-01  2.9382E-01
 68 2.1840E-01 1.1780E+01 2.0324E+02  0.00E+00  -2.6794E-03  2.0325E+02  1.4514E-06  2.0920E-06 -3.1630E-01  2.7855E-01
 69 2.3689E-01 1.1362E+01 2.0356E+02  0.00E+00   2.3550E-04  2.0356E+02  1.4514E-06  2.0920E-06 -2.9675E-01  2.6573E-01
 70 2.5662E-01 1.0950E+01 2.0398E+02  0.00E+00  -7.9176E-03  2.0399E+02  1.4514E-06  2.0920E-06 -2.7494E-01  2.5439E-01
 71 2.7765E-01 1.0544E+01 2.0449E+02  0.00E+00   7.8825E-03  2.0448E+02  1.4791E-06  2.0920E-06 -2.5303E-01  2.4379E-01
 72 3.0002E-01 1.0143E+01 2.0502E+02  0.00E+00  -1.1297E-02  2.0503E+02  1.5900E-06  2.0920E-06 -2.1863E-01  2.3370E-01
 73 3.2379E-01 9.7475E+00 2.0561E+02  0.00E+00   1.8325E-03  2.0561E+02  1.7443E-06  2.0920E-06 -2.0960E-01  2.2543E-01
 74 3.4900E-01 9.3567E+00 2.0690E+02  0.00E+00  -6.4970E-04  2.0690E+02  2.1174E-06  2.1284E-06 -2.2608E-01  2.2047E-01
 75 3.7571E-01 8.9702E+00 2.0802E+02  0.00E+00   7.2948E-04  2.0802E+02  2.5019E-06  2.2737E-06 -2.0922E-01  2.1553E-01
 76 4.0395E-01 8.5881E+00 2.0930E+02  0.00E+00  -1.4204E-03  2.0930E+02  3.0143E-06  2.5427E-06 -2.2309E-01  2.1081E-01
 77 4.3378E-01 8.2096E+00 2.1132E+02  0.00E+00   2.4083E-03  2.1131E+02  4.0115E-06  2.9283E-06 -1.8656E-01  2.0737E-01
 78 4.6522E-01 7.8351E+00 2.1236E+02  0.00E+00   7.6973E-04  2.1236E+02  4.6521E-06  4.7813E-06 -1.9652E-01  2.0317E-01
 79 4.9831E-01 7.4630E+00 2.1620E+02  0.00E+00  -6.0576E-06  2.1620E+02  7.8045E-06  8.2286E-06 -4.7347E-01  2.0741E-01
 80 5.3310E-01 7.0911E+00 2.2021E+02  1.00E+00  -6.2459E-06  2.2021E+02  1.3151E-05  1.3847E-05 -7.3803E-01  2.1793E-01
 81 5.6959E-01 6.7193E+00 2.2421E+02  1.00E+00  -1.5351E-05  2.2421E+02  2.1687E-05  2.2791E-05 -9.5051E-01  2.3440E-01
 82 6.0782E-01 6.3481E+00 2.2817E+02  1.00E+00  -3.3024E-05  2.2817E+02  3.5006E-05  3.6705E-05 -1.1190E+00  2.5856E-01
 83 6.4780E-01 5.9776E+00 2.3209E+02  1.00E+00  -5.7619E-05  2.3209E+02  5.5314E-05  5.7843E-05 -1.2462E+00  2.9251E-01
 84 6.8955E-01 5.6083E+00 2.3596E+02  1.00E+00  -8.6295E-05  2.3596E+02  8.5560E-05  8.9200E-05 -1.3086E+00  3.3150E-01
 85 7.3307E-01 5.2405E+00 2.3976E+02  1.00E+00  -1.1553E-04  2.3976E+02  1.2954E-04  1.3459E-04 -1.3111E+00  3.6274E-01
 86 7.7837E-01 4.8745E+00 2.4348E+02  1.00E+00  -1.4196E-04  2.4348E+02  1.9193E-04  1.9869E-04 -1.2656E+00  3.7762E-01
 87 8.2542E-01 4.5107E+00 2.4710E+02  1.00E+00  -1.6332E-04  2.4710E+02  2.7827E-04  2.8695E-04 -1.2116E+00  3.8351E-01
 88 8.7422E-01 4.1495E+00 2.5061E+02  1.00E+00  -1.7889E-04  2.5061E+02  3.9478E-04  4.0545E-04 -1.1666E+00  3.9752E-01
 89 9.2475E-01 3.7913E+00 2.5399E+02  1.00E+00  -1.8928E-04  2.5399E+02  5.4812E-04  5.6061E-04 -1.1707E+00  4.2472E-01
 90 9.7698E-01 3.4364E+00 2.5724E+02  1.00E+00  -1.9551E-04  2.5724E+02  7.4507E-04  7.5891E-04 -1.1439E+00  4.5487E-01
 91 1.0309E+00 3.0852E+00 2.6035E+02  1.00E+00  -1.9823E-04  2.6035E+02  9.9215E-04  1.0065E-03 -1.0789E+00  4.9753E-01
 92 1.0863E+00 2.7382E+00 2.6331E+02  1.00E+00  -1.9769E-04  2.6331E+02  1.2954E-03  1.3090E-03 -9.6903E-01  5.1441E-01
 93 1.1434E+00 2.3957E+00 2.6613E+02  1.00E+00  -1.9447E-04  2.6613E+02  1.6599E-03  1.6712E-03 -8.0772E-01  5.1078E-01
 94 1.2019E+00 2.0580E+00 2.6880E+02  1.00E+00  -1.8922E-04  2.6880E+02  2.0899E-03  2.0969E-03 -6.5217E-01  5.0455E-01
 95 1.2619E+00 1.7256E+00 2.7133E+02  1.00E+00  -1.8264E-04  2.7133E+02  2.5886E-03  2.5891E-03 -5.5388E-01  5.0227E-01
 96 1.3231E+00 1.3986E+00 2.7377E+02  1.00E+00  -1.7564E-04  2.7377E+02  3.1789E-03  3.1706E-03 -5.0352E-01  5.0375E-01
 97 1.3857E+00 1.0774E+00 2.7623E+02  1.00E+00  -1.6853E-04  2.7623E+02  3.8170E-03  3.8023E-03 -5.0377E-01  5.0535E-01
 98 1.4493E+00 7.6201E-01 2.7858E+02  1.00E+00  -1.6631E-04  2.7858E+02  4.4678E-03  4.4329E-03 -5.1672E-01  5.1103E-01
 99 1.5140E+00 4.5281E-01 2.8082E+02  1.00E+00  -1.5912E-04  2.8082E+02  5.2612E-03  5.2198E-03 -6.1365E-01  5.3407E-01
100 1.5795E+00 1.5004E-01 2.8295E+02  1.00E+00  -1.5380E-04  2.8295E+02  6.0166E-03  5.9694E-03 -6.8067E-01  5.6670E-01
101 1.6129E+00 0.0000E+00 2.8400E+02  1.00E+00  -1.5064E-04  2.8400E+02  6.4937E-03  6.4151E-03 -9.0871E-01  3.1583E+00

 FCO2
  2.83E-01 2.83E-01 2.83E-01 2.83E-01 2.83E-01 2.83E-01 2.83E-01 2.83E-01 2.83E-01 2.83E-01
  2.83E-01 2.83E-01 2.83E-01 2.83E-01 2.83E-01 2.83E-01 2.83E-01 2.83E-01 2.83E-01 2.83E-01
  2.83E-01 2.83E-01 2.83E-01 2.83E-01 2.83E-01 2.83E-01 2.83E-01 2.83E-01 2.83E-01 2.83E-01
  2.83E-01 2.83E-01 2.83E-01 2.83E-01 2.83E-01 2.83E-01 2.83E-01 2.83E-01 2.83E-01 2.83E-01
  2.83E-01 2.83E-01 2.83E-01 2.83E-01 2.83E-01 2.83E-01 2.83E-01 2.83E-01 2.83E-01 2.83E-01
  2.83E-01 2.83E-01 2.83E-01 2.83E-01 2.83E-01 2.83E-01 2.83E-01 2.83E-01 2.83E-01 2.83E-01
  2.83E-01 2.83E-01 2.83E-01 2.83E-01 2.83E-01 2.83E-01 2.83E-01 2.83E-01 2.83E-01 2.83E-01
  2.83E-01 2.83E-01 2.83E-01 2.83E-01 2.83E-01 2.83E-01 2.83E-01 2.83E-01 2.83E-01 2.83E-01
  2.83E-01 2.83E-01 2.83E-01 2.83E-01 2.83E-01 2.83E-01 2.83E-01 2.83E-01 2.83E-01 2.83E-01
  2.83E-01 2.83E-01 2.83E-01 2.83E-01 2.83E-01 2.83E-01 2.83E-01 2.83E-01 2.83E-01 2.83E-01
  2.83E-01

  J    PF         ALT       FTOTAL       FTIR       FDNIR       FUPIR       FTSOL       FDNSOL       FUPSOL       DIVF
  1 5.0000E-05 5.3146E+01 -9.8386E+01 -1.6274E+05  0.0000E+00  1.6274E+05  1.6264E+05  3.2300E+05  1.6036E+05 -6.0458E-04
  2 5.9020E-05 5.2247E+01 -1.1165E+02 -1.6216E+05  4.6505E+02  1.6263E+05  1.6205E+05  3.2241E+05  1.6036E+05 -6.8651E-04
  3 6.9580E-05 5.1383E+01 -8.8251E+01 -1.6201E+05  5.6765E+02  1.6258E+05  1.6193E+05  3.2228E+05  1.6036E+05 -5.4281E-04
  4 8.1927E-05 5.0533E+01 -8.9191E+01 -1.6189E+05  6.5567E+02  1.6255E+05  1.6180E+05  3.2216E+05  1.6036E+05 -5.4871E-04
  5 9.6343E-05 4.9695E+01 -9.2382E+01 -1.6176E+05  7.3599E+02  1.6250E+05  1.6167E+05  3.2203E+05  1.6036E+05 -5.6851E-04
  6 1.1315E-04 4.8872E+01 -9.9901E+01 -1.6163E+05  8.0224E+02  1.6244E+05  1.6153E+05  3.2189E+05  1.6036E+05 -6.1501E-04
  7 1.3273E-04 4.8069E+01 -1.0140E+02 -1.6150E+05  8.6522E+02  1.6236E+05  1.6140E+05  3.2176E+05  1.6036E+05 -6.2454E-04
  8 1.5551E-04 4.7289E+01 -1.0126E+02 -1.6136E+05  9.2825E+02  1.6229E+05  1.6126E+05  3.2162E+05  1.6036E+05 -6.2395E-04
  9 1.8195E-04 4.6530E+01 -1.0033E+02 -1.6123E+05  9.9654E+02  1.6223E+05  1.6113E+05  3.2149E+05  1.6036E+05 -6.1845E-04
 10 2.1264E-04 4.5792E+01 -9.9329E+01 -1.6110E+05  1.0734E+03  1.6218E+05  1.6100E+05  3.2136E+05  1.6036E+05 -6.1248E-04
 11 2.4818E-04 4.5071E+01 -9.8365E+01 -1.6098E+05  1.1604E+03  1.6214E+05  1.6088E+05  3.2124E+05  1.6036E+05 -6.0666E-04
 12 2.8930E-04 4.4363E+01 -9.7246E+01 -1.6087E+05  1.2576E+03  1.6213E+05  1.6077E+05  3.2113E+05  1.6035E+05 -5.9982E-04
 13 3.3682E-04 4.3665E+01 -9.5749E+01 -1.6076E+05  1.3639E+03  1.6213E+05  1.6067E+05  3.2102E+05  1.6035E+05 -5.9058E-04
 14 3.9165E-04 4.2975E+01 -9.5296E+01 -1.6066E+05  1.4790E+03  1.6214E+05  1.6057E+05  3.2092E+05  1.6035E+05 -5.8773E-04
 15 4.5483E-04 4.2291E+01 -9.5549E+01 -1.6056E+05  1.6036E+03  1.6217E+05  1.6047E+05  3.2082E+05  1.6035E+05 -5.8920E-04
 16 5.2754E-04 4.1611E+01 -9.5842E+01 -1.6046E+05  1.7393E+03  1.6220E+05  1.6036E+05  3.2072E+05  1.6035E+05 -5.9089E-04
 17 6.1111E-04 4.0935E+01 -9.6909E+01 -1.6035E+05  1.8870E+03  1.6224E+05  1.6025E+05  3.2060E+05  1.6035E+05 -5.9732E-04
 18 7.0704E-04 4.0262E+01 -9.7538E+01 -1.6023E+05  2.0499E+03  1.6228E+05  1.6013E+05  3.2048E+05  1.6035E+05 -6.0105E-04
 19 8.1699E-04 3.9594E+01 -9.5030E+01 -1.6009E+05  2.2305E+03  1.6232E+05  1.6000E+05  3.2035E+05  1.6035E+05 -5.8544E-04
 20 9.4287E-04 3.8929E+01 -9.5855E+01 -1.5994E+05  2.4237E+03  1.6237E+05  1.5985E+05  3.2019E+05  1.6035E+05 -5.9036E-04
 21 1.0868E-03 3.8269E+01 -1.0932E+02 -1.5978E+05  2.6347E+03  1.6242E+05  1.5967E+05  3.2002E+05  1.6035E+05 -6.7306E-04
 22 1.2511E-03 3.7613E+01 -1.0641E+02 -1.5956E+05  2.9443E+03  1.6250E+05  1.5945E+05  3.1980E+05  1.6034E+05 -6.5483E-04
 23 1.4384E-03 3.6959E+01 -9.6153E+01 -1.5929E+05  3.3529E+03  1.6264E+05  1.5919E+05  3.1953E+05  1.6034E+05 -5.9120E-04
 24 1.6517E-03 3.6307E+01 -8.7463E+01 -1.5897E+05  3.8419E+03  1.6281E+05  1.5888E+05  3.1923E+05  1.6034E+05 -5.3720E-04
 25 1.8943E-03 3.5655E+01 -8.3818E+01 -1.5862E+05  4.3843E+03  1.6301E+05  1.5854E+05  3.1889E+05  1.6034E+05 -5.1419E-04
 26 2.1698E-03 3.5003E+01 -8.5635E+01 -1.5825E+05  4.9492E+03  1.6320E+05  1.5817E+05  3.1851E+05  1.6035E+05 -5.2472E-04
 27 2.4822E-03 3.4352E+01 -9.4004E+01 -1.5787E+05  5.5099E+03  1.6338E+05  1.5777E+05  3.1812E+05  1.6035E+05 -5.7538E-04
 28 2.8360E-03 3.3703E+01 -1.0115E+02 -1.5747E+05  6.0626E+03  1.6353E+05  1.5736E+05  3.1772E+05  1.6035E+05 -6.1858E-04
 29 3.2363E-03 3.3057E+01 -1.0777E+02 -1.5706E+05  6.6061E+03  1.6366E+05  1.5695E+05  3.1731E+05  1.6036E+05 -6.5846E-04
 30 3.6884E-03 3.2414E+01 -1.0765E+02 -1.5665E+05  7.1505E+03  1.6380E+05  1.5654E+05  3.1691E+05  1.6037E+05 -6.5720E-04
 31 4.1983E-03 3.1776E+01 -1.0598E+02 -1.5624E+05  7.6983E+03  1.6394E+05  1.5613E+05  3.1651E+05  1.6038E+05 -6.4646E-04
 32 4.7729E-03 3.1142E+01 -9.9611E+01 -1.5583E+05  8.2611E+03  1.6409E+05  1.5573E+05  3.1612E+05  1.6039E+05 -6.0705E-04
 33 5.4192E-03 3.0511E+01 -9.1716E+01 -1.5542E+05  8.8362E+03  1.6426E+05  1.5533E+05  3.1573E+05  1.6040E+05 -5.5837E-04
 34 6.1453E-03 2.9885E+01 -8.9781E+01 -1.5502E+05  9.4114E+03  1.6443E+05  1.5493E+05  3.1534E+05  1.6041E+05 -5.4603E-04
 35 6.9601E-03 2.9262E+01 -8.7296E+01 -1.5460E+05  9.9879E+03  1.6459E+05  1.5451E+05  3.1494E+05  1.6043E+05 -5.3039E-04
 36 7.8729E-03 2.8643E+01 -8.3915E+01 -1.5417E+05  1.0555E+04  1.6473E+05  1.5409E+05  3.1454E+05  1.6045E+05 -5.0942E-04
 37 8.8944E-03 2.8029E+01 -8.6030E+01 -1.5373E+05  1.1093E+04  1.6482E+05  1.5364E+05  3.1412E+05  1.6047E+05 -5.2196E-04
 38 1.0036E-02 2.7420E+01 -1.1431E+02 -1.5329E+05  1.1584E+04  1.6488E+05  1.5318E+05  3.1368E+05  1.6050E+05 -6.9333E-04
 39 1.1309E-02 2.6817E+01 -1.3737E+02 -1.5283E+05  1.2086E+04  1.6492E+05  1.5270E+05  3.1323E+05  1.6053E+05 -8.3295E-04
 40 1.2729E-02 2.6221E+01 -1.3362E+02 -1.5233E+05  1.2646E+04  1.6498E+05  1.5220E+05  3.1276E+05  1.6056E+05 -8.0992E-04
 41 1.4308E-02 2.5631E+01 -1.1841E+02 -1.5181E+05  1.3264E+04  1.6507E+05  1.5169E+05  3.1228E+05  1.6059E+05 -7.1732E-04
 42 1.6064E-02 2.5046E+01 -1.0565E+02 -1.5128E+05  1.3932E+04  1.6521E+05  1.5118E+05  3.1180E+05  1.6063E+05 -6.3948E-04
 43 1.8012E-02 2.4467E+01 -8.8591E+01 -1.5075E+05  1.4656E+04  1.6541E+05  1.5066E+05  3.1132E+05  1.6066E+05 -5.3560E-04
 44 2.0171E-02 2.3892E+01 -9.3338E+01 -1.5024E+05  1.5400E+04  1.6564E+05  1.5015E+05  3.1084E+05  1.6069E+05 -5.6351E-04
 45 2.2561E-02 2.3323E+01 -9.7112E+01 -1.4973E+05  1.6186E+04  1.6591E+05  1.4963E+05  3.1035E+05  1.6072E+05 -5.8532E-04
 46 2.5202E-02 2.2758E+01 -1.1335E+02 -1.4922E+05  1.7002E+04  1.6622E+05  1.4911E+05  3.0987E+05  1.6076E+05 -6.8189E-04
 47 2.8117E-02 2.2198E+01 -1.1593E+02 -1.4870E+05  1.7884E+04  1.6658E+05  1.4858E+05  3.0937E+05  1.6079E+05 -6.9596E-04
 48 3.1330E-02 2.1642E+01 -1.0612E+02 -1.4815E+05  1.8834E+04  1.6698E+05  1.4804E+05  3.0886E+05  1.6082E+05 -6.3550E-04
 49 3.4866E-02 2.1089E+01 -8.9097E+01 -1.4757E+05  1.9838E+04  1.6741E+05  1.4748E+05  3.0832E+05  1.6084E+05 -5.3221E-04
 50 3.8753E-02 2.0541E+01 -7.4095E+01 -1.4698E+05  2.0868E+04  1.6785E+05  1.4691E+05  3.0777E+05  1.6086E+05 -4.4144E-04
 51 4.3019E-02 1.9997E+01 -8.5790E+01 -1.4640E+05  2.1864E+04  1.6826E+05  1.4631E+05  3.0719E+05  1.6088E+05 -5.0986E-04
 52 4.7696E-02 1.9458E+01 -1.0592E+02 -1.4581E+05  2.2816E+04  1.6862E+05  1.4570E+05  3.0659E+05  1.6089E+05 -6.2812E-04
 53 5.2814E-02 1.8923E+01 -1.3731E+02 -1.4522E+05  2.3690E+04  1.6891E+05  1.4508E+05  3.0598E+05  1.6090E+05 -8.1294E-04
 54 5.8408E-02 1.8394E+01 -1.7723E+02 -1.4462E+05  2.4459E+04  1.6908E+05  1.4445E+05  3.0534E+05  1.6089E+05 -1.0482E-03
 55 6.4514E-02 1.7870E+01 -2.3504E+02 -1.4405E+05  2.5094E+04  1.6914E+05  1.4381E+05  3.0469E+05  1.6088E+05 -1.3896E-03
 56 7.1169E-02 1.7354E+01 -3.0002E+02 -1.4349E+05  2.5599E+04  1.6909E+05  1.4319E+05  3.0404E+05  1.6085E+05 -1.7744E-03
 57 7.8413E-02 1.6845E+01 -3.6294E+02 -1.4294E+05  2.5991E+04  1.6893E+05  1.4258E+05  3.0339E+05  1.6081E+05 -2.1484E-03
 58 8.6285E-02 1.6344E+01 -4.1264E+02 -1.4240E+05  2.6295E+04  1.6870E+05  1.4199E+05  3.0275E+05  1.6076E+05 -2.4461E-03
 59 9.4828E-02 1.5851E+01 -4.5346E+02 -1.4189E+05  2.6530E+04  1.6842E+05  1.4143E+05  3.0212E+05  1.6068E+05 -2.6925E-03
 60 1.0409E-01 1.5367E+01 -4.7942E+02 -1.4140E+05  2.6729E+04  1.6812E+05  1.4092E+05  3.0151E+05  1.6059E+05 -2.8516E-03
 61 1.1411E-01 1.4891E+01 -5.0555E+02 -1.4089E+05  2.6964E+04  1.6786E+05  1.4039E+05  3.0087E+05  1.6049E+05 -3.0118E-03
 62 1.2494E-01 1.4423E+01 -5.2442E+02 -1.4037E+05  2.7273E+04  1.6765E+05  1.3985E+05  3.0022E+05  1.6037E+05 -3.1282E-03
 63 1.3662E-01 1.3964E+01 -5.1333E+02 -1.3983E+05  2.7699E+04  1.6752E+05  1.3931E+05  2.9956E+05  1.6025E+05 -3.0642E-03
 64 1.4921E-01 1.3513E+01 -4.8720E+02 -1.3927E+05  2.8240E+04  1.6751E+05  1.3878E+05  2.9889E+05  1.6011E+05 -2.9085E-03
 65 1.6275E-01 1.3070E+01 -4.5127E+02 -1.3871E+05  2.8903E+04  1.6761E+05  1.3826E+05  2.9822E+05  1.5996E+05 -2.6923E-03
 66 1.7731E-01 1.2633E+01 -3.9585E+02 -1.3814E+05  2.9717E+04  1.6785E+05  1.3774E+05  2.9754E+05  1.5980E+05 -2.3583E-03
 67 1.9292E-01 1.2203E+01 -3.2750E+02 -1.3755E+05  3.0684E+04  1.6823E+05  1.3722E+05  2.9685E+05  1.5963E+05 -1.9467E-03
 68 2.0964E-01 1.1780E+01 -2.5379E+02 -1.3696E+05  3.1795E+04  1.6875E+05  1.3670E+05  2.9614E+05  1.5944E+05 -1.5039E-03
 69 2.2753E-01 1.1362E+01 -1.8215E+02 -1.3636E+05  3.3039E+04  1.6939E+05  1.3617E+05  2.9541E+05  1.5923E+05 -1.0753E-03
 70 2.4664E-01 1.0950E+01 -1.1926E+02 -1.3575E+05  3.4402E+04  1.7016E+05  1.3563E+05  2.9465E+05  1.5901E+05 -7.0088E-04
 71 2.6701E-01 1.0544E+01 -7.4808E+01 -1.3516E+05  3.5856E+04  1.7102E+05  1.3508E+05  2.9386E+05  1.5878E+05 -4.3744E-04
 72 2.8871E-01 1.0143E+01 -5.3546E+01 -1.3458E+05  3.7435E+04  1.7201E+05  1.3452E+05  2.9304E+05  1.5852E+05 -3.1129E-04
 73 3.1178E-01 9.7475E+00 -9.0441E+01 -1.3404E+05  3.9128E+04  1.7317E+05  1.3395E+05  2.9220E+05  1.5825E+05 -5.2227E-04
 74 3.3627E-01 9.3567E+00 -1.3163E+02 -1.3350E+05  4.1252E+04  1.7475E+05  1.3336E+05  2.9132E+05  1.5796E+05 -7.5323E-04
 75 3.6222E-01 8.9702E+00 -1.1614E+02 -1.3287E+05  4.3561E+04  1.7643E+05  1.3276E+05  2.9041E+05  1.5765E+05 -6.5826E-04
 76 3.8970E-01 8.5881E+00 -1.3455E+02 -1.3226E+05  4.6222E+04  1.7848E+05  1.3213E+05  2.8946E+05  1.5733E+05 -7.5387E-04
 77 4.1873E-01 8.2096E+00 -9.6638E+01 -1.3157E+05  4.9547E+04  1.8112E+05  1.3148E+05  2.8847E+05  1.5700E+05 -5.3356E-04
 78 4.4936E-01 7.8351E+00 -1.6453E+02 -1.3096E+05  5.2829E+04  1.8379E+05  1.3080E+05  2.8745E+05  1.5665E+05 -8.9521E-04
 79 4.8163E-01 7.4630E+00 -1.8740E+02 -1.3029E+05  5.7970E+04  1.8826E+05  1.3010E+05  2.8638E+05  1.5628E+05 -9.9546E-04
 80 5.1557E-01 7.0911E+00  7.7677E+02 -1.2857E+05  6.4766E+04  1.9334E+05  1.2935E+05  2.8525E+05  1.5590E+05  4.0177E-03
 81 5.5121E-01 6.7193E+00  2.7600E+03 -1.2576E+05  7.3188E+04  1.9895E+05  1.2852E+05  2.8402E+05  1.5550E+05  1.3873E-02
 82 5.8858E-01 6.3481E+00  5.6285E+03 -1.2195E+05  8.3139E+04  2.0509E+05  1.2758E+05  2.8267E+05  1.5509E+05  2.7444E-02
 83 6.2769E-01 5.9776E+00  9.2433E+03 -1.1725E+05  9.4515E+04  2.1176E+05  1.2649E+05  2.8116E+05  1.5467E+05  4.3649E-02
 84 6.6856E-01 5.6083E+00  1.3439E+04 -1.1177E+05  1.0719E+05  2.1896E+05  1.2521E+05  2.7944E+05  1.5423E+05  6.1375E-02
 85 7.1120E-01 5.2405E+00  1.7932E+04 -1.0575E+05  1.2084E+05  2.2659E+05  1.2368E+05  2.7746E+05  1.5378E+05  7.9139E-02
 86 7.5562E-01 4.8745E+00  2.2483E+04 -9.9458E+04  1.3519E+05  2.3465E+05  1.2194E+05  2.7526E+05  1.5332E+05  9.5815E-02
 87 8.0180E-01 4.5107E+00  2.6922E+04 -9.3131E+04  1.4994E+05  2.4307E+05  1.2005E+05  2.7290E+05  1.5285E+05  1.1076E-01
 88 8.4974E-01 4.1495E+00  3.1227E+04 -8.6832E+04  1.6495E+05  2.5178E+05  1.1806E+05  2.7044E+05  1.5238E+05  1.2402E-01
 89 8.9942E-01 3.7913E+00  3.5377E+04 -8.0536E+04  1.8007E+05  2.6061E+05  1.1591E+05  2.6781E+05  1.5190E+05  1.3575E-01
 90 9.5080E-01 3.4364E+00  3.9549E+04 -7.3989E+04  1.9569E+05  2.6968E+05  1.1354E+05  2.6497E+05  1.5143E+05  1.4665E-01
 91 1.0039E+00 3.0852E+00  4.3535E+04 -6.7372E+04  2.1163E+05  2.7900E+05  1.1091E+05  2.6187E+05  1.5096E+05  1.5604E-01
 92 1.0586E+00 2.7382E+00  4.7006E+04 -6.0929E+04  2.2750E+05  2.8843E+05  1.0794E+05  2.5845E+05  1.5052E+05  1.6297E-01
 93 1.1149E+00 2.3957E+00  4.9804E+04 -5.4966E+04  2.4296E+05  2.9793E+05  1.0477E+05  2.5487E+05  1.5010E+05  1.6717E-01
 94 1.1727E+00 2.0580E+00  5.1683E+04 -4.9854E+04  2.5759E+05  3.0744E+05  1.0154E+05  2.5126E+05  1.4973E+05  1.6811E-01
 95 1.2319E+00 1.7256E+00  5.2643E+04 -4.5617E+04  2.7124E+05  3.1686E+05  9.8260E+04  2.4767E+05  1.4941E+05  1.6614E-01
 96 1.2925E+00 1.3986E+00  5.2986E+04 -4.1931E+04  2.8444E+05  3.2637E+05  9.4917E+04  2.4409E+05  1.4917E+05  1.6235E-01
 97 1.3545E+00 1.0774E+00  5.2984E+04 -3.8504E+04  2.9758E+05  3.3609E+05  9.1488E+04  2.4053E+05  1.4904E+05  1.5765E-01
 98 1.4176E+00 7.6201E-01  5.2973E+04 -3.5006E+04  3.1061E+05  3.4562E+05  8.7979E+04  2.3701E+05  1.4904E+05  1.5327E-01
 99 1.4817E+00 4.5281E-01  5.3014E+04 -3.1352E+04  3.2342E+05  3.5477E+05  8.4365E+04  2.3357E+05  1.4920E+05  1.4943E-01
100 1.5469E+00 1.5004E-01  5.3586E+04 -2.6942E+04  3.3608E+05  3.6302E+05  8.0527E+04  2.3012E+05  1.4960E+05  1.4761E-01
101 1.6129E+00 0.0000E+00  5.4416E+04 -2.1982E+04  3.4494E+05  3.6692E+05  7.6398E+04  2.2670E+05  1.5030E+05  1.4830E-01
 
