 
    OUTPUT FILES FOR THE Sun  
 
 Solar Constant= 0.950   F_CH4= 1.0000E-60  F_CO2= 6.5478E-03  F_O2= 2.1000E-01  F_N2= 7.8345E-01  IO3 =  1   IUP=  0
 ICONSERV= 1  FAC= 4.0  ND=101  SRFALB= 0.663  G= 980.0  IMW= 1

 FNO2 = 1.000E-60
 
 NST=     1 JCONV= 93 CHG=2.05E-03 dt0=7.50E+03 DIVF(1)= 7.96E-05 DIVFrms= 3.05E-03 DT(ND)= 5.05E-03 T(ND)=2.2680E+02

 TIME= 5.000E+03  TIME IN DAYS = 5.787E-02

 PLANETARY ALBEDO:  ALBP = 0.6030

  J     P         ALT         T        CONVEC       DT          TOLD        FH20       FSAVE       TCOOL       THEAT
  1 5.4120E-05 5.9242E+01 1.9507E+02  0.00E+00   7.5407E-01  1.9432E+02  6.7370E-07  6.7300E-07 -5.3203E+01  5.3041E+01
  2 6.3370E-05 5.8310E+01 2.1048E+02  0.00E+00   4.3154E-01  2.1005E+02  6.7370E-07  6.7300E-07 -3.2607E+01  4.8256E+01
  3 7.4112E-05 5.7326E+01 2.2093E+02  0.00E+00   2.0676E-01  2.2073E+02  6.7370E-07  6.7300E-07 -3.1287E+01  4.3340E+01
  4 8.6570E-05 5.6314E+01 2.2619E+02  0.00E+00   3.2425E-01  2.2586E+02  6.7370E-07  6.7300E-07 -3.0379E+01  3.8387E+01
  5 1.0100E-04 5.5296E+01 2.2742E+02  0.00E+00   2.8236E-01  2.2713E+02  6.7370E-07  6.7300E-07 -2.8135E+01  3.3498E+01
  6 1.1770E-04 5.4285E+01 2.2620E+02  0.00E+00   1.8669E-01  2.2601E+02  6.7370E-07  6.7300E-07 -2.6959E+01  2.8787E+01
  7 1.3699E-04 5.3290E+01 2.2387E+02  0.00E+00   1.1099E-01  2.2376E+02  6.7370E-07  6.7300E-07 -2.4030E+01  2.4373E+01
  8 1.5926E-04 5.2313E+01 2.2131E+02  0.00E+00   4.5883E-02  2.2127E+02  6.7370E-07  6.7300E-07 -2.0894E+01  2.0369E+01
  9 1.8492E-04 5.1355E+01 2.1893E+02  0.00E+00  -2.9631E-03  2.1893E+02  6.7370E-07  6.7300E-07 -1.7503E+01  1.6870E+01
 10 2.1446E-04 5.0414E+01 2.1685E+02  0.00E+00  -3.4098E-02  2.1688E+02  6.7370E-07  6.7300E-07 -1.4624E+01  1.3936E+01
 11 2.4842E-04 4.9489E+01 2.1511E+02  0.00E+00  -4.4847E-02  2.1515E+02  6.7370E-07  6.7300E-07 -1.2409E+01  1.1587E+01
 12 2.8742E-04 4.8579E+01 2.1374E+02  0.00E+00  -4.6829E-02  2.1379E+02  6.7370E-07  6.7300E-07 -1.0682E+01  9.8182E+00
 13 3.3214E-04 4.7680E+01 2.1277E+02  0.00E+00  -4.2198E-02  2.1282E+02  6.7370E-07  6.7300E-07 -9.6725E+00  8.7571E+00
 14 3.8336E-04 4.6792E+01 2.1220E+02  0.00E+00  -3.2720E-02  2.1224E+02  6.7370E-07  6.7300E-07 -9.2113E+00  8.4455E+00
 15 4.4195E-04 4.5914E+01 2.1197E+02  0.00E+00  -2.3520E-02  2.1199E+02  6.7370E-07  6.7300E-07 -8.9092E+00  8.4302E+00
 16 5.0888E-04 4.5043E+01 2.1198E+02  0.00E+00  -1.5870E-02  2.1199E+02  6.7370E-07  6.7300E-07 -8.8305E+00  8.5642E+00
 17 5.8525E-04 4.4179E+01 2.1213E+02  0.00E+00  -6.1244E-03  2.1214E+02  6.7370E-07  6.7300E-07 -8.8820E+00  8.7531E+00
 18 6.7228E-04 4.3322E+01 2.1233E+02  0.00E+00   6.0964E-03  2.1232E+02  6.7370E-07  6.7300E-07 -8.8301E+00  8.9246E+00
 19 7.7132E-04 4.2472E+01 2.1247E+02  0.00E+00   2.0656E-02  2.1245E+02  6.7370E-07  6.7300E-07 -8.7153E+00  9.0293E+00
 20 8.8390E-04 4.1628E+01 2.1243E+02  0.00E+00   2.9994E-02  2.1240E+02  6.7370E-07  6.7300E-07 -8.4534E+00  9.0420E+00
 21 1.0117E-03 4.0793E+01 2.1208E+02  0.00E+00   1.1664E-02  2.1207E+02  6.7370E-07  6.7300E-07 -8.1766E+00  9.0773E+00
 22 1.1566E-03 3.9968E+01 2.1141E+02  0.00E+00   3.4298E-03  2.1141E+02  6.7370E-07  6.7300E-07 -9.5221E+00  9.8127E+00
 23 1.3206E-03 3.9153E+01 2.1056E+02  0.00E+00   4.5611E-03  2.1056E+02  6.7370E-07  6.7300E-07 -1.0273E+01  1.0238E+01
 24 1.5062E-03 3.8348E+01 2.0969E+02  0.00E+00  -3.0409E-03  2.0970E+02  6.7370E-07  6.7300E-07 -1.0524E+01  1.0291E+01
 25 1.7157E-03 3.7554E+01 2.0890E+02  0.00E+00  -1.1682E-02  2.0891E+02  6.7370E-07  6.7300E-07 -1.0342E+01  1.0009E+01
 26 1.9520E-03 3.6770E+01 2.0825E+02  0.00E+00  -1.3638E-02  2.0826E+02  6.7370E-07  6.7300E-07 -9.8735E+00  9.4661E+00
 27 2.2183E-03 3.5995E+01 2.0775E+02  0.00E+00  -1.2479E-02  2.0776E+02  6.7370E-07  6.7300E-07 -9.0796E+00  8.7584E+00
 28 2.5178E-03 3.5229E+01 2.0739E+02  0.00E+00  -8.9422E-03  2.0739E+02  6.7370E-07  6.7300E-07 -8.2090E+00  7.9830E+00
 29 2.8544E-03 3.4471E+01 2.0710E+02  0.00E+00  -3.5264E-03  2.0710E+02  6.7370E-07  6.7300E-07 -7.3006E+00  7.2150E+00
 30 3.2321E-03 3.3722E+01 2.0683E+02  0.00E+00  -3.0144E-03  2.0683E+02  6.7370E-07  6.7300E-07 -6.3920E+00  6.4705E+00
 31 3.6554E-03 3.2981E+01 2.0652E+02  0.00E+00  -3.2054E-03  2.0652E+02  6.7370E-07  6.7300E-07 -5.6461E+00  5.7136E+00
 32 4.1291E-03 3.2249E+01 2.0616E+02  0.00E+00  -2.5553E-03  2.0616E+02  6.7370E-07  6.7300E-07 -5.0492E+00  5.0632E+00
 33 4.6587E-03 3.1525E+01 2.0576E+02  0.00E+00  -5.4178E-03  2.0577E+02  6.7370E-07  6.7300E-07 -4.5545E+00  4.5153E+00
 34 5.2500E-03 3.0809E+01 2.0537E+02  0.00E+00  -8.6425E-03  2.0538E+02  6.7370E-07  6.7300E-07 -4.2135E+00  4.0632E+00
 35 5.9092E-03 3.0102E+01 2.0502E+02  0.00E+00  -9.1686E-03  2.0503E+02  6.7370E-07  6.7300E-07 -3.9420E+00  3.7025E+00
 36 6.6432E-03 2.9403E+01 2.0474E+02  0.00E+00  -9.1812E-03  2.0475E+02  6.7370E-07  6.7300E-07 -3.6633E+00  3.4237E+00
 37 7.4595E-03 2.8712E+01 2.0455E+02  0.00E+00  -6.8818E-03  2.0456E+02  6.7370E-07  6.7300E-07 -3.4250E+00  3.2115E+00
 38 8.3660E-03 2.8029E+01 2.0442E+02  0.00E+00  -2.8887E-03  2.0443E+02  6.7370E-07  6.7300E-07 -3.1640E+00  3.0466E+00
 39 9.3715E-03 2.7353E+01 2.0431E+02  0.00E+00  -6.0300E-03  2.0432E+02  6.7370E-07  6.7300E-07 -2.8627E+00  2.9057E+00
 40 1.0485E-02 2.6685E+01 2.0417E+02  0.00E+00  -1.1497E-02  2.0418E+02  6.7370E-07  6.7300E-07 -2.7686E+00  2.7618E+00
 41 1.1717E-02 2.6025E+01 2.0403E+02  0.00E+00  -6.8702E-03  2.0404E+02  6.7370E-07  6.7300E-07 -2.8155E+00  2.6073E+00
 42 1.3079E-02 2.5371E+01 2.0394E+02  0.00E+00  -2.1563E-03  2.0394E+02  6.7370E-07  6.7300E-07 -2.6296E+00  2.4590E+00
 43 1.4581E-02 2.4726E+01 2.0389E+02  0.00E+00  -2.1740E-03  2.0389E+02  6.7370E-07  6.7300E-07 -2.4035E+00  2.3168E+00
 44 1.6236E-02 2.4087E+01 2.0385E+02  0.00E+00  -2.5889E-03  2.0386E+02  6.7370E-07  6.7300E-07 -2.1883E+00  2.1756E+00
 45 1.8057E-02 2.3456E+01 2.0380E+02  0.00E+00  -2.3902E-03  2.0381E+02  6.7370E-07  6.7300E-07 -2.0173E+00  2.0325E+00
 46 2.0058E-02 2.2832E+01 2.0373E+02  0.00E+00  -1.6804E-03  2.0373E+02  6.7370E-07  6.7300E-07 -1.8788E+00  1.8861E+00
 47 2.2255E-02 2.2215E+01 2.0362E+02  0.00E+00  -9.8341E-04  2.0362E+02  6.7370E-07  6.7300E-07 -1.7472E+00  1.7364E+00
 48 2.4663E-02 2.1606E+01 2.0348E+02  0.00E+00  -5.6501E-04  2.0348E+02  6.7370E-07  6.7300E-07 -1.6058E+00  1.5850E+00
 49 2.7298E-02 2.1004E+01 2.0333E+02  0.00E+00  -1.4928E-04  2.0333E+02  6.7370E-07  6.7300E-07 -1.4534E+00  1.4348E+00
 50 3.0179E-02 2.0410E+01 2.0316E+02  0.00E+00   8.7514E-04  2.0316E+02  6.7370E-07  6.7300E-07 -1.2979E+00  1.2892E+00
 51 3.3324E-02 1.9824E+01 2.0296E+02  0.00E+00   1.0155E-03  2.0296E+02  6.7370E-07  6.7300E-07 -1.1230E+00  1.1512E+00
 52 3.6753E-02 1.9245E+01 2.0273E+02  0.00E+00   9.8330E-04  2.0273E+02  6.7370E-07  6.7300E-07 -9.9101E-01  1.0243E+00
 53 4.0486E-02 1.8674E+01 2.0246E+02  0.00E+00   1.3485E-03  2.0246E+02  6.7370E-07  6.7300E-07 -8.7714E-01  9.1113E-01
 54 4.4545E-02 1.8111E+01 2.0215E+02  0.00E+00   1.7851E-03  2.0215E+02  6.7370E-07  6.7300E-07 -7.8318E-01  8.1234E-01
 55 4.8953E-02 1.7556E+01 2.0180E+02  0.00E+00   1.4122E-03  2.0180E+02  6.7370E-07  6.7300E-07 -6.8776E-01  7.2688E-01
 56 5.3732E-02 1.7009E+01 2.0142E+02  0.00E+00   1.4648E-03  2.0142E+02  6.7370E-07  6.7300E-07 -6.2678E-01  6.5268E-01
 57 5.8907E-02 1.6470E+01 2.0100E+02  0.00E+00   1.3050E-03  2.0099E+02  6.7370E-07  6.7300E-07 -5.5834E-01  5.8711E-01
 58 6.4504E-02 1.5939E+01 2.0055E+02  0.00E+00   5.9609E-04  2.0055E+02  6.7370E-07  6.7300E-07 -5.1362E-01  5.2761E-01
 59 7.0547E-02 1.5416E+01 2.0007E+02  0.00E+00  -5.6088E-06  2.0007E+02  6.7370E-07  6.7300E-07 -4.7245E-01  4.7203E-01
 60 7.7065E-02 1.4902E+01 1.9959E+02  0.00E+00  -7.6516E-04  1.9959E+02  6.7370E-07  6.7300E-07 -4.2723E-01  4.1885E-01
 61 8.4084E-02 1.4396E+01 1.9909E+02  0.00E+00  -1.4221E-03  1.9909E+02  6.7370E-07  6.7300E-07 -3.9038E-01  3.6714E-01
 62 9.1632E-02 1.3898E+01 1.9859E+02  0.00E+00  -2.0462E-03  1.9859E+02  6.7370E-07  6.7300E-07 -3.5072E-01  3.1640E-01
 63 9.9739E-02 1.3408E+01 1.9810E+02  0.00E+00  -2.3748E-03  1.9810E+02  6.7370E-07  6.7300E-07 -3.1842E-01  2.6958E-01
 64 1.0843E-01 1.2926E+01 1.9763E+02  0.00E+00  -2.5345E-03  1.9763E+02  6.7370E-07  6.7300E-07 -3.1211E-01  2.6000E-01
 65 1.1774E-01 1.2453E+01 1.9718E+02  0.00E+00  -2.5303E-03  1.9718E+02  6.7370E-07  6.7300E-07 -3.0418E-01  2.5150E-01
 66 1.2770E-01 1.1987E+01 1.9675E+02  0.00E+00  -2.4712E-03  1.9675E+02  6.7370E-07  6.7300E-07 -2.8656E-01  2.4112E-01
 67 1.3834E-01 1.1529E+01 1.9634E+02  0.00E+00  -2.2707E-03  1.9634E+02  6.7370E-07  6.7300E-07 -2.7037E-01  2.2943E-01
 68 1.4968E-01 1.1079E+01 1.9596E+02  0.00E+00  -2.0979E-03  1.9597E+02  6.7370E-07  6.7300E-07 -2.5038E-01  2.1710E-01
 69 1.6175E-01 1.0636E+01 1.9561E+02  0.00E+00  -1.9635E-03  1.9561E+02  6.7370E-07  6.7300E-07 -2.3542E-01  2.0473E-01
 70 1.7459E-01 1.0201E+01 1.9529E+02  0.00E+00  -1.7570E-03  1.9529E+02  6.7370E-07  6.7300E-07 -2.2265E-01  1.9279E-01
 71 1.8823E-01 9.7735E+00 1.9499E+02  0.00E+00  -1.7078E-03  1.9499E+02  6.7370E-07  6.7300E-07 -2.0914E-01  1.8158E-01
 72 2.0269E-01 9.3534E+00 1.9473E+02  0.00E+00  -1.7164E-03  1.9473E+02  6.7370E-07  6.7300E-07 -2.0012E-01  1.7127E-01
 73 2.1799E-01 8.9407E+00 1.9450E+02  0.00E+00  -1.6917E-03  1.9450E+02  6.7370E-07  6.7300E-07 -1.9202E-01  1.6188E-01
 74 2.3418E-01 8.5351E+00 1.9431E+02  0.00E+00  -1.6670E-03  1.9432E+02  6.7370E-07  6.7300E-07 -1.8419E-01  1.5336E-01
 75 2.5126E-01 8.1367E+00 1.9417E+02  0.00E+00  -1.6229E-03  1.9417E+02  6.7370E-07  6.7300E-07 -1.7625E-01  1.4558E-01
 76 2.6927E-01 7.7453E+00 1.9407E+02  0.00E+00  -1.5749E-03  1.9407E+02  6.7370E-07  6.7300E-07 -1.6803E-01  1.3841E-01
 77 2.8822E-01 7.3608E+00 1.9402E+02  0.00E+00  -1.4973E-03  1.9402E+02  6.7370E-07  6.7300E-07 -1.5953E-01  1.3170E-01
 78 3.0814E-01 6.9831E+00 1.9401E+02  0.00E+00  -1.2316E-03  1.9401E+02  6.7370E-07  6.7300E-07 -1.5075E-01  1.2557E-01
 79 3.2904E-01 6.6122E+00 1.9405E+02  0.00E+00  -8.1000E-04  1.9405E+02  6.7370E-07  6.7300E-07 -1.4063E-01  1.2193E-01
 80 3.5093E-01 6.2479E+00 1.9414E+02  0.00E+00  -3.8779E-04  1.9414E+02  6.7370E-07  6.7300E-07 -1.2960E-01  1.1993E-01
 81 3.7384E-01 5.8901E+00 1.9428E+02  0.00E+00   3.8883E-05  1.9428E+02  6.7370E-07  6.7300E-07 -1.1855E-01  1.1804E-01
 82 3.9776E-01 5.5389E+00 1.9445E+02  0.00E+00   5.2072E-04  1.9445E+02  6.7370E-07  6.7300E-07 -1.0760E-01  1.1610E-01
 83 4.2271E-01 5.1941E+00 1.9467E+02  0.00E+00   1.0620E-03  1.9467E+02  6.7370E-07  6.7300E-07 -9.6727E-02  1.1407E-01
 84 4.4869E-01 4.8556E+00 1.9492E+02  0.00E+00   1.6611E-03  1.9492E+02  6.7370E-07  6.7300E-07 -8.5844E-02  1.1196E-01
 85 4.7570E-01 4.5235E+00 1.9521E+02  0.00E+00   2.3636E-03  1.9520E+02  6.7370E-07  6.7300E-07 -7.5133E-02  1.0975E-01
 86 5.0372E-01 4.1977E+00 1.9552E+02  0.00E+00   3.1439E-03  1.9552E+02  6.7370E-07  6.7300E-07 -6.2427E-02  1.0747E-01
 87 5.3276E-01 3.8782E+00 1.9586E+02  0.00E+00   4.9150E-03  1.9585E+02  6.8170E-07  6.8105E-07 -4.6835E-02  1.0519E-01
 88 5.6280E-01 3.5649E+00 1.9620E+02  0.00E+00   1.1034E-03  1.9620E+02  7.1372E-07  7.1324E-07 -2.8045E-02  1.0305E-01
 89 5.9383E-01 3.2578E+00 1.9675E+02  0.00E+00   5.1561E-03  1.9674E+02  7.7931E-07  7.7868E-07 -1.2100E-02  1.0120E-01
 90 6.2581E-01 2.9563E+00 1.9791E+02  0.00E+00   2.8735E-03  1.9791E+02  9.3844E-07  9.3803E-07 -5.0582E-02  1.0024E-01
 91 6.5873E-01 2.6586E+00 2.0069E+02  0.00E+00  -3.1569E-03  2.0069E+02  1.4422E-06  1.4430E-06 -1.5650E-01  1.0195E-01
 92 6.9255E-01 2.3638E+00 2.0359E+02  0.00E+00  -6.7152E-03  2.0360E+02  2.2332E-06  2.2354E-06 -2.6390E-01  1.0602E-01
 93 7.2723E-01 2.0719E+00 2.0647E+02  1.00E+00  -6.7961E-03  2.0647E+02  3.4021E-06  3.4055E-06 -3.7421E-01  1.1268E-01
 94 7.6274E-01 1.7832E+00 2.0931E+02  1.00E+00  -6.4708E-03  2.0931E+02  5.0996E-06  5.1043E-06 -4.7999E-01  1.2226E-01
 95 7.9903E-01 1.4979E+00 2.1212E+02  1.00E+00  -5.7379E-03  2.1212E+02  7.5244E-06  7.5304E-06 -5.7125E-01  1.3496E-01
 96 8.3604E-01 1.2163E+00 2.1488E+02  1.00E+00  -4.6108E-03  2.1489E+02  1.0933E-05  1.0940E-05 -6.4441E-01  1.5105E-01
 97 8.7372E-01 9.3860E-01 2.1761E+02  1.00E+00  -3.1174E-03  2.1762E+02  1.5651E-05  1.5658E-05 -7.1544E-01  1.7170E-01
 98 9.1200E-01 6.6505E-01 2.2029E+02  1.00E+00  -1.3053E-03  2.2030E+02  2.2081E-05  2.2085E-05 -7.9435E-01  1.9937E-01
 99 9.5082E-01 3.9591E-01 2.2293E+02  1.00E+00   7.4856E-04  2.2293E+02  3.0713E-05  3.0711E-05 -9.0566E-01  2.3694E-01
100 9.9011E-01 1.3142E-01 2.2551E+02  1.00E+00   2.9287E-03  2.2551E+02  4.2129E-05  4.2115E-05 -9.9800E-01  2.8663E-01
101 1.0101E+00 0.0000E+00 2.2680E+02  1.00E+00   5.0470E-03  2.2679E+02  4.9152E-05  4.9123E-05 -3.1985E+00  3.9719E+00

 FCO2
  6.55E-03 6.55E-03 6.55E-03 6.55E-03 6.55E-03 6.55E-03 6.55E-03 6.55E-03 6.55E-03 6.55E-03
  6.55E-03 6.55E-03 6.55E-03 6.55E-03 6.55E-03 6.55E-03 6.55E-03 6.55E-03 6.55E-03 6.55E-03
  6.55E-03 6.55E-03 6.55E-03 6.55E-03 6.55E-03 6.55E-03 6.55E-03 6.55E-03 6.55E-03 6.55E-03
  6.55E-03 6.55E-03 6.55E-03 6.55E-03 6.55E-03 6.55E-03 6.55E-03 6.55E-03 6.55E-03 6.55E-03
  6.55E-03 6.55E-03 6.55E-03 6.55E-03 6.55E-03 6.55E-03 6.55E-03 6.55E-03 6.55E-03 6.55E-03
  6.55E-03 6.55E-03 6.55E-03 6.55E-03 6.55E-03 6.55E-03 6.55E-03 6.55E-03 6.55E-03 6.55E-03
  6.55E-03 6.55E-03 6.55E-03 6.55E-03 6.55E-03 6.55E-03 6.55E-03 6.55E-03 6.55E-03 6.55E-03
  6.55E-03 6.55E-03 6.55E-03 6.55E-03 6.55E-03 6.55E-03 6.55E-03 6.55E-03 6.55E-03 6.55E-03
  6.55E-03 6.55E-03 6.55E-03 6.55E-03 6.55E-03 6.55E-03 6.55E-03 6.55E-03 6.55E-03 6.55E-03
  6.55E-03 6.55E-03 6.55E-03 6.55E-03 6.55E-03 6.55E-03 6.55E-03 6.55E-03 6.55E-03 6.55E-03
  6.55E-03

  J    PF         ALT       FTOTAL       FTIR       FDNIR       FUPIR       FTSOL       FDNSOL       FUPSOL       DIVF
  1 5.0000E-05 5.9242E+01  1.0201E+01 -1.2823E+05  0.0000E+00  1.2823E+05  1.2824E+05  3.2300E+05  1.9476E+05  7.9557E-05
  2 5.8580E-05 5.8310E+01  1.0366E+01 -1.2817E+05  8.2478E+01  1.2826E+05  1.2818E+05  3.2294E+05  1.9476E+05  8.0823E-05
  3 6.8551E-05 5.7326E+01 -8.0451E+00 -1.2813E+05  1.4205E+02  1.2828E+05  1.2813E+05  3.2289E+05  1.9476E+05 -6.2717E-05
  4 8.0123E-05 5.6314E+01 -2.4517E+01 -1.2809E+05  1.9240E+02  1.2828E+05  1.2807E+05  3.2283E+05  1.9476E+05 -1.9112E-04
  5 9.3536E-05 5.5296E+01 -3.7209E+01 -1.2804E+05  2.3604E+02  1.2828E+05  1.2801E+05  3.2276E+05  1.9476E+05 -2.9006E-04
  6 1.0906E-04 5.4285E+01 -4.7049E+01 -1.2799E+05  2.7543E+02  1.2827E+05  1.2794E+05  3.2270E+05  1.9476E+05 -3.6681E-04
  7 1.2702E-04 5.3290E+01 -5.0927E+01 -1.2793E+05  3.1628E+02  1.2825E+05  1.2788E+05  3.2264E+05  1.9476E+05 -3.9709E-04
  8 1.4775E-04 5.2313E+01 -5.1767E+01 -1.2788E+05  3.5817E+02  1.2823E+05  1.2782E+05  3.2258E+05  1.9476E+05 -4.0369E-04
  9 1.7166E-04 5.1355E+01 -5.0285E+01 -1.2782E+05  4.0107E+02  1.2822E+05  1.2777E+05  3.2252E+05  1.9476E+05 -3.9218E-04
 10 1.9920E-04 5.0414E+01 -4.8226E+01 -1.2776E+05  4.4358E+02  1.2820E+05  1.2771E+05  3.2247E+05  1.9476E+05 -3.7616E-04
 11 2.3089E-04 4.9489E+01 -4.5650E+01 -1.2771E+05  4.8591E+02  1.2819E+05  1.2766E+05  3.2242E+05  1.9476E+05 -3.5611E-04
 12 2.6729E-04 4.8579E+01 -4.2118E+01 -1.2765E+05  5.2915E+02  1.2818E+05  1.2761E+05  3.2237E+05  1.9476E+05 -3.2858E-04
 13 3.0907E-04 4.7680E+01 -3.7859E+01 -1.2760E+05  5.7424E+02  1.2817E+05  1.2756E+05  3.2232E+05  1.9476E+05 -2.9537E-04
 14 3.5694E-04 4.6792E+01 -3.2687E+01 -1.2754E+05  6.2358E+02  1.2817E+05  1.2751E+05  3.2227E+05  1.9475E+05 -2.5503E-04
 15 4.1174E-04 4.5914E+01 -2.7734E+01 -1.2749E+05  6.7947E+02  1.2816E+05  1.2746E+05  3.2221E+05  1.9475E+05 -2.1640E-04
 16 4.7438E-04 4.5043E+01 -2.4194E+01 -1.2742E+05  7.4242E+02  1.2816E+05  1.2740E+05  3.2215E+05  1.9475E+05 -1.8878E-04
 17 5.4590E-04 4.4179E+01 -2.1947E+01 -1.2734E+05  8.1369E+02  1.2816E+05  1.2732E+05  3.2208E+05  1.9475E+05 -1.7125E-04
 18 6.2745E-04 4.3322E+01 -2.0706E+01 -1.2726E+05  8.9432E+02  1.2815E+05  1.2724E+05  3.2199E+05  1.9475E+05 -1.6157E-04
 19 7.2032E-04 4.2472E+01 -2.1742E+01 -1.2716E+05  9.8345E+02  1.2815E+05  1.2714E+05  3.2189E+05  1.9475E+05 -1.6967E-04
 20 8.2594E-04 4.1628E+01 -2.5656E+01 -1.2705E+05  1.0805E+03  1.2813E+05  1.2703E+05  3.2178E+05  1.9475E+05 -2.0023E-04
 21 9.4593E-04 4.0793E+01 -3.3990E+01 -1.2693E+05  1.1841E+03  1.2812E+05  1.2690E+05  3.2165E+05  1.9475E+05 -2.6530E-04
 22 1.0820E-03 3.9968E+01 -4.8459E+01 -1.2680E+05  1.2956E+03  1.2810E+05  1.2675E+05  3.2150E+05  1.9475E+05 -3.7829E-04
 23 1.2363E-03 3.9153E+01 -5.3747E+01 -1.2663E+05  1.4440E+03  1.2807E+05  1.2658E+05  3.2133E+05  1.9475E+05 -4.1966E-04
 24 1.4108E-03 3.8348E+01 -5.3037E+01 -1.2642E+05  1.6287E+03  1.2805E+05  1.2636E+05  3.2112E+05  1.9475E+05 -4.1420E-04
 25 1.6080E-03 3.7554E+01 -4.7614E+01 -1.2617E+05  1.8468E+03  1.2802E+05  1.2613E+05  3.2088E+05  1.9475E+05 -3.7192E-04
 26 1.8306E-03 3.6770E+01 -3.8881E+01 -1.2590E+05  2.0933E+03  1.2799E+05  1.2586E+05  3.2062E+05  1.9475E+05 -3.0377E-04
 27 2.0815E-03 3.5995E+01 -2.6820E+01 -1.2561E+05  2.3622E+03  1.2797E+05  1.2558E+05  3.2034E+05  1.9476E+05 -2.0957E-04
 28 2.3640E-03 3.5229E+01 -1.6115E+01 -1.2531E+05  2.6426E+03  1.2795E+05  1.2529E+05  3.2005E+05  1.9476E+05 -1.2595E-04
 29 2.6816E-03 3.4471E+01 -7.6490E+00 -1.2500E+05  2.9276E+03  1.2793E+05  1.2499E+05  3.1976E+05  1.9477E+05 -5.9792E-05
 30 3.0383E-03 3.3722E+01 -4.0486E+00 -1.2469E+05  3.2098E+03  1.2790E+05  1.2469E+05  3.1946E+05  1.9478E+05 -3.1654E-05
 31 3.4382E-03 3.2981E+01 -7.7502E+00 -1.2439E+05  3.4835E+03  1.2787E+05  1.2438E+05  3.1917E+05  1.9479E+05 -6.0609E-05
 32 3.8862E-03 3.2249E+01 -1.1316E+01 -1.2409E+05  3.7514E+03  1.2784E+05  1.2408E+05  3.1888E+05  1.9480E+05 -8.8516E-05
 33 4.3873E-03 3.1525E+01 -1.2143E+01 -1.2379E+05  4.0183E+03  1.2781E+05  1.2378E+05  3.1859E+05  1.9481E+05 -9.5003E-05
 34 4.9470E-03 3.0809E+01 -9.5544E+00 -1.2349E+05  4.2888E+03  1.2778E+05  1.2348E+05  3.1831E+05  1.9482E+05 -7.4771E-05
 35 5.5715E-03 3.0102E+01  1.5105E+00 -1.2318E+05  4.5724E+03  1.2775E+05  1.2318E+05  3.1803E+05  1.9484E+05  1.1823E-05
 36 6.2673E-03 2.9403E+01  2.1164E+01 -1.2286E+05  4.8737E+03  1.2773E+05  1.2288E+05  3.1774E+05  1.9486E+05  1.6569E-04
 37 7.0416E-03 2.8712E+01  4.3045E+01 -1.2252E+05  5.1905E+03  1.2771E+05  1.2257E+05  3.1745E+05  1.9489E+05  3.3704E-04
 38 7.9021E-03 2.8029E+01  6.4713E+01 -1.2218E+05  5.5230E+03  1.2770E+05  1.2224E+05  3.1715E+05  1.9491E+05  5.0676E-04
 39 8.8572E-03 2.7353E+01  7.7941E+01 -1.2182E+05  5.8646E+03  1.2768E+05  1.2190E+05  3.1684E+05  1.9494E+05  6.1041E-04
 40 9.9158E-03 2.6685E+01  7.2563E+01 -1.2146E+05  6.2066E+03  1.2767E+05  1.2154E+05  3.1651E+05  1.9498E+05  5.6837E-04
 41 1.1088E-02 2.6025E+01  7.3507E+01 -1.2108E+05  6.5744E+03  1.2765E+05  1.2115E+05  3.1617E+05  1.9502E+05  5.7583E-04
 42 1.2383E-02 2.5371E+01  1.0531E+02 -1.2065E+05  6.9918E+03  1.2764E+05  1.2076E+05  3.1581E+05  1.9506E+05  8.2504E-04
 43 1.3813E-02 2.4726E+01  1.3408E+02 -1.2021E+05  7.4245E+03  1.2763E+05  1.2034E+05  3.1544E+05  1.9510E+05  1.0505E-03
 44 1.5391E-02 2.4087E+01  1.5022E+02 -1.1976E+05  7.8591E+03  1.2762E+05  1.1991E+05  3.1505E+05  1.9514E+05  1.1771E-03
 45 1.7127E-02 2.3456E+01  1.5284E+02 -1.1931E+05  8.2902E+03  1.2760E+05  1.1946E+05  3.1465E+05  1.9519E+05  1.1978E-03
 46 1.9037E-02 2.2832E+01  1.4941E+02 -1.1886E+05  8.7215E+03  1.2758E+05  1.1901E+05  3.1424E+05  1.9523E+05  1.1712E-03
 47 2.1134E-02 2.2215E+01  1.4762E+02 -1.1839E+05  9.1572E+03  1.2755E+05  1.1854E+05  3.1382E+05  1.9528E+05  1.1573E-03
 48 2.3435E-02 2.1606E+01  1.5053E+02 -1.1792E+05  9.5966E+03  1.2751E+05  1.1807E+05  3.1339E+05  1.9532E+05  1.1805E-03
 49 2.5955E-02 2.1004E+01  1.5671E+02 -1.1744E+05  1.0034E+04  1.2747E+05  1.1760E+05  3.1297E+05  1.9537E+05  1.2293E-03
 50 2.8711E-02 2.0410E+01  1.6278E+02 -1.1697E+05  1.0460E+04  1.2743E+05  1.1713E+05  3.1255E+05  1.9542E+05  1.2774E-03
 51 3.1722E-02 1.9824E+01  1.6588E+02 -1.1651E+05  1.0868E+04  1.2738E+05  1.1667E+05  3.1214E+05  1.9546E+05  1.3023E-03
 52 3.5007E-02 1.9245E+01  1.5497E+02 -1.1607E+05  1.1242E+04  1.2732E+05  1.1623E+05  3.1173E+05  1.9551E+05  1.2172E-03
 53 3.8586E-02 1.8674E+01  1.4094E+02 -1.1565E+05  1.1591E+04  1.2725E+05  1.1580E+05  3.1134E+05  1.9555E+05  1.1076E-03
 54 4.2480E-02 1.8111E+01  1.2533E+02 -1.1525E+05  1.1916E+04  1.2717E+05  1.1538E+05  3.1096E+05  1.9559E+05  9.8552E-04
 55 4.6711E-02 1.7556E+01  1.1078E+02 -1.1486E+05  1.2220E+04  1.2708E+05  1.1497E+05  3.1059E+05  1.9562E+05  8.7169E-04
 56 5.1302E-02 1.7009E+01  8.9598E+01 -1.1449E+05  1.2500E+04  1.2699E+05  1.1458E+05  3.1023E+05  1.9565E+05  7.0556E-04
 57 5.6277E-02 1.6470E+01  7.4406E+01 -1.1412E+05  1.2770E+04  1.2689E+05  1.1420E+05  3.0987E+05  1.9567E+05  5.8638E-04
 58 6.1660E-02 1.5939E+01  5.6142E+01 -1.1377E+05  1.3023E+04  1.2679E+05  1.1382E+05  3.0951E+05  1.9569E+05  4.4279E-04
 59 6.7478E-02 1.5416E+01  4.6545E+01 -1.1341E+05  1.3272E+04  1.2669E+05  1.1346E+05  3.0916E+05  1.9570E+05  3.6740E-04
 60 7.3756E-02 1.4902E+01  4.6860E+01 -1.1306E+05  1.3517E+04  1.2658E+05  1.1311E+05  3.0880E+05  1.9569E+05  3.7020E-04
 61 8.0522E-02 1.4396E+01  5.3542E+01 -1.1272E+05  1.3754E+04  1.2648E+05  1.1278E+05  3.0845E+05  1.9568E+05  4.2333E-04
 62 8.7803E-02 1.3898E+01  7.3494E+01 -1.1239E+05  1.3988E+04  1.2638E+05  1.1246E+05  3.0811E+05  1.9565E+05  5.8155E-04
 63 9.5628E-02 1.3408E+01  1.0516E+02 -1.1206E+05  1.4214E+04  1.2628E+05  1.1217E+05  3.0778E+05  1.9561E+05  8.3272E-04
 64 1.0403E-01 1.2926E+01  1.5350E+02 -1.1175E+05  1.4436E+04  1.2619E+05  1.1190E+05  3.0745E+05  1.9555E+05  1.2165E-03
 65 1.1303E-01 1.2453E+01  2.0879E+02 -1.1142E+05  1.4682E+04  1.2610E+05  1.1163E+05  3.0711E+05  1.9548E+05  1.6558E-03
 66 1.2266E-01 1.1987E+01  2.6861E+02 -1.1107E+05  1.4949E+04  1.2602E+05  1.1134E+05  3.0675E+05  1.9541E+05  2.1314E-03
 67 1.3295E-01 1.1529E+01  3.2374E+02 -1.1073E+05  1.5230E+04  1.2596E+05  1.1105E+05  3.0637E+05  1.9533E+05  2.5703E-03
 68 1.4394E-01 1.1079E+01  3.7676E+02 -1.1038E+05  1.5524E+04  1.2590E+05  1.1075E+05  3.0599E+05  1.9524E+05  2.9925E-03
 69 1.5564E-01 1.0636E+01  4.2268E+02 -1.1003E+05  1.5825E+04  1.2586E+05  1.1045E+05  3.0560E+05  1.9514E+05  3.3584E-03
 70 1.6810E-01 1.0201E+01  4.6773E+02 -1.0968E+05  1.6141E+04  1.2582E+05  1.1015E+05  3.0519E+05  1.9504E+05  3.7173E-03
 71 1.8134E-01 9.7735E+00  5.1431E+02 -1.0934E+05  1.6472E+04  1.2581E+05  1.0985E+05  3.0478E+05  1.9493E+05  4.0880E-03
 72 1.9538E-01 9.3534E+00  5.5993E+02 -1.0899E+05  1.6819E+04  1.2581E+05  1.0955E+05  3.0436E+05  1.9481E+05  4.4506E-03
 73 2.1026E-01 8.9407E+00  6.1053E+02 -1.0864E+05  1.7187E+04  1.2583E+05  1.0925E+05  3.0393E+05  1.9468E+05  4.8521E-03
 74 2.2601E-01 8.5351E+00  6.6644E+02 -1.0828E+05  1.7579E+04  1.2586E+05  1.0895E+05  3.0350E+05  1.9455E+05  5.2950E-03
 75 2.4264E-01 8.1367E+00  7.2688E+02 -1.0792E+05  1.7996E+04  1.2592E+05  1.0865E+05  3.0305E+05  1.9440E+05  5.7726E-03
 76 2.6018E-01 7.7453E+00  7.9029E+02 -1.0756E+05  1.8436E+04  1.2599E+05  1.0835E+05  3.0259E+05  1.9424E+05  6.2725E-03
 77 2.7866E-01 7.3608E+00  8.5479E+02 -1.0719E+05  1.8898E+04  1.2609E+05  1.0805E+05  3.0212E+05  1.9407E+05  6.7792E-03
 78 2.9810E-01 6.9831E+00  9.1853E+02 -1.0683E+05  1.9380E+04  1.2621E+05  1.0775E+05  3.0164E+05  1.9389E+05  7.2780E-03
 79 3.1851E-01 6.6122E+00  9.7911E+02 -1.0646E+05  1.9880E+04  1.2634E+05  1.0744E+05  3.0114E+05  1.9370E+05  7.7495E-03
 80 3.3991E-01 6.2479E+00  1.0263E+03 -1.0611E+05  2.0396E+04  1.2651E+05  1.0714E+05  3.0063E+05  1.9350E+05  8.1124E-03
 81 3.6231E-01 5.8901E+00  1.0518E+03 -1.0577E+05  2.0927E+04  1.2669E+05  1.0682E+05  3.0011E+05  1.9329E+05  8.3018E-03
 82 3.8573E-01 5.5389E+00  1.0532E+03 -1.0544E+05  2.1470E+04  1.2691E+05  1.0649E+05  2.9957E+05  1.9308E+05  8.2988E-03
 83 4.1017E-01 5.1941E+00  1.0287E+03 -1.0513E+05  2.2025E+04  1.2715E+05  1.0616E+05  2.9901E+05  1.9285E+05  8.0905E-03
 84 4.3564E-01 4.8556E+00  9.7668E+02 -1.0484E+05  2.2589E+04  1.2743E+05  1.0582E+05  2.9844E+05  1.9262E+05  7.6645E-03
 85 4.6214E-01 4.5235E+00  8.9512E+02 -1.0457E+05  2.3163E+04  1.2773E+05  1.0547E+05  2.9785E+05  1.9239E+05  7.0077E-03
 86 4.8966E-01 4.1977E+00  7.8282E+02 -1.0433E+05  2.3751E+04  1.2808E+05  1.0511E+05  2.9725E+05  1.9214E+05  6.1120E-03
 87 5.1819E-01 3.8782E+00  6.3132E+02 -1.0412E+05  2.4345E+04  1.2846E+05  1.0475E+05  2.9664E+05  1.9189E+05  4.9144E-03
 88 5.4774E-01 3.5649E+00  4.2811E+02 -1.0395E+05  2.4948E+04  1.2890E+05  1.0438E+05  2.9602E+05  1.9164E+05  3.3212E-03
 89 5.7828E-01 3.2578E+00  1.5813E+02 -1.0385E+05  2.5627E+04  1.2948E+05  1.0401E+05  2.9539E+05  1.9138E+05  1.2213E-03
 90 6.0979E-01 2.9563E+00 -1.7281E+02 -1.0381E+05  2.6533E+04  1.3034E+05  1.0364E+05  2.9475E+05  1.9112E+05 -1.3258E-03
 91 6.4225E-01 2.6586E+00 -3.6280E+02 -1.0362E+05  2.8076E+04  1.3169E+05  1.0325E+05  2.9410E+05  1.9085E+05 -2.7549E-03
 92 6.7563E-01 2.3638E+00 -1.4812E+02 -1.0300E+05  3.0166E+04  1.3317E+05  1.0285E+05  2.9343E+05  1.9058E+05 -1.1123E-03
 93 7.0989E-01 2.0719E+00  4.8985E+02 -1.0193E+05  3.2832E+04  1.3476E+05  1.0242E+05  2.9273E+05  1.9031E+05  3.6349E-03
 94 7.4500E-01 1.7832E+00  1.5729E+03 -1.0038E+05  3.6104E+04  1.3649E+05  1.0196E+05  2.9200E+05  1.9005E+05  1.1524E-02
 95 7.8091E-01 1.4979E+00  3.0885E+03 -9.8350E+04  3.9979E+04  1.3833E+05  1.0144E+05  2.9123E+05  1.8979E+05  2.2328E-02
 96 8.1757E-01 1.2163E+00  4.9761E+03 -9.5878E+04  4.4403E+04  1.4028E+05  1.0085E+05  2.9040E+05  1.8955E+05  3.5472E-02
 97 8.5492E-01 9.3860E-01  7.1517E+03 -9.3037E+04  4.9276E+04  1.4231E+05  1.0019E+05  2.8952E+05  1.8933E+05  5.0253E-02
 98 8.9292E-01 6.6505E-01  9.5909E+03 -8.9827E+04  5.4578E+04  1.4441E+05  9.9418E+04  2.8856E+05  1.8914E+05  6.6416E-02
 99 9.3149E-01 3.9591E-01  1.2301E+04 -8.6209E+04  6.0286E+04  1.4650E+05  9.8510E+04  2.8752E+05  1.8901E+05  8.3967E-02
100 9.7056E-01 1.3142E-01  1.5387E+04 -8.2030E+04  6.6336E+04  1.4837E+05  9.7417E+04  2.8637E+05  1.8895E+05  1.0371E-01
101 1.0101E+00 0.0000E+00  1.8707E+04 -7.7372E+04  7.1858E+04  1.4923E+05  9.6079E+04  2.8510E+05  1.8902E+05  1.2536E-01
 
 NST=     2 JCONV= 93 CHG=3.48E-03 dt0=1.00E+04 DIVF(1)= 1.62E-05 DIVFrms= 3.03E-03 DT(ND)= 3.93E-03 T(ND)=2.2680E+02
 NST=     3 JCONV= 93 CHG=4.39E-03 dt0=1.00E+04 DIVF(1)=-3.15E-05 DIVFrms= 3.01E-03 DT(ND)= 3.55E-03 T(ND)=2.2680E+02
 NST=     4 JCONV= 92 CHG=3.32E-03 dt0=1.00E+04 DIVF(1)=-7.80E-05 DIVFrms= 3.02E-03 DT(ND)= 8.40E-04 T(ND)=2.2680E+02
 NST=     5 JCONV= 92 CHG=2.65E-03 dt0=1.00E+04 DIVF(1)=-8.37E-05 DIVFrms= 3.03E-03 DT(ND)= 4.77E-05 T(ND)=2.2680E+02
 NST=     6 JCONV= 92 CHG=2.43E-03 dt0=1.00E+04 DIVF(1)=-8.14E-05 DIVFrms= 3.03E-03 DT(ND)=-2.81E-04 T(ND)=2.2680E+02
 NST=     7 JCONV= 92 CHG=1.90E-03 dt0=1.00E+04 DIVF(1)=-8.04E-05 DIVFrms= 3.03E-03 DT(ND)=-4.81E-04 T(ND)=2.2680E+02
 NST=     8 JCONV= 92 CHG=1.60E-03 dt0=1.00E+04 DIVF(1)=-7.92E-05 DIVFrms= 3.03E-03 DT(ND)=-5.64E-04 T(ND)=2.2680E+02
 NST=     9 JCONV= 92 CHG=1.35E-03 dt0=1.00E+04 DIVF(1)=-5.98E-05 DIVFrms= 3.04E-03 DT(ND)=-5.89E-04 T(ND)=2.2680E+02
 NST=    10 JCONV= 92 CHG=1.09E-03 dt0=1.00E+04 DIVF(1)=-4.67E-05 DIVFrms= 3.06E-03 DT(ND)=-5.91E-04 T(ND)=2.2680E+02
 NST=    11 JCONV= 92 CHG=9.32E-04 dt0=1.00E+04 DIVF(1)=-3.70E-05 DIVFrms= 3.07E-03 DT(ND)=-5.86E-04 T(ND)=2.2680E+02
 NST=    12 JCONV= 92 CHG=8.23E-04 dt0=1.00E+04 DIVF(1)=-5.89E-06 DIVFrms= 3.08E-03 DT(ND)=-5.79E-04 T(ND)=2.2680E+02
 NST=    13 JCONV= 92 CHG=7.18E-04 dt0=1.00E+04 DIVF(1)= 1.01E-05 DIVFrms= 3.10E-03 DT(ND)=-5.68E-04 T(ND)=2.2680E+02
 NST=    14 JCONV= 92 CHG=5.51E-04 dt0=1.00E+04 DIVF(1)= 2.64E-05 DIVFrms= 3.11E-03 DT(ND)=-5.58E-04 T(ND)=2.2680E+02
 NST=    15 JCONV= 92 CHG=4.48E-04 dt0=1.00E+04 DIVF(1)= 4.26E-05 DIVFrms= 3.12E-03 DT(ND)=-5.48E-04 T(ND)=2.2680E+02
 NST=    16 JCONV= 92 CHG=3.91E-04 dt0=1.00E+04 DIVF(1)= 7.03E-05 DIVFrms= 3.14E-03 DT(ND)=-5.36E-04 T(ND)=2.2680E+02
 NST=    17 JCONV= 92 CHG=3.48E-04 dt0=1.00E+04 DIVF(1)= 8.60E-05 DIVFrms= 3.15E-03 DT(ND)=-5.27E-04 T(ND)=2.2680E+02
 NST=    18 JCONV= 92 CHG=4.45E-04 dt0=1.00E+04 DIVF(1)= 1.21E-04 DIVFrms= 3.17E-03 DT(ND)=-5.09E-04 T(ND)=2.2680E+02
 NST=    19 JCONV= 92 CHG=2.55E-04 dt0=1.00E+04 DIVF(1)= 1.44E-04 DIVFrms= 3.19E-03 DT(ND)=-4.92E-04 T(ND)=2.2680E+02
 NST=    20 JCONV= 92 CHG=2.23E-04 dt0=1.00E+04 DIVF(1)= 1.61E-04 DIVFrms= 3.20E-03 DT(ND)=-4.81E-04 T(ND)=2.2680E+02
 NST=    21 JCONV= 92 CHG=2.90E-04 dt0=1.00E+04 DIVF(1)= 1.86E-04 DIVFrms= 3.22E-03 DT(ND)=-4.69E-04 T(ND)=2.2680E+02
 NST=    22 JCONV= 92 CHG=1.93E-04 dt0=1.00E+04 DIVF(1)= 2.03E-04 DIVFrms= 3.23E-03 DT(ND)=-4.58E-04 T(ND)=2.2680E+02
 NST=    23 JCONV= 92 CHG=1.71E-04 dt0=1.00E+04 DIVF(1)= 2.25E-04 DIVFrms= 3.24E-03 DT(ND)=-4.48E-04 T(ND)=2.2680E+02
 NST=    24 JCONV= 92 CHG=1.76E-04 dt0=1.00E+04 DIVF(1)=-5.74E-05 DIVFrms= 2.56E-03 DT(ND)=-6.06E-04 T(ND)=2.2679E+02
 NST=    25 JCONV= 92 CHG=1.53E-04 dt0=1.00E+04 DIVF(1)= 2.56E-04 DIVFrms= 3.25E-03 DT(ND)=-4.92E-04 T(ND)=2.2679E+02
 NST=    26 JCONV= 92 CHG=1.55E-04 dt0=1.00E+04 DIVF(1)=-1.68E-05 DIVFrms= 2.57E-03 DT(ND)=-6.12E-04 T(ND)=2.2679E+02
 NST=    27 JCONV= 92 CHG=1.17E-04 dt0=1.00E+04 DIVF(1)= 3.15E-04 DIVFrms= 3.30E-03 DT(ND)=-4.73E-04 T(ND)=2.2679E+02
 NST=    28 JCONV= 92 CHG=9.50E-05 dt0=1.00E+04 DIVF(1)= 4.24E-05 DIVFrms= 2.61E-03 DT(ND)=-5.84E-04 T(ND)=2.2679E+02
 NST=    29 JCONV= 92 CHG=9.54E-05 dt0=1.00E+04 DIVF(1)= 3.75E-04 DIVFrms= 3.34E-03 DT(ND)=-4.46E-04 T(ND)=2.2679E+02
 NST=    30 JCONV= 92 CHG=9.30E-05 dt0=1.00E+04 DIVF(1)= 9.31E-05 DIVFrms= 2.64E-03 DT(ND)=-5.57E-04 T(ND)=2.2679E+02
 NST=    31 JCONV= 92 CHG=1.16E-04 dt0=1.00E+04 DIVF(1)= 4.13E-04 DIVFrms= 3.37E-03 DT(ND)=-4.22E-04 T(ND)=2.2679E+02
 NST=    32 JCONV= 92 CHG=2.38E-04 dt0=1.00E+04 DIVF(1)= 1.17E-04 DIVFrms= 2.66E-03 DT(ND)=-5.39E-04 T(ND)=2.2679E+02
 NST=    33 JCONV= 92 CHG=5.89E-05 dt0=1.00E+04 DIVF(1)= 1.38E-04 DIVFrms= 2.67E-03 DT(ND)=-5.72E-04 T(ND)=2.2679E+02
 NST=    34 JCONV= 92 CHG=5.15E-05 dt0=1.00E+04 DIVF(1)= 4.54E-04 DIVFrms= 3.40E-03 DT(ND)=-4.14E-04 T(ND)=2.2679E+02
 NST=    35 JCONV= 92 CHG=5.62E-05 dt0=1.00E+04 DIVF(1)= 1.75E-04 DIVFrms= 2.69E-03 DT(ND)=-5.18E-04 T(ND)=2.2679E+02
 NST=    36 JCONV= 92 CHG=2.10E-04 dt0=1.00E+04 DIVF(1)= 2.05E-04 DIVFrms= 2.70E-03 DT(ND)=-5.48E-04 T(ND)=2.2679E+02
 NST=    37 JCONV= 92 CHG=8.37E-05 dt0=1.00E+04 DIVF(1)= 2.22E-04 DIVFrms= 2.71E-03 DT(ND)=-5.55E-04 T(ND)=2.2679E+02
 NST=    38 JCONV= 92 CHG=2.23E-04 dt0=1.00E+04 DIVF(1)= 2.39E-04 DIVFrms= 2.72E-03 DT(ND)=-5.50E-04 T(ND)=2.2679E+02
 NST=    39 JCONV= 92 CHG=6.97E-05 dt0=1.00E+04 DIVF(1)= 2.53E-04 DIVFrms= 2.73E-03 DT(ND)=-5.44E-04 T(ND)=2.2679E+02
 NST=    40 JCONV= 92 CHG=8.36E-05 dt0=1.00E+04 DIVF(1)= 5.74E-04 DIVFrms= 3.46E-03 DT(ND)=-3.70E-04 T(ND)=2.2679E+02
 NST=    41 JCONV= 92 CHG=1.06E-04 dt0=1.00E+04 DIVF(1)= 2.96E-04 DIVFrms= 2.74E-03 DT(ND)=-4.69E-04 T(ND)=2.2679E+02
 NST=    42 JCONV= 92 CHG=1.43E-04 dt0=1.00E+04 DIVF(1)= 3.18E-04 DIVFrms= 2.76E-03 DT(ND)=-4.97E-04 T(ND)=2.2679E+02
 NST=    43 JCONV= 92 CHG=6.63E-05 dt0=1.00E+04 DIVF(1)= 3.38E-04 DIVFrms= 2.77E-03 DT(ND)=-5.02E-04 T(ND)=2.2679E+02
 NST=    44 JCONV= 92 CHG=2.08E-04 dt0=1.00E+04 DIVF(1)= 3.45E-04 DIVFrms= 2.78E-03 DT(ND)=-4.99E-04 T(ND)=2.2678E+02
 NST=    45 JCONV= 92 CHG=2.87E-04 dt0=1.00E+04 DIVF(1)= 3.60E-04 DIVFrms= 2.80E-03 DT(ND)=-4.91E-04 T(ND)=2.2678E+02
 NST=    46 JCONV= 92 CHG=2.17E-04 dt0=1.00E+04 DIVF(1)= 3.89E-04 DIVFrms= 2.80E-03 DT(ND)=-4.84E-04 T(ND)=2.2678E+02
 NST=    47 JCONV= 92 CHG=2.26E-04 dt0=1.00E+04 DIVF(1)= 4.07E-04 DIVFrms= 2.81E-03 DT(ND)=-4.76E-04 T(ND)=2.2678E+02
 NST=    48 JCONV= 92 CHG=4.26E-05 dt0=1.00E+04 DIVF(1)= 4.21E-04 DIVFrms= 2.82E-03 DT(ND)=-4.68E-04 T(ND)=2.2678E+02
 NST=    49 JCONV= 92 CHG=1.53E-04 dt0=1.00E+04 DIVF(1)= 4.36E-04 DIVFrms= 2.84E-03 DT(ND)=-4.58E-04 T(ND)=2.2678E+02
 NST=    50 JCONV= 92 CHG=5.31E-05 dt0=1.00E+04 DIVF(1)= 4.55E-04 DIVFrms= 2.85E-03 DT(ND)=-4.49E-04 T(ND)=2.2678E+02
 NST=    51 JCONV= 92 CHG=1.94E-04 dt0=1.00E+04 DIVF(1)= 4.76E-04 DIVFrms= 2.86E-03 DT(ND)=-4.43E-04 T(ND)=2.2678E+02
 NST=    52 JCONV= 92 CHG=1.20E-04 dt0=1.00E+04 DIVF(1)= 4.87E-04 DIVFrms= 2.87E-03 DT(ND)=-4.33E-04 T(ND)=2.2678E+02
 NST=    53 JCONV= 92 CHG=6.55E-05 dt0=1.00E+04 DIVF(1)= 5.02E-04 DIVFrms= 2.88E-03 DT(ND)=-4.25E-04 T(ND)=2.2678E+02
 NST=    54 JCONV= 92 CHG=1.38E-04 dt0=1.00E+04 DIVF(1)= 5.20E-04 DIVFrms= 2.89E-03 DT(ND)=-4.16E-04 T(ND)=2.2678E+02
 NST=    55 JCONV= 92 CHG=1.49E-04 dt0=1.00E+04 DIVF(1)= 5.44E-04 DIVFrms= 2.90E-03 DT(ND)=-4.09E-04 T(ND)=2.2678E+02
 NST=    56 JCONV= 92 CHG=4.14E-05 dt0=1.00E+04 DIVF(1)= 5.53E-04 DIVFrms= 2.90E-03 DT(ND)=-4.03E-04 T(ND)=2.2678E+02
 NST=    57 JCONV= 92 CHG=1.51E-04 dt0=1.00E+04 DIVF(1)= 5.69E-04 DIVFrms= 2.91E-03 DT(ND)=-3.95E-04 T(ND)=2.2678E+02
 NST=    58 JCONV= 92 CHG=1.22E-04 dt0=1.00E+04 DIVF(1)= 5.81E-04 DIVFrms= 2.92E-03 DT(ND)=-3.87E-04 T(ND)=2.2678E+02
 NST=    59 JCONV= 92 CHG=4.10E-05 dt0=1.00E+04 DIVF(1)= 5.99E-04 DIVFrms= 2.93E-03 DT(ND)=-3.78E-04 T(ND)=2.2678E+02
 NST=    60 JCONV= 92 CHG=8.59E-05 dt0=1.00E+04 DIVF(1)= 6.12E-04 DIVFrms= 2.94E-03 DT(ND)=-3.70E-04 T(ND)=2.2678E+02
 NST=    61 JCONV= 92 CHG=4.07E-05 dt0=1.00E+04 DIVF(1)= 6.30E-04 DIVFrms= 2.95E-03 DT(ND)=-3.61E-04 T(ND)=2.2678E+02
 NST=    62 JCONV= 92 CHG=1.50E-04 dt0=1.00E+04 DIVF(1)= 6.49E-04 DIVFrms= 2.96E-03 DT(ND)=-3.55E-04 T(ND)=2.2678E+02
 NST=    63 JCONV= 92 CHG=4.04E-05 dt0=1.00E+04 DIVF(1)= 6.61E-04 DIVFrms= 2.97E-03 DT(ND)=-3.47E-04 T(ND)=2.2678E+02
 NST=    64 JCONV= 92 CHG=1.91E-04 dt0=1.00E+04 DIVF(1)= 6.70E-04 DIVFrms= 2.98E-03 DT(ND)=-3.38E-04 T(ND)=2.2678E+02
 NST=    65 JCONV= 92 CHG=4.93E-05 dt0=1.00E+04 DIVF(1)= 6.89E-04 DIVFrms= 2.99E-03 DT(ND)=-3.31E-04 T(ND)=2.2678E+02
 NST=    66 JCONV= 92 CHG=7.39E-05 dt0=1.00E+04 DIVF(1)= 7.04E-04 DIVFrms= 3.00E-03 DT(ND)=-3.23E-04 T(ND)=2.2678E+02
 NST=    67 JCONV= 92 CHG=7.93E-05 dt0=1.00E+04 DIVF(1)= 4.56E-04 DIVFrms= 2.31E-03 DT(ND)=-4.65E-04 T(ND)=2.2678E+02
 NST=    68 JCONV= 92 CHG=1.01E-04 dt0=1.00E+04 DIVF(1)= 7.32E-04 DIVFrms= 3.02E-03 DT(ND)=-3.63E-04 T(ND)=2.2677E+02
 NST=    69 JCONV= 92 CHG=8.06E-05 dt0=1.00E+04 DIVF(1)= 4.77E-04 DIVFrms= 2.33E-03 DT(ND)=-4.70E-04 T(ND)=2.2677E+02
 NST=    70 JCONV= 92 CHG=2.23E-04 dt0=1.00E+04 DIVF(1)= 7.57E-04 DIVFrms= 3.04E-03 DT(ND)=-3.56E-04 T(ND)=2.2677E+02
 NST=    71 JCONV= 92 CHG=4.68E-05 dt0=1.00E+04 DIVF(1)= 5.03E-04 DIVFrms= 2.34E-03 DT(ND)=-4.58E-04 T(ND)=2.2677E+02
 NST=    72 JCONV= 92 CHG=3.92E-05 dt0=1.00E+04 DIVF(1)= 7.91E-04 DIVFrms= 3.06E-03 DT(ND)=-3.41E-04 T(ND)=2.2677E+02
 NST=    73 JCONV= 92 CHG=3.69E-05 dt0=1.00E+04 DIVF(1)= 5.37E-04 DIVFrms= 2.36E-03 DT(ND)=-4.44E-04 T(ND)=2.2677E+02
 NST=    74 JCONV= 92 CHG=3.89E-05 dt0=1.00E+04 DIVF(1)= 8.16E-04 DIVFrms= 3.08E-03 DT(ND)=-3.27E-04 T(ND)=2.2677E+02
 NST=    75 JCONV= 92 CHG=4.57E-05 dt0=1.00E+04 DIVF(1)= 5.60E-04 DIVFrms= 2.38E-03 DT(ND)=-4.29E-04 T(ND)=2.2677E+02
 NST=    76 JCONV= 92 CHG=1.71E-04 dt0=1.00E+04 DIVF(1)= 8.47E-04 DIVFrms= 3.10E-03 DT(ND)=-3.13E-04 T(ND)=2.2677E+02
 NST=    77 JCONV= 92 CHG=4.03E-05 dt0=1.00E+04 DIVF(1)= 5.84E-04 DIVFrms= 2.39E-03 DT(ND)=-4.16E-04 T(ND)=2.2677E+02
 NST=    78 JCONV= 92 CHG=8.14E-05 dt0=1.00E+04 DIVF(1)= 5.97E-04 DIVFrms= 2.41E-03 DT(ND)=-4.46E-04 T(ND)=2.2677E+02
 NST=    79 JCONV= 92 CHG=6.44E-05 dt0=1.00E+04 DIVF(1)= 8.86E-04 DIVFrms= 3.13E-03 DT(ND)=-3.04E-04 T(ND)=2.2677E+02
 NST=    80 JCONV= 92 CHG=1.43E-04 dt0=1.00E+04 DIVF(1)= 6.33E-04 DIVFrms= 2.42E-03 DT(ND)=-3.99E-04 T(ND)=2.2677E+02
 NST=    81 JCONV= 92 CHG=4.24E-05 dt0=1.00E+04 DIVF(1)= 6.43E-04 DIVFrms= 2.43E-03 DT(ND)=-4.28E-04 T(ND)=2.2677E+02
 NST=    82 JCONV= 92 CHG=5.68E-05 dt0=1.00E+04 DIVF(1)= 6.52E-04 DIVFrms= 2.44E-03 DT(ND)=-4.32E-04 T(ND)=2.2677E+02
 NST=    83 JCONV= 92 CHG=2.08E-04 dt0=1.00E+04 DIVF(1)= 9.36E-04 DIVFrms= 3.17E-03 DT(ND)=-2.82E-04 T(ND)=2.2677E+02
 NST=    84 JCONV= 92 CHG=9.84E-05 dt0=1.00E+04 DIVF(1)= 6.79E-04 DIVFrms= 2.45E-03 DT(ND)=-3.74E-04 T(ND)=2.2677E+02
 NST=    85 JCONV= 92 CHG=1.64E-04 dt0=1.00E+04 DIVF(1)= 6.93E-04 DIVFrms= 2.45E-03 DT(ND)=-4.02E-04 T(ND)=2.2677E+02
 NST=    86 JCONV= 92 CHG=3.51E-05 dt0=1.00E+04 DIVF(1)= 7.00E-04 DIVFrms= 2.46E-03 DT(ND)=-4.09E-04 T(ND)=2.2677E+02
 NST=    87 JCONV= 92 CHG=4.15E-05 dt0=1.00E+04 DIVF(1)= 7.17E-04 DIVFrms= 2.47E-03 DT(ND)=-4.05E-04 T(ND)=2.2677E+02
 NST=    88 JCONV= 92 CHG=1.54E-04 dt0=1.00E+04 DIVF(1)= 7.30E-04 DIVFrms= 2.48E-03 DT(ND)=-4.00E-04 T(ND)=2.2677E+02
 NST=    89 JCONV= 92 CHG=3.71E-05 dt0=1.00E+04 DIVF(1)= 1.01E-03 DIVFrms= 3.21E-03 DT(ND)=-2.46E-04 T(ND)=2.2677E+02
 NST=    90 JCONV= 92 CHG=3.46E-05 dt0=1.00E+04 DIVF(1)= 7.51E-04 DIVFrms= 2.48E-03 DT(ND)=-3.36E-04 T(ND)=2.2677E+02
 NST=    91 JCONV= 92 CHG=7.63E-05 dt0=1.00E+04 DIVF(1)= 7.59E-04 DIVFrms= 2.50E-03 DT(ND)=-3.63E-04 T(ND)=2.2677E+02
 NST=    92 JCONV= 92 CHG=9.17E-05 dt0=1.00E+04 DIVF(1)= 7.75E-04 DIVFrms= 2.51E-03 DT(ND)=-3.67E-04 T(ND)=2.2677E+02
 NST=    93 JCONV= 92 CHG=3.42E-05 dt0=1.00E+04 DIVF(1)= 7.88E-04 DIVFrms= 2.52E-03 DT(ND)=-3.65E-04 T(ND)=2.2677E+02
 NST=    94 JCONV= 92 CHG=4.96E-05 dt0=1.00E+04 DIVF(1)= 7.97E-04 DIVFrms= 2.52E-03 DT(ND)=-3.61E-04 T(ND)=2.2676E+02
 NST=    95 JCONV= 92 CHG=8.59E-05 dt0=1.00E+04 DIVF(1)= 8.12E-04 DIVFrms= 2.53E-03 DT(ND)=-3.55E-04 T(ND)=2.2676E+02
 NST=    96 JCONV= 92 CHG=1.05E-04 dt0=1.00E+04 DIVF(1)= 8.22E-04 DIVFrms= 2.54E-03 DT(ND)=-3.49E-04 T(ND)=2.2676E+02
 NST=    97 JCONV= 92 CHG=3.02E-04 dt0=1.00E+04 DIVF(1)= 8.26E-04 DIVFrms= 2.55E-03 DT(ND)=-3.41E-04 T(ND)=2.2676E+02
 NST=    98 JCONV= 92 CHG=1.57E-04 dt0=1.00E+04 DIVF(1)= 8.50E-04 DIVFrms= 2.56E-03 DT(ND)=-3.36E-04 T(ND)=2.2676E+02
 NST=    99 JCONV= 92 CHG=9.48E-05 dt0=1.00E+04 DIVF(1)= 8.53E-04 DIVFrms= 2.56E-03 DT(ND)=-3.29E-04 T(ND)=2.2676E+02
 NST=   100 JCONV= 92 CHG=1.01E-04 dt0=1.00E+04 DIVF(1)= 8.64E-04 DIVFrms= 2.57E-03 DT(ND)=-3.23E-04 T(ND)=2.2676E+02
 NST=   101 JCONV= 92 CHG=4.98E-05 dt0=1.00E+04 DIVF(1)= 8.73E-04 DIVFrms= 2.58E-03 DT(ND)=-3.17E-04 T(ND)=2.2676E+02
 NST=   102 JCONV= 92 CHG=2.45E-04 dt0=1.00E+04 DIVF(1)= 8.85E-04 DIVFrms= 2.59E-03 DT(ND)=-3.09E-04 T(ND)=2.2676E+02
 NST=   103 JCONV= 92 CHG=2.27E-04 dt0=1.00E+04 DIVF(1)= 9.00E-04 DIVFrms= 2.59E-03 DT(ND)=-3.05E-04 T(ND)=2.2676E+02
 NST=   104 JCONV= 92 CHG=4.99E-05 dt0=1.00E+04 DIVF(1)= 9.12E-04 DIVFrms= 2.60E-03 DT(ND)=-2.98E-04 T(ND)=2.2676E+02
 NST=   105 JCONV= 92 CHG=1.27E-04 dt0=1.00E+04 DIVF(1)= 9.18E-04 DIVFrms= 2.61E-03 DT(ND)=-2.90E-04 T(ND)=2.2676E+02
 NST=   106 JCONV= 92 CHG=4.02E-05 dt0=1.00E+04 DIVF(1)= 9.20E-04 DIVFrms= 2.61E-03 DT(ND)=-2.87E-04 T(ND)=2.2676E+02
 NST=   107 JCONV= 92 CHG=8.51E-05 dt0=1.00E+04 DIVF(1)= 9.36E-04 DIVFrms= 2.61E-03 DT(ND)=-2.82E-04 T(ND)=2.2676E+02
 NST=   108 JCONV= 92 CHG=1.22E-04 dt0=1.00E+04 DIVF(1)= 9.43E-04 DIVFrms= 2.62E-03 DT(ND)=-2.75E-04 T(ND)=2.2676E+02
 NST=   109 JCONV= 92 CHG=3.05E-04 dt0=1.00E+04 DIVF(1)= 9.60E-04 DIVFrms= 2.63E-03 DT(ND)=-2.69E-04 T(ND)=2.2676E+02
 NST=   110 JCONV= 92 CHG=1.35E-04 dt0=1.00E+04 DIVF(1)= 9.60E-04 DIVFrms= 2.63E-03 DT(ND)=-2.64E-04 T(ND)=2.2676E+02
 NST=   111 JCONV= 92 CHG=3.19E-05 dt0=1.00E+04 DIVF(1)= 9.77E-04 DIVFrms= 2.64E-03 DT(ND)=-2.56E-04 T(ND)=2.2676E+02
 NST=   112 JCONV= 92 CHG=3.18E-05 dt0=1.00E+04 DIVF(1)= 9.87E-04 DIVFrms= 2.65E-03 DT(ND)=-2.50E-04 T(ND)=2.2676E+02
 NST=   113 JCONV= 92 CHG=7.29E-05 dt0=1.00E+04 DIVF(1)= 9.97E-04 DIVFrms= 2.66E-03 DT(ND)=-2.44E-04 T(ND)=2.2676E+02
 NST=   114 JCONV= 92 CHG=6.26E-05 dt0=1.00E+04 DIVF(1)= 1.01E-03 DIVFrms= 2.66E-03 DT(ND)=-2.40E-04 T(ND)=2.2676E+02
 NST=   115 JCONV= 92 CHG=1.06E-04 dt0=1.00E+04 DIVF(1)= 1.01E-03 DIVFrms= 2.67E-03 DT(ND)=-2.32E-04 T(ND)=2.2676E+02
 NST=   116 JCONV= 92 CHG=3.13E-05 dt0=1.00E+04 DIVF(1)= 1.02E-03 DIVFrms= 2.68E-03 DT(ND)=-2.27E-04 T(ND)=2.2676E+02
 NST=   117 JCONV= 92 CHG=3.11E-04 dt0=1.00E+04 DIVF(1)= 1.04E-03 DIVFrms= 2.68E-03 DT(ND)=-2.22E-04 T(ND)=2.2676E+02
 NST=   118 JCONV= 92 CHG=5.37E-05 dt0=1.00E+04 DIVF(1)= 1.05E-03 DIVFrms= 2.69E-03 DT(ND)=-2.15E-04 T(ND)=2.2676E+02
 NST=   119 JCONV= 92 CHG=3.10E-05 dt0=1.00E+04 DIVF(1)= 1.06E-03 DIVFrms= 2.70E-03 DT(ND)=-2.09E-04 T(ND)=2.2676E+02
 NST=   120 JCONV= 92 CHG=4.26E-05 dt0=1.00E+04 DIVF(1)= 1.07E-03 DIVFrms= 2.71E-03 DT(ND)=-2.03E-04 T(ND)=2.2676E+02
 NST=   121 JCONV= 92 CHG=3.07E-05 dt0=1.00E+04 DIVF(1)= 1.07E-03 DIVFrms= 2.71E-03 DT(ND)=-1.98E-04 T(ND)=2.2676E+02
 NST=   122 JCONV= 92 CHG=1.16E-04 dt0=1.00E+04 DIVF(1)= 1.08E-03 DIVFrms= 2.72E-03 DT(ND)=-1.92E-04 T(ND)=2.2676E+02
 NST=   123 JCONV= 92 CHG=1.47E-04 dt0=1.00E+04 DIVF(1)= 1.10E-03 DIVFrms= 2.73E-03 DT(ND)=-1.85E-04 T(ND)=2.2676E+02
 NST=   124 JCONV= 92 CHG=1.02E-04 dt0=1.00E+04 DIVF(1)= 1.10E-03 DIVFrms= 2.73E-03 DT(ND)=-1.80E-04 T(ND)=2.2676E+02
 NST=   125 JCONV= 92 CHG=1.67E-04 dt0=1.00E+04 DIVF(1)= 1.11E-03 DIVFrms= 2.74E-03 DT(ND)=-1.75E-04 T(ND)=2.2676E+02
 NST=   126 JCONV= 92 CHG=1.15E-04 dt0=1.00E+04 DIVF(1)= 1.12E-03 DIVFrms= 2.75E-03 DT(ND)=-1.68E-04 T(ND)=2.2676E+02
 NST=   127 JCONV= 92 CHG=8.00E-05 dt0=1.00E+04 DIVF(1)= 1.13E-03 DIVFrms= 2.75E-03 DT(ND)=-1.64E-04 T(ND)=2.2676E+02
 NST=   128 JCONV= 92 CHG=9.44E-05 dt0=1.00E+04 DIVF(1)= 1.13E-03 DIVFrms= 2.76E-03 DT(ND)=-1.57E-04 T(ND)=2.2676E+02
 NST=   129 JCONV= 92 CHG=3.94E-05 dt0=1.00E+04 DIVF(1)= 1.14E-03 DIVFrms= 2.77E-03 DT(ND)=-1.51E-04 T(ND)=2.2676E+02
 NST=   130 JCONV= 92 CHG=2.62E-04 dt0=1.00E+04 DIVF(1)= 9.15E-04 DIVFrms= 2.09E-03 DT(ND)=-2.74E-04 T(ND)=2.2676E+02
 NST=   131 JCONV= 92 CHG=3.09E-05 dt0=1.00E+04 DIVF(1)= 1.16E-03 DIVFrms= 2.79E-03 DT(ND)=-1.82E-04 T(ND)=2.2676E+02
 NST=   132 JCONV= 92 CHG=3.76E-04 dt0=1.00E+04 DIVF(1)= 9.42E-04 DIVFrms= 2.09E-03 DT(ND)=-2.82E-04 T(ND)=2.2676E+02
 NST=   133 JCONV= 92 CHG=1.98E-04 dt0=1.00E+04 DIVF(1)= 1.18E-03 DIVFrms= 2.80E-03 DT(ND)=-1.80E-04 T(ND)=2.2676E+02
 NST=   134 JCONV= 92 CHG=2.80E-04 dt0=1.00E+04 DIVF(1)= 9.52E-04 DIVFrms= 2.13E-03 DT(ND)=-2.65E-04 T(ND)=2.2675E+02
 NST=   135 JCONV= 92 CHG=3.42E-05 dt0=1.00E+04 DIVF(1)= 1.21E-03 DIVFrms= 2.83E-03 DT(ND)=-1.62E-04 T(ND)=2.2675E+02
 NST=   136 JCONV= 92 CHG=7.02E-05 dt0=1.00E+04 DIVF(1)= 9.75E-04 DIVFrms= 2.14E-03 DT(ND)=-2.53E-04 T(ND)=2.2675E+02
 NST=   137 JCONV= 92 CHG=1.11E-04 dt0=1.00E+04 DIVF(1)= 1.23E-03 DIVFrms= 2.84E-03 DT(ND)=-1.52E-04 T(ND)=2.2675E+02
 NST=   138 JCONV= 92 CHG=4.65E-05 dt0=1.00E+04 DIVF(1)= 9.94E-04 DIVFrms= 2.14E-03 DT(ND)=-2.44E-04 T(ND)=2.2675E+02
 NST=   139 JCONV= 92 CHG=3.01E-05 dt0=1.00E+04 DIVF(1)= 1.24E-03 DIVFrms= 2.86E-03 DT(ND)=-1.40E-04 T(ND)=2.2675E+02
 NST=   140 JCONV= 92 CHG=4.75E-05 dt0=1.00E+04 DIVF(1)= 1.01E-03 DIVFrms= 2.16E-03 DT(ND)=-2.33E-04 T(ND)=2.2675E+02
 NST=   141 JCONV= 92 CHG=5.96E-05 dt0=1.00E+04 DIVF(1)= 1.26E-03 DIVFrms= 2.87E-03 DT(ND)=-1.30E-04 T(ND)=2.2675E+02
 NST=   142 JCONV= 92 CHG=2.82E-05 dt0=1.00E+04 DIVF(1)= 1.02E-03 DIVFrms= 2.17E-03 DT(ND)=-2.23E-04 T(ND)=2.2675E+02
 NST=   143 JCONV= 92 CHG=3.83E-05 dt0=1.00E+04 DIVF(1)= 1.27E-03 DIVFrms= 2.88E-03 DT(ND)=-1.19E-04 T(ND)=2.2675E+02
 NST=   144 JCONV= 92 CHG=1.36E-04 dt0=1.00E+04 DIVF(1)= 1.03E-03 DIVFrms= 2.18E-03 DT(ND)=-2.12E-04 T(ND)=2.2675E+02
 NST=   145 JCONV= 92 CHG=2.89E-05 dt0=1.00E+04 DIVF(1)= 1.04E-03 DIVFrms= 2.19E-03 DT(ND)=-2.41E-04 T(ND)=2.2675E+02
 NST=   146 JCONV= 92 CHG=2.24E-04 dt0=1.00E+04 DIVF(1)= 1.29E-03 DIVFrms= 2.90E-03 DT(ND)=-1.16E-04 T(ND)=2.2675E+02
 NST=   147 JCONV= 92 CHG=2.59E-05 dt0=1.00E+04 DIVF(1)= 1.05E-03 DIVFrms= 2.19E-03 DT(ND)=-2.03E-04 T(ND)=2.2675E+02
 NST=   148 JCONV= 92 CHG=2.28E-04 dt0=1.00E+04 DIVF(1)= 1.06E-03 DIVFrms= 2.21E-03 DT(ND)=-2.27E-04 T(ND)=2.2675E+02
 NST=   149 JCONV= 92 CHG=1.38E-04 dt0=1.00E+04 DIVF(1)= 1.32E-03 DIVFrms= 2.91E-03 DT(ND)=-1.03E-04 T(ND)=2.2675E+02
 NST=   150 JCONV= 92 CHG=1.56E-04 dt0=1.00E+04 DIVF(1)= 1.08E-03 DIVFrms= 2.21E-03 DT(ND)=-1.89E-04 T(ND)=2.2675E+02

 TIME= 1.492E+06  TIME IN DAYS = 1.727E+01

 PLANETARY ALBEDO:  ALBP = 0.6030

  J     P         ALT         T        CONVEC       DT          TOLD        FH20       FSAVE       TCOOL       THEAT
  1 5.4120E-05 5.9339E+01 1.9874E+02  0.00E+00   3.2962E-02  1.9870E+02  6.1235E-07  6.7300E-07 -6.2135E+01  5.3024E+01
  2 6.3370E-05 5.8386E+01 2.1606E+02  0.00E+00   3.3608E-02  2.1603E+02  6.1235E-07  6.7300E-07 -4.0157E+01  4.8233E+01
  3 7.4112E-05 5.7375E+01 2.2699E+02  0.00E+00   1.6677E-02  2.2698E+02  6.1235E-07  6.7300E-07 -3.8875E+01  4.3317E+01
  4 8.6570E-05 5.6337E+01 2.3181E+02  0.00E+00   3.1440E-03  2.3180E+02  6.1235E-07  6.7300E-07 -3.7481E+01  3.8367E+01
  5 1.0100E-04 5.5295E+01 2.3204E+02  0.00E+00  -1.9015E-03  2.3204E+02  6.1235E-07  6.7300E-07 -3.3100E+01  3.3484E+01
  6 1.1770E-04 5.4267E+01 2.2962E+02  0.00E+00  -2.6574E-03  2.2962E+02  6.1235E-07  6.7300E-07 -2.9746E+01  2.8778E+01
  7 1.3699E-04 5.3259E+01 2.2623E+02  0.00E+00  -2.0048E-03  2.2623E+02  6.1235E-07  6.7300E-07 -2.5592E+01  2.4368E+01
  8 1.5926E-04 5.2274E+01 2.2283E+02  0.00E+00  -1.3626E-03  2.2283E+02  6.1235E-07  6.7300E-07 -2.1077E+01  2.0367E+01
  9 1.8492E-04 5.1310E+01 2.1979E+02  0.00E+00  -1.0349E-03  2.1979E+02  6.1235E-07  6.7300E-07 -1.7163E+01  1.6868E+01
 10 2.1446E-04 5.0367E+01 2.1721E+02  0.00E+00  -8.1673E-04  2.1721E+02  6.1235E-07  6.7300E-07 -1.4006E+01  1.3935E+01
 11 2.4842E-04 4.9441E+01 2.1508E+02  0.00E+00  -6.2815E-04  2.1508E+02  6.1235E-07  6.7300E-07 -1.1543E+01  1.1587E+01
 12 2.8742E-04 4.8531E+01 2.1344E+02  0.00E+00  -4.6108E-04  2.1344E+02  6.1235E-07  6.7300E-07 -9.8429E+00  9.8185E+00
 13 3.3214E-04 4.7634E+01 2.1232E+02  0.00E+00  -3.1967E-04  2.1232E+02  6.1235E-07  6.7300E-07 -8.9374E+00  8.7574E+00
 14 3.8336E-04 4.6749E+01 2.1172E+02  0.00E+00  -2.1385E-04  2.1172E+02  6.1235E-07  6.7300E-07 -8.5193E+00  8.4458E+00
 15 4.4195E-04 4.5872E+01 2.1154E+02  0.00E+00  -1.4308E-04  2.1154E+02  6.1235E-07  6.7300E-07 -8.4670E+00  8.4305E+00
 16 5.0888E-04 4.5002E+01 2.1168E+02  0.00E+00  -9.8470E-05  2.1168E+02  6.1235E-07  6.7300E-07 -8.5601E+00  8.5644E+00
 17 5.8525E-04 4.4139E+01 2.1205E+02  0.00E+00  -6.8518E-05  2.1205E+02  6.1235E-07  6.7300E-07 -8.8197E+00  8.7531E+00
 18 6.7228E-04 4.3282E+01 2.1251E+02  0.00E+00  -5.0673E-05  2.1251E+02  6.1235E-07  6.7300E-07 -8.9978E+00  8.9244E+00
 19 7.7132E-04 4.2431E+01 2.1292E+02  0.00E+00  -3.2071E-05  2.1292E+02  6.1235E-07  6.7300E-07 -9.0711E+00  9.0290E+00
 20 8.8390E-04 4.1585E+01 2.1305E+02  0.00E+00  -3.0599E-05  2.1305E+02  6.1235E-07  6.7300E-07 -8.9341E+00  9.0415E+00
 21 1.0117E-03 4.0748E+01 2.1267E+02  0.00E+00  -1.4653E-05  2.1267E+02  6.1235E-07  6.7300E-07 -8.4775E+00  9.0768E+00
 22 1.1566E-03 3.9920E+01 2.1181E+02  0.00E+00   1.6713E-05  2.1181E+02  6.1235E-07  6.7300E-07 -9.7183E+00  9.8123E+00
 23 1.3206E-03 3.9104E+01 2.1070E+02  0.00E+00   4.6247E-05  2.1070E+02  6.1235E-07  6.7300E-07 -1.0319E+01  1.0238E+01
 24 1.5062E-03 3.8299E+01 2.0957E+02  0.00E+00   6.8644E-05  2.0957E+02  6.1235E-07  6.7300E-07 -1.0421E+01  1.0291E+01
 25 1.7157E-03 3.7506E+01 2.0858E+02  0.00E+00   8.2185E-05  2.0858E+02  6.1235E-07  6.7300E-07 -1.0135E+01  1.0009E+01
 26 1.9520E-03 3.6723E+01 2.0781E+02  0.00E+00   8.6974E-05  2.0781E+02  6.1235E-07  6.7300E-07 -9.5663E+00  9.4664E+00
 27 2.2183E-03 3.5950E+01 2.0728E+02  0.00E+00   8.0833E-05  2.0728E+02  6.1235E-07  6.7300E-07 -8.8766E+00  8.7587E+00
 28 2.5178E-03 3.5186E+01 2.0694E+02  0.00E+00   6.2172E-05  2.0694E+02  6.1235E-07  6.7300E-07 -8.0222E+00  7.9832E+00
 29 2.8544E-03 3.4430E+01 2.0670E+02  0.00E+00   2.8633E-05  2.0670E+02  6.1235E-07  6.7300E-07 -7.1937E+00  7.2152E+00
 30 3.2321E-03 3.3682E+01 2.0646E+02  0.00E+00  -2.0810E-05  2.0646E+02  6.1235E-07  6.7300E-07 -6.3863E+00  6.4706E+00
 31 3.6554E-03 3.2943E+01 2.0615E+02  0.00E+00  -8.9284E-05  2.0615E+02  6.1235E-07  6.7300E-07 -5.6507E+00  5.7137E+00
 32 4.1291E-03 3.2211E+01 2.0575E+02  0.00E+00  -1.7464E-04  2.0575E+02  6.1235E-07  6.7300E-07 -4.9825E+00  5.0633E+00
 33 4.6587E-03 3.1489E+01 2.0527E+02  0.00E+00  -2.7552E-04  2.0527E+02  6.1235E-07  6.7300E-07 -4.4821E+00  4.5154E+00
 34 5.2500E-03 3.0775E+01 2.0477E+02  0.00E+00  -3.8781E-04  2.0477E+02  6.1235E-07  6.7300E-07 -4.0541E+00  4.0634E+00
 35 5.9092E-03 3.0070E+01 2.0434E+02  0.00E+00  -5.0413E-04  2.0434E+02  6.1235E-07  6.7300E-07 -3.7644E+00  3.7026E+00
 36 6.6432E-03 2.9374E+01 2.0402E+02  0.00E+00  -6.2166E-04  2.0402E+02  6.1235E-07  6.7300E-07 -3.5410E+00  3.4239E+00
 37 7.4595E-03 2.8685E+01 2.0385E+02  0.00E+00  -7.3122E-04  2.0385E+02  6.1235E-07  6.7300E-07 -3.3011E+00  3.2116E+00
 38 8.3660E-03 2.8005E+01 2.0375E+02  0.00E+00  -8.2754E-04  2.0375E+02  6.1235E-07  6.7300E-07 -3.0635E+00  3.0467E+00
 39 9.3715E-03 2.7331E+01 2.0365E+02  0.00E+00  -9.0334E-04  2.0365E+02  6.1235E-07  6.7300E-07 -2.7611E+00  2.9058E+00
 40 1.0485E-02 2.6665E+01 2.0350E+02  0.00E+00  -9.4146E-04  2.0350E+02  6.1235E-07  6.7300E-07 -2.6576E+00  2.7619E+00
 41 1.1717E-02 2.6007E+01 2.0337E+02  0.00E+00  -9.4780E-04  2.0337E+02  6.1235E-07  6.7300E-07 -2.7025E+00  2.6074E+00
 42 1.3079E-02 2.5356E+01 2.0332E+02  0.00E+00  -9.3331E-04  2.0332E+02  6.1235E-07  6.7300E-07 -2.5649E+00  2.4591E+00
 43 1.4581E-02 2.4712E+01 2.0334E+02  0.00E+00  -9.0084E-04  2.0334E+02  6.1235E-07  6.7300E-07 -2.3565E+00  2.3167E+00
 44 1.6236E-02 2.4075E+01 2.0338E+02  0.00E+00  -8.4879E-04  2.0338E+02  6.1235E-07  6.7300E-07 -2.1580E+00  2.1755E+00
 45 1.8057E-02 2.3445E+01 2.0341E+02  0.00E+00  -7.7255E-04  2.0341E+02  6.1235E-07  6.7300E-07 -1.9975E+00  2.0325E+00
 46 2.0058E-02 2.2822E+01 2.0341E+02  0.00E+00  -6.6520E-04  2.0341E+02  6.1235E-07  6.7300E-07 -1.8638E+00  1.8860E+00
 47 2.2255E-02 2.2206E+01 2.0337E+02  0.00E+00  -5.2198E-04  2.0337E+02  6.1235E-07  6.7300E-07 -1.7349E+00  1.7363E+00
 48 2.4663E-02 2.1598E+01 2.0330E+02  0.00E+00  -3.4812E-04  2.0331E+02  6.1235E-07  6.7300E-07 -1.5974E+00  1.5849E+00
 49 2.7298E-02 2.0996E+01 2.0322E+02  0.00E+00  -1.6344E-04  2.0322E+02  6.1235E-07  6.7300E-07 -1.4509E+00  1.4346E+00
 50 3.0179E-02 2.0403E+01 2.0313E+02  0.00E+00   3.5463E-06  2.0313E+02  6.1235E-07  6.7300E-07 -1.3028E+00  1.2890E+00
 51 3.3324E-02 1.9816E+01 2.0300E+02  0.00E+00   1.2918E-04  2.0300E+02  6.1235E-07  6.7300E-07 -1.1608E+00  1.1511E+00
 52 3.6753E-02 1.9237E+01 2.0284E+02  0.00E+00   2.0807E-04  2.0284E+02  6.1235E-07  6.7300E-07 -1.0070E+00  1.0241E+00
 53 4.0486E-02 1.8666E+01 2.0262E+02  0.00E+00   2.5361E-04  2.0262E+02  6.1235E-07  6.7300E-07 -8.9623E-01  9.1097E-01
 54 4.4545E-02 1.8102E+01 2.0234E+02  0.00E+00   2.8470E-04  2.0234E+02  6.1235E-07  6.7300E-07 -8.0234E-01  8.1217E-01
 55 4.8953E-02 1.7546E+01 2.0200E+02  0.00E+00   3.0876E-04  2.0200E+02  6.1235E-07  6.7300E-07 -7.2411E-01  7.2671E-01
 56 5.3732E-02 1.6999E+01 2.0160E+02  0.00E+00   3.1255E-04  2.0159E+02  6.1235E-07  6.7300E-07 -6.3956E-01  6.5250E-01
 57 5.8907E-02 1.6459E+01 2.0113E+02  0.00E+00   2.6545E-04  2.0113E+02  6.1235E-07  6.7300E-07 -5.8304E-01  5.8693E-01
 58 6.4504E-02 1.5928E+01 2.0061E+02  0.00E+00   1.3719E-04  2.0061E+02  6.1235E-07  6.7300E-07 -5.1538E-01  5.2743E-01
 59 7.0547E-02 1.5406E+01 2.0004E+02  0.00E+00  -8.9234E-05  2.0004E+02  6.1235E-07  6.7300E-07 -4.6789E-01  4.7185E-01
 60 7.7065E-02 1.4892E+01 1.9945E+02  0.00E+00  -4.1122E-04  1.9945E+02  6.1235E-07  6.7300E-07 -4.1695E-01  4.1867E-01
 61 8.4084E-02 1.4386E+01 1.9884E+02  0.00E+00  -7.8727E-04  1.9884E+02  6.1235E-07  6.7300E-07 -3.6965E-01  3.6696E-01
 62 9.1632E-02 1.3889E+01 1.9823E+02  0.00E+00  -1.1951E-03  1.9823E+02  6.1235E-07  6.7300E-07 -3.3238E-01  3.1622E-01
 63 9.9739E-02 1.3400E+01 1.9766E+02  0.00E+00  -1.5675E-03  1.9766E+02  6.1235E-07  6.7300E-07 -2.9452E-01  2.6940E-01
 64 1.0843E-01 1.2919E+01 1.9712E+02  0.00E+00  -1.8745E-03  1.9712E+02  6.1235E-07  6.7300E-07 -2.9118E-01  2.5980E-01
 65 1.1774E-01 1.2447E+01 1.9663E+02  0.00E+00  -2.1096E-03  1.9664E+02  6.1235E-07  6.7300E-07 -2.7928E-01  2.5129E-01
 66 1.2770E-01 1.1982E+01 1.9620E+02  0.00E+00  -2.2747E-03  1.9620E+02  6.1235E-07  6.7300E-07 -2.6709E-01  2.4089E-01
 67 1.3834E-01 1.1526E+01 1.9580E+02  0.00E+00  -2.3758E-03  1.9580E+02  6.1235E-07  6.7300E-07 -2.4908E-01  2.2918E-01
 68 1.4968E-01 1.1077E+01 1.9544E+02  0.00E+00  -2.4223E-03  1.9544E+02  6.1235E-07  6.7300E-07 -2.3461E-01  2.1684E-01
 69 1.6175E-01 1.0635E+01 1.9511E+02  0.00E+00  -2.4320E-03  1.9511E+02  6.1235E-07  6.7300E-07 -2.2134E-01  2.0446E-01
 70 1.7459E-01 1.0201E+01 1.9481E+02  0.00E+00  -2.4171E-03  1.9481E+02  6.1235E-07  6.7300E-07 -2.0687E-01  1.9249E-01
 71 1.8823E-01 9.7748E+00 1.9453E+02  0.00E+00  -2.3859E-03  1.9453E+02  6.1235E-07  6.7300E-07 -1.9701E-01  1.8127E-01
 72 2.0269E-01 9.3557E+00 1.9428E+02  0.00E+00  -2.3414E-03  1.9428E+02  6.1235E-07  6.7300E-07 -1.8842E-01  1.7094E-01
 73 2.1799E-01 8.9439E+00 1.9406E+02  0.00E+00  -2.2789E-03  1.9406E+02  6.1235E-07  6.7300E-07 -1.8054E-01  1.6154E-01
 74 2.3418E-01 8.5392E+00 1.9389E+02  0.00E+00  -2.1847E-03  1.9389E+02  6.1235E-07  6.7300E-07 -1.7069E-01  1.5300E-01
 75 2.5126E-01 8.1416E+00 1.9376E+02  0.00E+00  -2.0410E-03  1.9376E+02  6.1235E-07  6.7300E-07 -1.6329E-01  1.4521E-01
 76 2.6927E-01 7.7510E+00 1.9369E+02  0.00E+00  -1.7874E-03  1.9369E+02  6.1235E-07  6.7300E-07 -1.5596E-01  1.3803E-01
 77 2.8822E-01 7.3672E+00 1.9368E+02  0.00E+00  -1.4973E-03  1.9368E+02  6.1235E-07  6.7300E-07 -1.4882E-01  1.3131E-01
 78 3.0814E-01 6.9902E+00 1.9374E+02  0.00E+00  -1.0562E-03  1.9374E+02  6.1235E-07  6.7300E-07 -1.4188E-01  1.2517E-01
 79 3.2904E-01 6.6197E+00 1.9386E+02  0.00E+00  -5.5244E-04  1.9387E+02  6.1235E-07  6.7300E-07 -1.3406E-01  1.2152E-01
 80 3.5093E-01 6.2556E+00 1.9406E+02  0.00E+00  -1.8145E-04  1.9406E+02  6.1235E-07  6.7300E-07 -1.2694E-01  1.1951E-01
 81 3.7384E-01 5.8979E+00 1.9431E+02  0.00E+00   8.8930E-04  1.9431E+02  6.1235E-07  6.7300E-07 -1.1824E-01  1.1762E-01
 82 3.9776E-01 5.5465E+00 1.9461E+02  0.00E+00   2.4089E-04  1.9461E+02  6.1235E-07  6.7300E-07 -1.0963E-01  1.1567E-01
 83 4.2271E-01 5.2013E+00 1.9495E+02  0.00E+00   2.1175E-03  1.9495E+02  6.1235E-07  6.7300E-07 -1.0103E-01  1.1364E-01
 84 4.4869E-01 4.8623E+00 1.9531E+02  0.00E+00   1.9019E-03  1.9530E+02  6.2012E-07  6.7300E-07 -9.3615E-02  1.1160E-01
 85 4.7570E-01 4.5294E+00 1.9567E+02  0.00E+00   4.8766E-05  1.9567E+02  6.5119E-07  6.7300E-07 -8.5508E-02  1.0964E-01
 86 5.0372E-01 4.2028E+00 1.9605E+02  0.00E+00   3.1658E-03  1.9605E+02  6.9374E-07  6.7300E-07 -8.0354E-02  1.0771E-01
 87 5.3276E-01 3.8823E+00 1.9656E+02  0.00E+00   3.7155E-03  1.9656E+02  7.5358E-07  6.8105E-07 -7.3736E-02  1.0584E-01
 88 5.6280E-01 3.5677E+00 1.9708E+02  0.00E+00   4.0668E-03  1.9707E+02  8.1973E-07  7.1324E-07 -6.8868E-02  1.0401E-01
 89 5.9383E-01 3.2591E+00 1.9786E+02  0.00E+00   5.0531E-03  1.9786E+02  9.2960E-07  7.7868E-07 -5.8807E-02  1.0247E-01
 90 6.2581E-01 2.9561E+00 1.9869E+02  0.00E+00   4.3914E-03  1.9868E+02  1.0589E-06  9.3803E-07 -6.3295E-02  1.0124E-01
 91 6.5873E-01 2.6579E+00 2.0062E+02  0.00E+00  -2.7810E-04  2.0062E+02  1.4277E-06  1.4430E-06 -1.3821E-01  1.0195E-01
 92 6.9255E-01 2.3632E+00 2.0353E+02  1.00E+00  -2.8191E-04  2.0353E+02  2.2122E-06  2.2354E-06 -2.5325E-01  1.0587E-01
 93 7.2723E-01 2.0714E+00 2.0640E+02  1.00E+00  -2.8110E-04  2.0640E+02  3.3711E-06  3.4055E-06 -3.6574E-01  1.1247E-01
 94 7.6274E-01 1.7828E+00 2.0925E+02  1.00E+00  -2.7567E-04  2.0925E+02  5.0547E-06  5.1043E-06 -4.7333E-01  1.2200E-01
 95 7.9903E-01 1.4975E+00 2.1205E+02  1.00E+00  -2.6641E-04  2.1205E+02  7.4612E-06  7.5304E-06 -5.6631E-01  1.3464E-01
 96 8.3604E-01 1.2160E+00 2.1482E+02  1.00E+00  -2.5493E-04  2.1482E+02  1.0847E-05  1.0940E-05 -6.4102E-01  1.5069E-01
 97 8.7372E-01 9.3838E-01 2.1755E+02  1.00E+00  -2.4285E-04  2.1755E+02  1.5535E-05  1.5658E-05 -7.1315E-01  1.7129E-01
 98 9.1200E-01 6.6490E-01 2.2024E+02  1.00E+00  -2.3058E-04  2.2024E+02  2.1930E-05  2.2085E-05 -7.9286E-01  1.9888E-01
 99 9.5082E-01 3.9583E-01 2.2288E+02  1.00E+00  -2.1704E-04  2.2288E+02  3.0520E-05  3.0711E-05 -9.0490E-01  2.3639E-01
100 9.9011E-01 1.3139E-01 2.2547E+02  1.00E+00  -2.0322E-04  2.2547E+02  4.1887E-05  4.2115E-05 -9.9813E-01  2.8611E-01
101 1.0101E+00 0.0000E+00 2.2675E+02  1.00E+00  -1.8947E-04  2.2675E+02  4.8893E-05  4.9123E-05 -3.1984E+00  3.9721E+00

 FCO2
  6.55E-03 6.55E-03 6.55E-03 6.55E-03 6.55E-03 6.55E-03 6.55E-03 6.55E-03 6.55E-03 6.55E-03
  6.55E-03 6.55E-03 6.55E-03 6.55E-03 6.55E-03 6.55E-03 6.55E-03 6.55E-03 6.55E-03 6.55E-03
  6.55E-03 6.55E-03 6.55E-03 6.55E-03 6.55E-03 6.55E-03 6.55E-03 6.55E-03 6.55E-03 6.55E-03
  6.55E-03 6.55E-03 6.55E-03 6.55E-03 6.55E-03 6.55E-03 6.55E-03 6.55E-03 6.55E-03 6.55E-03
  6.55E-03 6.55E-03 6.55E-03 6.55E-03 6.55E-03 6.55E-03 6.55E-03 6.55E-03 6.55E-03 6.55E-03
  6.55E-03 6.55E-03 6.55E-03 6.55E-03 6.55E-03 6.55E-03 6.55E-03 6.55E-03 6.55E-03 6.55E-03
  6.55E-03 6.55E-03 6.55E-03 6.55E-03 6.55E-03 6.55E-03 6.55E-03 6.55E-03 6.55E-03 6.55E-03
  6.55E-03 6.55E-03 6.55E-03 6.55E-03 6.55E-03 6.55E-03 6.55E-03 6.55E-03 6.55E-03 6.55E-03
  6.55E-03 6.55E-03 6.55E-03 6.55E-03 6.55E-03 6.55E-03 6.55E-03 6.55E-03 6.55E-03 6.55E-03
  6.55E-03 6.55E-03 6.55E-03 6.55E-03 6.55E-03 6.55E-03 6.55E-03 6.55E-03 6.55E-03 6.55E-03
  6.55E-03

  J    PF         ALT       FTOTAL       FTIR       FDNIR       FUPIR       FTSOL       FDNSOL       FUPSOL       DIVF
  1 5.0000E-05 5.9339E+01  1.3805E+02 -1.2809E+05  0.0000E+00  1.2809E+05  1.2822E+05  3.2300E+05  1.9477E+05  1.0778E-03
  2 5.8580E-05 5.8386E+01  1.4726E+02 -1.2802E+05  9.4604E+01  1.2812E+05  1.2817E+05  3.2294E+05  1.9477E+05  1.1494E-03
  3 6.8551E-05 5.7375E+01  1.3776E+02 -1.2798E+05  1.6392E+02  1.2814E+05  1.2811E+05  3.2289E+05  1.9477E+05  1.0751E-03
  4 8.0123E-05 5.6337E+01  1.3169E+02 -1.2792E+05  2.2114E+02  1.2814E+05  1.2806E+05  3.2283E+05  1.9477E+05  1.0276E-03
  5 9.3536E-05 5.5295E+01  1.3028E+02 -1.2786E+05  2.6897E+02  1.2813E+05  1.2799E+05  3.2276E+05  1.9477E+05  1.0168E-03
  6 1.0906E-04 5.4267E+01  1.2957E+02 -1.2780E+05  3.0964E+02  1.2811E+05  1.2793E+05  3.2270E+05  1.9477E+05  1.0114E-03
  7 1.2702E-04 5.3259E+01  1.3163E+02 -1.2774E+05  3.4955E+02  1.2809E+05  1.2787E+05  3.2264E+05  1.9477E+05  1.0276E-03
  8 1.4775E-04 5.2274E+01  1.3463E+02 -1.2768E+05  3.8965E+02  1.2807E+05  1.2781E+05  3.2258E+05  1.9477E+05  1.0512E-03
  9 1.7166E-04 5.1310E+01  1.3663E+02 -1.2762E+05  4.2896E+02  1.2805E+05  1.2775E+05  3.2252E+05  1.9477E+05  1.0671E-03
 10 1.9920E-04 5.0367E+01  1.3759E+02 -1.2756E+05  4.6740E+02  1.2803E+05  1.2770E+05  3.2247E+05  1.9477E+05  1.0747E-03
 11 2.3089E-04 4.9441E+01  1.3786E+02 -1.2751E+05  5.0541E+02  1.2802E+05  1.2765E+05  3.2242E+05  1.9477E+05  1.0769E-03
 12 2.6729E-04 4.8531E+01  1.3766E+02 -1.2746E+05  5.4394E+02  1.2800E+05  1.2760E+05  3.2237E+05  1.9477E+05  1.0755E-03
 13 3.0907E-04 4.7634E+01  1.3778E+02 -1.2741E+05  5.8487E+02  1.2800E+05  1.2755E+05  3.2232E+05  1.9477E+05  1.0765E-03
 14 3.5694E-04 4.6749E+01  1.3880E+02 -1.2736E+05  6.3086E+02  1.2799E+05  1.2750E+05  3.2227E+05  1.9477E+05  1.0844E-03
 15 4.1174E-04 4.5872E+01  1.3928E+02 -1.2731E+05  6.8377E+02  1.2799E+05  1.2745E+05  3.2221E+05  1.9477E+05  1.0882E-03
 16 4.7438E-04 4.5002E+01  1.3955E+02 -1.2724E+05  7.4544E+02  1.2799E+05  1.2738E+05  3.2215E+05  1.9477E+05  1.0903E-03
 17 5.4590E-04 4.4139E+01  1.3951E+02 -1.2717E+05  8.1670E+02  1.2799E+05  1.2731E+05  3.2208E+05  1.9477E+05  1.0900E-03
 18 6.2745E-04 4.3282E+01  1.4015E+02 -1.2709E+05  8.9880E+02  1.2798E+05  1.2723E+05  3.2199E+05  1.9476E+05  1.0951E-03
 19 7.2032E-04 4.2431E+01  1.4095E+02 -1.2699E+05  9.9072E+02  1.2798E+05  1.2713E+05  3.2189E+05  1.9476E+05  1.1014E-03
 20 8.2594E-04 4.1585E+01  1.4148E+02 -1.2687E+05  1.0911E+03  1.2797E+05  1.2702E+05  3.2178E+05  1.9476E+05  1.1056E-03
 21 9.4593E-04 4.0748E+01  1.3996E+02 -1.2675E+05  1.1977E+03  1.2795E+05  1.2689E+05  3.2165E+05  1.9476E+05  1.0939E-03
 22 1.0820E-03 3.9920E+01  1.3033E+02 -1.2661E+05  1.3091E+03  1.2792E+05  1.2674E+05  3.2150E+05  1.9476E+05  1.0188E-03
 23 1.2363E-03 3.9104E+01  1.2862E+02 -1.2643E+05  1.4553E+03  1.2789E+05  1.2656E+05  3.2133E+05  1.9476E+05  1.0057E-03
 24 1.4108E-03 3.8299E+01  1.3028E+02 -1.2622E+05  1.6355E+03  1.2786E+05  1.2635E+05  3.2112E+05  1.9476E+05  1.0189E-03
 25 1.6080E-03 3.7506E+01  1.3329E+02 -1.2598E+05  1.8474E+03  1.2783E+05  1.2611E+05  3.2088E+05  1.9476E+05  1.0428E-03
 26 1.8306E-03 3.6723E+01  1.3660E+02 -1.2571E+05  2.0866E+03  1.2780E+05  1.2585E+05  3.2062E+05  1.9477E+05  1.0689E-03
 27 2.0815E-03 3.5950E+01  1.3956E+02 -1.2543E+05  2.3467E+03  1.2778E+05  1.2557E+05  3.2034E+05  1.9477E+05  1.0922E-03
 28 2.3640E-03 3.5186E+01  1.4349E+02 -1.2513E+05  2.6214E+03  1.2776E+05  1.2528E+05  3.2005E+05  1.9477E+05  1.1231E-03
 29 2.6816E-03 3.4430E+01  1.4495E+02 -1.2483E+05  2.9002E+03  1.2773E+05  1.2498E+05  3.1976E+05  1.9478E+05  1.1348E-03
 30 3.0383E-03 3.3682E+01  1.4404E+02 -1.2453E+05  3.1775E+03  1.2771E+05  1.2468E+05  3.1946E+05  1.9479E+05  1.1279E-03
 31 3.4382E-03 3.2943E+01  1.4007E+02 -1.2423E+05  3.4486E+03  1.2768E+05  1.2437E+05  3.1917E+05  1.9480E+05  1.0970E-03
 32 3.8862E-03 3.2211E+01  1.3674E+02 -1.2393E+05  3.7124E+03  1.2764E+05  1.2407E+05  3.1888E+05  1.9481E+05  1.0713E-03
 33 4.3873E-03 3.1489E+01  1.3196E+02 -1.2364E+05  3.9704E+03  1.2761E+05  1.2377E+05  3.1859E+05  1.9482E+05  1.0341E-03
 34 4.9470E-03 3.0775E+01  1.2977E+02 -1.2334E+05  4.2316E+03  1.2757E+05  1.2347E+05  3.1831E+05  1.9484E+05  1.0172E-03
 35 5.5715E-03 3.0070E+01  1.2909E+02 -1.2304E+05  4.5013E+03  1.2754E+05  1.2317E+05  3.1803E+05  1.9485E+05  1.0121E-03
 36 6.2673E-03 2.9374E+01  1.3416E+02 -1.2273E+05  4.7892E+03  1.2752E+05  1.2287E+05  3.1774E+05  1.9487E+05  1.0520E-03
 37 7.0416E-03 2.8685E+01  1.4485E+02 -1.2241E+05  5.0984E+03  1.2751E+05  1.2256E+05  3.1745E+05  1.9490E+05  1.1360E-03
 38 7.9021E-03 2.8005E+01  1.5394E+02 -1.2208E+05  5.4223E+03  1.2750E+05  1.2223E+05  3.1715E+05  1.9492E+05  1.2074E-03
 39 8.8572E-03 2.7331E+01  1.5583E+02 -1.2173E+05  5.7554E+03  1.2749E+05  1.2189E+05  3.1684E+05  1.9496E+05  1.2224E-03
 40 9.9158E-03 2.6665E+01  1.3777E+02 -1.2139E+05  6.0878E+03  1.2747E+05  1.2152E+05  3.1651E+05  1.9499E+05  1.0808E-03
 41 1.1088E-02 2.6007E+01  1.2336E+02 -1.2102E+05  6.4461E+03  1.2746E+05  1.2114E+05  3.1617E+05  1.9503E+05  9.6781E-04
 42 1.2383E-02 2.5356E+01  1.3789E+02 -1.2061E+05  6.8556E+03  1.2746E+05  1.2074E+05  3.1581E+05  1.9507E+05  1.0818E-03
 43 1.3813E-02 2.4712E+01  1.5575E+02 -1.2017E+05  7.2894E+03  1.2746E+05  1.2033E+05  3.1544E+05  1.9511E+05  1.2219E-03
 44 1.5391E-02 2.4075E+01  1.6314E+02 -1.1973E+05  7.7288E+03  1.2746E+05  1.1990E+05  3.1505E+05  1.9515E+05  1.2799E-03
 45 1.7127E-02 2.3445E+01  1.5956E+02 -1.1929E+05  8.1677E+03  1.2746E+05  1.1945E+05  3.1465E+05  1.9520E+05  1.2518E-03
 46 1.9037E-02 2.2822E+01  1.5169E+02 -1.1884E+05  8.6081E+03  1.2745E+05  1.1899E+05  3.1424E+05  1.9524E+05  1.1902E-03
 47 2.1134E-02 2.2206E+01  1.4619E+02 -1.1838E+05  9.0534E+03  1.2743E+05  1.1853E+05  3.1382E+05  1.9529E+05  1.1472E-03
 48 2.3435E-02 2.1598E+01  1.4579E+02 -1.1791E+05  9.5027E+03  1.2741E+05  1.1806E+05  3.1339E+05  1.9534E+05  1.1442E-03
 49 2.5955E-02 2.0996E+01  1.4950E+02 -1.1744E+05  9.9509E+03  1.2739E+05  1.1759E+05  3.1297E+05  1.9538E+05  1.1736E-03
 50 2.8711E-02 2.0403E+01  1.5479E+02 -1.1696E+05  1.0390E+04  1.2735E+05  1.1712E+05  3.1255E+05  1.9543E+05  1.2154E-03
 51 3.1722E-02 1.9816E+01  1.5966E+02 -1.1650E+05  1.0812E+04  1.2731E+05  1.1666E+05  3.1214E+05  1.9548E+05  1.2541E-03
 52 3.5007E-02 1.9237E+01  1.6345E+02 -1.1605E+05  1.1210E+04  1.2726E+05  1.1622E+05  3.1174E+05  1.9552E+05  1.2844E-03
 53 3.8586E-02 1.8666E+01  1.5624E+02 -1.1563E+05  1.1571E+04  1.2720E+05  1.1578E+05  3.1134E+05  1.9556E+05  1.2283E-03
 54 4.2480E-02 1.8102E+01  1.4947E+02 -1.1522E+05  1.1905E+04  1.2712E+05  1.1537E+05  3.1096E+05  1.9560E+05  1.1758E-03
 55 4.6711E-02 1.7546E+01  1.4457E+02 -1.1482E+05  1.2213E+04  1.2703E+05  1.1496E+05  3.1059E+05  1.9563E+05  1.1381E-03
 56 5.1302E-02 1.6999E+01  1.4316E+02 -1.1442E+05  1.2500E+04  1.2692E+05  1.1457E+05  3.1023E+05  1.9566E+05  1.1279E-03
 57 5.6277E-02 1.6459E+01  1.3557E+02 -1.1405E+05  1.2761E+04  1.2681E+05  1.1418E+05  3.0987E+05  1.9569E+05  1.0691E-03
 58 6.1660E-02 1.5928E+01  1.3310E+02 -1.1368E+05  1.3007E+04  1.2668E+05  1.1381E+05  3.0951E+05  1.9570E+05  1.0506E-03
 59 6.7478E-02 1.5406E+01  1.2484E+02 -1.1332E+05  1.3232E+04  1.2656E+05  1.1345E+05  3.0916E+05  1.9571E+05  9.8641E-04
 60 7.3756E-02 1.4892E+01  1.2191E+02 -1.1298E+05  1.3447E+04  1.2643E+05  1.1310E+05  3.0880E+05  1.9570E+05  9.6428E-04
 61 8.0522E-02 1.4386E+01  1.2054E+02 -1.1265E+05  1.3651E+04  1.2630E+05  1.1277E+05  3.0846E+05  1.9569E+05  9.5440E-04
 62 8.7803E-02 1.3889E+01  1.2285E+02 -1.1233E+05  1.3847E+04  1.2618E+05  1.1245E+05  3.0811E+05  1.9566E+05  9.7362E-04
 63 9.5628E-02 1.3400E+01  1.3776E+02 -1.1202E+05  1.4040E+04  1.2606E+05  1.1216E+05  3.0778E+05  1.9562E+05  1.0928E-03
 64 1.0403E-01 1.2919E+01  1.6262E+02 -1.1173E+05  1.4230E+04  1.2596E+05  1.1189E+05  3.0745E+05  1.9556E+05  1.2910E-03
 65 1.1303E-01 1.2447E+01  1.9591E+02 -1.1142E+05  1.4450E+04  1.2587E+05  1.1162E+05  3.0711E+05  1.9549E+05  1.5564E-03
 66 1.2266E-01 1.1982E+01  2.2769E+02 -1.1110E+05  1.4693E+04  1.2580E+05  1.1133E+05  3.0675E+05  1.9542E+05  1.8100E-03
 67 1.3295E-01 1.1526E+01  2.5948E+02 -1.1078E+05  1.4957E+04  1.2574E+05  1.1104E+05  3.0638E+05  1.9534E+05  2.0637E-03
 68 1.4394E-01 1.1077E+01  2.8524E+02 -1.1046E+05  1.5232E+04  1.2569E+05  1.1074E+05  3.0599E+05  1.9525E+05  2.2694E-03
 69 1.5564E-01 1.0635E+01  3.0975E+02 -1.1013E+05  1.5521E+04  1.2566E+05  1.1044E+05  3.0560E+05  1.9516E+05  2.4651E-03
 70 1.6810E-01 1.0201E+01  3.3455E+02 -1.0981E+05  1.5825E+04  1.2563E+05  1.1014E+05  3.0520E+05  1.9505E+05  2.6629E-03
 71 1.8134E-01 9.7748E+00  3.5698E+02 -1.0949E+05  1.6140E+04  1.2563E+05  1.0984E+05  3.0479E+05  1.9494E+05  2.8416E-03
 72 1.9538E-01 9.3557E+00  3.8304E+02 -1.0916E+05  1.6474E+04  1.2563E+05  1.0954E+05  3.0437E+05  1.9482E+05  3.0489E-03
 73 2.1026E-01 8.9439E+00  4.1369E+02 -1.0883E+05  1.6830E+04  1.2566E+05  1.0924E+05  3.0394E+05  1.9469E+05  3.2921E-03
 74 2.2601E-01 8.5392E+00  4.4894E+02 -1.0849E+05  1.7209E+04  1.2570E+05  1.0894E+05  3.0350E+05  1.9456E+05  3.5714E-03
 75 2.4264E-01 8.1416E+00  4.8361E+02 -1.0816E+05  1.7610E+04  1.2577E+05  1.0864E+05  3.0305E+05  1.9441E+05  3.8452E-03
 76 2.6018E-01 7.7510E+00  5.2098E+02 -1.0782E+05  1.8036E+04  1.2586E+05  1.0834E+05  3.0259E+05  1.9425E+05  4.1394E-03
 77 2.7866E-01 7.3672E+00  5.6004E+02 -1.0748E+05  1.8490E+04  1.2597E+05  1.0804E+05  3.0212E+05  1.9408E+05  4.4457E-03
 78 2.9810E-01 6.9902E+00  6.0013E+02 -1.0714E+05  1.8971E+04  1.2611E+05  1.0774E+05  3.0164E+05  1.9390E+05  4.7587E-03
 79 3.1851E-01 6.6197E+00  6.4032E+02 -1.0680E+05  1.9478E+04  1.2628E+05  1.0744E+05  3.0115E+05  1.9371E+05  5.0707E-03
 80 3.3991E-01 6.2556E+00  6.7194E+02 -1.0646E+05  2.0010E+04  1.2647E+05  1.0713E+05  3.0064E+05  1.9351E+05  5.3129E-03
 81 3.6231E-01 5.8979E+00  6.9156E+02 -1.0613E+05  2.0569E+04  1.2670E+05  1.0682E+05  3.0012E+05  1.9330E+05  5.4584E-03
 82 3.8573E-01 5.5465E+00  6.9329E+02 -1.0580E+05  2.1146E+04  1.2695E+05  1.0649E+05  2.9958E+05  1.9309E+05  5.4613E-03
 83 4.1017E-01 5.2013E+00  6.7591E+02 -1.0549E+05  2.1737E+04  1.2722E+05  1.0616E+05  2.9902E+05  1.9286E+05  5.3128E-03
 84 4.3564E-01 4.8623E+00  6.3806E+02 -1.0518E+05  2.2337E+04  1.2752E+05  1.0582E+05  2.9845E+05  1.9263E+05  5.0036E-03
 85 4.6214E-01 4.5294E+00  5.8189E+02 -1.0489E+05  2.2953E+04  1.2784E+05  1.0547E+05  2.9787E+05  1.9240E+05  4.5516E-03
 86 4.8966E-01 4.2028E+00  5.0360E+02 -1.0461E+05  2.3590E+04  1.2820E+05  1.0512E+05  2.9727E+05  1.9215E+05  3.9282E-03
 87 5.1819E-01 3.8823E+00  4.1160E+02 -1.0434E+05  2.4289E+04  1.2863E+05  1.0475E+05  2.9666E+05  1.9191E+05  3.1998E-03
 88 5.4774E-01 3.5677E+00  2.9980E+02 -1.0409E+05  2.5030E+04  1.2912E+05  1.0439E+05  2.9604E+05  1.9165E+05  2.3219E-03
 89 5.7828E-01 3.2591E+00  1.7331E+02 -1.0384E+05  2.5891E+04  1.2973E+05  1.0401E+05  2.9540E+05  1.9139E+05  1.3359E-03
 90 6.0979E-01 2.9561E+00  1.1134E+01 -1.0362E+05  2.6839E+04  1.3046E+05  1.0363E+05  2.9476E+05  1.9113E+05  8.5348E-05
 91 6.4225E-01 2.6579E+00 -1.3405E+02 -1.0338E+05  2.8212E+04  1.3159E+05  1.0324E+05  2.9410E+05  1.9086E+05 -1.0187E-03
 92 6.7563E-01 2.3632E+00  8.6175E+00 -1.0283E+05  3.0230E+04  1.3306E+05  1.0284E+05  2.9343E+05  1.9059E+05  6.4763E-05
 93 7.0989E-01 2.0714E+00  6.0415E+02 -1.0181E+05  3.2850E+04  1.3466E+05  1.0241E+05  2.9274E+05  1.9032E+05  4.4865E-03
 94 7.4500E-01 1.7828E+00  1.6530E+03 -1.0029E+05  3.6085E+04  1.3638E+05  1.0195E+05  2.9201E+05  1.9006E+05  1.2121E-02
 95 7.8091E-01 1.4975E+00  3.1415E+03 -9.8290E+04  3.9930E+04  1.3822E+05  1.0143E+05  2.9123E+05  1.8980E+05  2.2728E-02
 96 8.1757E-01 1.2160E+00  5.0091E+03 -9.5840E+04  4.4332E+04  1.4017E+05  1.0085E+05  2.9041E+05  1.8956E+05  3.5735E-02
 97 8.5492E-01 9.3838E-01  7.1712E+03 -9.3013E+04  4.9191E+04  1.4220E+05  1.0018E+05  2.8953E+05  1.8934E+05  5.0429E-02
 98 8.9292E-01 6.6490E-01  9.6020E+03 -8.9814E+04  5.4483E+04  1.4430E+05  9.9416E+04  2.8857E+05  1.8915E+05  6.6544E-02
 99 9.3149E-01 3.9583E-01  1.2307E+04 -8.6203E+04  6.0185E+04  1.4639E+05  9.8510E+04  2.8753E+05  1.8902E+05  8.4074E-02
100 9.7056E-01 1.3139E-01  1.5393E+04 -8.2026E+04  6.6234E+04  1.4826E+05  9.7419E+04  2.8638E+05  1.8896E+05  1.0382E-01
101 1.0101E+00 0.0000E+00  1.8716E+04 -7.7368E+04  7.1759E+04  1.4913E+05  9.6084E+04  2.8511E+05  1.8903E+05  1.2550E-01
 
