 
    OUTPUT FILES FOR THE Sun  
 
 Solar Constant= 0.950   F_CH4= 1.0000E-60  F_CO2= 3.1903E-02  F_O2= 2.1000E-01  F_N2= 7.5810E-01  IO3 =  1   IUP=  0
 ICONSERV= 0  FAC= 4.0  ND=101  SRFALB= 0.663  G= 980.0  IMW= 1

 FNO2 = 1.000E-60
 
 NST=     1 JCONV= 92 CHG=9.21E-03 dt0=7.50E+03 DIVF(1)= 4.07E-02 DIVFrms= 4.42E-02 DT(ND)= 9.32E-01 T(ND)=2.2992E+02

 TIME= 5.000E+03  TIME IN DAYS = 5.787E-02

 PLANETARY ALBEDO:  ALBP = 0.5919

  J     P         ALT         T        CONVEC       DT          TOLD        FH20       FSAVE       TCOOL       THEAT
  1 5.4137E-05 5.7933E+01 2.0999E+02  0.00E+00   3.3084E+00  2.0669E+02  8.4290E-07  8.1394E-07 -1.4545E+02  2.0262E+02
  2 6.3429E-05 5.6951E+01 2.2144E+02  0.00E+00   1.6050E+00  2.2253E+02  8.4290E-07  8.1394E-07 -9.9376E+01  1.2711E+02
  3 7.4226E-05 5.5940E+01 2.2654E+02  0.00E+00  -1.5130E+00  2.2900E+02  8.4290E-07  8.1394E-07 -1.0328E+02  7.7135E+01
  4 8.6757E-05 5.4925E+01 2.2646E+02  0.00E+00  -2.1098E+00  2.2915E+02  8.4290E-07  8.1394E-07 -8.3264E+01  4.6807E+01
  5 1.0128E-04 5.3923E+01 2.2392E+02  0.00E+00  -1.5220E+00  2.2581E+02  8.4290E-07  8.1394E-07 -5.6419E+01  3.0119E+01
  6 1.1810E-04 5.2944E+01 2.2013E+02  0.00E+00  -1.1301E+00  2.2121E+02  8.4290E-07  8.1394E-07 -4.1391E+01  2.1864E+01
  7 1.3754E-04 5.1989E+01 2.1619E+02  0.00E+00  -7.0341E-01  2.1676E+02  8.4290E-07  8.1394E-07 -3.0331E+01  1.8176E+01
  8 1.5998E-04 5.1057E+01 2.1274E+02  0.00E+00  -4.2143E-01  2.1300E+02  8.4290E-07  8.1394E-07 -2.3896E+01  1.6613E+01
  9 1.8587E-04 5.0146E+01 2.0990E+02  0.00E+00  -2.4493E-01  2.0999E+02  8.4290E-07  8.1394E-07 -2.0103E+01  1.5870E+01
 10 2.1569E-04 4.9254E+01 2.0769E+02  0.00E+00  -1.3444E-01  2.0768E+02  8.4290E-07  8.1394E-07 -1.7692E+01  1.5369E+01
 11 2.4999E-04 4.8377E+01 2.0607E+02  0.00E+00  -7.6790E-02  2.0600E+02  8.4290E-07  8.1394E-07 -1.6226E+01  1.4899E+01
 12 2.8940E-04 4.7512E+01 2.0500E+02  0.00E+00  -4.8530E-02  2.0492E+02  8.4290E-07  8.1394E-07 -1.5258E+01  1.4419E+01
 13 3.3462E-04 4.6659E+01 2.0445E+02  0.00E+00  -6.6541E-02  2.0441E+02  8.4290E-07  8.1394E-07 -1.5280E+01  1.4130E+01
 14 3.8643E-04 4.5813E+01 2.0433E+02  0.00E+00  -9.0703E-02  2.0435E+02  8.4290E-07  8.1394E-07 -1.5682E+01  1.4114E+01
 15 4.4574E-04 4.4975E+01 2.0451E+02  0.00E+00  -1.2464E-01  2.0460E+02  8.4290E-07  8.1394E-07 -1.6200E+01  1.4046E+01
 16 5.1353E-04 4.4142E+01 2.0485E+02  0.00E+00  -1.6056E-01  2.0500E+02  8.4290E-07  8.1394E-07 -1.6658E+01  1.3884E+01
 17 5.9092E-04 4.3315E+01 2.0524E+02  0.00E+00  -2.0169E-01  2.0545E+02  8.4290E-07  8.1394E-07 -1.7106E+01  1.3621E+01
 18 6.7916E-04 4.2494E+01 2.0561E+02  0.00E+00  -2.2445E-01  2.0586E+02  8.4290E-07  8.1394E-07 -1.7131E+01  1.3253E+01
 19 7.7964E-04 4.1678E+01 2.0587E+02  0.00E+00  -2.3810E-01  2.0617E+02  8.4290E-07  8.1394E-07 -1.6891E+01  1.2777E+01
 20 8.9391E-04 4.0869E+01 2.0588E+02  0.00E+00  -2.0529E-01  2.0620E+02  8.4290E-07  8.1394E-07 -1.5751E+01  1.2204E+01
 21 1.0237E-03 4.0068E+01 2.0550E+02  0.00E+00  -1.5327E-01  2.0576E+02  8.4290E-07  8.1394E-07 -1.4483E+01  1.1834E+01
 22 1.1709E-03 3.9276E+01 2.0482E+02  0.00E+00  -1.7585E-01  2.0499E+02  8.4290E-07  8.1394E-07 -1.5403E+01  1.2364E+01
 23 1.3377E-03 3.8494E+01 2.0411E+02  0.00E+00  -1.3930E-01  2.0420E+02  8.4290E-07  8.1394E-07 -1.4691E+01  1.2284E+01
 24 1.5264E-03 3.7721E+01 2.0355E+02  0.00E+00  -9.3418E-02  2.0359E+02  8.4290E-07  8.1394E-07 -1.3224E+01  1.1610E+01
 25 1.7396E-03 3.6957E+01 2.0315E+02  0.00E+00  -9.3648E-02  2.0321E+02  8.4290E-07  8.1394E-07 -1.2126E+01  1.0507E+01
 26 1.9803E-03 3.6202E+01 2.0284E+02  0.00E+00  -1.2651E-01  2.0297E+02  8.4290E-07  8.1394E-07 -1.1395E+01  9.2087E+00
 27 2.2515E-03 3.5454E+01 2.0254E+02  0.00E+00  -1.7683E-01  2.0274E+02  8.4290E-07  8.1394E-07 -1.1003E+01  7.9471E+00
 28 2.5568E-03 3.4715E+01 2.0216E+02  0.00E+00  -2.0616E-01  2.0240E+02  8.4290E-07  8.1394E-07 -1.0458E+01  6.8960E+00
 29 2.9000E-03 3.3984E+01 2.0168E+02  0.00E+00  -1.9233E-01  2.0190E+02  8.4290E-07  8.1394E-07 -9.4482E+00  6.1248E+00
 30 3.2853E-03 3.3263E+01 2.0111E+02  0.00E+00  -1.5389E-01  2.0126E+02  8.4290E-07  8.1394E-07 -8.2300E+00  5.5708E+00
 31 3.7174E-03 3.2550E+01 2.0053E+02  0.00E+00  -9.5042E-02  2.0060E+02  8.4290E-07  8.1394E-07 -6.7847E+00  5.1424E+00
 32 4.2012E-03 3.1846E+01 2.0008E+02  0.00E+00  -3.8145E-02  2.0006E+02  8.4290E-07  8.1394E-07 -5.5151E+00  4.8559E+00
 33 4.7423E-03 3.1150E+01 1.9984E+02  0.00E+00   1.1723E-02  1.9976E+02  8.4290E-07  8.1394E-07 -4.4449E+00  4.6475E+00
 34 5.3466E-03 3.0461E+01 1.9988E+02  0.00E+00   4.3078E-02  1.9976E+02  8.4290E-07  8.1394E-07 -3.7305E+00  4.4749E+00
 35 6.0208E-03 2.9779E+01 2.0018E+02  0.00E+00   5.5141E-02  2.0007E+02  8.4290E-07  8.1394E-07 -3.3629E+00  4.3157E+00
 36 6.7718E-03 2.9102E+01 2.0071E+02  0.00E+00   5.5227E-02  2.0062E+02  8.4290E-07  8.1394E-07 -3.2026E+00  4.1569E+00
 37 7.6073E-03 2.8430E+01 2.0135E+02  0.00E+00   4.3546E-02  2.0131E+02  8.4290E-07  8.1394E-07 -3.2382E+00  3.9906E+00
 38 8.5356E-03 2.7763E+01 2.0200E+02  0.00E+00   3.1964E-02  2.0200E+02  8.4290E-07  8.1394E-07 -3.2600E+00  3.8124E+00
 39 9.5658E-03 2.7101E+01 2.0252E+02  0.00E+00   2.9430E-02  2.0255E+02  8.4290E-07  8.1394E-07 -3.1053E+00  3.6138E+00
 40 1.0707E-02 2.6444E+01 2.0284E+02  0.00E+00   1.3880E-02  2.0287E+02  8.4290E-07  8.1394E-07 -3.1982E+00  3.4381E+00
 41 1.1971E-02 2.5794E+01 2.0297E+02  0.00E+00  -6.6745E-03  2.0300E+02  8.4290E-07  8.1394E-07 -3.3387E+00  3.2234E+00
 42 1.3367E-02 2.5151E+01 2.0297E+02  0.00E+00  -1.3394E-02  2.0300E+02  8.4290E-07  8.1394E-07 -3.1804E+00  2.9489E+00
 43 1.4909E-02 2.4514E+01 2.0289E+02  0.00E+00  -9.4281E-03  2.0291E+02  8.4290E-07  8.1394E-07 -2.8069E+00  2.6440E+00
 44 1.6608E-02 2.3885E+01 2.0275E+02  0.00E+00  -6.4815E-03  2.0276E+02  8.4290E-07  8.1394E-07 -2.4519E+00  2.3399E+00
 45 1.8478E-02 2.3264E+01 2.0260E+02  0.00E+00  -3.4751E-03  2.0261E+02  8.4290E-07  8.1394E-07 -2.1245E+00  2.0645E+00
 46 2.0535E-02 2.2650E+01 2.0246E+02  0.00E+00  -2.4350E-03  2.0246E+02  8.4290E-07  8.1394E-07 -1.8754E+00  1.8333E+00
 47 2.2793E-02 2.2043E+01 2.0234E+02  0.00E+00  -3.3870E-03  2.0234E+02  8.4290E-07  8.1394E-07 -1.7063E+00  1.6478E+00
 48 2.5269E-02 2.1444E+01 2.0222E+02  0.00E+00  -5.2324E-03  2.0223E+02  8.4290E-07  8.1394E-07 -1.5892E+00  1.4988E+00
 49 2.7981E-02 2.0852E+01 2.0210E+02  0.00E+00  -6.7002E-03  2.0211E+02  8.4290E-07  8.1394E-07 -1.4897E+00  1.3740E+00
 50 3.0946E-02 2.0267E+01 2.0196E+02  0.00E+00  -4.5809E-03  2.0197E+02  8.4290E-07  8.1394E-07 -1.3420E+00  1.2628E+00
 51 3.4184E-02 1.9690E+01 2.0177E+02  0.00E+00  -4.2004E-03  2.0179E+02  8.4290E-07  8.1394E-07 -1.2308E+00  1.1583E+00
 52 3.7716E-02 1.9121E+01 2.0155E+02  0.00E+00  -3.0539E-03  2.0156E+02  8.4290E-07  8.1394E-07 -1.1113E+00  1.0586E+00
 53 4.1563E-02 1.8559E+01 2.0129E+02  0.00E+00  -1.5752E-03  2.0130E+02  8.4290E-07  8.1394E-07 -9.9078E-01  9.6356E-01
 54 4.5747E-02 1.8004E+01 2.0099E+02  0.00E+00  -1.0476E-04  2.0100E+02  8.4290E-07  8.1394E-07 -8.7518E-01  8.7337E-01
 55 5.0292E-02 1.7458E+01 2.0067E+02  0.00E+00   2.5473E-03  2.0068E+02  8.4290E-07  8.1394E-07 -7.4426E-01  7.8828E-01
 56 5.5222E-02 1.6919E+01 2.0032E+02  0.00E+00   3.1114E-03  2.0033E+02  8.4290E-07  8.1394E-07 -6.5474E-01  7.0850E-01
 57 6.0563E-02 1.6388E+01 1.9995E+02  0.00E+00   3.7650E-03  1.9995E+02  8.4290E-07  8.1394E-07 -5.6905E-01  6.3411E-01
 58 6.6340E-02 1.5865E+01 1.9954E+02  0.00E+00   3.5394E-03  1.9954E+02  8.4290E-07  8.1394E-07 -5.0381E-01  5.6497E-01
 59 7.2581E-02 1.5351E+01 1.9910E+02  0.00E+00   3.0232E-03  1.9911E+02  8.4290E-07  8.1394E-07 -4.4857E-01  5.0081E-01
 60 7.9314E-02 1.4844E+01 1.9864E+02  0.00E+00   2.6616E-03  1.9865E+02  8.4290E-07  8.1394E-07 -3.9520E-01  4.4119E-01
 61 8.6567E-02 1.4345E+01 1.9816E+02  0.00E+00   1.7868E-03  1.9816E+02  8.4290E-07  8.1394E-07 -3.5476E-01  3.8564E-01
 62 9.4371E-02 1.3854E+01 1.9767E+02  0.00E+00   1.1513E-03  1.9767E+02  8.4290E-07  8.1394E-07 -3.1477E-01  3.3466E-01
 63 1.0275E-01 1.3372E+01 1.9719E+02  0.00E+00   6.3815E-04  1.9718E+02  8.4290E-07  8.1394E-07 -2.9144E-01  3.0247E-01
 64 1.1175E-01 1.2897E+01 1.9672E+02  0.00E+00   1.1984E-03  1.9672E+02  8.4290E-07  8.1394E-07 -2.7959E-01  3.0030E-01
 65 1.2138E-01 1.2430E+01 1.9629E+02  0.00E+00   1.6804E-03  1.9628E+02  8.4290E-07  8.1394E-07 -2.7025E-01  2.9928E-01
 66 1.3169E-01 1.1971E+01 1.9589E+02  0.00E+00   2.4996E-03  1.9588E+02  8.4290E-07  8.1394E-07 -2.5438E-01  2.9757E-01
 67 1.4270E-01 1.1519E+01 1.9554E+02  0.00E+00   3.2124E-03  1.9552E+02  8.4290E-07  8.1394E-07 -2.3940E-01  2.9491E-01
 68 1.5445E-01 1.1075E+01 1.9524E+02  0.00E+00   3.9330E-03  1.9522E+02  8.4290E-07  8.1394E-07 -2.2304E-01  2.9100E-01
 69 1.6696E-01 1.0639E+01 1.9500E+02  0.00E+00   4.7091E-03  1.9498E+02  8.4290E-07  8.1394E-07 -2.0421E-01  2.8558E-01
 70 1.8027E-01 1.0209E+01 1.9483E+02  0.00E+00   5.1604E-03  1.9481E+02  8.4290E-07  8.1394E-07 -1.8934E-01  2.7852E-01
 71 1.9440E-01 9.7866E+00 1.9473E+02  0.00E+00   5.4016E-03  1.9471E+02  8.4290E-07  8.1394E-07 -1.7646E-01  2.6980E-01
 72 2.0939E-01 9.3711E+00 1.9470E+02  0.00E+00   5.4216E-03  1.9467E+02  8.4290E-07  8.1394E-07 -1.6583E-01  2.5952E-01
 73 2.2527E-01 8.9622E+00 1.9473E+02  0.00E+00   5.2318E-03  1.9471E+02  8.4290E-07  8.1394E-07 -1.5745E-01  2.4786E-01
 74 2.4206E-01 8.5599E+00 1.9483E+02  0.00E+00   4.8616E-03  1.9481E+02  8.4290E-07  8.1394E-07 -1.5107E-01  2.3507E-01
 75 2.5979E-01 8.1641E+00 1.9499E+02  0.00E+00   4.3466E-03  1.9497E+02  8.4290E-07  8.1394E-07 -1.4635E-01  2.2146E-01
 76 2.7849E-01 7.7746E+00 1.9519E+02  0.00E+00   3.6658E-03  1.9518E+02  8.4290E-07  8.1394E-07 -1.4397E-01  2.0731E-01
 77 2.9817E-01 7.3914E+00 1.9545E+02  0.00E+00   3.0111E-03  1.9544E+02  8.4290E-07  8.1394E-07 -1.4096E-01  1.9299E-01
 78 3.1886E-01 7.0145E+00 1.9575E+02  0.00E+00   2.3888E-03  1.9574E+02  8.4290E-07  8.1394E-07 -1.3822E-01  1.7950E-01
 79 3.4057E-01 6.6437E+00 1.9608E+02  0.00E+00   1.9856E-03  1.9607E+02  8.4290E-07  8.1394E-07 -1.3510E-01  1.6941E-01
 80 3.6333E-01 6.2790E+00 1.9644E+02  0.00E+00   1.7185E-03  1.9643E+02  8.4290E-07  8.1394E-07 -1.3029E-01  1.5999E-01
 81 3.8714E-01 5.9204E+00 1.9681E+02  0.00E+00   1.4858E-03  1.9681E+02  8.4290E-07  8.1394E-07 -1.2542E-01  1.5109E-01
 82 4.1202E-01 5.5679E+00 1.9720E+02  0.00E+00   1.1858E-03  1.9719E+02  8.4290E-07  8.2471E-07 -1.2241E-01  1.4290E-01
 83 4.3796E-01 5.2216E+00 1.9758E+02  0.00E+00   8.6086E-04  1.9758E+02  8.5407E-07  8.6781E-07 -1.2071E-01  1.3558E-01
 84 4.6499E-01 4.8814E+00 1.9797E+02  0.00E+00   5.4867E-04  1.9797E+02  8.9871E-07  9.2517E-07 -1.1960E-01  1.2908E-01
 85 4.9309E-01 4.5473E+00 1.9837E+02  0.00E+00   3.7757E-04  1.9837E+02  9.5943E-07  9.8769E-07 -1.1677E-01  1.2330E-01
 86 5.2225E-01 4.2195E+00 1.9877E+02  0.00E+00   2.4978E-04  1.9877E+02  1.0224E-06  1.0525E-06 -1.1390E-01  1.1821E-01
 87 5.5248E-01 3.8977E+00 1.9928E+02  0.00E+00   3.4339E-04  1.9928E+02  1.1101E-06  1.1427E-06 -1.0796E-01  1.1389E-01
 88 5.8376E-01 3.5821E+00 1.9972E+02  0.00E+00   3.0621E-04  1.9972E+02  1.1900E-06  1.2250E-06 -1.0486E-01  1.1016E-01
 89 6.1607E-01 3.2724E+00 2.0058E+02  0.00E+00  -5.5474E-05  2.0058E+02  1.3607E-06  1.4008E-06 -1.0845E-01  1.0749E-01
 90 6.4938E-01 2.9683E+00 2.0138E+02  0.00E+00   7.0706E-04  2.0138E+02  1.5396E-06  1.5848E-06 -9.3227E-02  1.0545E-01
 91 6.8368E-01 2.6690E+00 2.0350E+02  0.00E+00   8.7259E-01  2.0263E+02  2.1177E-06  1.9147E-06 -1.4142E-01  1.0498E-01
 92 7.1892E-01 2.3730E+00 2.0645E+02  1.00E+00   8.8565E-01  2.0557E+02  3.2608E-06  2.9536E-06 -2.7101E-01  1.0913E-01
 93 7.5507E-01 2.0799E+00 2.0937E+02  1.00E+00   8.9726E-01  2.0847E+02  4.9382E-06  4.4814E-06 -3.8875E-01  1.1636E-01
 94 7.9209E-01 1.7901E+00 2.1225E+02  1.00E+00   9.0739E-01  2.1134E+02  7.3584E-06  6.6913E-06 -5.0315E-01  1.2669E-01
 95 8.2992E-01 1.5037E+00 2.1509E+02  1.00E+00   9.1594E-01  2.1417E+02  1.0794E-05  9.8361E-06 -6.0968E-01  1.4042E-01
 96 8.6852E-01 1.2209E+00 2.1789E+02  1.00E+00   9.2282E-01  2.1697E+02  1.5593E-05  1.4241E-05 -7.0499E-01  1.5831E-01
 97 9.0782E-01 9.4216E-01 2.2065E+02  1.00E+00   9.2795E-01  2.1972E+02  2.2193E-05  2.0316E-05 -8.0687E-01  1.8202E-01
 98 9.4775E-01 6.6756E-01 2.2336E+02  1.00E+00   9.3148E-01  2.2243E+02  3.1131E-05  2.8566E-05 -9.1172E-01  2.1360E-01
 99 9.8826E-01 3.9740E-01 2.2602E+02  1.00E+00   9.3367E-01  2.2509E+02  4.3052E-05  3.9601E-05 -1.0421E+00  2.5421E-01
100 1.0293E+00 1.3191E-01 2.2863E+02  1.00E+00   9.3482E-01  2.2770E+02  5.8716E-05  5.4140E-05 -1.1613E+00  3.4794E-01
101 1.0501E+00 0.0000E+00 2.2992E+02  1.00E+00   9.3218E-01  2.2899E+02  6.8298E-05  6.3073E-05  0.0000E+00  0.0000E+00

 FCO2
  3.19E-02 3.19E-02 3.19E-02 3.19E-02 3.19E-02 3.19E-02 3.19E-02 3.19E-02 3.19E-02 3.19E-02
  3.19E-02 3.19E-02 3.19E-02 3.19E-02 3.19E-02 3.19E-02 3.19E-02 3.19E-02 3.19E-02 3.19E-02
  3.19E-02 3.19E-02 3.19E-02 3.19E-02 3.19E-02 3.19E-02 3.19E-02 3.19E-02 3.19E-02 3.19E-02
  3.19E-02 3.19E-02 3.19E-02 3.19E-02 3.19E-02 3.19E-02 3.19E-02 3.19E-02 3.19E-02 3.19E-02
  3.19E-02 3.19E-02 3.19E-02 3.19E-02 3.19E-02 3.19E-02 3.19E-02 3.19E-02 3.19E-02 3.19E-02
  3.19E-02 3.19E-02 3.19E-02 3.19E-02 3.19E-02 3.19E-02 3.19E-02 3.19E-02 3.19E-02 3.19E-02
  3.19E-02 3.19E-02 3.19E-02 3.19E-02 3.19E-02 3.19E-02 3.19E-02 3.19E-02 3.19E-02 3.19E-02
  3.19E-02 3.19E-02 3.19E-02 3.19E-02 3.19E-02 3.19E-02 3.19E-02 3.19E-02 3.19E-02 3.19E-02
  3.19E-02 3.19E-02 3.19E-02 3.19E-02 3.19E-02 3.19E-02 3.19E-02 3.19E-02 3.19E-02 3.19E-02
  3.19E-02 3.19E-02 3.19E-02 3.19E-02 3.19E-02 3.19E-02 3.19E-02 3.19E-02 3.19E-02 3.19E-02
  3.19E-02

  J    PF         ALT       FTOTAL       FTIR       FDNIR       FUPIR       FTSOL       FDNSOL       FUPSOL       DIVF
  1 5.0000E-05 5.7933E+01  5.1558E+03 -1.2665E+05  0.0000E+00  1.2665E+05  1.3181E+05  3.2300E+05  1.9119E+05  4.0708E-02
  2 5.8617E-05 5.6951E+01  5.0983E+03 -1.2651E+05  1.9140E+02  1.2670E+05  1.3161E+05  3.2279E+05  1.9119E+05  4.0239E-02
  3 6.8636E-05 5.5940E+01  5.0658E+03 -1.2639E+05  3.1487E+02  1.2671E+05  1.3146E+05  3.2264E+05  1.9119E+05  3.9981E-02
  4 8.0271E-05 5.4925E+01  5.1014E+03 -1.2625E+05  4.2844E+02  1.2668E+05  1.3135E+05  3.2254E+05  1.9119E+05  4.0270E-02
  5 9.3766E-05 5.3923E+01  5.1590E+03 -1.2612E+05  5.1552E+02  1.2663E+05  1.3128E+05  3.2246E+05  1.9119E+05  4.0739E-02
  6 1.0940E-04 5.2944E+01  5.2071E+03 -1.2602E+05  5.7311E+02  1.2659E+05  1.3122E+05  3.2241E+05  1.9119E+05  4.1134E-02
  7 1.2748E-04 5.1989E+01  5.2484E+03 -1.2593E+05  6.1806E+02  1.2655E+05  1.3118E+05  3.2236E+05  1.9119E+05  4.1474E-02
  8 1.4838E-04 5.1057E+01  5.2781E+03 -1.2585E+05  6.5632E+02  1.2651E+05  1.3113E+05  3.2232E+05  1.9118E+05  4.1721E-02
  9 1.7249E-04 5.0146E+01  5.2986E+03 -1.2579E+05  6.9500E+02  1.2648E+05  1.3109E+05  3.2227E+05  1.9118E+05  4.1892E-02
 10 2.0029E-04 4.9254E+01  5.3123E+03 -1.2572E+05  7.3847E+02  1.2646E+05  1.3103E+05  3.2222E+05  1.9118E+05  4.2008E-02
 11 2.3228E-04 4.8377E+01  5.3210E+03 -1.2566E+05  7.8941E+02  1.2644E+05  1.3098E+05  3.2216E+05  1.9118E+05  4.2082E-02
 12 2.6905E-04 4.7512E+01  5.3267E+03 -1.2559E+05  8.5027E+02  1.2644E+05  1.3091E+05  3.2210E+05  1.9118E+05  4.2130E-02
 13 3.1128E-04 4.6659E+01  5.3309E+03 -1.2551E+05  9.2247E+02  1.2643E+05  1.3084E+05  3.2202E+05  1.9118E+05  4.2164E-02
 14 3.5970E-04 4.5813E+01  5.3373E+03 -1.2542E+05  1.0102E+03  1.2643E+05  1.3076E+05  3.2194E+05  1.9118E+05  4.2214E-02
 15 4.1515E-04 4.4975E+01  5.3475E+03 -1.2532E+05  1.1153E+03  1.2644E+05  1.3067E+05  3.2185E+05  1.9118E+05  4.2293E-02
 16 4.7858E-04 4.4142E+01  5.3634E+03 -1.2520E+05  1.2390E+03  1.2644E+05  1.3057E+05  3.2175E+05  1.9118E+05  4.2418E-02
 17 5.5104E-04 4.3315E+01  5.3869E+03 -1.2506E+05  1.3818E+03  1.2644E+05  1.3045E+05  3.2163E+05  1.9118E+05  4.2603E-02
 18 6.3370E-04 4.2494E+01  5.4205E+03 -1.2490E+05  1.5448E+03  1.2644E+05  1.3032E+05  3.2150E+05  1.9118E+05  4.2870E-02
 19 7.2789E-04 4.1678E+01  5.4632E+03 -1.2471E+05  1.7248E+03  1.2643E+05  1.3017E+05  3.2135E+05  1.9118E+05  4.3210E-02
 20 8.3507E-04 4.0869E+01  5.5147E+03 -1.2450E+05  1.9188E+03  1.2642E+05  1.3001E+05  3.2119E+05  1.9118E+05  4.3623E-02
 21 9.5689E-04 4.0068E+01  5.5651E+03 -1.2427E+05  2.1166E+03  1.2639E+05  1.2984E+05  3.2102E+05  1.9118E+05  4.4031E-02
 22 1.0952E-03 3.9276E+01  5.6078E+03 -1.2404E+05  2.3201E+03  1.2636E+05  1.2965E+05  3.2082E+05  1.9118E+05  4.4380E-02
 23 1.2519E-03 3.8494E+01  5.6634E+03 -1.2376E+05  2.5696E+03  1.2633E+05  1.2942E+05  3.2060E+05  1.9118E+05  4.4832E-02
 24 1.4294E-03 3.7721E+01  5.7133E+03 -1.2345E+05  2.8449E+03  1.2630E+05  1.2917E+05  3.2034E+05  1.9118E+05  4.5237E-02
 25 1.6300E-03 3.6957E+01  5.7511E+03 -1.2314E+05  3.1297E+03  1.2627E+05  1.2889E+05  3.2007E+05  1.9118E+05  4.5545E-02
 26 1.8566E-03 3.6202E+01  5.7939E+03 -1.2282E+05  3.4257E+03  1.2625E+05  1.2862E+05  3.1980E+05  1.9118E+05  4.5893E-02
 27 2.1122E-03 3.5454E+01  5.8591E+03 -1.2248E+05  3.7363E+03  1.2622E+05  1.2834E+05  3.1953E+05  1.9118E+05  4.6420E-02
 28 2.4000E-03 3.4715E+01  5.9617E+03 -1.2211E+05  4.0681E+03  1.2618E+05  1.2808E+05  3.1926E+05  1.9119E+05  4.7247E-02
 29 2.7238E-03 3.3984E+01  6.0963E+03 -1.2172E+05  4.4173E+03  1.2614E+05  1.2781E+05  3.1901E+05  1.9120E+05  4.8332E-02
 30 3.0876E-03 3.3263E+01  6.2374E+03 -1.2132E+05  4.7700E+03  1.2609E+05  1.2755E+05  3.1876E+05  1.9120E+05  4.9469E-02
 31 3.4957E-03 3.2550E+01  6.3640E+03 -1.2093E+05  5.1212E+03  1.2605E+05  1.2729E+05  3.1850E+05  1.9121E+05  5.0489E-02
 32 3.9531E-03 3.1846E+01  6.4516E+03 -1.2056E+05  5.4616E+03  1.2602E+05  1.2701E+05  3.1824E+05  1.9122E+05  5.1193E-02
 33 4.4649E-03 3.1150E+01  6.4910E+03 -1.2023E+05  5.7969E+03  1.2603E+05  1.2672E+05  3.1796E+05  1.9124E+05  5.1503E-02
 34 5.0369E-03 3.0461E+01  6.4775E+03 -1.1994E+05  6.1301E+03  1.2607E+05  1.2641E+05  3.1767E+05  1.9125E+05  5.1381E-02
 35 5.6754E-03 2.9779E+01  6.4220E+03 -1.1966E+05  6.4728E+03  1.2613E+05  1.2608E+05  3.1735E+05  1.9127E+05  5.0915E-02
 36 6.3872E-03 2.9102E+01  6.3429E+03 -1.1938E+05  6.8368E+03  1.2622E+05  1.2572E+05  3.1701E+05  1.9129E+05  5.0254E-02
 37 7.1795E-03 2.8430E+01  6.2547E+03 -1.1908E+05  7.2246E+03  1.2631E+05  1.2534E+05  3.1665E+05  1.9131E+05  4.9519E-02
 38 8.0605E-03 2.7763E+01  6.1774E+03 -1.1875E+05  7.6410E+03  1.2639E+05  1.2493E+05  3.1627E+05  1.9134E+05  4.8874E-02
 39 9.0387E-03 2.7101E+01  6.1143E+03 -1.1838E+05  8.0732E+03  1.2645E+05  1.2449E+05  3.1586E+05  1.9137E+05  4.8353E-02
 40 1.0124E-02 2.6444E+01  6.0499E+03 -1.1799E+05  8.4970E+03  1.2648E+05  1.2404E+05  3.1544E+05  1.9141E+05  4.7832E-02
 41 1.1325E-02 2.5794E+01  6.0163E+03 -1.1754E+05  8.9520E+03  1.2649E+05  1.2355E+05  3.1500E+05  1.9144E+05  4.7564E-02
 42 1.2654E-02 2.5151E+01  6.0342E+03 -1.1702E+05  9.4572E+03  1.2648E+05  1.2305E+05  3.1454E+05  1.9148E+05  4.7710E-02
 43 1.4121E-02 2.4514E+01  6.0738E+03 -1.1648E+05  9.9751E+03  1.2645E+05  1.2255E+05  3.1407E+05  1.9152E+05  4.8033E-02
 44 1.5740E-02 2.3885E+01  6.1046E+03 -1.1595E+05  1.0470E+04  1.2642E+05  1.2205E+05  3.1362E+05  1.9157E+05  4.8290E-02
 45 1.7523E-02 2.3264E+01  6.1279E+03 -1.1544E+05  1.0943E+04  1.2638E+05  1.2156E+05  3.1317E+05  1.9161E+05  4.8489E-02
 46 1.9486E-02 2.2650E+01  6.1417E+03 -1.1495E+05  1.1393E+04  1.2634E+05  1.2109E+05  3.1275E+05  1.9166E+05  4.8612E-02
 47 2.1641E-02 2.2043E+01  6.1523E+03 -1.1448E+05  1.1830E+04  1.2631E+05  1.2063E+05  3.1233E+05  1.9170E+05  4.8709E-02
 48 2.4007E-02 2.1444E+01  6.1684E+03 -1.1401E+05  1.2266E+04  1.2627E+05  1.2017E+05  3.1192E+05  1.9175E+05  4.8850E-02
 49 2.6599E-02 2.0852E+01  6.1958E+03 -1.1353E+05  1.2708E+04  1.2623E+05  1.1972E+05  3.1151E+05  1.9179E+05  4.9082E-02
 50 2.9435E-02 2.0267E+01  6.2341E+03 -1.1303E+05  1.3152E+04  1.2618E+05  1.1927E+05  3.1110E+05  1.9184E+05  4.9405E-02
 51 3.2535E-02 1.9690E+01  6.2627E+03 -1.1255E+05  1.3578E+04  1.2612E+05  1.1881E+05  3.1069E+05  1.9188E+05  4.9655E-02
 52 3.5918E-02 1.9121E+01  6.2914E+03 -1.1206E+05  1.3993E+04  1.2605E+05  1.1835E+05  3.1028E+05  1.9192E+05  4.9910E-02
 53 3.9605E-02 1.8559E+01  6.3141E+03 -1.1158E+05  1.4392E+04  1.2597E+05  1.1790E+05  3.0986E+05  1.9196E+05  5.0122E-02
 54 4.3618E-02 1.8004E+01  6.3268E+03 -1.1112E+05  1.4767E+04  1.2589E+05  1.1745E+05  3.0944E+05  1.9200E+05  5.0258E-02
 55 4.7980E-02 1.7458E+01  6.3277E+03 -1.1067E+05  1.5117E+04  1.2579E+05  1.1700E+05  3.0903E+05  1.9203E+05  5.0304E-02
 56 5.2715E-02 1.6919E+01  6.3034E+03 -1.1026E+05  1.5427E+04  1.2569E+05  1.1657E+05  3.0862E+05  1.9206E+05  5.0150E-02
 57 5.7848E-02 1.6388E+01  6.2712E+03 -1.0987E+05  1.5712E+04  1.2558E+05  1.1614E+05  3.0822E+05  1.9207E+05  4.9937E-02
 58 6.3405E-02 1.5865E+01  6.2290E+03 -1.0950E+05  1.5968E+04  1.2547E+05  1.1573E+05  3.0782E+05  1.9209E+05  4.9646E-02
 59 6.9411E-02 1.5351E+01  6.1862E+03 -1.0915E+05  1.6203E+04  1.2535E+05  1.1533E+05  3.0742E+05  1.9209E+05  4.9351E-02
 60 7.5896E-02 1.4844E+01  6.1467E+03 -1.0881E+05  1.6420E+04  1.2523E+05  1.1496E+05  3.0703E+05  1.9208E+05  4.9083E-02
 61 8.2886E-02 1.4345E+01  6.1092E+03 -1.0849E+05  1.6619E+04  1.2511E+05  1.1460E+05  3.0665E+05  1.9206E+05  4.8832E-02
 62 9.0412E-02 1.3854E+01  6.0821E+03 -1.0818E+05  1.6810E+04  1.2499E+05  1.1426E+05  3.0628E+05  1.9202E+05  4.8662E-02
 63 9.8503E-02 1.3372E+01  6.0633E+03 -1.0788E+05  1.6992E+04  1.2487E+05  1.1394E+05  3.0591E+05  1.9197E+05  4.8557E-02
 64 1.0719E-01 1.2897E+01  6.0521E+03 -1.0758E+05  1.7182E+04  1.2477E+05  1.1364E+05  3.0554E+05  1.9191E+05  4.8508E-02
 65 1.1650E-01 1.2430E+01  6.0296E+03 -1.0728E+05  1.7397E+04  1.2468E+05  1.1331E+05  3.0514E+05  1.9183E+05  4.8362E-02
 66 1.2647E-01 1.1971E+01  5.9959E+03 -1.0697E+05  1.7640E+04  1.2461E+05  1.1296E+05  3.0472E+05  1.9176E+05  4.8119E-02
 67 1.3713E-01 1.1519E+01  5.9422E+03 -1.0665E+05  1.7909E+04  1.2456E+05  1.1259E+05  3.0426E+05  1.9167E+05  4.7706E-02
 68 1.4850E-01 1.1075E+01  5.8686E+03 -1.0633E+05  1.8207E+04  1.2454E+05  1.1220E+05  3.0378E+05  1.9158E+05  4.7123E-02
 69 1.6063E-01 1.0639E+01  5.7725E+03 -1.0602E+05  1.8532E+04  1.2455E+05  1.1179E+05  3.0327E+05  1.9148E+05  4.6347E-02
 70 1.7354E-01 1.0209E+01  5.6500E+03 -1.0571E+05  1.8880E+04  1.2459E+05  1.1136E+05  3.0273E+05  1.9137E+05  4.5349E-02
 71 1.8726E-01 9.7866E+00  5.5074E+03 -1.0541E+05  1.9258E+04  1.2466E+05  1.1091E+05  3.0217E+05  1.9125E+05  4.4178E-02
 72 2.0182E-01 9.3711E+00  5.3489E+03 -1.0511E+05  1.9666E+04  1.2477E+05  1.1046E+05  3.0158E+05  1.9113E+05  4.2869E-02
 73 2.1725E-01 8.9622E+00  5.1803E+03 -1.0481E+05  2.0106E+04  1.2491E+05  1.0999E+05  3.0098E+05  1.9099E+05  4.1471E-02
 74 2.3359E-01 8.5599E+00  5.0082E+03 -1.0451E+05  2.0579E+04  1.2509E+05  1.0952E+05  3.0036E+05  1.9085E+05  4.0037E-02
 75 2.5085E-01 8.1641E+00  4.8391E+03 -1.0420E+05  2.1087E+04  1.2529E+05  1.0904E+05  2.9974E+05  1.9069E+05  3.8623E-02
 76 2.6906E-01 7.7746E+00  4.6797E+03 -1.0389E+05  2.1629E+04  1.2552E+05  1.0857E+05  2.9910E+05  1.9053E+05  3.7281E-02
 77 2.8825E-01 7.3914E+00  4.5380E+03 -1.0357E+05  2.2211E+04  1.2578E+05  1.0811E+05  2.9846E+05  1.9035E+05  3.6078E-02
 78 3.0843E-01 7.0145E+00  4.4155E+03 -1.0324E+05  2.2826E+04  1.2607E+05  1.0766E+05  2.9782E+05  1.9016E+05  3.5025E-02
 79 3.2963E-01 6.6437E+00  4.3135E+03 -1.0290E+05  2.3473E+04  1.2637E+05  1.0721E+05  2.9718E+05  1.8996E+05  3.4133E-02
 80 3.5187E-01 6.2790E+00  4.2245E+03 -1.0255E+05  2.4156E+04  1.2670E+05  1.0677E+05  2.9653E+05  1.8976E+05  3.3341E-02
 81 3.7516E-01 5.9204E+00  4.1439E+03 -1.0219E+05  2.4864E+04  1.2706E+05  1.0634E+05  2.9588E+05  1.8954E+05  3.2614E-02
 82 3.9950E-01 5.5679E+00  4.0710E+03 -1.0184E+05  2.5593E+04  1.2743E+05  1.0591E+05  2.9523E+05  1.8932E+05  3.1946E-02
 83 4.2492E-01 5.2216E+00  4.0102E+03 -1.0148E+05  2.6353E+04  1.2783E+05  1.0549E+05  2.9458E+05  1.8909E+05  3.1372E-02
 84 4.5141E-01 4.8814E+00  3.9643E+03 -1.0110E+05  2.7148E+04  1.2825E+05  1.0507E+05  2.9392E+05  1.8886E+05  3.0910E-02
 85 4.7897E-01 4.5473E+00  3.9338E+03 -1.0072E+05  2.7985E+04  1.2870E+05  1.0465E+05  2.9327E+05  1.8862E+05  3.0565E-02
 86 5.0761E-01 4.2195E+00  3.9120E+03 -1.0033E+05  2.8865E+04  1.2919E+05  1.0424E+05  2.9261E+05  1.8837E+05  3.0280E-02
 87 5.3732E-01 3.8977E+00  3.8970E+03 -9.9933E+04  2.9824E+04  1.2976E+05  1.0383E+05  2.9194E+05  1.8811E+05  3.0033E-02
 88 5.6808E-01 3.5821E+00  3.8758E+03 -9.9546E+04  3.0816E+04  1.3036E+05  1.0342E+05  2.9128E+05  1.8785E+05  2.9731E-02
 89 5.9988E-01 3.2724E+00  3.8561E+03 -9.9157E+04  3.1999E+04  1.3116E+05  1.0301E+05  2.9060E+05  1.8759E+05  2.9401E-02
 90 6.3270E-01 2.9683E+00  3.8598E+03 -9.8742E+04  3.3277E+04  1.3202E+05  1.0260E+05  2.8992E+05  1.8732E+05  2.9237E-02
 91 6.6651E-01 2.6690E+00  3.8116E+03 -9.8374E+04  3.4836E+04  1.3321E+05  1.0219E+05  2.8923E+05  1.8705E+05  2.8613E-02
 92 7.0129E-01 2.3730E+00  3.9595E+03 -9.7800E+04  3.7306E+04  1.3511E+05  1.0176E+05  2.8853E+05  1.8677E+05  2.9306E-02
 93 7.3700E-01 2.0799E+00  4.6342E+03 -9.6671E+04  4.0483E+04  1.3715E+05  1.0130E+05  2.8781E+05  1.8650E+05  3.3788E-02
 94 7.7359E-01 1.7901E+00  5.7981E+03 -9.5009E+04  4.4339E+04  1.3935E+05  1.0081E+05  2.8704E+05  1.8623E+05  4.1609E-02
 95 8.1103E-01 1.5037E+00  7.4444E+03 -9.2809E+04  4.8871E+04  1.4168E+05  1.0025E+05  2.8622E+05  1.8597E+05  5.2544E-02
 96 8.4925E-01 1.2209E+00  9.5404E+03 -9.0086E+04  5.4043E+04  1.4413E+05  9.9626E+04  2.8535E+05  1.8572E+05  6.6194E-02
 97 8.8822E-01 9.4216E-01  1.2030E+04 -8.6875E+04  5.9774E+04  1.4665E+05  9.8905E+04  2.8441E+05  1.8550E+05  8.2033E-02
 98 9.2785E-01 6.6756E-01  1.4926E+04 -8.3136E+04  6.6075E+04  1.4921E+05  9.8062E+04  2.8337E+05  1.8531E+05  1.0003E-01
 99 9.6809E-01 3.9740E-01  1.8212E+04 -7.8845E+04  7.2897E+04  1.5174E+05  9.7057E+04  2.8223E+05  1.8518E+05  1.2002E-01
100 1.0089E+00 1.3191E-01  2.1970E+04 -7.3874E+04  8.0157E+04  1.5403E+05  9.5844E+04  2.8097E+05  1.8512E+05  1.4264E-01
101 1.0501E+00 0.0000E+00  2.5895E+04 -6.8270E+04  8.6836E+04  1.5511E+05  9.4165E+04  2.7942E+05  1.8526E+05  1.6695E-01
 
 NST=     2 JCONV= 92 CHG=1.36E-02 dt0=7.50E+03 DIVF(1)= 3.12E-02 DIVFrms= 3.44E-02 DT(ND)= 7.16E-01 T(ND)=2.3064E+02
 NST=     3 JCONV= 91 CHG=1.41E-02 dt0=7.50E+03 DIVF(1)= 2.45E-02 DIVFrms= 2.77E-02 DT(ND)= 5.66E-01 T(ND)=2.3121E+02
 NST=     4 JCONV= 91 CHG=1.34E-02 dt0=7.50E+03 DIVF(1)= 1.93E-02 DIVFrms= 2.23E-02 DT(ND)= 4.46E-01 T(ND)=2.3165E+02
 NST=     5 JCONV= 91 CHG=1.31E-02 dt0=7.50E+03 DIVF(1)= 1.55E-02 DIVFrms= 1.84E-02 DT(ND)= 3.58E-01 T(ND)=2.3201E+02
 NST=     6 JCONV= 91 CHG=1.29E-02 dt0=7.50E+03 DIVF(1)= 1.24E-02 DIVFrms= 1.53E-02 DT(ND)= 2.87E-01 T(ND)=2.3230E+02
 NST=     7 JCONV= 91 CHG=1.27E-02 dt0=7.50E+03 DIVF(1)= 9.81E-03 DIVFrms= 1.28E-02 DT(ND)= 2.28E-01 T(ND)=2.3253E+02
 NST=     8 JCONV= 91 CHG=1.26E-02 dt0=7.50E+03 DIVF(1)= 7.81E-03 DIVFrms= 1.10E-02 DT(ND)= 1.82E-01 T(ND)=2.3271E+02
 NST=     9 JCONV= 91 CHG=1.26E-02 dt0=7.50E+03 DIVF(1)= 6.56E-03 DIVFrms= 9.90E-03 DT(ND)= 1.53E-01 T(ND)=2.3286E+02
 NST=    10 JCONV= 91 CHG=1.26E-02 dt0=7.50E+03 DIVF(1)= 5.41E-03 DIVFrms= 8.96E-03 DT(ND)= 1.26E-01 T(ND)=2.3299E+02
 NST=    11 JCONV= 91 CHG=1.26E-02 dt0=7.50E+03 DIVF(1)= 4.71E-03 DIVFrms= 8.38E-03 DT(ND)= 1.10E-01 T(ND)=2.3310E+02
 NST=    12 JCONV= 91 CHG=1.26E-02 dt0=7.50E+03 DIVF(1)= 3.51E-03 DIVFrms= 7.65E-03 DT(ND)= 8.19E-02 T(ND)=2.3318E+02
 NST=    13 JCONV= 91 CHG=1.26E-02 dt0=7.50E+03 DIVF(1)= 2.94E-03 DIVFrms= 7.31E-03 DT(ND)= 6.84E-02 T(ND)=2.3325E+02
 NST=    14 JCONV= 91 CHG=1.26E-02 dt0=7.50E+03 DIVF(1)= 2.71E-03 DIVFrms= 7.02E-03 DT(ND)= 6.33E-02 T(ND)=2.3331E+02
 NST=    15 JCONV= 91 CHG=1.31E-02 dt0=7.50E+03 DIVF(1)= 1.96E-03 DIVFrms= 6.88E-03 DT(ND)= 4.57E-02 T(ND)=2.3336E+02
 NST=    16 JCONV= 91 CHG=1.31E-02 dt0=7.50E+03 DIVF(1)= 1.93E-03 DIVFrms= 6.63E-03 DT(ND)= 4.50E-02 T(ND)=2.3340E+02
 NST=    17 JCONV= 91 CHG=1.30E-02 dt0=7.50E+03 DIVF(1)= 1.65E-03 DIVFrms= 6.51E-03 DT(ND)= 3.86E-02 T(ND)=2.3344E+02
 NST=    18 JCONV= 90 CHG=1.31E-02 dt0=7.50E+03 DIVF(1)= 1.39E-03 DIVFrms= 6.16E-03 DT(ND)= 3.25E-02 T(ND)=2.3347E+02
 NST=    19 JCONV= 90 CHG=1.30E-02 dt0=7.50E+03 DIVF(1)= 1.19E-03 DIVFrms= 6.08E-03 DT(ND)= 2.78E-02 T(ND)=2.3350E+02
 NST=    20 JCONV= 90 CHG=1.31E-02 dt0=7.50E+03 DIVF(1)= 1.02E-03 DIVFrms= 6.03E-03 DT(ND)= 2.39E-02 T(ND)=2.3352E+02
 NST=    21 JCONV= 90 CHG=1.30E-02 dt0=7.50E+03 DIVF(1)= 8.96E-04 DIVFrms= 5.99E-03 DT(ND)= 2.09E-02 T(ND)=2.3354E+02
 NST=    22 JCONV= 90 CHG=1.31E-02 dt0=7.50E+03 DIVF(1)= 8.01E-04 DIVFrms= 5.95E-03 DT(ND)= 1.87E-02 T(ND)=2.3356E+02
 NST=    23 JCONV= 90 CHG=1.30E-02 dt0=7.50E+03 DIVF(1)= 7.14E-04 DIVFrms= 5.93E-03 DT(ND)= 1.67E-02 T(ND)=2.3358E+02
 NST=    24 JCONV= 90 CHG=1.30E-02 dt0=7.50E+03 DIVF(1)= 6.41E-04 DIVFrms= 5.91E-03 DT(ND)= 1.50E-02 T(ND)=2.3359E+02
 NST=    25 JCONV= 90 CHG=1.31E-02 dt0=7.50E+03 DIVF(1)= 5.80E-04 DIVFrms= 5.90E-03 DT(ND)= 1.35E-02 T(ND)=2.3361E+02
 NST=    26 JCONV= 90 CHG=1.30E-02 dt0=7.50E+03 DIVF(1)= 5.37E-04 DIVFrms= 5.88E-03 DT(ND)= 1.25E-02 T(ND)=2.3362E+02
 NST=    27 JCONV= 90 CHG=1.30E-02 dt0=7.50E+03 DIVF(1)= 4.95E-04 DIVFrms= 5.87E-03 DT(ND)= 1.16E-02 T(ND)=2.3363E+02
 NST=    28 JCONV= 90 CHG=1.30E-02 dt0=7.50E+03 DIVF(1)= 4.84E-04 DIVFrms= 5.86E-03 DT(ND)= 1.13E-02 T(ND)=2.3364E+02
 NST=    29 JCONV= 90 CHG=1.30E-02 dt0=7.50E+03 DIVF(1)= 7.70E-04 DIVFrms= 5.51E-03 DT(ND)= 1.80E-02 T(ND)=2.3366E+02
 NST=    30 JCONV= 90 CHG=1.31E-02 dt0=7.50E+03 DIVF(1)= 3.68E-04 DIVFrms= 5.84E-03 DT(ND)= 8.61E-03 T(ND)=2.3367E+02
 NST=    31 JCONV= 90 CHG=1.30E-02 dt0=7.50E+03 DIVF(1)= 3.58E-04 DIVFrms= 5.84E-03 DT(ND)= 8.36E-03 T(ND)=2.3368E+02
 NST=    32 JCONV= 90 CHG=1.30E-02 dt0=7.50E+03 DIVF(1)= 6.65E-04 DIVFrms= 5.45E-03 DT(ND)= 1.55E-02 T(ND)=2.3369E+02
 NST=    33 JCONV= 90 CHG=1.30E-02 dt0=7.50E+03 DIVF(1)= 2.59E-04 DIVFrms= 5.84E-03 DT(ND)= 6.06E-03 T(ND)=2.3370E+02
 NST=    34 JCONV= 90 CHG=1.30E-02 dt0=7.50E+03 DIVF(1)= 5.84E-04 DIVFrms= 5.43E-03 DT(ND)= 1.37E-02 T(ND)=2.3371E+02
 NST=    35 JCONV= 90 CHG=1.30E-02 dt0=7.50E+03 DIVF(1)= 5.14E-04 DIVFrms= 5.42E-03 DT(ND)= 1.20E-02 T(ND)=2.3373E+02
 NST=    36 JCONV= 90 CHG=1.30E-02 dt0=7.50E+03 DIVF(1)= 4.61E-04 DIVFrms= 5.41E-03 DT(ND)= 1.08E-02 T(ND)=2.3374E+02
 NST=    37 JCONV= 90 CHG=1.30E-02 dt0=7.50E+03 DIVF(1)= 4.11E-04 DIVFrms= 5.41E-03 DT(ND)= 9.62E-03 T(ND)=2.3375E+02
 NST=    38 JCONV= 90 CHG=1.30E-02 dt0=7.50E+03 DIVF(1)= 3.77E-04 DIVFrms= 5.40E-03 DT(ND)= 8.82E-03 T(ND)=2.3375E+02
 NST=    39 JCONV= 90 CHG=1.29E-02 dt0=7.50E+03 DIVF(1)= 3.45E-04 DIVFrms= 5.40E-03 DT(ND)= 8.07E-03 T(ND)=2.3376E+02
 NST=    40 JCONV= 90 CHG=1.29E-02 dt0=7.50E+03 DIVF(1)= 3.33E-04 DIVFrms= 5.39E-03 DT(ND)= 7.79E-03 T(ND)=2.3377E+02
 NST=    41 JCONV= 90 CHG=1.29E-02 dt0=7.50E+03 DIVF(1)= 3.08E-04 DIVFrms= 5.38E-03 DT(ND)= 7.20E-03 T(ND)=2.3378E+02
 NST=    42 JCONV= 90 CHG=1.29E-02 dt0=7.50E+03 DIVF(1)= 2.87E-04 DIVFrms= 5.38E-03 DT(ND)= 6.71E-03 T(ND)=2.3378E+02
 NST=    43 JCONV= 90 CHG=1.29E-02 dt0=7.50E+03 DIVF(1)= 3.70E-04 DIVFrms= 5.36E-03 DT(ND)= 8.65E-03 T(ND)=2.3379E+02
 NST=    44 JCONV= 90 CHG=1.29E-02 dt0=7.50E+03 DIVF(1)= 4.24E-04 DIVFrms= 5.34E-03 DT(ND)= 9.91E-03 T(ND)=2.3380E+02
 NST=    45 JCONV= 90 CHG=1.29E-02 dt0=7.50E+03 DIVF(1)= 3.78E-04 DIVFrms= 5.34E-03 DT(ND)= 8.84E-03 T(ND)=2.3381E+02
 NST=    46 JCONV= 90 CHG=1.29E-02 dt0=7.50E+03 DIVF(1)= 4.45E-04 DIVFrms= 5.31E-03 DT(ND)= 1.04E-02 T(ND)=2.3382E+02
 NST=    47 JCONV= 90 CHG=1.29E-02 dt0=7.50E+03 DIVF(1)= 3.86E-04 DIVFrms= 5.32E-03 DT(ND)= 9.04E-03 T(ND)=2.3383E+02
 NST=    48 JCONV= 90 CHG=1.29E-02 dt0=7.50E+03 DIVF(1)= 7.78E-04 DIVFrms= 4.87E-03 DT(ND)= 1.82E-02 T(ND)=2.3385E+02
 NST=    49 JCONV= 90 CHG=1.29E-02 dt0=7.50E+03 DIVF(1)= 3.12E-04 DIVFrms= 5.31E-03 DT(ND)= 7.30E-03 T(ND)=2.3386E+02
 NST=    50 JCONV= 90 CHG=1.29E-02 dt0=7.50E+03 DIVF(1)= 2.90E-04 DIVFrms= 5.30E-03 DT(ND)= 6.77E-03 T(ND)=2.3386E+02
 NST=    51 JCONV= 90 CHG=1.29E-02 dt0=7.50E+03 DIVF(1)=-5.62E-05 DIVFrms= 5.82E-03 DT(ND)=-1.31E-03 T(ND)=2.3386E+02
 NST=    52 JCONV= 90 CHG=1.29E-02 dt0=7.50E+03 DIVF(1)= 3.20E-04 DIVFrms= 5.28E-03 DT(ND)= 7.48E-03 T(ND)=2.3387E+02
 NST=    53 JCONV= 90 CHG=1.29E-02 dt0=7.50E+03 DIVF(1)= 4.02E-04 DIVFrms= 5.24E-03 DT(ND)= 9.39E-03 T(ND)=2.3388E+02
 NST=    54 JCONV= 90 CHG=1.29E-02 dt0=7.50E+03 DIVF(1)= 3.47E-04 DIVFrms= 5.24E-03 DT(ND)= 8.13E-03 T(ND)=2.3389E+02
 NST=    55 JCONV= 90 CHG=1.29E-02 dt0=7.50E+03 DIVF(1)= 3.07E-04 DIVFrms= 5.24E-03 DT(ND)= 7.18E-03 T(ND)=2.3389E+02
 NST=    56 JCONV= 90 CHG=1.29E-02 dt0=7.50E+03 DIVF(1)= 2.77E-04 DIVFrms= 5.24E-03 DT(ND)= 6.48E-03 T(ND)=2.3390E+02
 NST=    57 JCONV= 90 CHG=1.29E-02 dt0=7.50E+03 DIVF(1)= 2.47E-04 DIVFrms= 5.24E-03 DT(ND)= 5.77E-03 T(ND)=2.3391E+02
 NST=    58 JCONV= 90 CHG=1.29E-02 dt0=7.50E+03 DIVF(1)= 2.21E-04 DIVFrms= 5.24E-03 DT(ND)= 5.18E-03 T(ND)=2.3391E+02
 NST=    59 JCONV= 90 CHG=1.29E-02 dt0=7.50E+03 DIVF(1)= 2.72E-04 DIVFrms= 5.22E-03 DT(ND)= 6.36E-03 T(ND)=2.3392E+02
 NST=    60 JCONV= 90 CHG=1.29E-02 dt0=7.50E+03 DIVF(1)= 2.51E-04 DIVFrms= 5.21E-03 DT(ND)= 5.87E-03 T(ND)=2.3392E+02
 NST=    61 JCONV= 90 CHG=1.29E-02 dt0=7.50E+03 DIVF(1)= 2.45E-04 DIVFrms= 5.21E-03 DT(ND)= 5.73E-03 T(ND)=2.3393E+02
 NST=    62 JCONV= 90 CHG=1.29E-02 dt0=7.50E+03 DIVF(1)= 5.74E-04 DIVFrms= 4.70E-03 DT(ND)= 1.34E-02 T(ND)=2.3394E+02
 NST=    63 JCONV= 90 CHG=1.29E-02 dt0=7.50E+03 DIVF(1)= 1.51E-04 DIVFrms= 5.21E-03 DT(ND)= 3.54E-03 T(ND)=2.3395E+02
 NST=    64 JCONV= 90 CHG=1.29E-02 dt0=7.50E+03 DIVF(1)= 1.50E-04 DIVFrms= 5.19E-03 DT(ND)= 3.50E-03 T(ND)=2.3395E+02
 NST=    65 JCONV= 90 CHG=1.29E-02 dt0=7.50E+03 DIVF(1)= 1.45E-04 DIVFrms= 5.18E-03 DT(ND)= 3.38E-03 T(ND)=2.3395E+02
 NST=    66 JCONV= 90 CHG=1.29E-02 dt0=7.50E+03 DIVF(1)= 1.48E-04 DIVFrms= 5.17E-03 DT(ND)= 3.47E-03 T(ND)=2.3396E+02
 NST=    67 JCONV= 90 CHG=1.29E-02 dt0=7.50E+03 DIVF(1)= 1.49E-04 DIVFrms= 5.16E-03 DT(ND)= 3.48E-03 T(ND)=2.3396E+02
 NST=    68 JCONV= 90 CHG=1.29E-02 dt0=7.50E+03 DIVF(1)= 1.44E-04 DIVFrms= 5.15E-03 DT(ND)= 3.38E-03 T(ND)=2.3396E+02
 NST=    69 JCONV= 90 CHG=1.29E-02 dt0=7.50E+03 DIVF(1)= 1.52E-04 DIVFrms= 5.13E-03 DT(ND)= 3.56E-03 T(ND)=2.3397E+02
 NST=    70 JCONV= 90 CHG=1.29E-02 dt0=7.50E+03 DIVF(1)= 1.40E-04 DIVFrms= 5.13E-03 DT(ND)= 3.28E-03 T(ND)=2.3397E+02
 NST=    71 JCONV= 90 CHG=1.29E-02 dt0=7.50E+03 DIVF(1)= 1.30E-04 DIVFrms= 5.12E-03 DT(ND)= 3.04E-03 T(ND)=2.3397E+02
 NST=    72 JCONV= 90 CHG=1.29E-02 dt0=7.50E+03 DIVF(1)= 5.01E-04 DIVFrms= 4.56E-03 DT(ND)= 1.17E-02 T(ND)=2.3399E+02
 NST=    73 JCONV= 91 CHG=1.29E-02 dt0=7.50E+03 DIVF(1)= 5.20E-05 DIVFrms= 5.50E-03 DT(ND)= 1.22E-03 T(ND)=2.3399E+02
 NST=    74 JCONV= 91 CHG=1.29E-02 dt0=7.50E+03 DIVF(1)= 6.59E-05 DIVFrms= 5.48E-03 DT(ND)= 1.54E-03 T(ND)=2.3399E+02
 NST=    75 JCONV= 91 CHG=1.29E-02 dt0=7.50E+03 DIVF(1)= 7.32E-05 DIVFrms= 5.47E-03 DT(ND)= 1.71E-03 T(ND)=2.3399E+02
 NST=    76 JCONV= 91 CHG=1.29E-02 dt0=7.50E+03 DIVF(1)= 7.73E-05 DIVFrms= 5.45E-03 DT(ND)= 1.81E-03 T(ND)=2.3399E+02
 NST=    77 JCONV= 91 CHG=1.29E-02 dt0=7.50E+03 DIVF(1)= 7.92E-05 DIVFrms= 5.45E-03 DT(ND)= 1.85E-03 T(ND)=2.3399E+02
 NST=    78 JCONV= 91 CHG=1.29E-02 dt0=7.50E+03 DIVF(1)= 8.02E-05 DIVFrms= 5.44E-03 DT(ND)= 1.88E-03 T(ND)=2.3400E+02
 NST=    79 JCONV= 91 CHG=1.29E-02 dt0=7.50E+03 DIVF(1)= 4.41E-04 DIVFrms= 4.86E-03 DT(ND)= 1.03E-02 T(ND)=2.3401E+02
 NST=    80 JCONV= 91 CHG=1.29E-02 dt0=7.50E+03 DIVF(1)= 1.61E-06 DIVFrms= 5.45E-03 DT(ND)= 3.77E-05 T(ND)=2.3401E+02
 NST=    81 JCONV= 91 CHG=1.29E-02 dt0=7.50E+03 DIVF(1)= 2.01E-05 DIVFrms= 5.43E-03 DT(ND)= 4.71E-04 T(ND)=2.3401E+02
 NST=    82 JCONV= 91 CHG=1.29E-02 dt0=7.50E+03 DIVF(1)= 3.37E-05 DIVFrms= 5.41E-03 DT(ND)= 7.89E-04 T(ND)=2.3401E+02
 NST=    83 JCONV= 91 CHG=1.29E-02 dt0=7.50E+03 DIVF(1)= 4.28E-05 DIVFrms= 5.40E-03 DT(ND)= 1.00E-03 T(ND)=2.3401E+02
 NST=    84 JCONV= 91 CHG=1.29E-02 dt0=7.50E+03 DIVF(1)= 4.91E-05 DIVFrms= 5.38E-03 DT(ND)= 1.15E-03 T(ND)=2.3401E+02
 NST=    85 JCONV= 91 CHG=1.29E-02 dt0=7.50E+03 DIVF(1)= 4.14E-04 DIVFrms= 4.79E-03 DT(ND)= 9.69E-03 T(ND)=2.3402E+02
 NST=    86 JCONV= 91 CHG=1.29E-02 dt0=7.50E+03 DIVF(1)=-7.94E-06 DIVFrms= 5.38E-03 DT(ND)=-1.86E-04 T(ND)=2.3402E+02
 NST=    87 JCONV= 91 CHG=1.29E-02 dt0=7.50E+03 DIVF(1)= 8.46E-06 DIVFrms= 5.37E-03 DT(ND)= 1.98E-04 T(ND)=2.3402E+02
 NST=    88 JCONV= 91 CHG=1.29E-02 dt0=7.50E+03 DIVF(1)= 2.27E-05 DIVFrms= 5.35E-03 DT(ND)= 5.31E-04 T(ND)=2.3402E+02
 NST=    89 JCONV= 91 CHG=1.29E-02 dt0=7.50E+03 DIVF(1)= 3.94E-04 DIVFrms= 4.75E-03 DT(ND)= 9.22E-03 T(ND)=2.3403E+02
 NST=    90 JCONV= 91 CHG=1.29E-02 dt0=7.50E+03 DIVF(1)= 2.06E-05 DIVFrms= 5.33E-03 DT(ND)= 4.82E-04 T(ND)=2.3403E+02
 NST=    91 JCONV= 91 CHG=1.29E-02 dt0=7.50E+03 DIVF(1)= 3.45E-05 DIVFrms= 5.31E-03 DT(ND)= 8.06E-04 T(ND)=2.3403E+02
 NST=    92 JCONV= 91 CHG=1.29E-02 dt0=7.50E+03 DIVF(1)= 3.96E-05 DIVFrms= 5.30E-03 DT(ND)= 9.27E-04 T(ND)=2.3403E+02
 NST=    93 JCONV= 91 CHG=1.29E-02 dt0=7.50E+03 DIVF(1)= 4.04E-04 DIVFrms= 4.69E-03 DT(ND)= 9.46E-03 T(ND)=2.3404E+02
 NST=    94 JCONV= 91 CHG=1.29E-02 dt0=7.50E+03 DIVF(1)=-3.25E-05 DIVFrms= 5.31E-03 DT(ND)=-7.61E-04 T(ND)=2.3404E+02
 NST=    95 JCONV= 91 CHG=1.29E-02 dt0=7.50E+03 DIVF(1)=-1.13E-05 DIVFrms= 5.29E-03 DT(ND)=-2.64E-04 T(ND)=2.3404E+02
 NST=    96 JCONV= 91 CHG=1.29E-02 dt0=7.50E+03 DIVF(1)= 3.61E-04 DIVFrms= 4.68E-03 DT(ND)= 8.45E-03 T(ND)=2.3405E+02
 NST=    97 JCONV= 91 CHG=1.29E-02 dt0=7.50E+03 DIVF(1)=-6.41E-05 DIVFrms= 5.30E-03 DT(ND)=-1.50E-03 T(ND)=2.3405E+02
 NST=    98 JCONV= 91 CHG=1.29E-02 dt0=7.50E+03 DIVF(1)= 3.19E-04 DIVFrms= 4.67E-03 DT(ND)= 7.46E-03 T(ND)=2.3405E+02
 NST=    99 JCONV= 90 CHG=1.29E-02 dt0=7.50E+03 DIVF(1)= 2.65E-04 DIVFrms= 4.30E-03 DT(ND)= 6.20E-03 T(ND)=2.3406E+02
 NST=   100 JCONV= 90 CHG=1.29E-02 dt0=7.50E+03 DIVF(1)= 2.19E-04 DIVFrms= 4.30E-03 DT(ND)= 5.13E-03 T(ND)=2.3407E+02
 NST=   101 JCONV= 90 CHG=1.29E-02 dt0=7.50E+03 DIVF(1)= 1.86E-04 DIVFrms= 4.30E-03 DT(ND)= 4.36E-03 T(ND)=2.3407E+02
 NST=   102 JCONV= 91 CHG=1.29E-02 dt0=7.50E+03 DIVF(1)= 1.57E-04 DIVFrms= 4.68E-03 DT(ND)= 3.67E-03 T(ND)=2.3407E+02
 NST=   103 JCONV= 91 CHG=1.29E-02 dt0=7.50E+03 DIVF(1)= 1.33E-04 DIVFrms= 4.67E-03 DT(ND)= 3.12E-03 T(ND)=2.3408E+02
 NST=   104 JCONV= 91 CHG=1.29E-02 dt0=7.50E+03 DIVF(1)= 1.28E-04 DIVFrms= 4.66E-03 DT(ND)= 3.00E-03 T(ND)=2.3408E+02
 NST=   105 JCONV= 91 CHG=1.29E-02 dt0=7.50E+03 DIVF(1)= 1.11E-04 DIVFrms= 4.66E-03 DT(ND)= 2.61E-03 T(ND)=2.3408E+02
 NST=   106 JCONV= 91 CHG=1.29E-02 dt0=7.50E+03 DIVF(1)= 9.72E-05 DIVFrms= 4.65E-03 DT(ND)= 2.28E-03 T(ND)=2.3408E+02
 NST=   107 JCONV= 91 CHG=1.29E-02 dt0=7.50E+03 DIVF(1)= 8.58E-05 DIVFrms= 4.64E-03 DT(ND)= 2.01E-03 T(ND)=2.3409E+02
 NST=   108 JCONV= 91 CHG=1.29E-02 dt0=7.50E+03 DIVF(1)= 9.47E-05 DIVFrms= 4.62E-03 DT(ND)= 2.22E-03 T(ND)=2.3409E+02
 NST=   109 JCONV= 91 CHG=1.29E-02 dt0=7.50E+03 DIVF(1)= 8.35E-05 DIVFrms= 4.62E-03 DT(ND)= 1.95E-03 T(ND)=2.3409E+02
 NST=   110 JCONV= 91 CHG=1.29E-02 dt0=7.50E+03 DIVF(1)= 7.44E-05 DIVFrms= 4.61E-03 DT(ND)= 1.74E-03 T(ND)=2.3409E+02
 NST=   111 JCONV= 91 CHG=1.29E-02 dt0=7.50E+03 DIVF(1)= 8.88E-05 DIVFrms= 4.59E-03 DT(ND)= 2.08E-03 T(ND)=2.3409E+02
 NST=   112 JCONV= 91 CHG=1.29E-02 dt0=7.50E+03 DIVF(1)= 7.78E-05 DIVFrms= 4.58E-03 DT(ND)= 1.82E-03 T(ND)=2.3410E+02
 NST=   113 JCONV= 91 CHG=1.29E-02 dt0=7.50E+03 DIVF(1)= 4.72E-04 DIVFrms= 3.98E-03 DT(ND)= 1.10E-02 T(ND)=2.3411E+02
 NST=   114 JCONV= 91 CHG=1.29E-02 dt0=7.50E+03 DIVF(1)=-2.57E-05 DIVFrms= 4.60E-03 DT(ND)=-6.01E-04 T(ND)=2.3411E+02
 NST=   115 JCONV= 91 CHG=1.29E-02 dt0=7.50E+03 DIVF(1)= 4.88E-07 DIVFrms= 4.56E-03 DT(ND)= 1.14E-05 T(ND)=2.3411E+02
 NST=   116 JCONV= 91 CHG=1.29E-02 dt0=7.50E+03 DIVF(1)=-3.47E-04 DIVFrms= 5.20E-03 DT(ND)=-8.12E-03 T(ND)=2.3410E+02
 NST=   117 JCONV= 91 CHG=1.29E-02 dt0=7.50E+03 DIVF(1)= 9.15E-05 DIVFrms= 4.51E-03 DT(ND)= 2.14E-03 T(ND)=2.3410E+02
 NST=   118 JCONV= 91 CHG=1.29E-02 dt0=7.50E+03 DIVF(1)= 9.81E-05 DIVFrms= 4.48E-03 DT(ND)= 2.30E-03 T(ND)=2.3410E+02
 NST=   119 JCONV= 91 CHG=1.29E-02 dt0=7.50E+03 DIVF(1)= 8.81E-05 DIVFrms= 4.47E-03 DT(ND)= 2.06E-03 T(ND)=2.3410E+02
 NST=   120 JCONV= 91 CHG=1.29E-02 dt0=7.50E+03 DIVF(1)= 7.85E-05 DIVFrms= 4.46E-03 DT(ND)= 1.84E-03 T(ND)=2.3411E+02
 NST=   121 JCONV= 91 CHG=1.29E-02 dt0=7.50E+03 DIVF(1)= 7.02E-05 DIVFrms= 4.45E-03 DT(ND)= 1.64E-03 T(ND)=2.3411E+02
 NST=   122 JCONV= 91 CHG=1.29E-02 dt0=7.50E+03 DIVF(1)= 6.30E-05 DIVFrms= 4.44E-03 DT(ND)= 1.48E-03 T(ND)=2.3411E+02
 NST=   123 JCONV= 91 CHG=1.29E-02 dt0=7.50E+03 DIVF(1)= 5.69E-05 DIVFrms= 4.42E-03 DT(ND)= 1.33E-03 T(ND)=2.3411E+02
 NST=   124 JCONV= 91 CHG=1.29E-02 dt0=7.50E+03 DIVF(1)= 5.30E-05 DIVFrms= 4.42E-03 DT(ND)= 1.24E-03 T(ND)=2.3411E+02
 NST=   125 JCONV= 91 CHG=1.29E-02 dt0=7.50E+03 DIVF(1)= 4.84E-05 DIVFrms= 4.40E-03 DT(ND)= 1.13E-03 T(ND)=2.3411E+02
 NST=   126 JCONV= 91 CHG=1.29E-02 dt0=7.50E+03 DIVF(1)= 4.45E-05 DIVFrms= 4.39E-03 DT(ND)= 1.04E-03 T(ND)=2.3411E+02
 NST=   127 JCONV= 91 CHG=1.29E-02 dt0=7.50E+03 DIVF(1)= 4.12E-05 DIVFrms= 4.38E-03 DT(ND)= 9.63E-04 T(ND)=2.3412E+02
 NST=   128 JCONV= 91 CHG=1.29E-02 dt0=7.50E+03 DIVF(1)= 3.85E-05 DIVFrms= 4.37E-03 DT(ND)= 9.01E-04 T(ND)=2.3412E+02
 NST=   129 JCONV= 91 CHG=1.29E-02 dt0=7.50E+03 DIVF(1)= 4.79E-05 DIVFrms= 4.35E-03 DT(ND)= 1.12E-03 T(ND)=2.3412E+02
 NST=   130 JCONV= 91 CHG=1.29E-02 dt0=7.50E+03 DIVF(1)= 4.49E-04 DIVFrms= 3.73E-03 DT(ND)= 1.05E-02 T(ND)=2.3413E+02
 NST=   131 JCONV= 91 CHG=1.29E-02 dt0=7.50E+03 DIVF(1)=-4.32E-05 DIVFrms= 4.36E-03 DT(ND)=-1.01E-03 T(ND)=2.3413E+02
 NST=   132 JCONV= 91 CHG=1.29E-02 dt0=7.50E+03 DIVF(1)=-1.89E-05 DIVFrms= 4.33E-03 DT(ND)=-4.43E-04 T(ND)=2.3413E+02
 NST=   133 JCONV= 91 CHG=1.29E-02 dt0=7.50E+03 DIVF(1)=-5.49E-06 DIVFrms= 4.31E-03 DT(ND)=-1.29E-04 T(ND)=2.3413E+02
 NST=   134 JCONV= 91 CHG=1.29E-02 dt0=7.50E+03 DIVF(1)= 3.05E-06 DIVFrms= 4.29E-03 DT(ND)= 7.14E-05 T(ND)=2.3413E+02
 NST=   135 JCONV= 91 CHG=1.29E-02 dt0=7.50E+03 DIVF(1)= 1.11E-05 DIVFrms= 4.27E-03 DT(ND)= 2.60E-04 T(ND)=2.3413E+02
 NST=   136 JCONV= 91 CHG=1.29E-02 dt0=7.50E+03 DIVF(1)= 1.49E-05 DIVFrms= 4.25E-03 DT(ND)= 3.50E-04 T(ND)=2.3413E+02
 NST=   137 JCONV= 91 CHG=1.29E-02 dt0=7.50E+03 DIVF(1)= 1.88E-05 DIVFrms= 4.24E-03 DT(ND)= 4.41E-04 T(ND)=2.3413E+02
 NST=   138 JCONV= 91 CHG=1.29E-02 dt0=7.50E+03 DIVF(1)= 4.77E-05 DIVFrms= 4.20E-03 DT(ND)= 1.12E-03 T(ND)=2.3413E+02
 NST=   139 JCONV= 91 CHG=1.29E-02 dt0=7.50E+03 DIVF(1)= 4.34E-05 DIVFrms= 4.19E-03 DT(ND)= 1.02E-03 T(ND)=2.3413E+02
 NST=   140 JCONV= 91 CHG=1.29E-02 dt0=7.50E+03 DIVF(1)= 3.85E-05 DIVFrms= 4.18E-03 DT(ND)= 9.02E-04 T(ND)=2.3413E+02
 NST=   141 JCONV= 91 CHG=1.29E-02 dt0=7.50E+03 DIVF(1)= 4.14E-05 DIVFrms= 4.16E-03 DT(ND)= 9.68E-04 T(ND)=2.3413E+02
 NST=   142 JCONV= 91 CHG=1.29E-02 dt0=7.50E+03 DIVF(1)= 3.81E-05 DIVFrms= 4.15E-03 DT(ND)= 8.92E-04 T(ND)=2.3413E+02
 NST=   143 JCONV= 91 CHG=1.29E-02 dt0=7.50E+03 DIVF(1)= 4.65E-04 DIVFrms= 3.52E-03 DT(ND)= 1.09E-02 T(ND)=2.3414E+02
 NST=   144 JCONV= 91 CHG=1.29E-02 dt0=7.50E+03 DIVF(1)=-3.90E-05 DIVFrms= 4.15E-03 DT(ND)=-9.14E-04 T(ND)=2.3414E+02
 NST=   145 JCONV= 91 CHG=1.29E-02 dt0=7.50E+03 DIVF(1)=-8.09E-06 DIVFrms= 4.11E-03 DT(ND)=-1.89E-04 T(ND)=2.3414E+02
 NST=   146 JCONV= 91 CHG=1.29E-02 dt0=7.50E+03 DIVF(1)= 2.45E-07 DIVFrms= 4.09E-03 DT(ND)= 5.74E-06 T(ND)=2.3414E+02
 NST=   147 JCONV= 91 CHG=1.29E-02 dt0=7.50E+03 DIVF(1)= 1.47E-05 DIVFrms= 4.06E-03 DT(ND)= 3.43E-04 T(ND)=2.3414E+02
 NST=   148 JCONV= 91 CHG=1.29E-02 dt0=7.50E+03 DIVF(1)= 1.80E-05 DIVFrms= 4.05E-03 DT(ND)= 4.21E-04 T(ND)=2.3414E+02
 NST=   149 JCONV= 91 CHG=1.29E-02 dt0=7.50E+03 DIVF(1)= 2.80E-05 DIVFrms= 4.02E-03 DT(ND)= 6.57E-04 T(ND)=2.3414E+02
 NST=   150 JCONV= 91 CHG=1.29E-02 dt0=7.50E+03 DIVF(1)= 3.47E-05 DIVFrms= 4.00E-03 DT(ND)= 8.12E-04 T(ND)=2.3414E+02

 TIME= 1.122E+06  TIME IN DAYS = 1.299E+01

 PLANETARY ALBEDO:  ALBP = 0.5884

  J     P         ALT         T        CONVEC       DT          TOLD        FH20       FSAVE       TCOOL       THEAT
  1 5.4137E-05 5.7198E+01 2.1580E+02  0.00E+00  -6.5720E-04  2.1580E+02  1.1799E-06  8.1394E-07 -2.0241E+02  2.0240E+02
  2 6.3429E-05 5.6203E+01 2.2128E+02  0.00E+00   2.8528E+00  2.2128E+02  1.1799E-06  8.1394E-07 -9.4267E+01  1.2713E+02
  3 7.4226E-05 5.5205E+01 2.2068E+02  0.00E+00   3.7154E-01  2.2069E+02  1.1799E-06  8.1394E-07 -7.2936E+01  7.7216E+01
  4 8.6757E-05 5.4225E+01 2.1660E+02  0.00E+00  -1.1711E-01  2.1660E+02  1.1799E-06  8.1394E-07 -4.8230E+01  4.6881E+01
  5 1.0128E-04 5.3271E+01 2.1250E+02  0.00E+00  -1.1579E-01  2.1250E+02  1.1799E-06  8.1394E-07 -3.1503E+01  3.0169E+01
  6 1.1810E-04 5.2341E+01 2.0895E+02  0.00E+00  -2.0816E-01  2.0895E+02  1.1799E-06  8.1394E-07 -2.4295E+01  2.1897E+01
  7 1.3754E-04 5.1433E+01 2.0612E+02  0.00E+00  -1.8898E-01  2.0612E+02  1.1799E-06  8.1394E-07 -2.0377E+01  1.8200E+01
  8 1.5998E-04 5.0542E+01 2.0400E+02  0.00E+00  -1.1835E-01  2.0399E+02  1.1799E-06  8.1394E-07 -1.7994E+01  1.6631E+01
  9 1.8587E-04 4.9667E+01 2.0242E+02  0.00E+00  -1.0030E-01  2.0242E+02  1.1799E-06  8.1394E-07 -1.7040E+01  1.5885E+01
 10 2.1569E-04 4.8804E+01 2.0125E+02  0.00E+00  -7.6971E-02  2.0125E+02  1.1799E-06  8.1394E-07 -1.6267E+01  1.5381E+01
 11 2.4999E-04 4.7952E+01 2.0038E+02  0.00E+00  -5.3829E-02  2.0038E+02  1.1799E-06  8.1394E-07 -1.5529E+01  1.4909E+01
 12 2.8940E-04 4.7111E+01 1.9973E+02  0.00E+00  -4.9270E-02  1.9973E+02  1.1799E-06  8.1394E-07 -1.4996E+01  1.4428E+01
 13 3.3462E-04 4.6279E+01 1.9928E+02  0.00E+00  -4.7845E-02  1.9928E+02  1.1799E-06  8.1394E-07 -1.4689E+01  1.4138E+01
 14 3.8643E-04 4.5455E+01 1.9900E+02  0.00E+00  -2.5411E-02  1.9900E+02  1.1799E-06  8.1394E-07 -1.4416E+01  1.4123E+01
 15 4.4574E-04 4.4639E+01 1.9882E+02  0.00E+00  -1.6654E-02  1.9882E+02  1.1799E-06  8.1394E-07 -1.4247E+01  1.4056E+01
 16 5.1353E-04 4.3831E+01 1.9871E+02  0.00E+00  -1.2239E-02  1.9871E+02  1.1799E-06  8.1394E-07 -1.4035E+01  1.3894E+01
 17 5.9092E-04 4.3030E+01 1.9864E+02  0.00E+00  -9.3920E-03  1.9864E+02  1.1799E-06  8.1394E-07 -1.3740E+01  1.3632E+01
 18 6.7916E-04 4.2236E+01 1.9860E+02  0.00E+00  -5.2894E-03  1.9860E+02  1.1799E-06  8.1394E-07 -1.3325E+01  1.3264E+01
 19 7.7964E-04 4.1448E+01 1.9856E+02  0.00E+00   4.5398E-03  1.9856E+02  1.1799E-06  8.1394E-07 -1.2736E+01  1.2788E+01
 20 8.9391E-04 4.0668E+01 1.9848E+02  0.00E+00   2.8834E-02  1.9848E+02  1.1799E-06  8.1394E-07 -1.1883E+01  1.2215E+01
 21 1.0237E-03 3.9896E+01 1.9828E+02  0.00E+00   4.4158E-02  1.9829E+02  1.1799E-06  8.1394E-07 -1.1336E+01  1.1845E+01
 22 1.1709E-03 3.9131E+01 1.9798E+02  0.00E+00  -2.3090E-02  1.9799E+02  1.1799E-06  8.1394E-07 -1.2641E+01  1.2375E+01
 23 1.3377E-03 3.8374E+01 1.9769E+02  0.00E+00  -2.1110E-02  1.9770E+02  1.1799E-06  8.1394E-07 -1.2537E+01  1.2294E+01
 24 1.5264E-03 3.7625E+01 1.9745E+02  0.00E+00   6.6613E-03  1.9745E+02  1.1799E-06  8.1394E-07 -1.1541E+01  1.1618E+01
 25 1.7396E-03 3.6884E+01 1.9718E+02  0.00E+00   2.3144E-02  1.9718E+02  1.1799E-06  8.1394E-07 -1.0248E+01  1.0515E+01
 26 1.9803E-03 3.6150E+01 1.9683E+02  0.00E+00   1.4901E-02  1.9683E+02  1.1799E-06  8.1394E-07 -9.0436E+00  9.2153E+00
 27 2.2515E-03 3.5425E+01 1.9643E+02  0.00E+00  -1.8454E-02  1.9643E+02  1.1799E-06  8.1394E-07 -8.1656E+00  7.9531E+00
 28 2.5568E-03 3.4708E+01 1.9609E+02  0.00E+00  -5.3755E-02  1.9609E+02  1.1799E-06  8.1394E-07 -7.5204E+00  6.9011E+00
 29 2.9000E-03 3.3999E+01 1.9593E+02  0.00E+00  -7.0382E-02  1.9593E+02  1.1799E-06  8.1394E-07 -6.9400E+00  6.1292E+00
 30 3.2853E-03 3.3297E+01 1.9602E+02  0.00E+00  -7.4952E-02  1.9603E+02  1.1799E-06  8.1394E-07 -6.4378E+00  5.5743E+00
 31 3.7174E-03 3.2600E+01 1.9639E+02  0.00E+00  -6.4748E-02  1.9639E+02  1.1799E-06  8.1394E-07 -5.8910E+00  5.1451E+00
 32 4.2012E-03 3.1909E+01 1.9698E+02  0.00E+00  -4.3955E-02  1.9699E+02  1.1799E-06  8.1394E-07 -5.3643E+00  4.8579E+00
 33 4.7423E-03 3.1222E+01 1.9773E+02  0.00E+00  -2.3089E-02  1.9774E+02  1.1799E-06  8.1394E-07 -4.9148E+00  4.6488E+00
 34 5.3466E-03 3.0539E+01 1.9856E+02  0.00E+00  -3.7156E-03  1.9857E+02  1.1799E-06  8.1394E-07 -4.5186E+00  4.4758E+00
 35 6.0208E-03 2.9860E+01 1.9939E+02  0.00E+00   1.1884E-02  1.9940E+02  1.1799E-06  8.1394E-07 -4.1794E+00  4.3164E+00
 36 6.7718E-03 2.9186E+01 2.0016E+02  0.00E+00   2.3302E-02  2.0016E+02  1.1799E-06  8.1394E-07 -3.8890E+00  4.1575E+00
 37 7.6073E-03 2.8516E+01 2.0081E+02  0.00E+00   3.4353E-02  2.0081E+02  1.1799E-06  8.1394E-07 -3.5954E+00  3.9912E+00
 38 8.5356E-03 2.7850E+01 2.0131E+02  0.00E+00   3.7585E-02  2.0131E+02  1.1799E-06  8.1394E-07 -3.3800E+00  3.8130E+00
 39 9.5658E-03 2.7191E+01 2.0163E+02  0.00E+00   4.7304E-02  2.0164E+02  1.1799E-06  8.1394E-07 -3.0696E+00  3.6146E+00
 40 1.0707E-02 2.6538E+01 2.0177E+02  0.00E+00   3.0745E-02  2.0177E+02  1.1799E-06  8.1394E-07 -3.0847E+00  3.4389E+00
 41 1.1971E-02 2.5891E+01 2.0176E+02  0.00E+00   8.3544E-03  2.0177E+02  1.1799E-06  8.1394E-07 -3.1280E+00  3.2242E+00
 42 1.3367E-02 2.5252E+01 2.0169E+02  0.00E+00  -3.4819E-03  2.0170E+02  1.1799E-06  8.1394E-07 -2.9899E+00  2.9498E+00
 43 1.4909E-02 2.4619E+01 2.0161E+02  0.00E+00  -7.0794E-03  2.0161E+02  1.1799E-06  8.1394E-07 -2.7264E+00  2.6448E+00
 44 1.6608E-02 2.3994E+01 2.0153E+02  0.00E+00  -5.5845E-03  2.0153E+02  1.1799E-06  8.1394E-07 -2.4050E+00  2.3407E+00
 45 1.8478E-02 2.3377E+01 2.0144E+02  0.00E+00  -2.9284E-03  2.0145E+02  1.1799E-06  8.1394E-07 -2.0990E+00  2.0652E+00
 46 2.0535E-02 2.2766E+01 2.0135E+02  0.00E+00  -1.5713E-03  2.0135E+02  1.1799E-06  8.1394E-07 -1.8522E+00  1.8341E+00
 47 2.2793E-02 2.2163E+01 2.0124E+02  0.00E+00  -1.9837E-03  2.0125E+02  1.1799E-06  8.1394E-07 -1.6714E+00  1.6486E+00
 48 2.5269E-02 2.1567E+01 2.0112E+02  0.00E+00  -3.4285E-03  2.0113E+02  1.1799E-06  8.1394E-07 -1.5391E+00  1.4996E+00
 49 2.7981E-02 2.0978E+01 2.0100E+02  0.00E+00  -4.8720E-03  2.0100E+02  1.1799E-06  8.1394E-07 -1.4309E+00  1.3747E+00
 50 3.0946E-02 2.0396E+01 2.0087E+02  0.00E+00  -1.9250E-03  2.0087E+02  1.1799E-06  8.1394E-07 -1.2858E+00  1.2636E+00
 51 3.4184E-02 1.9822E+01 2.0073E+02  0.00E+00  -2.1316E-03  2.0074E+02  1.1799E-06  8.1394E-07 -1.1836E+00  1.1591E+00
 52 3.7716E-02 1.9255E+01 2.0059E+02  0.00E+00  -1.4157E-03  2.0059E+02  1.1799E-06  8.1394E-07 -1.0757E+00  1.0594E+00
 53 4.1563E-02 1.8696E+01 2.0043E+02  0.00E+00  -1.3836E-04  2.0044E+02  1.1799E-06  8.1394E-07 -9.6594E-01  9.6435E-01
 54 4.5747E-02 1.8144E+01 2.0026E+02  0.00E+00   1.2984E-03  2.0027E+02  1.1799E-06  8.1394E-07 -8.5919E-01  8.7415E-01
 55 5.0292E-02 1.7599E+01 2.0008E+02  0.00E+00   2.5403E-03  2.0008E+02  1.1799E-06  8.1394E-07 -7.5979E-01  7.8906E-01
 56 5.5222E-02 1.7062E+01 1.9987E+02  0.00E+00   4.1604E-03  1.9987E+02  1.1799E-06  8.1394E-07 -6.6136E-01  7.0929E-01
 57 6.0563E-02 1.6532E+01 1.9964E+02  0.00E+00   4.3249E-03  1.9964E+02  1.1799E-06  8.1394E-07 -5.8508E-01  6.3491E-01
 58 6.6340E-02 1.6010E+01 1.9939E+02  0.00E+00   3.9533E-03  1.9939E+02  1.1799E-06  8.1394E-07 -5.2024E-01  5.6578E-01
 59 7.2581E-02 1.5495E+01 1.9913E+02  0.00E+00   3.0707E-03  1.9913E+02  1.1799E-06  8.1394E-07 -4.6625E-01  5.0163E-01
 60 7.9314E-02 1.4988E+01 1.9885E+02  0.00E+00   2.2976E-03  1.9885E+02  1.1799E-06  8.1394E-07 -4.1556E-01  4.4203E-01
 61 8.6567E-02 1.4489E+01 1.9857E+02  0.00E+00   6.2382E-04  1.9857E+02  1.1799E-06  8.1394E-07 -3.7930E-01  3.8649E-01
 62 9.4371E-02 1.3997E+01 1.9830E+02  0.00E+00  -1.1872E-03  1.9829E+02  1.1799E-06  8.1394E-07 -3.4921E-01  3.3553E-01
 63 1.0275E-01 1.3512E+01 1.9804E+02  0.00E+00  -2.5288E-03  1.9803E+02  1.1799E-06  8.1394E-07 -3.3251E-01  3.0338E-01
 64 1.1175E-01 1.3035E+01 1.9781E+02  0.00E+00  -2.3801E-03  1.9780E+02  1.1799E-06  8.1394E-07 -3.2870E-01  3.0128E-01
 65 1.2138E-01 1.2565E+01 1.9760E+02  0.00E+00  -2.1475E-03  1.9759E+02  1.1799E-06  8.1394E-07 -3.2509E-01  3.0035E-01
 66 1.3169E-01 1.2103E+01 1.9743E+02  0.00E+00  -1.5475E-03  1.9742E+02  1.1799E-06  8.1394E-07 -3.1654E-01  2.9871E-01
 67 1.4270E-01 1.1647E+01 1.9728E+02  0.00E+00  -6.3389E-04  1.9728E+02  1.1799E-06  8.1394E-07 -3.0342E-01  2.9611E-01
 68 1.5445E-01 1.1199E+01 1.9717E+02  0.00E+00   4.5827E-04  1.9717E+02  1.1799E-06  8.1394E-07 -2.8698E-01  2.9226E-01
 69 1.6696E-01 1.0758E+01 1.9709E+02  0.00E+00   1.5756E-03  1.9708E+02  1.1799E-06  8.1394E-07 -2.6874E-01  2.8690E-01
 70 1.8027E-01 1.0324E+01 1.9704E+02  0.00E+00   2.5861E-03  1.9703E+02  1.1799E-06  8.1394E-07 -2.5009E-01  2.7989E-01
 71 1.9440E-01 9.8965E+00 1.9701E+02  0.00E+00   3.3969E-03  1.9700E+02  1.1799E-06  8.1394E-07 -2.3208E-01  2.7122E-01
 72 2.0939E-01 9.4760E+00 1.9701E+02  0.00E+00   4.1293E-03  1.9700E+02  1.1799E-06  8.1394E-07 -2.1341E-01  2.6098E-01
 73 2.2527E-01 9.0623E+00 1.9703E+02  0.00E+00   4.2093E-03  1.9702E+02  1.1799E-06  8.1394E-07 -2.0087E-01  2.4936E-01
 74 2.4206E-01 8.6554E+00 1.9707E+02  0.00E+00   4.2382E-03  1.9706E+02  1.1799E-06  8.1394E-07 -1.8779E-01  2.3661E-01
 75 2.5979E-01 8.2551E+00 1.9714E+02  0.00E+00   4.0408E-03  1.9713E+02  1.1799E-06  8.1394E-07 -1.7647E-01  2.2302E-01
 76 2.7849E-01 7.8614E+00 1.9724E+02  0.00E+00   3.6653E-03  1.9723E+02  1.1799E-06  8.1394E-07 -1.6667E-01  2.0890E-01
 77 2.9817E-01 7.4744E+00 1.9736E+02  0.00E+00   3.1692E-03  1.9735E+02  1.1799E-06  8.1394E-07 -1.5809E-01  1.9460E-01
 78 3.1886E-01 7.0939E+00 1.9751E+02  0.00E+00   2.7024E-03  1.9750E+02  1.1799E-06  8.1394E-07 -1.4999E-01  1.8112E-01
 79 3.4057E-01 6.7199E+00 1.9769E+02  0.00E+00   2.6389E-03  1.9768E+02  1.1799E-06  8.1394E-07 -1.4063E-01  1.7103E-01
 80 3.6333E-01 6.3524E+00 1.9790E+02  0.00E+00   2.6156E-03  1.9789E+02  1.1799E-06  8.1394E-07 -1.3147E-01  1.6160E-01
 81 3.8714E-01 5.9912E+00 1.9813E+02  0.00E+00   2.5365E-03  1.9812E+02  1.1799E-06  8.1394E-07 -1.2347E-01  1.5269E-01
 82 4.1202E-01 5.6365E+00 1.9840E+02  0.00E+00   2.6255E-03  1.9839E+02  1.1799E-06  8.2471E-07 -1.1415E-01  1.4439E-01
 83 4.3796E-01 5.2881E+00 1.9869E+02  0.00E+00   2.7714E-03  1.9868E+02  1.1799E-06  8.6781E-07 -1.0483E-01  1.3676E-01
 84 4.6499E-01 4.9461E+00 1.9900E+02  0.00E+00   2.9920E-03  1.9899E+02  1.1799E-06  9.2517E-07 -9.5352E-02  1.2982E-01
 85 4.9309E-01 4.6104E+00 1.9934E+02  0.00E+00   3.2831E-03  1.9933E+02  1.1799E-06  9.8769E-07 -8.5750E-02  1.2357E-01
 86 5.2225E-01 4.2810E+00 1.9970E+02  0.00E+00   3.9632E-03  1.9969E+02  1.1943E-06  1.0525E-06 -7.2430E-02  1.1809E-01
 87 5.5248E-01 3.9578E+00 2.0006E+02  0.00E+00   4.8160E-03  2.0006E+02  1.2519E-06  1.1427E-06 -5.8018E-02  1.1350E-01
 88 5.8376E-01 3.6409E+00 2.0060E+02  0.00E+00   7.1692E-03  2.0059E+02  1.3607E-06  1.2250E-06 -2.7216E-02  1.0981E-01
 89 6.1607E-01 3.3299E+00 2.0133E+02  0.00E+00   4.1341E-03  2.0132E+02  1.5237E-06  1.4008E-06 -5.9653E-02  1.0728E-01
 90 6.4938E-01 3.0230E+00 2.0430E+02  0.00E+00   7.2952E-04  2.0430E+02  2.3782E-06  1.5848E-06 -1.8830E-01  1.0913E-01
 91 6.8368E-01 2.7187E+00 2.0733E+02  1.00E+00   7.3966E-04  2.0733E+02  3.6931E-06  1.9147E-06 -3.0921E-01  1.1408E-01
 92 7.1892E-01 2.4172E+00 2.1033E+02  1.00E+00   7.4953E-04  2.1033E+02  5.6389E-06  2.9536E-06 -4.3229E-01  1.2214E-01
 93 7.5507E-01 2.1186E+00 2.1329E+02  1.00E+00   7.5907E-04  2.1329E+02  8.4695E-06  4.4814E-06 -5.5198E-01  1.3353E-01
 94 7.9209E-01 1.8234E+00 2.1622E+02  1.00E+00   7.6821E-04  2.1622E+02  1.2519E-05  6.6913E-06 -6.6225E-01  1.4856E-01
 95 8.2992E-01 1.5316E+00 2.1911E+02  1.00E+00   7.7687E-04  2.1911E+02  1.8219E-05  9.8361E-06 -7.6479E-01  1.6822E-01
 96 8.6852E-01 1.2436E+00 2.2196E+02  1.00E+00   7.8497E-04  2.2196E+02  2.6115E-05  1.4241E-05 -8.5646E-01  1.9422E-01
 97 9.0782E-01 9.5960E-01 2.2476E+02  1.00E+00   7.9240E-04  2.2476E+02  3.6882E-05  2.0316E-05 -9.5005E-01  2.2753E-01
 98 9.4775E-01 6.7990E-01 2.2751E+02  1.00E+00   7.9907E-04  2.2751E+02  5.1337E-05  2.8566E-05 -1.0384E+00  2.6693E-01
 99 9.8826E-01 4.0472E-01 2.3020E+02  1.00E+00   8.0487E-04  2.3020E+02  7.0449E-05  3.9601E-05 -1.1509E+00  3.1070E-01
100 1.0293E+00 1.3433E-01 2.3284E+02  1.00E+00   8.0968E-04  2.3284E+02  9.5336E-05  5.4140E-05 -1.2516E+00  4.0482E-01
101 1.0501E+00 0.0000E+00 2.3414E+02  1.00E+00   8.1172E-04  2.3414E+02  1.1046E-04  6.3073E-05  0.0000E+00  0.0000E+00

 FCO2
  3.19E-02 3.19E-02 3.19E-02 3.19E-02 3.19E-02 3.19E-02 3.19E-02 3.19E-02 3.19E-02 3.19E-02
  3.19E-02 3.19E-02 3.19E-02 3.19E-02 3.19E-02 3.19E-02 3.19E-02 3.19E-02 3.19E-02 3.19E-02
  3.19E-02 3.19E-02 3.19E-02 3.19E-02 3.19E-02 3.19E-02 3.19E-02 3.19E-02 3.19E-02 3.19E-02
  3.19E-02 3.19E-02 3.19E-02 3.19E-02 3.19E-02 3.19E-02 3.19E-02 3.19E-02 3.19E-02 3.19E-02
  3.19E-02 3.19E-02 3.19E-02 3.19E-02 3.19E-02 3.19E-02 3.19E-02 3.19E-02 3.19E-02 3.19E-02
  3.19E-02 3.19E-02 3.19E-02 3.19E-02 3.19E-02 3.19E-02 3.19E-02 3.19E-02 3.19E-02 3.19E-02
  3.19E-02 3.19E-02 3.19E-02 3.19E-02 3.19E-02 3.19E-02 3.19E-02 3.19E-02 3.19E-02 3.19E-02
  3.19E-02 3.19E-02 3.19E-02 3.19E-02 3.19E-02 3.19E-02 3.19E-02 3.19E-02 3.19E-02 3.19E-02
  3.19E-02 3.19E-02 3.19E-02 3.19E-02 3.19E-02 3.19E-02 3.19E-02 3.19E-02 3.19E-02 3.19E-02
  3.19E-02 3.19E-02 3.19E-02 3.19E-02 3.19E-02 3.19E-02 3.19E-02 3.19E-02 3.19E-02 3.19E-02
  3.19E-02

  J    PF         ALT       FTOTAL       FTIR       FDNIR       FUPIR       FTSOL       FDNSOL       FUPSOL       DIVF
  1 5.0000E-05 5.7198E+01  4.6091E+00 -1.3295E+05  0.0000E+00  1.3295E+05  1.3295E+05  3.2300E+05  1.9004E+05  3.4667E-05
  2 5.8617E-05 5.6203E+01  4.6167E+00 -1.3275E+05  2.0679E+02  1.3295E+05  1.3275E+05  3.2279E+05  1.9004E+05  3.4724E-05
  3 6.8636E-05 5.5205E+01 -3.3892E+01 -1.3264E+05  2.9393E+02  1.3293E+05  1.3260E+05  3.2264E+05  1.9004E+05 -2.5496E-04
  4 8.0271E-05 5.4225E+01 -3.9715E+01 -1.3254E+05  3.5889E+02  1.3290E+05  1.3250E+05  3.2254E+05  1.9004E+05 -2.9885E-04
  5 9.3766E-05 5.3271E+01 -3.7588E+01 -1.3246E+05  4.0456E+02  1.3287E+05  1.3242E+05  3.2246E+05  1.9004E+05 -2.8290E-04
  6 1.0940E-04 5.2341E+01 -3.5152E+01 -1.3240E+05  4.3754E+02  1.3284E+05  1.3237E+05  3.2241E+05  1.9004E+05 -2.6461E-04
  7 1.2748E-04 5.1433E+01 -3.0087E+01 -1.3235E+05  4.6831E+02  1.3282E+05  1.3232E+05  3.2236E+05  1.9004E+05 -2.2653E-04
  8 1.4838E-04 5.0542E+01 -2.4777E+01 -1.3230E+05  5.0113E+02  1.3280E+05  1.3228E+05  3.2232E+05  1.9004E+05 -1.8657E-04
  9 1.7249E-04 4.9667E+01 -2.0940E+01 -1.3225E+05  5.3815E+02  1.3279E+05  1.3223E+05  3.2227E+05  1.9004E+05 -1.5769E-04
 10 2.0029E-04 4.8804E+01 -1.7193E+01 -1.3220E+05  5.8222E+02  1.3278E+05  1.3218E+05  3.2222E+05  1.9004E+05 -1.2948E-04
 11 2.3228E-04 4.7952E+01 -1.3883E+01 -1.3214E+05  6.3381E+02  1.3277E+05  1.3212E+05  3.2216E+05  1.9004E+05 -1.0456E-04
 12 2.6905E-04 4.7111E+01 -1.1222E+01 -1.3207E+05  6.9311E+02  1.3276E+05  1.3206E+05  3.2210E+05  1.9004E+05 -8.4531E-05
 13 3.1128E-04 4.6279E+01 -8.4267E+00 -1.3199E+05  7.6124E+02  1.3276E+05  1.3199E+05  3.2202E+05  1.9004E+05 -6.3475E-05
 14 3.5970E-04 4.5455E+01 -5.3137E+00 -1.3191E+05  8.3974E+02  1.3275E+05  1.3191E+05  3.2194E+05  1.9004E+05 -4.0027E-05
 15 4.1515E-04 4.4639E+01 -3.4202E+00 -1.3182E+05  9.2930E+02  1.3275E+05  1.3182E+05  3.2185E+05  1.9004E+05 -2.5765E-05
 16 4.7858E-04 4.3831E+01 -2.0009E+00 -1.3171E+05  1.0313E+03  1.3274E+05  1.3171E+05  3.2175E+05  1.9004E+05 -1.5073E-05
 17 5.5104E-04 4.3030E+01 -8.0940E-01 -1.3159E+05  1.1465E+03  1.3274E+05  1.3159E+05  3.2163E+05  1.9003E+05 -6.0975E-06
 18 6.3370E-04 4.2236E+01  2.3377E-01 -1.3146E+05  1.2751E+03  1.3274E+05  1.3146E+05  3.2150E+05  1.9003E+05  1.7612E-06
 19 7.2789E-04 4.1448E+01  9.0317E-01 -1.3132E+05  1.4167E+03  1.3273E+05  1.3132E+05  3.2135E+05  1.9003E+05  6.8044E-06
 20 8.3507E-04 4.0668E+01  2.4936E-01 -1.3116E+05  1.5694E+03  1.3273E+05  1.3116E+05  3.2119E+05  1.9003E+05  1.8788E-06
 21 9.5689E-04 3.9896E+01 -4.4700E+00 -1.3099E+05  1.7297E+03  1.3272E+05  1.3098E+05  3.2102E+05  1.9003E+05 -3.3681E-05
 22 1.0952E-03 3.9131E+01 -1.2674E+01 -1.3081E+05  1.9029E+03  1.3271E+05  1.3079E+05  3.2082E+05  1.9003E+05 -9.5501E-05
 23 1.2519E-03 3.8374E+01 -7.8111E+00 -1.3057E+05  2.1238E+03  1.3270E+05  1.3057E+05  3.2060E+05  1.9003E+05 -5.8864E-05
 24 1.4294E-03 3.7625E+01 -2.7781E+00 -1.3031E+05  2.3729E+03  1.3269E+05  1.3031E+05  3.2034E+05  1.9003E+05 -2.0937E-05
 25 1.6300E-03 3.6884E+01 -4.5738E+00 -1.3004E+05  2.6316E+03  1.3268E+05  1.3004E+05  3.2007E+05  1.9003E+05 -3.4474E-05
 26 1.8566E-03 3.6150E+01 -1.1619E+01 -1.2977E+05  2.8910E+03  1.3266E+05  1.2976E+05  3.1980E+05  1.9004E+05 -8.7584E-05
 27 2.1122E-03 3.5425E+01 -1.6735E+01 -1.2950E+05  3.1532E+03  1.3266E+05  1.2949E+05  3.1953E+05  1.9004E+05 -1.2615E-04
 28 2.4000E-03 3.4708E+01 -9.5992E+00 -1.2923E+05  3.4311E+03  1.3266E+05  1.2922E+05  3.1926E+05  1.9004E+05 -7.2359E-05
 29 2.7238E-03 3.3999E+01  1.3781E+01 -1.2895E+05  3.7366E+03  1.3268E+05  1.2896E+05  3.1901E+05  1.9005E+05  1.0387E-04
 30 3.0876E-03 3.3297E+01  4.8172E+01 -1.2865E+05  4.0738E+03  1.3273E+05  1.2870E+05  3.1876E+05  1.9006E+05  3.6294E-04
 31 3.4957E-03 3.2600E+01  8.9264E+01 -1.2835E+05  4.4451E+03  1.3279E+05  1.2843E+05  3.1850E+05  1.9007E+05  6.7222E-04
 32 3.9531E-03 3.1909E+01  1.2904E+02 -1.2803E+05  4.8426E+03  1.3287E+05  1.2816E+05  3.1824E+05  1.9008E+05  9.7117E-04
 33 4.4649E-03 3.1222E+01  1.5927E+02 -1.2771E+05  5.2587E+03  1.3297E+05  1.2787E+05  3.1796E+05  1.9009E+05  1.1978E-03
 34 5.0369E-03 3.0539E+01  1.7701E+02 -1.2738E+05  5.6879E+03  1.3307E+05  1.2756E+05  3.1767E+05  1.9011E+05  1.3302E-03
 35 5.6754E-03 2.9860E+01  1.8020E+02 -1.2705E+05  6.1236E+03  1.3317E+05  1.2723E+05  3.1735E+05  1.9012E+05  1.3531E-03
 36 6.3872E-03 2.9186E+01  1.6883E+02 -1.2670E+05  6.5606E+03  1.3326E+05  1.2687E+05  3.1701E+05  1.9014E+05  1.2669E-03
 37 7.1795E-03 2.8516E+01  1.4402E+02 -1.2634E+05  6.9947E+03  1.3333E+05  1.2648E+05  3.1665E+05  1.9017E+05  1.0801E-03
 38 8.0605E-03 2.7850E+01  1.0334E+02 -1.2597E+05  7.4184E+03  1.3339E+05  1.2607E+05  3.1627E+05  1.9019E+05  7.7475E-04
 39 9.0387E-03 2.7191E+01  5.3927E+01 -1.2558E+05  7.8355E+03  1.3342E+05  1.2564E+05  3.1586E+05  1.9022E+05  4.0419E-04
 40 1.0124E-02 2.6538E+01 -1.5045E+01 -1.2520E+05  8.2336E+03  1.3343E+05  1.2518E+05  3.1544E+05  1.9026E+05 -1.1275E-04
 41 1.1325E-02 2.5891E+01 -6.4690E+01 -1.2476E+05  8.6604E+03  1.3342E+05  1.2470E+05  3.1500E+05  1.9030E+05 -4.8485E-04
 42 1.2654E-02 2.5252E+01 -7.9611E+01 -1.2428E+05  9.1317E+03  1.3341E+05  1.2420E+05  3.1454E+05  1.9034E+05 -5.9673E-04
 43 1.4121E-02 2.4619E+01 -7.2742E+01 -1.2377E+05  9.6275E+03  1.3339E+05  1.2369E+05  3.1407E+05  1.9038E+05 -5.4532E-04
 44 1.5740E-02 2.3994E+01 -5.7338E+01 -1.2325E+05  1.0126E+04  1.3338E+05  1.2319E+05  3.1362E+05  1.9042E+05 -4.2989E-04
 45 1.7523E-02 2.3377E+01 -4.3951E+01 -1.2275E+05  1.0608E+04  1.3336E+05  1.2271E+05  3.1317E+05  1.9047E+05 -3.2957E-04
 46 1.9486E-02 2.2766E+01 -3.6228E+01 -1.2227E+05  1.1069E+04  1.3334E+05  1.2223E+05  3.1275E+05  1.9051E+05 -2.7170E-04
 47 2.1641E-02 2.2163E+01 -3.1676E+01 -1.2181E+05  1.1512E+04  1.3332E+05  1.2177E+05  3.1233E+05  1.9056E+05 -2.3759E-04
 48 2.4007E-02 2.1567E+01 -2.5369E+01 -1.2134E+05  1.1949E+04  1.3329E+05  1.2132E+05  3.1192E+05  1.9060E+05 -1.9033E-04
 49 2.6599E-02 2.0978E+01 -1.3425E+01 -1.2088E+05  1.2389E+04  1.3327E+05  1.2087E+05  3.1151E+05  1.9065E+05 -1.0074E-04
 50 2.9435E-02 2.0396E+01  5.1473E+00 -1.2041E+05  1.2835E+04  1.3324E+05  1.2041E+05  3.1110E+05  1.9069E+05  3.8631E-05
 51 3.2535E-02 1.9822E+01  1.3167E+01 -1.1994E+05  1.3273E+04  1.3321E+05  1.1995E+05  3.1069E+05  1.9074E+05  9.8842E-05
 52 3.5918E-02 1.9255E+01  2.2859E+01 -1.1947E+05  1.3712E+04  1.3318E+05  1.1950E+05  3.1027E+05  1.9078E+05  1.7163E-04
 53 3.9605E-02 1.8696E+01  2.9874E+01 -1.1901E+05  1.4144E+04  1.3315E+05  1.1904E+05  3.0986E+05  1.9082E+05  2.2436E-04
 54 4.3618E-02 1.8144E+01  3.0620E+01 -1.1856E+05  1.4564E+04  1.3312E+05  1.1859E+05  3.0944E+05  1.9085E+05  2.3002E-04
 55 4.7980E-02 1.7599E+01  2.3008E+01 -1.1812E+05  1.4966E+04  1.3309E+05  1.1814E+05  3.0903E+05  1.9088E+05  1.7288E-04
 56 5.2715E-02 1.7062E+01  6.8431E+00 -1.1770E+05  1.5347E+04  1.3305E+05  1.1771E+05  3.0862E+05  1.9091E+05  5.1434E-05
 57 5.7848E-02 1.6532E+01 -2.1854E+01 -1.1731E+05  1.5701E+04  1.3301E+05  1.1728E+05  3.0821E+05  1.9093E+05 -1.6431E-04
 58 6.3405E-02 1.6010E+01 -5.4147E+01 -1.1693E+05  1.6037E+04  1.3296E+05  1.1687E+05  3.0781E+05  1.9094E+05 -4.0723E-04
 59 6.9411E-02 1.5495E+01 -8.6056E+01 -1.1656E+05  1.6357E+04  1.3292E+05  1.1648E+05  3.0742E+05  1.9094E+05 -6.4744E-04
 60 7.5896E-02 1.4988E+01 -1.1281E+02 -1.1621E+05  1.6666E+04  1.3287E+05  1.1610E+05  3.0703E+05  1.9093E+05 -8.4901E-04
 61 8.2886E-02 1.4489E+01 -1.3439E+02 -1.1587E+05  1.6965E+04  1.3283E+05  1.1574E+05  3.0665E+05  1.9091E+05 -1.0117E-03
 62 9.0412E-02 1.3997E+01 -1.4070E+02 -1.1554E+05  1.7262E+04  1.3280E+05  1.1540E+05  3.0627E+05  1.9088E+05 -1.0595E-03
 63 9.8503E-02 1.3512E+01 -1.2780E+02 -1.1521E+05  1.7561E+04  1.3277E+05  1.1508E+05  3.0590E+05  1.9082E+05 -9.6255E-04
 64 1.0719E-01 1.3035E+01 -9.8286E+01 -1.1487E+05  1.7877E+04  1.3275E+05  1.1477E+05  3.0553E+05  1.9076E+05 -7.4040E-04
 65 1.1650E-01 1.2565E+01 -6.8510E+01 -1.1451E+05  1.8228E+04  1.3274E+05  1.1445E+05  3.0513E+05  1.9069E+05 -5.1611E-04
 66 1.2647E-01 1.2103E+01 -3.9749E+01 -1.1414E+05  1.8617E+04  1.3275E+05  1.1410E+05  3.0470E+05  1.9061E+05 -2.9942E-04
 67 1.3713E-01 1.1647E+01 -1.7593E+01 -1.1374E+05  1.9040E+04  1.3278E+05  1.1372E+05  3.0425E+05  1.9052E+05 -1.3250E-04
 68 1.4850E-01 1.1199E+01 -7.9052E+00 -1.1334E+05  1.9491E+04  1.3283E+05  1.1333E+05  3.0376E+05  1.9043E+05 -5.9513E-05
 69 1.6063E-01 1.0758E+01 -1.5371E+01 -1.1293E+05  1.9964E+04  1.3290E+05  1.1292E+05  3.0325E+05  1.9033E+05 -1.1566E-04
 70 1.7354E-01 1.0324E+01 -4.2694E+01 -1.1253E+05  2.0456E+04  1.3299E+05  1.1249E+05  3.0271E+05  1.9022E+05 -3.2105E-04
 71 1.8726E-01 9.8965E+00 -9.0363E+01 -1.1213E+05  2.0963E+04  1.3309E+05  1.1204E+05  3.0214E+05  1.9011E+05 -6.7895E-04
 72 2.0182E-01 9.4760E+00 -1.5682E+02 -1.1174E+05  2.1484E+04  1.3322E+05  1.1158E+05  3.0156E+05  1.8998E+05 -1.1772E-03
 73 2.1725E-01 9.0623E+00 -2.4244E+02 -1.1135E+05  2.2014E+04  1.3336E+05  1.1111E+05  3.0095E+05  1.8984E+05 -1.8178E-03
 74 2.3359E-01 8.6554E+00 -3.3480E+02 -1.1097E+05  2.2564E+04  1.3353E+05  1.1063E+05  3.0033E+05  1.8970E+05 -2.5072E-03
 75 2.5085E-01 8.2551E+00 -4.3307E+02 -1.1059E+05  2.3132E+04  1.3372E+05  1.1016E+05  2.9970E+05  1.8954E+05 -3.2386E-03
 76 2.6906E-01 7.8614E+00 -5.3193E+02 -1.1022E+05  2.3718E+04  1.3393E+05  1.0968E+05  2.9906E+05  1.8938E+05 -3.9716E-03
 77 2.8825E-01 7.4744E+00 -6.2642E+02 -1.0984E+05  2.4326E+04  1.3417E+05  1.0922E+05  2.9842E+05  1.8920E+05 -4.6689E-03
 78 3.0843E-01 7.0939E+00 -7.1236E+02 -1.0947E+05  2.4957E+04  1.3443E+05  1.0876E+05  2.9777E+05  1.8901E+05 -5.2992E-03
 79 3.2963E-01 6.7199E+00 -7.8934E+02 -1.0910E+05  2.5612E+04  1.3471E+05  1.0831E+05  2.9712E+05  1.8881E+05 -5.8594E-03
 80 3.5187E-01 6.3524E+00 -8.6817E+02 -1.0873E+05  2.6292E+04  1.3503E+05  1.0787E+05  2.9647E+05  1.8860E+05 -6.4296E-03
 81 3.7516E-01 5.9912E+00 -9.5001E+02 -1.0838E+05  2.6998E+04  1.3538E+05  1.0743E+05  2.9582E+05  1.8839E+05 -7.0176E-03
 82 3.9950E-01 5.6365E+00 -1.0330E+03 -1.0803E+05  2.7734E+04  1.3576E+05  1.0699E+05  2.9516E+05  1.8817E+05 -7.6088E-03
 83 4.2492E-01 5.2881E+00 -1.1226E+03 -1.0769E+05  2.8495E+04  1.3618E+05  1.0657E+05  2.9451E+05  1.8794E+05 -8.2435E-03
 84 4.5141E-01 4.9461E+00 -1.2213E+03 -1.0737E+05  2.9279E+04  1.3664E+05  1.0614E+05  2.9385E+05  1.8770E+05 -8.9377E-03
 85 4.7897E-01 4.6104E+00 -1.3321E+03 -1.0706E+05  3.0085E+04  1.3714E+05  1.0573E+05  2.9319E+05  1.8746E+05 -9.7132E-03
 86 5.0761E-01 4.2810E+00 -1.4584E+03 -1.0677E+05  3.0920E+04  1.3769E+05  1.0531E+05  2.9252E+05  1.8721E+05 -1.0592E-02
 87 5.3732E-01 3.9578E+00 -1.6167E+03 -1.0652E+05  3.1779E+04  1.3830E+05  1.0490E+05  2.9186E+05  1.8695E+05 -1.1689E-02
 88 5.6808E-01 3.6409E+00 -1.8157E+03 -1.0631E+05  3.2736E+04  1.3905E+05  1.0450E+05  2.9119E+05  1.8669E+05 -1.3058E-02
 89 5.9988E-01 3.3299E+00 -2.1221E+03 -1.0621E+05  3.3830E+04  1.4004E+05  1.0409E+05  2.9052E+05  1.8643E+05 -1.5153E-02
 90 6.3270E-01 3.0230E+00 -2.3045E+03 -1.0598E+05  3.5933E+04  1.4192E+05  1.0368E+05  2.8983E+05  1.8615E+05 -1.6238E-02
 91 6.6651E-01 2.7187E+00 -1.9920E+03 -1.0524E+05  3.8750E+04  1.4399E+05  1.0325E+05  2.8913E+05  1.8588E+05 -1.3835E-02
 92 7.0129E-01 2.4172E+00 -1.1997E+03 -1.0398E+05  4.2257E+04  1.4624E+05  1.0279E+05  2.8839E+05  1.8561E+05 -8.2038E-03
 93 7.3700E-01 2.1186E+00  9.3684E+01 -1.0218E+05  4.6481E+04  1.4866E+05  1.0228E+05  2.8761E+05  1.8534E+05  6.3018E-04
 94 7.7359E-01 1.8234E+00  1.8828E+03 -9.9822E+04  5.1426E+04  1.5125E+05  1.0170E+05  2.8677E+05  1.8507E+05  1.2448E-02
 95 8.1103E-01 1.5316E+00  4.1304E+03 -9.6924E+04  5.7055E+04  1.5398E+05  1.0105E+05  2.8587E+05  1.8481E+05  2.6825E-02
 96 8.4925E-01 1.2436E+00  6.7968E+03 -9.3506E+04  6.3333E+04  1.5684E+05  1.0030E+05  2.8488E+05  1.8457E+05  4.3336E-02
 97 8.8822E-01 9.5960E-01  9.8146E+03 -8.9603E+04  7.0169E+04  1.5977E+05  9.9418E+04  2.8378E+05  1.8436E+05  6.1428E-02
 98 9.2785E-01 6.7990E-01  1.3165E+04 -8.5198E+04  7.7549E+04  1.6275E+05  9.8363E+04  2.8255E+05  1.8419E+05  8.0893E-02
 99 9.6809E-01 4.0472E-01  1.6799E+04 -8.0307E+04  8.5365E+04  1.6567E+05  9.7106E+04  2.8119E+05  1.8408E+05  1.0140E-01
100 1.0089E+00 1.3433E-01  2.0809E+04 -7.4813E+04  9.3494E+04  1.6831E+05  9.5622E+04  2.7969E+05  1.8407E+05  1.2364E-01
101 1.0501E+00 0.0000E+00  2.4898E+04 -6.8770E+04  1.0077E+05  1.6954E+05  9.3668E+04  2.7795E+05  1.8428E+05  1.4686E-01
 
