 
    OUTPUT FILES FOR THE Sun  
 
 Solar Constant= 0.950   F_CH4= 1.0000E-60  F_CO2= 3.0000E-03  F_O2= 2.1000E-01  F_N2= 7.8700E-01  IO3 =  1   IUP=  0
 ICONSERV= 1  FAC= 4.0  ND=101  SRFALB= 0.663  G= 980.0  IMW= 1

 FNO2 = 1.000E-60
 
 NST=     1 JCONV= 93 CHG=1.02E-03 dt0=7.50E+03 DIVF(1)= 2.76E-05 DIVFrms= 3.33E-03 DT(ND)= 5.14E-03 T(ND)=2.2445E+02

 TIME= 5.000E+03  TIME IN DAYS = 5.787E-02

 PLANETARY ALBEDO:  ALBP = 0.6086

  J     P         ALT         T        CONVEC       DT          TOLD        FH20       FSAVE       TCOOL       THEAT
  1 5.4116E-05 6.0343E+01 1.9285E+02  0.00E+00   2.1834E-01  1.9263E+02  5.0514E-07  5.0390E-07 -2.7608E+01  2.7347E+01
  2 6.3355E-05 5.9429E+01 2.0443E+02  0.00E+00   1.9726E-01  2.0423E+02  5.0514E-07  5.0390E-07 -2.2366E+01  2.6265E+01
  3 7.4082E-05 5.8473E+01 2.1426E+02  0.00E+00   1.8483E-01  2.1408E+02  5.0514E-07  5.0390E-07 -1.9379E+01  2.5080E+01
  4 8.6522E-05 5.7485E+01 2.2161E+02  0.00E+00   2.2668E-01  2.2138E+02  5.0514E-07  5.0390E-07 -1.8088E+01  2.3795E+01
  5 1.0093E-04 5.6478E+01 2.2629E+02  0.00E+00   2.1249E-01  2.2608E+02  5.0514E-07  5.0390E-07 -1.7112E+01  2.2417E+01
  6 1.1760E-04 5.5464E+01 2.2862E+02  0.00E+00   1.7149E-01  2.2845E+02  5.0514E-07  5.0390E-07 -1.7295E+01  2.0954E+01
  7 1.3685E-04 5.4450E+01 2.2925E+02  0.00E+00   1.3490E-01  2.2911E+02  5.0514E-07  5.0390E-07 -1.7341E+01  1.9421E+01
  8 1.5907E-04 5.3445E+01 2.2883E+02  0.00E+00   8.9374E-02  2.2874E+02  5.0514E-07  5.0390E-07 -1.6816E+01  1.7839E+01
  9 1.8468E-04 5.2450E+01 2.2789E+02  0.00E+00   4.5910E-02  2.2784E+02  5.0514E-07  5.0390E-07 -1.5952E+01  1.6232E+01
 10 2.1415E-04 5.1467E+01 2.2677E+02  0.00E+00   1.3672E-02  2.2676E+02  5.0514E-07  5.0390E-07 -1.4789E+01  1.4632E+01
 11 2.4802E-04 5.0498E+01 2.2570E+02  0.00E+00  -9.0443E-03  2.2571E+02  5.0514E-07  5.0390E-07 -1.3463E+01  1.3074E+01
 12 2.8692E-04 4.9540E+01 2.2478E+02  0.00E+00  -2.1574E-02  2.2481E+02  5.0514E-07  5.0390E-07 -1.2147E+01  1.1612E+01
 13 3.3151E-04 4.8593E+01 2.2411E+02  0.00E+00  -1.8900E-02  2.2413E+02  5.0514E-07  5.0390E-07 -1.1104E+01  1.0466E+01
 14 3.8258E-04 4.7657E+01 2.2366E+02  0.00E+00  -1.7780E-02  2.2368E+02  5.0514E-07  5.0390E-07 -1.0202E+01  9.8121E+00
 15 4.4098E-04 4.6730E+01 2.2338E+02  0.00E+00  -1.7677E-02  2.2340E+02  5.0514E-07  5.0390E-07 -9.5890E+00  9.3156E+00
 16 5.0770E-04 4.5812E+01 2.2321E+02  0.00E+00  -1.2234E-02  2.2322E+02  5.0514E-07  5.0390E-07 -9.1244E+00  8.9380E+00
 17 5.8381E-04 4.4902E+01 2.2310E+02  0.00E+00  -4.3975E-03  2.2310E+02  5.0514E-07  5.0390E-07 -8.7646E+00  8.6651E+00
 18 6.7053E-04 4.4000E+01 2.2301E+02  0.00E+00   6.5720E-03  2.2300E+02  5.0514E-07  5.0390E-07 -8.4599E+00  8.4707E+00
 19 7.6921E-04 4.3107E+01 2.2287E+02  0.00E+00   1.7855E-02  2.2285E+02  5.0514E-07  5.0390E-07 -8.0852E+00  8.3199E+00
 20 8.8135E-04 4.2222E+01 2.2258E+02  0.00E+00   2.8673E-02  2.2255E+02  5.0514E-07  5.0390E-07 -7.7045E+00  8.1781E+00
 21 1.0086E-03 4.1347E+01 2.2201E+02  0.00E+00   1.6612E-02  2.2199E+02  5.0514E-07  5.0390E-07 -7.2406E+00  8.1084E+00
 22 1.1529E-03 4.0482E+01 2.2112E+02  0.00E+00   1.2499E-02  2.2111E+02  5.0514E-07  5.0390E-07 -8.2666E+00  8.6525E+00
 23 1.3163E-03 3.9629E+01 2.2000E+02  0.00E+00   1.2834E-02  2.1999E+02  5.0514E-07  5.0390E-07 -8.7326E+00  8.9582E+00
 24 1.5010E-03 3.8788E+01 2.1874E+02  0.00E+00   2.5352E-03  2.1874E+02  5.0514E-07  5.0390E-07 -8.9309E+00  8.9621E+00
 25 1.7096E-03 3.7960E+01 2.1743E+02  0.00E+00  -9.3682E-03  2.1744E+02  5.0514E-07  5.0390E-07 -8.8694E+00  8.6991E+00
 26 1.9449E-03 3.7144E+01 2.1617E+02  0.00E+00  -1.8663E-02  2.1619E+02  5.0514E-07  5.0390E-07 -8.6066E+00  8.2397E+00
 27 2.2098E-03 3.6340E+01 2.1503E+02  0.00E+00  -2.3928E-02  2.1505E+02  5.0514E-07  5.0390E-07 -8.1977E+00  7.6760E+00
 28 2.5079E-03 3.5548E+01 2.1408E+02  0.00E+00  -2.5042E-02  2.1411E+02  5.0514E-07  5.0390E-07 -7.6899E+00  7.0974E+00
 29 2.8428E-03 3.4766E+01 2.1335E+02  0.00E+00  -2.3517E-02  2.1338E+02  5.0514E-07  5.0390E-07 -7.1172E+00  6.5666E+00
 30 3.2186E-03 3.3994E+01 2.1283E+02  0.00E+00  -2.2292E-02  2.1285E+02  5.0514E-07  5.0390E-07 -6.5059E+00  6.0836E+00
 31 3.6396E-03 3.3231E+01 2.1246E+02  0.00E+00  -1.7782E-02  2.1248E+02  5.0514E-07  5.0390E-07 -5.9219E+00  5.5792E+00
 32 4.1109E-03 3.2476E+01 2.1220E+02  0.00E+00  -1.1193E-02  2.1222E+02  5.0514E-07  5.0390E-07 -5.3632E+00  5.1514E+00
 33 4.6376E-03 3.1730E+01 2.1199E+02  0.00E+00  -5.3089E-03  2.1200E+02  5.0514E-07  5.0390E-07 -4.8564E+00  4.7729E+00
 34 5.2255E-03 3.0991E+01 2.1177E+02  0.00E+00  -1.8031E-03  2.1177E+02  5.0514E-07  5.0390E-07 -4.3802E+00  4.4217E+00
 35 5.8809E-03 3.0262E+01 2.1149E+02  0.00E+00   6.3954E-04  2.1149E+02  5.0514E-07  5.0390E-07 -4.0019E+00  4.0893E+00
 36 6.6107E-03 2.9540E+01 2.1111E+02  0.00E+00   3.4156E-03  2.1111E+02  5.0514E-07  5.0390E-07 -3.6812E+00  3.7748E+00
 37 7.4221E-03 2.8827E+01 2.1064E+02  0.00E+00   5.1306E-03  2.1064E+02  5.0514E-07  5.0390E-07 -3.3752E+00  3.4814E+00
 38 8.3231E-03 2.8124E+01 2.1007E+02  0.00E+00   6.6786E-03  2.1006E+02  5.0514E-07  5.0390E-07 -3.1156E+00  3.2128E+00
 39 9.3224E-03 2.7430E+01 2.0938E+02  0.00E+00   4.9213E-04  2.0938E+02  5.0514E-07  5.0390E-07 -2.8117E+00  2.9678E+00
 40 1.0429E-02 2.6746E+01 2.0857E+02  0.00E+00  -1.2990E-02  2.0859E+02  5.0514E-07  5.0390E-07 -2.6977E+00  2.7330E+00
 41 1.1653E-02 2.6071E+01 2.0774E+02  0.00E+00  -1.8507E-02  2.0776E+02  5.0514E-07  5.0390E-07 -2.8069E+00  2.4807E+00
 42 1.3006E-02 2.5407E+01 2.0698E+02  0.00E+00  -1.7591E-02  2.0700E+02  5.0514E-07  5.0390E-07 -2.7728E+00  2.2475E+00
 43 1.4498E-02 2.4751E+01 2.0640E+02  0.00E+00  -1.7894E-02  2.0642E+02  5.0514E-07  5.0390E-07 -2.5804E+00  2.0590E+00
 44 1.6142E-02 2.4105E+01 2.0600E+02  0.00E+00  -1.6927E-02  2.0601E+02  5.0514E-07  5.0390E-07 -2.3364E+00  1.9072E+00
 45 1.7950E-02 2.3467E+01 2.0573E+02  0.00E+00  -1.4602E-02  2.0575E+02  5.0514E-07  5.0390E-07 -2.0474E+00  1.7774E+00
 46 1.9938E-02 2.2836E+01 2.0555E+02  0.00E+00  -1.1320E-02  2.0557E+02  5.0514E-07  5.0390E-07 -1.8093E+00  1.6603E+00
 47 2.2119E-02 2.2214E+01 2.0540E+02  0.00E+00  -7.6052E-03  2.0541E+02  5.0514E-07  5.0390E-07 -1.6169E+00  1.5509E+00
 48 2.4509E-02 2.1599E+01 2.0524E+02  0.00E+00  -4.5267E-03  2.0525E+02  5.0514E-07  5.0390E-07 -1.4707E+00  1.4465E+00
 49 2.7126E-02 2.0991E+01 2.0505E+02  0.00E+00  -1.8625E-03  2.0505E+02  5.0514E-07  5.0390E-07 -1.3571E+00  1.3451E+00
 50 2.9986E-02 2.0392E+01 2.0483E+02  0.00E+00  -7.6225E-04  2.0483E+02  5.0514E-07  5.0390E-07 -1.2366E+00  1.2454E+00
 51 3.3107E-02 1.9800E+01 2.0456E+02  0.00E+00  -1.7436E-04  2.0456E+02  5.0514E-07  5.0390E-07 -1.1424E+00  1.1461E+00
 52 3.6510E-02 1.9216E+01 2.0426E+02  0.00E+00   9.7191E-04  2.0426E+02  5.0514E-07  5.0390E-07 -1.0453E+00  1.0473E+00
 53 4.0215E-02 1.8641E+01 2.0393E+02  0.00E+00   1.2344E-03  2.0393E+02  5.0514E-07  5.0390E-07 -9.2681E-01  9.5030E-01
 54 4.4242E-02 1.8073E+01 2.0356E+02  0.00E+00   1.3688E-03  2.0355E+02  5.0514E-07  5.0390E-07 -8.2871E-01  8.5612E-01
 55 4.8615E-02 1.7514E+01 2.0315E+02  0.00E+00   2.0881E-03  2.0314E+02  5.0514E-07  5.0390E-07 -7.3435E-01  7.6581E-01
 56 5.3356E-02 1.6962E+01 2.0269E+02  0.00E+00   2.1798E-03  2.0269E+02  5.0514E-07  5.0390E-07 -6.3269E-01  6.8041E-01
 57 5.8490E-02 1.6420E+01 2.0220E+02  0.00E+00   2.2895E-03  2.0220E+02  5.0514E-07  5.0390E-07 -5.5641E-01  6.0078E-01
 58 6.4041E-02 1.5885E+01 2.0167E+02  0.00E+00   2.1006E-03  2.0167E+02  5.0514E-07  5.0390E-07 -4.7816E-01  5.2737E-01
 59 7.0035E-02 1.5359E+01 2.0110E+02  0.00E+00   1.8592E-03  2.0110E+02  5.0514E-07  5.0390E-07 -4.2353E-01  4.6023E-01
 60 7.6498E-02 1.4842E+01 2.0051E+02  0.00E+00   1.3261E-03  2.0050E+02  5.0514E-07  5.0390E-07 -3.6799E-01  3.9898E-01
 61 8.3458E-02 1.4333E+01 1.9988E+02  0.00E+00   3.5781E-04  1.9988E+02  5.0514E-07  5.0390E-07 -3.2690E-01  3.4289E-01
 62 9.0943E-02 1.3833E+01 1.9925E+02  0.00E+00  -3.8433E-04  1.9925E+02  5.0514E-07  5.0390E-07 -2.9757E-01  2.9102E-01
 63 9.8980E-02 1.3341E+01 1.9861E+02  0.00E+00  -9.8030E-04  1.9862E+02  5.0514E-07  5.0390E-07 -2.6889E-01  2.4525E-01
 64 1.0760E-01 1.2858E+01 1.9799E+02  0.00E+00  -1.6353E-03  1.9799E+02  5.0514E-07  5.0390E-07 -2.6795E-01  2.3367E-01
 65 1.1683E-01 1.2383E+01 1.9738E+02  0.00E+00  -2.0454E-03  1.9739E+02  5.0514E-07  5.0390E-07 -2.7171E-01  2.2800E-01
 66 1.2670E-01 1.1916E+01 1.9680E+02  0.00E+00  -2.2971E-03  1.9681E+02  5.0514E-07  5.0390E-07 -2.6699E-01  2.2183E-01
 67 1.3724E-01 1.1458E+01 1.9625E+02  0.00E+00  -2.2945E-03  1.9626E+02  5.0514E-07  5.0390E-07 -2.6113E-01  2.1469E-01
 68 1.4848E-01 1.1007E+01 1.9574E+02  0.00E+00  -2.1765E-03  1.9574E+02  5.0514E-07  5.0390E-07 -2.4736E-01  2.0648E-01
 69 1.6044E-01 1.0565E+01 1.9526E+02  0.00E+00  -1.9127E-03  1.9526E+02  5.0514E-07  5.0390E-07 -2.3396E-01  1.9727E-01
 70 1.7317E-01 1.0131E+01 1.9482E+02  0.00E+00  -1.6472E-03  1.9482E+02  5.0514E-07  5.0390E-07 -2.1562E-01  1.8725E-01
 71 1.8668E-01 9.7039E+00 1.9442E+02  0.00E+00  -1.3883E-03  1.9442E+02  5.0514E-07  5.0390E-07 -1.9979E-01  1.7672E-01
 72 2.0100E-01 9.2848E+00 1.9405E+02  0.00E+00  -1.0555E-03  1.9405E+02  5.0514E-07  5.0390E-07 -1.8442E-01  1.6595E-01
 73 2.1617E-01 8.8732E+00 1.9372E+02  0.00E+00  -8.6081E-04  1.9372E+02  5.0514E-07  5.0390E-07 -1.6798E-01  1.5522E-01
 74 2.3220E-01 8.4689E+00 1.9344E+02  0.00E+00  -7.3333E-04  1.9344E+02  5.0514E-07  5.0390E-07 -1.5558E-01  1.4476E-01
 75 2.4912E-01 8.0720E+00 1.9319E+02  0.00E+00  -5.9292E-04  1.9319E+02  5.0514E-07  5.0390E-07 -1.4499E-01  1.3473E-01
 76 2.6695E-01 7.6823E+00 1.9299E+02  0.00E+00  -5.8457E-04  1.9299E+02  5.0514E-07  5.0390E-07 -1.3443E-01  1.2526E-01
 77 2.8572E-01 7.2997E+00 1.9284E+02  0.00E+00  -6.1552E-04  1.9284E+02  5.0514E-07  5.0390E-07 -1.2718E-01  1.1640E-01
 78 3.0544E-01 6.9241E+00 1.9273E+02  0.00E+00  -5.3800E-04  1.9273E+02  5.0514E-07  5.0390E-07 -1.2102E-01  1.0836E-01
 79 3.2614E-01 6.5553E+00 1.9268E+02  0.00E+00  -3.8349E-04  1.9268E+02  5.0514E-07  5.0390E-07 -1.1463E-01  1.0276E-01
 80 3.4782E-01 6.1933E+00 1.9267E+02  0.00E+00  -2.3693E-04  1.9268E+02  5.0514E-07  5.0390E-07 -1.0753E-01  9.9626E-02
 81 3.7050E-01 5.8380E+00 1.9273E+02  0.00E+00  -6.2666E-05  1.9273E+02  5.0514E-07  5.0390E-07 -1.0047E-01  9.7058E-02
 82 3.9419E-01 5.4893E+00 1.9283E+02  0.00E+00   1.7313E-04  1.9283E+02  5.0514E-07  5.0390E-07 -9.3371E-02  9.4811E-02
 83 4.1889E-01 5.1471E+00 1.9298E+02  0.00E+00   4.6464E-04  1.9297E+02  5.0514E-07  5.0390E-07 -8.6131E-02  9.2826E-02
 84 4.4461E-01 4.8113E+00 1.9317E+02  0.00E+00   9.3593E-04  1.9317E+02  5.0514E-07  5.0390E-07 -7.9305E-02  9.1047E-02
 85 4.7134E-01 4.4819E+00 1.9341E+02  0.00E+00   6.1619E-04  1.9341E+02  5.0514E-07  5.0390E-07 -7.0718E-02  8.9429E-02
 86 4.9908E-01 4.1588E+00 1.9369E+02  0.00E+00   1.9290E-03  1.9369E+02  5.0514E-07  5.0390E-07 -6.1127E-02  8.7940E-02
 87 5.2782E-01 3.8420E+00 1.9402E+02  0.00E+00   8.7691E-03  1.9401E+02  5.1135E-07  5.1030E-07 -4.9626E-02  8.6608E-02
 88 5.5755E-01 3.5314E+00 1.9436E+02  0.00E+00  -4.1407E-03  1.9436E+02  5.3618E-07  5.3592E-07 -3.0969E-02  8.5514E-02
 89 5.8825E-01 3.2270E+00 1.9480E+02  0.00E+00   4.4659E-03  1.9480E+02  5.7668E-07  5.7627E-07 -7.4841E-03  8.4654E-02
 90 6.1990E-01 2.9282E+00 1.9579E+02  0.00E+00   2.6341E-03  1.9579E+02  6.7739E-07  6.7712E-07 -3.8990E-02  8.4508E-02
 91 6.5248E-01 2.6335E+00 1.9859E+02  0.00E+00  -3.0256E-03  1.9860E+02  1.0556E-06  1.0561E-06 -1.3902E-01  8.6737E-02
 92 6.8594E-01 2.3414E+00 2.0147E+02  0.00E+00  -6.3259E-03  2.0147E+02  1.6419E-06  1.6435E-06 -2.4094E-01  9.0960E-02
 93 7.2026E-01 2.0523E+00 2.0431E+02  1.00E+00  -6.4025E-03  2.0432E+02  2.5123E-06  2.5147E-06 -3.4324E-01  9.7490E-02
 94 7.5539E-01 1.7663E+00 2.0712E+02  1.00E+00  -6.0847E-03  2.0713E+02  3.7819E-06  3.7853E-06 -4.4489E-01  1.0676E-01
 95 7.9129E-01 1.4838E+00 2.0990E+02  1.00E+00  -5.3711E-03  2.0991E+02  5.6035E-06  5.6078E-06 -5.3871E-01  1.1902E-01
 96 8.2790E-01 1.2048E+00 2.1264E+02  1.00E+00  -4.2743E-03  2.1265E+02  8.1754E-06  8.1802E-06 -6.1970E-01  1.3440E-01
 97 8.6518E-01 9.2973E-01 2.1534E+02  1.00E+00  -2.8207E-03  2.1535E+02  1.1750E-05  1.1755E-05 -6.8739E-01  1.5337E-01
 98 9.0305E-01 6.5877E-01 2.1800E+02  1.00E+00  -1.0559E-03  2.1800E+02  1.6643E-05  1.6645E-05 -7.5810E-01  1.7754E-01
 99 9.4145E-01 3.9218E-01 2.2061E+02  1.00E+00   9.4634E-04  2.2061E+02  2.3239E-05  2.3236E-05 -8.6214E-01  2.0995E-01
100 9.8032E-01 1.3018E-01 2.2317E+02  1.00E+00   3.0748E-03  2.2317E+02  3.2000E-05  3.1988E-05 -9.5127E-01  2.5406E-01
101 1.0000E+00 0.0000E+00 2.2445E+02  1.00E+00   5.1434E-03  2.2444E+02  3.7406E-05  3.7383E-05 -3.2554E+00  4.0102E+00

 FCO2
  3.00E-03 3.00E-03 3.00E-03 3.00E-03 3.00E-03 3.00E-03 3.00E-03 3.00E-03 3.00E-03 3.00E-03
  3.00E-03 3.00E-03 3.00E-03 3.00E-03 3.00E-03 3.00E-03 3.00E-03 3.00E-03 3.00E-03 3.00E-03
  3.00E-03 3.00E-03 3.00E-03 3.00E-03 3.00E-03 3.00E-03 3.00E-03 3.00E-03 3.00E-03 3.00E-03
  3.00E-03 3.00E-03 3.00E-03 3.00E-03 3.00E-03 3.00E-03 3.00E-03 3.00E-03 3.00E-03 3.00E-03
  3.00E-03 3.00E-03 3.00E-03 3.00E-03 3.00E-03 3.00E-03 3.00E-03 3.00E-03 3.00E-03 3.00E-03
  3.00E-03 3.00E-03 3.00E-03 3.00E-03 3.00E-03 3.00E-03 3.00E-03 3.00E-03 3.00E-03 3.00E-03
  3.00E-03 3.00E-03 3.00E-03 3.00E-03 3.00E-03 3.00E-03 3.00E-03 3.00E-03 3.00E-03 3.00E-03
  3.00E-03 3.00E-03 3.00E-03 3.00E-03 3.00E-03 3.00E-03 3.00E-03 3.00E-03 3.00E-03 3.00E-03
  3.00E-03 3.00E-03 3.00E-03 3.00E-03 3.00E-03 3.00E-03 3.00E-03 3.00E-03 3.00E-03 3.00E-03
  3.00E-03 3.00E-03 3.00E-03 3.00E-03 3.00E-03 3.00E-03 3.00E-03 3.00E-03 3.00E-03 3.00E-03
  3.00E-03

  J    PF         ALT       FTOTAL       FTIR       FDNIR       FUPIR       FTSOL       FDNSOL       FUPSOL       DIVF
  1 5.0000E-05 6.0343E+01  3.4918E+00 -1.2641E+05  0.0000E+00  1.2641E+05  1.2641E+05  3.2300E+05  1.9658E+05  2.7623E-05
  2 5.8571E-05 5.9429E+01  3.7566E+00 -1.2638E+05  4.6692E+01  1.2643E+05  1.2638E+05  3.2297E+05  1.9658E+05  2.9713E-05
  3 6.8529E-05 5.8473E+01 -8.2950E-01 -1.2635E+05  9.0960E+01  1.2645E+05  1.2635E+05  3.2294E+05  1.9658E+05 -6.5601E-06
  4 8.0085E-05 5.7485E+01 -8.6159E+00 -1.2633E+05  1.3254E+02  1.2646E+05  1.2632E+05  3.2290E+05  1.9658E+05 -6.8131E-05
  5 9.3477E-05 5.6478E+01 -1.7655E+01 -1.2630E+05  1.7051E+02  1.2647E+05  1.2628E+05  3.2286E+05  1.9658E+05 -1.3960E-04
  6 1.0898E-04 5.5464E+01 -2.7383E+01 -1.2627E+05  2.0505E+02  1.2647E+05  1.2624E+05  3.2282E+05  1.9658E+05 -2.1651E-04
  7 1.2690E-04 5.4450E+01 -3.5142E+01 -1.2623E+05  2.3966E+02  1.2647E+05  1.2620E+05  3.2278E+05  1.9658E+05 -2.7787E-04
  8 1.4759E-04 5.3445E+01 -4.0236E+01 -1.2619E+05  2.7647E+02  1.2647E+05  1.2615E+05  3.2273E+05  1.9658E+05 -3.1816E-04
  9 1.7145E-04 5.2450E+01 -4.3123E+01 -1.2614E+05  3.1635E+02  1.2646E+05  1.2610E+05  3.2268E+05  1.9658E+05 -3.4101E-04
 10 1.9893E-04 5.1467E+01 -4.4033E+01 -1.2609E+05  3.5985E+02  1.2645E+05  1.2605E+05  3.2263E+05  1.9658E+05 -3.4822E-04
 11 2.3053E-04 5.0498E+01 -4.3445E+01 -1.2603E+05  4.0683E+02  1.2644E+05  1.2599E+05  3.2257E+05  1.9658E+05 -3.4360E-04
 12 2.6684E-04 4.9540E+01 -4.1777E+01 -1.2598E+05  4.5682E+02  1.2643E+05  1.2593E+05  3.2252E+05  1.9658E+05 -3.3043E-04
 13 3.0850E-04 4.8593E+01 -3.9140E+01 -1.2592E+05  5.0953E+02  1.2643E+05  1.2588E+05  3.2246E+05  1.9658E+05 -3.0959E-04
 14 3.5624E-04 4.7657E+01 -3.5542E+01 -1.2585E+05  5.6551E+02  1.2642E+05  1.2582E+05  3.2240E+05  1.9658E+05 -2.8114E-04
 15 4.1087E-04 4.6730E+01 -3.3025E+01 -1.2579E+05  6.2469E+02  1.2641E+05  1.2576E+05  3.2233E+05  1.9658E+05 -2.6124E-04
 16 4.7331E-04 4.5812E+01 -3.1006E+01 -1.2572E+05  6.8812E+02  1.2641E+05  1.2569E+05  3.2226E+05  1.9658E+05 -2.4529E-04
 17 5.4459E-04 4.4902E+01 -2.9434E+01 -1.2564E+05  7.5643E+02  1.2640E+05  1.2561E+05  3.2219E+05  1.9658E+05 -2.3287E-04
 18 6.2585E-04 4.4000E+01 -2.8478E+01 -1.2556E+05  8.3012E+02  1.2639E+05  1.2553E+05  3.2210E+05  1.9658E+05 -2.2532E-04
 19 7.1839E-04 4.3107E+01 -2.8596E+01 -1.2546E+05  9.0933E+02  1.2637E+05  1.2544E+05  3.2201E+05  1.9658E+05 -2.2628E-04
 20 8.2362E-04 4.2222E+01 -3.1517E+01 -1.2536E+05  9.9296E+02  1.2636E+05  1.2533E+05  3.2191E+05  1.9658E+05 -2.4943E-04
 21 9.4313E-04 4.1347E+01 -3.8212E+01 -1.2525E+05  1.0805E+03  1.2633E+05  1.2522E+05  3.2179E+05  1.9658E+05 -3.0246E-04
 22 1.0787E-03 4.0482E+01 -5.2126E+01 -1.2514E+05  1.1715E+03  1.2631E+05  1.2509E+05  3.2166E+05  1.9658E+05 -4.1269E-04
 23 1.2323E-03 3.9629E+01 -5.9135E+01 -1.2499E+05  1.2892E+03  1.2628E+05  1.2493E+05  3.2150E+05  1.9658E+05 -4.6830E-04
 24 1.4060E-03 3.8788E+01 -6.3773E+01 -1.2481E+05  1.4311E+03  1.2624E+05  1.2474E+05  3.2132E+05  1.9658E+05 -5.0517E-04
 25 1.6024E-03 3.7960E+01 -6.4495E+01 -1.2460E+05  1.5979E+03  1.2620E+05  1.2454E+05  3.2111E+05  1.9658E+05 -5.1106E-04
 26 1.8240E-03 3.7144E+01 -6.0032E+01 -1.2437E+05  1.7890E+03  1.2616E+05  1.2431E+05  3.2089E+05  1.9658E+05 -4.7585E-04
 27 2.0737E-03 3.6340E+01 -4.9200E+01 -1.2411E+05  2.0035E+03  1.2612E+05  1.2407E+05  3.2065E+05  1.9658E+05 -3.9011E-04
 28 2.3549E-03 3.5548E+01 -3.1862E+01 -1.2384E+05  2.2395E+03  1.2608E+05  1.2381E+05  3.2040E+05  1.9659E+05 -2.5271E-04
 29 2.6709E-03 3.4766E+01 -9.7305E+00 -1.2355E+05  2.4940E+03  1.2605E+05  1.2355E+05  3.2014E+05  1.9659E+05 -7.7196E-05
 30 3.0258E-03 3.3994E+01  1.3362E+01 -1.2326E+05  2.7629E+03  1.2602E+05  1.2327E+05  3.1987E+05  1.9660E+05  1.0603E-04
 31 3.4236E-03 3.3231E+01  3.3220E+01 -1.2295E+05  3.0406E+03  1.2599E+05  1.2298E+05  3.1959E+05  1.9661E+05  2.6367E-04
 32 3.8692E-03 3.2476E+01  5.1266E+01 -1.2264E+05  3.3234E+03  1.2596E+05  1.2269E+05  3.1931E+05  1.9662E+05  4.0699E-04
 33 4.3676E-03 3.1730E+01  6.3737E+01 -1.2232E+05  3.6071E+03  1.2593E+05  1.2239E+05  3.1902E+05  1.9663E+05  5.0613E-04
 34 4.9242E-03 3.0991E+01  6.9227E+01 -1.2200E+05  3.8887E+03  1.2589E+05  1.2207E+05  3.1872E+05  1.9665E+05  5.4989E-04
 35 5.5452E-03 3.0262E+01  6.6176E+01 -1.2168E+05  4.1651E+03  1.2585E+05  1.2175E+05  3.1841E+05  1.9667E+05  5.2585E-04
 36 6.2370E-03 2.9540E+01  5.9039E+01 -1.2135E+05  4.4389E+03  1.2579E+05  1.2141E+05  3.1810E+05  1.9669E+05  4.6933E-04
 37 7.0067E-03 2.8827E+01  5.0524E+01 -1.2102E+05  4.7119E+03  1.2573E+05  1.2107E+05  3.1778E+05  1.9671E+05  4.0184E-04
 38 7.8620E-03 2.8124E+01  3.9785E+01 -1.2068E+05  4.9838E+03  1.2566E+05  1.2072E+05  3.1745E+05  1.9674E+05  3.1661E-04
 39 8.8112E-03 2.7430E+01  2.8879E+01 -1.2033E+05  5.2579E+03  1.2559E+05  1.2036E+05  3.1713E+05  1.9677E+05  2.2995E-04
 40 9.8632E-03 2.6746E+01  9.4856E+00 -1.1998E+05  5.5304E+03  1.2551E+05  1.1999E+05  3.1679E+05  1.9680E+05  7.5576E-05
 41 1.1028E-02 2.6071E+01  4.6220E+00 -1.1961E+05  5.8262E+03  1.2543E+05  1.1961E+05  3.1645E+05  1.9684E+05  3.6848E-05
 42 1.2315E-02 2.5407E+01  5.4229E+01 -1.1918E+05  6.1827E+03  1.2536E+05  1.1924E+05  3.1612E+05  1.9688E+05  4.3257E-04
 43 1.3736E-02 2.4751E+01  1.4241E+02 -1.1872E+05  6.5887E+03  1.2530E+05  1.1886E+05  3.1578E+05  1.9692E+05  1.1365E-03
 44 1.5302E-02 2.4105E+01  2.3890E+02 -1.1824E+05  7.0189E+03  1.2526E+05  1.1848E+05  3.1544E+05  1.9697E+05  1.9073E-03
 45 1.7027E-02 2.3467E+01  3.2634E+02 -1.1776E+05  7.4559E+03  1.2522E+05  1.1809E+05  3.1510E+05  1.9701E+05  2.6062E-03
 46 1.8924E-02 2.2836E+01  3.8683E+02 -1.1730E+05  7.8790E+03  1.2518E+05  1.1769E+05  3.1475E+05  1.9706E+05  3.0901E-03
 47 2.1006E-02 2.2214E+01  4.2350E+02 -1.1686E+05  8.2866E+03  1.2515E+05  1.1728E+05  3.1438E+05  1.9710E+05  3.3841E-03
 48 2.3291E-02 2.1599E+01  4.4130E+02 -1.1642E+05  8.6798E+03  1.2510E+05  1.1686E+05  3.1401E+05  1.9715E+05  3.5275E-03
 49 2.5792E-02 2.0991E+01  4.4844E+02 -1.1599E+05  9.0640E+03  1.2505E+05  1.1644E+05  3.1363E+05  1.9720E+05  3.5860E-03
 50 2.8528E-02 2.0392E+01  4.5232E+02 -1.1555E+05  9.4440E+03  1.2499E+05  1.1600E+05  3.1324E+05  1.9724E+05  3.6188E-03
 51 3.1517E-02 1.9800E+01  4.4921E+02 -1.1511E+05  9.8142E+03  1.2493E+05  1.1556E+05  3.1285E+05  1.9729E+05  3.5958E-03
 52 3.4777E-02 1.9216E+01  4.4778E+02 -1.1467E+05  1.0180E+04  1.2485E+05  1.1512E+05  3.1245E+05  1.9733E+05  3.5865E-03
 53 3.8329E-02 1.8641E+01  4.4695E+02 -1.1423E+05  1.0535E+04  1.2477E+05  1.1468E+05  3.1206E+05  1.9737E+05  3.5822E-03
 54 4.2193E-02 1.8073E+01  4.3623E+02 -1.1381E+05  1.0868E+04  1.2468E+05  1.1425E+05  3.1166E+05  1.9741E+05  3.4988E-03
 55 4.6391E-02 1.7514E+01  4.2264E+02 -1.1340E+05  1.1180E+04  1.2458E+05  1.1382E+05  3.1127E+05  1.9745E+05  3.3925E-03
 56 5.0946E-02 1.6962E+01  4.0571E+02 -1.1301E+05  1.1469E+04  1.2447E+05  1.1341E+05  3.1089E+05  1.9748E+05  3.2594E-03
 57 5.5881E-02 1.6420E+01  3.7790E+02 -1.1264E+05  1.1724E+04  1.2436E+05  1.1301E+05  3.1052E+05  1.9750E+05  3.0387E-03
 58 6.1221E-02 1.5885E+01  3.4992E+02 -1.1229E+05  1.1956E+04  1.2424E+05  1.1264E+05  3.1015E+05  1.9752E+05  2.8165E-03
 59 6.6991E-02 1.5359E+01  3.1640E+02 -1.1196E+05  1.2158E+04  1.2412E+05  1.1228E+05  3.0980E+05  1.9753E+05  2.5492E-03
 60 7.3217E-02 1.4842E+01  2.8941E+02 -1.1165E+05  1.2342E+04  1.2399E+05  1.1194E+05  3.0946E+05  1.9752E+05  2.3342E-03
 61 7.9926E-02 1.4333E+01  2.6486E+02 -1.1136E+05  1.2506E+04  1.2386E+05  1.1162E+05  3.0913E+05  1.9751E+05  2.1384E-03
 62 8.7146E-02 1.3833E+01  2.5124E+02 -1.1108E+05  1.2658E+04  1.2374E+05  1.1133E+05  3.0881E+05  1.9748E+05  2.0304E-03
 63 9.4905E-02 1.3341E+01  2.5724E+02 -1.1081E+05  1.2806E+04  1.2361E+05  1.1106E+05  3.0851E+05  1.9744E+05  2.0810E-03
 64 1.0323E-01 1.2858E+01  2.8048E+02 -1.1054E+05  1.2951E+04  1.2349E+05  1.1082E+05  3.0821E+05  1.9738E+05  2.2712E-03
 65 1.1215E-01 1.2383E+01  3.1659E+02 -1.1026E+05  1.3120E+04  1.2338E+05  1.1058E+05  3.0790E+05  1.9732E+05  2.5660E-03
 66 1.2170E-01 1.1916E+01  3.6586E+02 -1.0995E+05  1.3321E+04  1.2327E+05  1.1032E+05  3.0757E+05  1.9725E+05  2.9679E-03
 67 1.3190E-01 1.1458E+01  4.2025E+02 -1.0963E+05  1.3548E+04  1.2318E+05  1.1005E+05  3.0722E+05  1.9717E+05  3.4117E-03
 68 1.4279E-01 1.1007E+01  4.7993E+02 -1.0930E+05  1.3801E+04  1.2310E+05  1.0978E+05  3.0686E+05  1.9708E+05  3.8988E-03
 69 1.5439E-01 1.0565E+01  5.3590E+02 -1.0896E+05  1.4070E+04  1.2303E+05  1.0949E+05  3.0648E+05  1.9699E+05  4.3560E-03
 70 1.6673E-01 1.0131E+01  5.8937E+02 -1.0862E+05  1.4355E+04  1.2297E+05  1.0921E+05  3.0610E+05  1.9689E+05  4.7928E-03
 71 1.7985E-01 9.7039E+00  6.3328E+02 -1.0828E+05  1.4648E+04  1.2293E+05  1.0892E+05  3.0570E+05  1.9678E+05  5.1516E-03
 72 1.9376E-01 9.2848E+00  6.7117E+02 -1.0795E+05  1.4951E+04  1.2290E+05  1.0863E+05  3.0529E+05  1.9667E+05  5.4609E-03
 73 2.0851E-01 8.8732E+00  7.0332E+02 -1.0763E+05  1.5263E+04  1.2290E+05  1.0834E+05  3.0488E+05  1.9654E+05  5.7229E-03
 74 2.2410E-01 8.4689E+00  7.2681E+02 -1.0732E+05  1.5579E+04  1.2290E+05  1.0805E+05  3.0446E+05  1.9640E+05  5.9137E-03
 75 2.4058E-01 8.0720E+00  7.4785E+02 -1.0702E+05  1.5907E+04  1.2293E+05  1.0777E+05  3.0403E+05  1.9626E+05  6.0836E-03
 76 2.5796E-01 7.6823E+00  7.6889E+02 -1.0672E+05  1.6249E+04  1.2297E+05  1.0749E+05  3.0360E+05  1.9610E+05  6.2525E-03
 77 2.7626E-01 7.2997E+00  7.8869E+02 -1.0643E+05  1.6601E+04  1.2303E+05  1.0722E+05  3.0316E+05  1.9594E+05  6.4103E-03
 78 2.9551E-01 6.9241E+00  8.1316E+02 -1.0614E+05  1.6971E+04  1.2312E+05  1.0696E+05  3.0272E+05  1.9576E+05  6.6048E-03
 79 3.1572E-01 6.5553E+00  8.4337E+02 -1.0586E+05  1.7362E+04  1.2322E+05  1.0670E+05  3.0227E+05  1.9557E+05  6.8445E-03
 80 3.3691E-01 6.1933E+00  8.7307E+02 -1.0557E+05  1.7773E+04  1.2334E+05  1.0644E+05  3.0182E+05  1.9538E+05  7.0784E-03
 81 3.5909E-01 5.8380E+00  8.9376E+02 -1.0529E+05  1.8206E+04  1.2349E+05  1.0618E+05  3.0136E+05  1.9517E+05  7.2373E-03
 82 3.8228E-01 5.4893E+00  9.0310E+02 -1.0501E+05  1.8659E+04  1.2367E+05  1.0592E+05  3.0088E+05  1.9496E+05  7.3024E-03
 83 4.0647E-01 5.1471E+00  8.9899E+02 -1.0475E+05  1.9133E+04  1.2388E+05  1.0565E+05  3.0039E+05  1.9474E+05  7.2570E-03
 84 4.3168E-01 4.8113E+00  8.7907E+02 -1.0449E+05  1.9625E+04  1.2412E+05  1.0537E+05  2.9989E+05  1.9452E+05  7.0827E-03
 85 4.5791E-01 4.4819E+00  8.4272E+02 -1.0424E+05  2.0140E+04  1.2438E+05  1.0509E+05  2.9937E+05  1.9428E+05  6.7751E-03
 86 4.8515E-01 4.1588E+00  7.8256E+02 -1.0402E+05  2.0671E+04  1.2469E+05  1.0480E+05  2.9885E+05  1.9405E+05  6.2762E-03
 87 5.1340E-01 3.8420E+00  6.9316E+02 -1.0381E+05  2.1215E+04  1.2503E+05  1.0451E+05  2.9831E+05  1.9380E+05  5.5440E-03
 88 5.4264E-01 3.5314E+00  5.6552E+02 -1.0364E+05  2.1783E+04  1.2543E+05  1.0421E+05  2.9776E+05  1.9355E+05  4.5088E-03
 89 5.7287E-01 3.2270E+00  3.7094E+02 -1.0353E+05  2.2389E+04  1.2592E+05  1.0390E+05  2.9720E+05  1.9329E+05  2.9458E-03
 90 6.0405E-01 2.9282E+00  8.6882E+01 -1.0350E+05  2.3158E+04  1.2666E+05  1.0359E+05  2.9663E+05  1.9303E+05  6.8594E-04
 91 6.3617E-01 2.6335E+00 -8.5705E+01 -1.0336E+05  2.4504E+04  1.2786E+05  1.0327E+05  2.9604E+05  1.9277E+05 -6.7031E-04
 92 6.6920E-01 2.3414E+00  1.1817E+02 -1.0281E+05  2.6344E+04  1.2916E+05  1.0293E+05  2.9544E+05  1.9251E+05  9.1495E-04
 93 7.0310E-01 2.0523E+00  7.1861E+02 -1.0185E+05  2.8700E+04  1.3055E+05  1.0257E+05  2.9481E+05  1.9224E+05  5.5044E-03
 94 7.3784E-01 1.7663E+00  1.7269E+03 -1.0044E+05  3.1612E+04  1.3205E+05  1.0217E+05  2.9415E+05  1.9198E+05  1.3077E-02
 95 7.7336E-01 1.4838E+00  3.1461E+03 -9.8574E+04  3.5092E+04  1.3367E+05  1.0172E+05  2.9344E+05  1.9172E+05  2.3537E-02
 96 8.0963E-01 1.2048E+00  4.9447E+03 -9.6265E+04  3.9099E+04  1.3536E+05  1.0121E+05  2.9269E+05  1.9148E+05  3.6529E-02
 97 8.4659E-01 9.2973E-01  7.0644E+03 -9.3559E+04  4.3583E+04  1.3714E+05  1.0062E+05  2.9188E+05  1.9125E+05  5.1512E-02
 98 8.8418E-01 6.5877E-01  9.4371E+03 -9.0504E+04  4.8466E+04  1.3897E+05  9.9942E+04  2.9100E+05  1.9106E+05  6.7908E-02
 99 9.2233E-01 3.9218E-01  1.2056E+04 -8.7085E+04  5.3706E+04  1.4079E+05  9.9141E+04  2.9005E+05  1.9091E+05  8.5630E-02
100 9.6098E-01 1.3018E-01  1.5037E+04 -8.3144E+04  5.9259E+04  1.4240E+05  9.8181E+04  2.8901E+05  1.9083E+05  1.0559E-01
101 1.0000E+00 0.0000E+00  1.8259E+04 -7.8748E+04  6.4394E+04  1.4314E+05  9.7007E+04  2.8785E+05  1.9085E+05  1.2756E-01
 
 NST=     2 JCONV= 93 CHG=1.73E-03 dt0=1.00E+04 DIVF(1)=-1.10E-06 DIVFrms= 3.30E-03 DT(ND)= 4.20E-03 T(ND)=2.2445E+02
 NST=     3 JCONV= 93 CHG=2.42E-03 dt0=1.00E+04 DIVF(1)=-2.89E-05 DIVFrms= 3.28E-03 DT(ND)= 3.96E-03 T(ND)=2.2445E+02
 NST=     4 JCONV= 92 CHG=2.15E-03 dt0=1.00E+04 DIVF(1)= 2.20E-04 DIVFrms= 3.95E-03 DT(ND)= 1.50E-03 T(ND)=2.2446E+02
 NST=     5 JCONV= 92 CHG=1.91E-03 dt0=1.00E+04 DIVF(1)=-7.11E-05 DIVFrms= 3.24E-03 DT(ND)= 5.80E-04 T(ND)=2.2446E+02
 NST=     6 JCONV= 92 CHG=1.69E-03 dt0=1.00E+04 DIVF(1)=-3.71E-05 DIVFrms= 3.26E-03 DT(ND)= 2.00E-04 T(ND)=2.2446E+02
 NST=     7 JCONV= 92 CHG=1.57E-03 dt0=1.00E+04 DIVF(1)=-1.63E-05 DIVFrms= 3.28E-03 DT(ND)=-1.65E-06 T(ND)=2.2446E+02
 NST=     8 JCONV= 92 CHG=1.37E-03 dt0=1.00E+04 DIVF(1)= 8.79E-06 DIVFrms= 3.29E-03 DT(ND)=-8.15E-05 T(ND)=2.2446E+02
 NST=     9 JCONV= 92 CHG=1.24E-03 dt0=1.00E+04 DIVF(1)= 3.20E-05 DIVFrms= 3.29E-03 DT(ND)=-1.11E-04 T(ND)=2.2446E+02
 NST=    10 JCONV= 92 CHG=1.10E-03 dt0=1.00E+04 DIVF(1)= 5.00E-05 DIVFrms= 3.30E-03 DT(ND)=-1.17E-04 T(ND)=2.2446E+02
 NST=    11 JCONV= 92 CHG=1.04E-03 dt0=1.00E+04 DIVF(1)= 7.85E-05 DIVFrms= 3.30E-03 DT(ND)=-1.18E-04 T(ND)=2.2446E+02
 NST=    12 JCONV= 92 CHG=9.04E-04 dt0=1.00E+04 DIVF(1)= 3.73E-04 DIVFrms= 4.00E-03 DT(ND)= 6.49E-05 T(ND)=2.2446E+02
 NST=    13 JCONV= 92 CHG=8.48E-04 dt0=1.00E+04 DIVF(1)= 1.16E-04 DIVFrms= 3.27E-03 DT(ND)=-5.74E-05 T(ND)=2.2446E+02
 NST=    14 JCONV= 92 CHG=7.70E-04 dt0=1.00E+04 DIVF(1)= 1.53E-04 DIVFrms= 3.31E-03 DT(ND)=-8.23E-05 T(ND)=2.2446E+02
 NST=    15 JCONV= 92 CHG=6.66E-04 dt0=1.00E+04 DIVF(1)= 1.78E-04 DIVFrms= 3.32E-03 DT(ND)=-8.86E-05 T(ND)=2.2446E+02
 NST=    16 JCONV= 92 CHG=6.60E-04 dt0=1.00E+04 DIVF(1)= 2.06E-04 DIVFrms= 3.33E-03 DT(ND)=-8.57E-05 T(ND)=2.2446E+02
 NST=    17 JCONV= 92 CHG=5.45E-04 dt0=1.00E+04 DIVF(1)= 2.25E-04 DIVFrms= 3.34E-03 DT(ND)=-7.95E-05 T(ND)=2.2446E+02
 NST=    18 JCONV= 92 CHG=4.93E-04 dt0=1.00E+04 DIVF(1)= 2.50E-04 DIVFrms= 3.34E-03 DT(ND)=-7.41E-05 T(ND)=2.2446E+02
 NST=    19 JCONV= 92 CHG=4.65E-04 dt0=1.00E+04 DIVF(1)= 2.68E-04 DIVFrms= 3.35E-03 DT(ND)=-6.92E-05 T(ND)=2.2446E+02
 NST=    20 JCONV= 92 CHG=4.09E-04 dt0=1.00E+04 DIVF(1)= 2.88E-04 DIVFrms= 3.35E-03 DT(ND)=-6.35E-05 T(ND)=2.2446E+02
 NST=    21 JCONV= 92 CHG=4.74E-04 dt0=1.00E+04 DIVF(1)= 3.15E-04 DIVFrms= 3.36E-03 DT(ND)=-5.67E-05 T(ND)=2.2446E+02
 NST=    22 JCONV= 92 CHG=4.12E-04 dt0=1.00E+04 DIVF(1)= 3.31E-04 DIVFrms= 3.37E-03 DT(ND)=-4.96E-05 T(ND)=2.2446E+02
 NST=    23 JCONV= 92 CHG=4.27E-04 dt0=1.00E+04 DIVF(1)= 3.68E-04 DIVFrms= 3.37E-03 DT(ND)=-4.61E-05 T(ND)=2.2446E+02
 NST=    24 JCONV= 92 CHG=3.08E-04 dt0=1.00E+04 DIVF(1)= 3.78E-04 DIVFrms= 3.39E-03 DT(ND)=-3.68E-05 T(ND)=2.2446E+02
 NST=    25 JCONV= 92 CHG=2.99E-04 dt0=1.00E+04 DIVF(1)= 4.04E-04 DIVFrms= 3.38E-03 DT(ND)=-3.47E-05 T(ND)=2.2446E+02
 NST=    26 JCONV= 92 CHG=2.70E-04 dt0=1.00E+04 DIVF(1)= 4.13E-04 DIVFrms= 3.39E-03 DT(ND)=-4.12E-05 T(ND)=2.2446E+02
 NST=    27 JCONV= 92 CHG=2.35E-04 dt0=1.00E+04 DIVF(1)= 4.35E-04 DIVFrms= 3.39E-03 DT(ND)=-2.94E-05 T(ND)=2.2446E+02
 NST=    28 JCONV= 92 CHG=2.18E-04 dt0=1.00E+04 DIVF(1)= 4.55E-04 DIVFrms= 3.40E-03 DT(ND)=-2.25E-05 T(ND)=2.2446E+02
 NST=    29 JCONV= 92 CHG=3.70E-04 dt0=1.00E+04 DIVF(1)= 4.85E-04 DIVFrms= 3.40E-03 DT(ND)=-1.58E-05 T(ND)=2.2446E+02
 NST=    30 JCONV= 92 CHG=1.67E-04 dt0=1.00E+04 DIVF(1)= 5.16E-04 DIVFrms= 3.42E-03 DT(ND)=-2.64E-06 T(ND)=2.2446E+02
 NST=    31 JCONV= 92 CHG=3.56E-04 dt0=1.00E+04 DIVF(1)= 5.38E-04 DIVFrms= 3.42E-03 DT(ND)= 2.22E-06 T(ND)=2.2446E+02
 NST=    32 JCONV= 92 CHG=3.26E-04 dt0=1.00E+04 DIVF(1)= 5.64E-04 DIVFrms= 3.44E-03 DT(ND)= 1.59E-05 T(ND)=2.2446E+02
 NST=    33 JCONV= 92 CHG=1.31E-04 dt0=1.00E+04 DIVF(1)= 5.95E-04 DIVFrms= 3.44E-03 DT(ND)= 2.15E-05 T(ND)=2.2446E+02
 NST=    34 JCONV= 92 CHG=1.98E-04 dt0=1.00E+04 DIVF(1)= 6.16E-04 DIVFrms= 3.45E-03 DT(ND)= 2.80E-05 T(ND)=2.2446E+02
 NST=    35 JCONV= 92 CHG=1.33E-04 dt0=1.00E+04 DIVF(1)= 6.35E-04 DIVFrms= 3.45E-03 DT(ND)= 3.29E-05 T(ND)=2.2446E+02
 NST=    36 JCONV= 92 CHG=1.86E-04 dt0=1.00E+04 DIVF(1)= 6.66E-04 DIVFrms= 3.46E-03 DT(ND)= 5.11E-05 T(ND)=2.2446E+02
 NST=    37 JCONV= 92 CHG=1.24E-04 dt0=1.00E+04 DIVF(1)= 6.80E-04 DIVFrms= 3.47E-03 DT(ND)= 4.98E-05 T(ND)=2.2446E+02
 NST=    38 JCONV= 92 CHG=1.11E-04 dt0=1.00E+04 DIVF(1)= 6.97E-04 DIVFrms= 3.48E-03 DT(ND)= 5.40E-05 T(ND)=2.2446E+02
 NST=    39 JCONV= 92 CHG=1.91E-04 dt0=1.00E+04 DIVF(1)= 7.19E-04 DIVFrms= 3.48E-03 DT(ND)= 5.67E-05 T(ND)=2.2446E+02
 NST=    40 JCONV= 92 CHG=8.98E-05 dt0=1.00E+04 DIVF(1)= 7.44E-04 DIVFrms= 3.49E-03 DT(ND)= 6.38E-05 T(ND)=2.2446E+02
 NST=    41 JCONV= 92 CHG=1.17E-04 dt0=1.00E+04 DIVF(1)= 7.57E-04 DIVFrms= 3.50E-03 DT(ND)= 7.01E-05 T(ND)=2.2446E+02
 NST=    42 JCONV= 92 CHG=2.65E-04 dt0=1.00E+04 DIVF(1)= 7.99E-04 DIVFrms= 3.52E-03 DT(ND)= 8.22E-05 T(ND)=2.2446E+02
 NST=    43 JCONV= 92 CHG=7.17E-05 dt0=1.00E+04 DIVF(1)= 8.03E-04 DIVFrms= 3.52E-03 DT(ND)= 8.95E-05 T(ND)=2.2446E+02
 NST=    44 JCONV= 92 CHG=1.20E-04 dt0=1.00E+04 DIVF(1)= 8.27E-04 DIVFrms= 3.53E-03 DT(ND)= 1.01E-04 T(ND)=2.2446E+02
 NST=    45 JCONV= 92 CHG=2.26E-04 dt0=1.00E+04 DIVF(1)= 8.45E-04 DIVFrms= 3.53E-03 DT(ND)= 1.03E-04 T(ND)=2.2446E+02
 NST=    46 JCONV= 92 CHG=3.35E-04 dt0=1.00E+04 DIVF(1)= 8.60E-04 DIVFrms= 3.55E-03 DT(ND)= 1.12E-04 T(ND)=2.2446E+02
 NST=    47 JCONV= 92 CHG=2.98E-04 dt0=1.00E+04 DIVF(1)= 8.87E-04 DIVFrms= 3.54E-03 DT(ND)= 1.13E-04 T(ND)=2.2446E+02
 NST=    48 JCONV= 92 CHG=6.54E-05 dt0=1.00E+04 DIVF(1)= 9.08E-04 DIVFrms= 3.56E-03 DT(ND)= 1.22E-04 T(ND)=2.2446E+02
 NST=    49 JCONV= 92 CHG=6.43E-05 dt0=1.00E+04 DIVF(1)= 9.12E-04 DIVFrms= 3.56E-03 DT(ND)= 1.24E-04 T(ND)=2.2446E+02
 NST=    50 JCONV= 92 CHG=1.73E-04 dt0=1.00E+04 DIVF(1)= 9.22E-04 DIVFrms= 3.56E-03 DT(ND)= 1.30E-04 T(ND)=2.2446E+02
 NST=    51 JCONV= 92 CHG=6.23E-05 dt0=1.00E+04 DIVF(1)= 9.43E-04 DIVFrms= 3.57E-03 DT(ND)= 1.35E-04 T(ND)=2.2446E+02
 NST=    52 JCONV= 92 CHG=7.28E-05 dt0=1.00E+04 DIVF(1)= 9.70E-04 DIVFrms= 3.58E-03 DT(ND)= 1.40E-04 T(ND)=2.2446E+02
 NST=    53 JCONV= 92 CHG=8.86E-05 dt0=1.00E+04 DIVF(1)= 9.73E-04 DIVFrms= 3.58E-03 DT(ND)= 1.44E-04 T(ND)=2.2446E+02
 NST=    54 JCONV= 92 CHG=2.37E-04 dt0=1.00E+04 DIVF(1)= 1.01E-03 DIVFrms= 3.59E-03 DT(ND)= 1.50E-04 T(ND)=2.2446E+02
 NST=    55 JCONV= 92 CHG=2.94E-04 dt0=1.00E+04 DIVF(1)= 1.01E-03 DIVFrms= 3.60E-03 DT(ND)= 1.57E-04 T(ND)=2.2446E+02
 NST=    56 JCONV= 92 CHG=3.18E-04 dt0=1.00E+04 DIVF(1)= 1.02E-03 DIVFrms= 3.61E-03 DT(ND)= 1.61E-04 T(ND)=2.2446E+02
 NST=    57 JCONV= 92 CHG=1.06E-04 dt0=1.00E+04 DIVF(1)= 1.05E-03 DIVFrms= 3.61E-03 DT(ND)= 1.64E-04 T(ND)=2.2446E+02
 NST=    58 JCONV= 92 CHG=6.36E-05 dt0=1.00E+04 DIVF(1)= 1.06E-03 DIVFrms= 3.61E-03 DT(ND)= 1.68E-04 T(ND)=2.2446E+02
 NST=    59 JCONV= 92 CHG=5.58E-05 dt0=1.00E+04 DIVF(1)= 1.08E-03 DIVFrms= 3.61E-03 DT(ND)= 1.74E-04 T(ND)=2.2446E+02
 NST=    60 JCONV= 92 CHG=1.12E-04 dt0=1.00E+04 DIVF(1)= 1.09E-03 DIVFrms= 3.62E-03 DT(ND)= 1.77E-04 T(ND)=2.2446E+02
 NST=    61 JCONV= 92 CHG=8.94E-05 dt0=1.00E+04 DIVF(1)= 1.10E-03 DIVFrms= 3.62E-03 DT(ND)= 1.82E-04 T(ND)=2.2446E+02
 NST=    62 JCONV= 92 CHG=5.32E-05 dt0=1.00E+04 DIVF(1)= 1.12E-03 DIVFrms= 3.63E-03 DT(ND)= 1.87E-04 T(ND)=2.2446E+02
 NST=    63 JCONV= 92 CHG=2.68E-04 dt0=1.00E+04 DIVF(1)= 1.13E-03 DIVFrms= 3.63E-03 DT(ND)= 1.90E-04 T(ND)=2.2446E+02
 NST=    64 JCONV= 92 CHG=4.58E-04 dt0=1.00E+04 DIVF(1)= 1.14E-03 DIVFrms= 3.65E-03 DT(ND)= 1.99E-04 T(ND)=2.2446E+02
 NST=    65 JCONV= 92 CHG=6.48E-05 dt0=1.00E+04 DIVF(1)= 1.16E-03 DIVFrms= 3.65E-03 DT(ND)= 2.02E-04 T(ND)=2.2446E+02
 NST=    66 JCONV= 92 CHG=6.36E-05 dt0=1.00E+04 DIVF(1)= 1.18E-03 DIVFrms= 3.65E-03 DT(ND)= 2.05E-04 T(ND)=2.2446E+02
 NST=    67 JCONV= 92 CHG=2.35E-04 dt0=1.00E+04 DIVF(1)= 9.45E-04 DIVFrms= 2.96E-03 DT(ND)= 4.89E-05 T(ND)=2.2446E+02
 NST=    68 JCONV= 92 CHG=7.08E-05 dt0=1.00E+04 DIVF(1)= 1.21E-03 DIVFrms= 3.66E-03 DT(ND)= 1.61E-04 T(ND)=2.2446E+02
 NST=    69 JCONV= 92 CHG=1.37E-04 dt0=1.00E+04 DIVF(1)= 9.67E-04 DIVFrms= 2.97E-03 DT(ND)= 3.62E-05 T(ND)=2.2446E+02
 NST=    70 JCONV= 92 CHG=1.61E-04 dt0=1.00E+04 DIVF(1)= 1.23E-03 DIVFrms= 3.67E-03 DT(ND)= 1.61E-04 T(ND)=2.2446E+02
 NST=    71 JCONV= 92 CHG=4.58E-05 dt0=1.00E+04 DIVF(1)= 1.00E-03 DIVFrms= 2.98E-03 DT(ND)= 4.37E-05 T(ND)=2.2446E+02
 NST=    72 JCONV= 92 CHG=7.43E-05 dt0=1.00E+04 DIVF(1)= 1.25E-03 DIVFrms= 3.67E-03 DT(ND)= 1.66E-04 T(ND)=2.2446E+02
 NST=    73 JCONV= 92 CHG=1.03E-04 dt0=1.00E+04 DIVF(1)= 1.02E-03 DIVFrms= 2.99E-03 DT(ND)= 5.18E-05 T(ND)=2.2446E+02
 NST=    74 JCONV= 92 CHG=4.51E-05 dt0=1.00E+04 DIVF(1)= 1.28E-03 DIVFrms= 3.69E-03 DT(ND)= 1.76E-04 T(ND)=2.2446E+02
 NST=    75 JCONV= 92 CHG=4.23E-05 dt0=1.00E+04 DIVF(1)= 1.05E-03 DIVFrms= 3.00E-03 DT(ND)= 6.06E-05 T(ND)=2.2446E+02
 NST=    76 JCONV= 92 CHG=1.14E-04 dt0=1.00E+04 DIVF(1)= 1.32E-03 DIVFrms= 3.70E-03 DT(ND)= 1.85E-04 T(ND)=2.2446E+02
 NST=    77 JCONV= 92 CHG=1.10E-04 dt0=1.00E+04 DIVF(1)= 1.07E-03 DIVFrms= 3.01E-03 DT(ND)= 6.82E-05 T(ND)=2.2446E+02
 NST=    78 JCONV= 92 CHG=6.96E-05 dt0=1.00E+04 DIVF(1)= 1.33E-03 DIVFrms= 3.70E-03 DT(ND)= 1.92E-04 T(ND)=2.2446E+02
 NST=    79 JCONV= 92 CHG=2.78E-04 dt0=1.00E+04 DIVF(1)= 1.10E-03 DIVFrms= 3.01E-03 DT(ND)= 7.67E-05 T(ND)=2.2446E+02
 NST=    80 JCONV= 92 CHG=1.14E-04 dt0=1.00E+04 DIVF(1)= 1.35E-03 DIVFrms= 3.72E-03 DT(ND)= 2.02E-04 T(ND)=2.2446E+02
 NST=    81 JCONV= 92 CHG=6.11E-05 dt0=1.00E+04 DIVF(1)= 1.12E-03 DIVFrms= 3.03E-03 DT(ND)= 8.65E-05 T(ND)=2.2446E+02
 NST=    82 JCONV= 92 CHG=3.17E-04 dt0=1.00E+04 DIVF(1)= 1.38E-03 DIVFrms= 3.74E-03 DT(ND)= 2.13E-04 T(ND)=2.2446E+02
 NST=    83 JCONV= 92 CHG=7.86E-05 dt0=1.00E+04 DIVF(1)= 1.14E-03 DIVFrms= 3.04E-03 DT(ND)= 9.39E-05 T(ND)=2.2446E+02
 NST=    84 JCONV= 92 CHG=1.26E-04 dt0=1.00E+04 DIVF(1)= 1.15E-03 DIVFrms= 3.04E-03 DT(ND)= 5.90E-05 T(ND)=2.2446E+02
 NST=    85 JCONV= 92 CHG=1.73E-04 dt0=1.00E+04 DIVF(1)= 1.42E-03 DIVFrms= 3.74E-03 DT(ND)= 2.09E-04 T(ND)=2.2446E+02
 NST=    86 JCONV= 92 CHG=2.07E-04 dt0=1.00E+04 DIVF(1)= 1.18E-03 DIVFrms= 3.05E-03 DT(ND)= 9.93E-05 T(ND)=2.2446E+02
 NST=    87 JCONV= 92 CHG=1.07E-04 dt0=1.00E+04 DIVF(1)= 1.19E-03 DIVFrms= 3.05E-03 DT(ND)= 6.73E-05 T(ND)=2.2446E+02
 NST=    88 JCONV= 92 CHG=3.74E-05 dt0=1.00E+04 DIVF(1)= 1.45E-03 DIVFrms= 3.76E-03 DT(ND)= 2.23E-04 T(ND)=2.2446E+02
 NST=    89 JCONV= 92 CHG=1.45E-04 dt0=1.00E+04 DIVF(1)= 1.20E-03 DIVFrms= 3.06E-03 DT(ND)= 1.11E-04 T(ND)=2.2446E+02
 NST=    90 JCONV= 92 CHG=1.20E-04 dt0=1.00E+04 DIVF(1)= 1.23E-03 DIVFrms= 3.08E-03 DT(ND)= 8.21E-05 T(ND)=2.2446E+02
 NST=    91 JCONV= 92 CHG=8.34E-05 dt0=1.00E+04 DIVF(1)= 1.48E-03 DIVFrms= 3.77E-03 DT(ND)= 2.32E-04 T(ND)=2.2446E+02
 NST=    92 JCONV= 92 CHG=2.27E-04 dt0=1.00E+04 DIVF(1)= 1.23E-03 DIVFrms= 3.08E-03 DT(ND)= 1.25E-04 T(ND)=2.2446E+02
 NST=    93 JCONV= 92 CHG=5.62E-05 dt0=1.00E+04 DIVF(1)= 1.26E-03 DIVFrms= 3.09E-03 DT(ND)= 9.42E-05 T(ND)=2.2446E+02
 NST=    94 JCONV= 92 CHG=2.01E-04 dt0=1.00E+04 DIVF(1)= 1.26E-03 DIVFrms= 3.09E-03 DT(ND)= 8.21E-05 T(ND)=2.2446E+02
 NST=    95 JCONV= 92 CHG=3.59E-05 dt0=1.00E+04 DIVF(1)= 1.52E-03 DIVFrms= 3.79E-03 DT(ND)= 2.44E-04 T(ND)=2.2446E+02
 NST=    96 JCONV= 92 CHG=2.04E-04 dt0=1.00E+04 DIVF(1)= 1.28E-03 DIVFrms= 3.09E-03 DT(ND)= 1.37E-04 T(ND)=2.2446E+02
 NST=    97 JCONV= 92 CHG=8.14E-05 dt0=1.00E+04 DIVF(1)= 1.29E-03 DIVFrms= 3.11E-03 DT(ND)= 1.09E-04 T(ND)=2.2446E+02
 NST=    98 JCONV= 92 CHG=1.22E-04 dt0=1.00E+04 DIVF(1)= 1.30E-03 DIVFrms= 3.11E-03 DT(ND)= 9.97E-05 T(ND)=2.2446E+02
 NST=    99 JCONV= 92 CHG=4.84E-05 dt0=1.00E+04 DIVF(1)= 1.57E-03 DIVFrms= 3.82E-03 DT(ND)= 2.61E-04 T(ND)=2.2446E+02
 NST=   100 JCONV= 92 CHG=3.20E-04 dt0=1.00E+04 DIVF(1)= 1.32E-03 DIVFrms= 3.11E-03 DT(ND)= 1.54E-04 T(ND)=2.2446E+02
 NST=   101 JCONV= 92 CHG=5.04E-05 dt0=1.00E+04 DIVF(1)= 1.35E-03 DIVFrms= 3.14E-03 DT(ND)= 1.30E-04 T(ND)=2.2446E+02
 NST=   102 JCONV= 92 CHG=9.44E-05 dt0=1.00E+04 DIVF(1)= 1.36E-03 DIVFrms= 3.15E-03 DT(ND)= 1.23E-04 T(ND)=2.2446E+02
 NST=   103 JCONV= 92 CHG=9.02E-05 dt0=1.00E+04 DIVF(1)= 1.36E-03 DIVFrms= 3.15E-03 DT(ND)= 1.22E-04 T(ND)=2.2446E+02
 NST=   104 JCONV= 92 CHG=2.50E-04 dt0=1.00E+04 DIVF(1)= 1.38E-03 DIVFrms= 3.15E-03 DT(ND)= 1.22E-04 T(ND)=2.2446E+02
 NST=   105 JCONV= 92 CHG=1.92E-04 dt0=1.00E+04 DIVF(1)= 1.64E-03 DIVFrms= 3.86E-03 DT(ND)= 2.88E-04 T(ND)=2.2447E+02
 NST=   106 JCONV= 92 CHG=3.14E-04 dt0=1.00E+04 DIVF(1)= 1.39E-03 DIVFrms= 3.15E-03 DT(ND)= 1.83E-04 T(ND)=2.2447E+02
 NST=   107 JCONV= 92 CHG=1.02E-04 dt0=1.00E+04 DIVF(1)= 1.40E-03 DIVFrms= 3.16E-03 DT(ND)= 1.52E-04 T(ND)=2.2447E+02
 NST=   108 JCONV= 92 CHG=2.21E-04 dt0=1.00E+04 DIVF(1)= 1.41E-03 DIVFrms= 3.16E-03 DT(ND)= 1.43E-04 T(ND)=2.2447E+02
 NST=   109 JCONV= 92 CHG=1.30E-04 dt0=1.00E+04 DIVF(1)= 1.42E-03 DIVFrms= 3.17E-03 DT(ND)= 1.44E-04 T(ND)=2.2447E+02
 NST=   110 JCONV= 92 CHG=2.48E-04 dt0=1.00E+04 DIVF(1)= 1.43E-03 DIVFrms= 3.18E-03 DT(ND)= 1.48E-04 T(ND)=2.2447E+02
 NST=   111 JCONV= 92 CHG=2.64E-04 dt0=1.00E+04 DIVF(1)= 1.43E-03 DIVFrms= 3.18E-03 DT(ND)= 1.49E-04 T(ND)=2.2447E+02
 NST=   112 JCONV= 92 CHG=1.08E-04 dt0=1.00E+04 DIVF(1)= 1.45E-03 DIVFrms= 3.18E-03 DT(ND)= 1.51E-04 T(ND)=2.2447E+02
 NST=   113 JCONV= 92 CHG=1.18E-04 dt0=1.00E+04 DIVF(1)= 1.71E-03 DIVFrms= 3.89E-03 DT(ND)= 3.16E-04 T(ND)=2.2447E+02
 NST=   114 JCONV= 92 CHG=1.13E-04 dt0=1.00E+04 DIVF(1)= 1.46E-03 DIVFrms= 3.17E-03 DT(ND)= 2.07E-04 T(ND)=2.2447E+02
 NST=   115 JCONV= 92 CHG=2.42E-04 dt0=1.00E+04 DIVF(1)= 1.48E-03 DIVFrms= 3.19E-03 DT(ND)= 1.80E-04 T(ND)=2.2447E+02
 NST=   116 JCONV= 92 CHG=3.98E-04 dt0=1.00E+04 DIVF(1)= 1.47E-03 DIVFrms= 3.21E-03 DT(ND)= 1.76E-04 T(ND)=2.2447E+02
 NST=   117 JCONV= 92 CHG=7.81E-05 dt0=1.00E+04 DIVF(1)= 1.49E-03 DIVFrms= 3.20E-03 DT(ND)= 1.72E-04 T(ND)=2.2447E+02
 NST=   118 JCONV= 92 CHG=1.34E-04 dt0=1.00E+04 DIVF(1)= 1.50E-03 DIVFrms= 3.20E-03 DT(ND)= 1.74E-04 T(ND)=2.2447E+02
 NST=   119 JCONV= 92 CHG=7.90E-05 dt0=1.00E+04 DIVF(1)= 1.51E-03 DIVFrms= 3.21E-03 DT(ND)= 1.78E-04 T(ND)=2.2447E+02
 NST=   120 JCONV= 92 CHG=1.09E-04 dt0=1.00E+04 DIVF(1)= 1.50E-03 DIVFrms= 3.20E-03 DT(ND)= 1.77E-04 T(ND)=2.2447E+02
 NST=   121 JCONV= 92 CHG=7.44E-05 dt0=1.00E+04 DIVF(1)= 1.52E-03 DIVFrms= 3.21E-03 DT(ND)= 1.83E-04 T(ND)=2.2447E+02
 NST=   122 JCONV= 92 CHG=2.75E-05 dt0=1.00E+04 DIVF(1)= 1.53E-03 DIVFrms= 3.22E-03 DT(ND)= 1.87E-04 T(ND)=2.2447E+02
 NST=   123 JCONV= 92 CHG=2.91E-04 dt0=1.00E+04 DIVF(1)= 1.53E-03 DIVFrms= 3.22E-03 DT(ND)= 1.90E-04 T(ND)=2.2447E+02
 NST=   124 JCONV= 92 CHG=1.87E-04 dt0=1.00E+04 DIVF(1)= 1.54E-03 DIVFrms= 3.22E-03 DT(ND)= 1.90E-04 T(ND)=2.2447E+02
 NST=   125 JCONV= 92 CHG=3.37E-05 dt0=1.00E+04 DIVF(1)= 1.54E-03 DIVFrms= 3.21E-03 DT(ND)= 1.92E-04 T(ND)=2.2447E+02
 NST=   126 JCONV= 92 CHG=1.19E-04 dt0=1.00E+04 DIVF(1)= 1.55E-03 DIVFrms= 3.21E-03 DT(ND)= 1.96E-04 T(ND)=2.2447E+02
 NST=   127 JCONV= 92 CHG=1.72E-04 dt0=1.00E+04 DIVF(1)= 1.82E-03 DIVFrms= 3.92E-03 DT(ND)= 3.61E-04 T(ND)=2.2447E+02
 NST=   128 JCONV= 92 CHG=7.83E-05 dt0=1.00E+04 DIVF(1)= 1.56E-03 DIVFrms= 3.20E-03 DT(ND)= 2.51E-04 T(ND)=2.2447E+02
 NST=   129 JCONV= 92 CHG=1.71E-04 dt0=1.00E+04 DIVF(1)= 1.57E-03 DIVFrms= 3.22E-03 DT(ND)= 2.24E-04 T(ND)=2.2447E+02
 NST=   130 JCONV= 92 CHG=8.66E-05 dt0=1.00E+04 DIVF(1)= 1.58E-03 DIVFrms= 3.23E-03 DT(ND)= 2.17E-04 T(ND)=2.2447E+02
 NST=   131 JCONV= 92 CHG=1.12E-04 dt0=1.00E+04 DIVF(1)= 1.60E-03 DIVFrms= 3.24E-03 DT(ND)= 2.17E-04 T(ND)=2.2447E+02
 NST=   132 JCONV= 92 CHG=1.01E-04 dt0=1.00E+04 DIVF(1)= 1.61E-03 DIVFrms= 3.24E-03 DT(ND)= 2.19E-04 T(ND)=2.2447E+02
 NST=   133 JCONV= 92 CHG=6.70E-05 dt0=1.00E+04 DIVF(1)= 1.60E-03 DIVFrms= 3.24E-03 DT(ND)= 2.18E-04 T(ND)=2.2447E+02
 NST=   134 JCONV= 92 CHG=8.34E-05 dt0=1.00E+04 DIVF(1)= 1.61E-03 DIVFrms= 3.24E-03 DT(ND)= 2.22E-04 T(ND)=2.2447E+02
 NST=   135 JCONV= 92 CHG=8.17E-05 dt0=1.00E+04 DIVF(1)= 1.61E-03 DIVFrms= 3.25E-03 DT(ND)= 2.26E-04 T(ND)=2.2447E+02
 NST=   136 JCONV= 92 CHG=1.48E-04 dt0=1.00E+04 DIVF(1)= 1.63E-03 DIVFrms= 3.25E-03 DT(ND)= 2.29E-04 T(ND)=2.2447E+02
 NST=   137 JCONV= 92 CHG=2.72E-04 dt0=1.00E+04 DIVF(1)= 1.62E-03 DIVFrms= 3.25E-03 DT(ND)= 2.31E-04 T(ND)=2.2447E+02
 NST=   138 JCONV= 92 CHG=1.38E-04 dt0=1.00E+04 DIVF(1)= 1.64E-03 DIVFrms= 3.25E-03 DT(ND)= 2.35E-04 T(ND)=2.2447E+02
 NST=   139 JCONV= 92 CHG=5.75E-05 dt0=1.00E+04 DIVF(1)= 1.64E-03 DIVFrms= 3.26E-03 DT(ND)= 2.39E-04 T(ND)=2.2447E+02
 NST=   140 JCONV= 92 CHG=7.54E-05 dt0=1.00E+04 DIVF(1)= 1.65E-03 DIVFrms= 3.26E-03 DT(ND)= 2.41E-04 T(ND)=2.2447E+02
 NST=   141 JCONV= 92 CHG=1.12E-04 dt0=1.00E+04 DIVF(1)= 1.66E-03 DIVFrms= 3.26E-03 DT(ND)= 2.42E-04 T(ND)=2.2447E+02
 NST=   142 JCONV= 92 CHG=1.73E-04 dt0=1.00E+04 DIVF(1)= 1.66E-03 DIVFrms= 3.26E-03 DT(ND)= 2.45E-04 T(ND)=2.2447E+02
 NST=   143 JCONV= 92 CHG=1.86E-04 dt0=1.00E+04 DIVF(1)= 1.66E-03 DIVFrms= 3.26E-03 DT(ND)= 2.49E-04 T(ND)=2.2447E+02
 NST=   144 JCONV= 92 CHG=6.95E-05 dt0=1.00E+04 DIVF(1)= 1.66E-03 DIVFrms= 3.26E-03 DT(ND)= 2.51E-04 T(ND)=2.2447E+02
 NST=   145 JCONV= 92 CHG=2.10E-04 dt0=1.00E+04 DIVF(1)= 1.67E-03 DIVFrms= 3.27E-03 DT(ND)= 2.56E-04 T(ND)=2.2447E+02
 NST=   146 JCONV= 92 CHG=4.80E-04 dt0=1.00E+04 DIVF(1)= 1.70E-03 DIVFrms= 3.27E-03 DT(ND)= 2.57E-04 T(ND)=2.2447E+02
 NST=   147 JCONV= 92 CHG=3.77E-05 dt0=1.00E+04 DIVF(1)= 1.68E-03 DIVFrms= 3.27E-03 DT(ND)= 2.59E-04 T(ND)=2.2447E+02
 NST=   148 JCONV= 92 CHG=1.58E-04 dt0=1.00E+04 DIVF(1)= 1.69E-03 DIVFrms= 3.27E-03 DT(ND)= 2.62E-04 T(ND)=2.2447E+02
 NST=   149 JCONV= 92 CHG=2.30E-04 dt0=1.00E+04 DIVF(1)= 1.69E-03 DIVFrms= 3.28E-03 DT(ND)= 2.67E-04 T(ND)=2.2447E+02
 NST=   150 JCONV= 92 CHG=2.56E-05 dt0=1.00E+04 DIVF(1)= 1.70E-03 DIVFrms= 3.28E-03 DT(ND)= 2.68E-04 T(ND)=2.2447E+02
 NST=   151 JCONV= 92 CHG=1.56E-04 dt0=1.00E+04 DIVF(1)= 1.70E-03 DIVFrms= 3.27E-03 DT(ND)= 2.71E-04 T(ND)=2.2448E+02
 NST=   152 JCONV= 92 CHG=9.52E-05 dt0=1.00E+04 DIVF(1)= 1.70E-03 DIVFrms= 3.27E-03 DT(ND)= 2.72E-04 T(ND)=2.2448E+02
 NST=   153 JCONV= 92 CHG=2.42E-05 dt0=1.00E+04 DIVF(1)= 1.72E-03 DIVFrms= 3.28E-03 DT(ND)= 2.76E-04 T(ND)=2.2448E+02
 NST=   154 JCONV= 92 CHG=1.29E-04 dt0=1.00E+04 DIVF(1)= 1.72E-03 DIVFrms= 3.28E-03 DT(ND)= 2.78E-04 T(ND)=2.2448E+02
 NST=   155 JCONV= 92 CHG=1.63E-04 dt0=1.00E+04 DIVF(1)= 1.72E-03 DIVFrms= 3.27E-03 DT(ND)= 2.78E-04 T(ND)=2.2448E+02
 NST=   156 JCONV= 92 CHG=1.50E-04 dt0=1.00E+04 DIVF(1)= 1.73E-03 DIVFrms= 3.28E-03 DT(ND)= 2.84E-04 T(ND)=2.2448E+02
 NST=   157 JCONV= 92 CHG=2.48E-04 dt0=1.00E+04 DIVF(1)= 1.74E-03 DIVFrms= 3.27E-03 DT(ND)= 2.84E-04 T(ND)=2.2448E+02
 NST=   158 JCONV= 92 CHG=2.29E-04 dt0=1.00E+04 DIVF(1)= 1.74E-03 DIVFrms= 3.28E-03 DT(ND)= 2.89E-04 T(ND)=2.2448E+02
 NST=   159 JCONV= 92 CHG=1.60E-04 dt0=1.00E+04 DIVF(1)= 1.74E-03 DIVFrms= 3.28E-03 DT(ND)= 2.92E-04 T(ND)=2.2448E+02
 NST=   160 JCONV= 92 CHG=1.21E-04 dt0=1.00E+04 DIVF(1)= 1.75E-03 DIVFrms= 3.28E-03 DT(ND)= 2.94E-04 T(ND)=2.2448E+02
 NST=   161 JCONV= 92 CHG=9.83E-05 dt0=1.00E+04 DIVF(1)= 1.76E-03 DIVFrms= 3.28E-03 DT(ND)= 2.95E-04 T(ND)=2.2448E+02
 NST=   162 JCONV= 92 CHG=6.32E-05 dt0=1.00E+04 DIVF(1)= 1.76E-03 DIVFrms= 3.28E-03 DT(ND)= 2.99E-04 T(ND)=2.2448E+02
 NST=   163 JCONV= 92 CHG=6.40E-05 dt0=1.00E+04 DIVF(1)= 1.76E-03 DIVFrms= 3.29E-03 DT(ND)= 3.02E-04 T(ND)=2.2448E+02
 NST=   164 JCONV= 92 CHG=1.47E-04 dt0=1.00E+04 DIVF(1)= 1.77E-03 DIVFrms= 3.29E-03 DT(ND)= 3.04E-04 T(ND)=2.2448E+02
 NST=   165 JCONV= 92 CHG=1.08E-04 dt0=1.00E+04 DIVF(1)= 1.77E-03 DIVFrms= 3.29E-03 DT(ND)= 3.07E-04 T(ND)=2.2448E+02
 NST=   166 JCONV= 92 CHG=1.38E-04 dt0=1.00E+04 DIVF(1)= 1.78E-03 DIVFrms= 3.29E-03 DT(ND)= 3.08E-04 T(ND)=2.2448E+02
 NST=   167 JCONV= 92 CHG=4.70E-05 dt0=1.00E+04 DIVF(1)= 1.78E-03 DIVFrms= 3.29E-03 DT(ND)= 3.11E-04 T(ND)=2.2448E+02
 NST=   168 JCONV= 92 CHG=8.70E-05 dt0=1.00E+04 DIVF(1)= 1.79E-03 DIVFrms= 3.29E-03 DT(ND)= 3.14E-04 T(ND)=2.2448E+02
 NST=   169 JCONV= 92 CHG=1.36E-04 dt0=1.00E+04 DIVF(1)= 1.79E-03 DIVFrms= 3.30E-03 DT(ND)= 3.18E-04 T(ND)=2.2448E+02
 NST=   170 JCONV= 92 CHG=3.66E-05 dt0=1.00E+04 DIVF(1)= 1.80E-03 DIVFrms= 3.30E-03 DT(ND)= 3.21E-04 T(ND)=2.2448E+02
 NST=   171 JCONV= 92 CHG=2.24E-05 dt0=1.00E+04 DIVF(1)= 1.80E-03 DIVFrms= 3.30E-03 DT(ND)= 3.24E-04 T(ND)=2.2448E+02
 NST=   172 JCONV= 92 CHG=5.92E-05 dt0=1.00E+04 DIVF(1)= 1.81E-03 DIVFrms= 3.29E-03 DT(ND)= 3.23E-04 T(ND)=2.2448E+02
 NST=   173 JCONV= 92 CHG=7.34E-05 dt0=1.00E+04 DIVF(1)= 1.81E-03 DIVFrms= 3.29E-03 DT(ND)= 3.26E-04 T(ND)=2.2448E+02
 NST=   174 JCONV= 92 CHG=2.20E-04 dt0=1.00E+04 DIVF(1)= 1.81E-03 DIVFrms= 3.29E-03 DT(ND)= 3.27E-04 T(ND)=2.2448E+02
 NST=   175 JCONV= 92 CHG=9.06E-05 dt0=1.00E+04 DIVF(1)= 1.81E-03 DIVFrms= 3.29E-03 DT(ND)= 3.31E-04 T(ND)=2.2448E+02
 NST=   176 JCONV= 92 CHG=3.76E-05 dt0=1.00E+04 DIVF(1)= 1.83E-03 DIVFrms= 3.32E-03 DT(ND)= 3.41E-04 T(ND)=2.2448E+02
 NST=   177 JCONV= 92 CHG=1.18E-04 dt0=1.00E+04 DIVF(1)= 1.83E-03 DIVFrms= 3.32E-03 DT(ND)= 3.45E-04 T(ND)=2.2448E+02
 NST=   178 JCONV= 92 CHG=3.62E-05 dt0=1.00E+04 DIVF(1)= 1.83E-03 DIVFrms= 3.31E-03 DT(ND)= 3.46E-04 T(ND)=2.2448E+02
 NST=   179 JCONV= 92 CHG=1.06E-04 dt0=1.00E+04 DIVF(1)= 1.84E-03 DIVFrms= 3.31E-03 DT(ND)= 3.49E-04 T(ND)=2.2448E+02
 NST=   180 JCONV= 92 CHG=2.92E-05 dt0=1.00E+04 DIVF(1)= 1.84E-03 DIVFrms= 3.32E-03 DT(ND)= 3.53E-04 T(ND)=2.2448E+02
 NST=   181 JCONV= 92 CHG=2.35E-05 dt0=1.00E+04 DIVF(1)= 1.85E-03 DIVFrms= 3.31E-03 DT(ND)= 3.53E-04 T(ND)=2.2448E+02
 NST=   182 JCONV= 92 CHG=5.96E-04 dt0=1.00E+04 DIVF(1)= 1.87E-03 DIVFrms= 3.31E-03 DT(ND)= 3.54E-04 T(ND)=2.2448E+02
 NST=   183 JCONV= 92 CHG=1.37E-04 dt0=1.00E+04 DIVF(1)= 1.85E-03 DIVFrms= 3.31E-03 DT(ND)= 3.58E-04 T(ND)=2.2449E+02
 NST=   184 JCONV= 92 CHG=4.33E-05 dt0=1.00E+04 DIVF(1)= 1.86E-03 DIVFrms= 3.32E-03 DT(ND)= 3.62E-04 T(ND)=2.2449E+02
 NST=   185 JCONV= 92 CHG=7.06E-05 dt0=1.00E+04 DIVF(1)= 1.86E-03 DIVFrms= 3.32E-03 DT(ND)= 3.63E-04 T(ND)=2.2449E+02
 NST=   186 JCONV= 92 CHG=3.62E-04 dt0=1.00E+04 DIVF(1)= 1.86E-03 DIVFrms= 3.32E-03 DT(ND)= 3.66E-04 T(ND)=2.2449E+02
 NST=   187 JCONV= 92 CHG=1.57E-04 dt0=1.00E+04 DIVF(1)= 1.87E-03 DIVFrms= 3.32E-03 DT(ND)= 3.70E-04 T(ND)=2.2449E+02
 NST=   188 JCONV= 92 CHG=2.88E-05 dt0=1.00E+04 DIVF(1)= 1.87E-03 DIVFrms= 3.32E-03 DT(ND)= 3.70E-04 T(ND)=2.2449E+02
 NST=   189 JCONV= 92 CHG=2.49E-05 dt0=1.00E+04 DIVF(1)= 1.87E-03 DIVFrms= 3.32E-03 DT(ND)= 3.72E-04 T(ND)=2.2449E+02
 NST=   190 JCONV= 92 CHG=1.67E-04 dt0=1.00E+04 DIVF(1)= 1.87E-03 DIVFrms= 3.32E-03 DT(ND)= 3.73E-04 T(ND)=2.2449E+02
 NST=   191 JCONV= 92 CHG=8.21E-05 dt0=1.00E+04 DIVF(1)= 1.88E-03 DIVFrms= 3.32E-03 DT(ND)= 3.76E-04 T(ND)=2.2449E+02
 NST=   192 JCONV= 92 CHG=9.87E-05 dt0=1.00E+04 DIVF(1)= 1.89E-03 DIVFrms= 3.33E-03 DT(ND)= 3.81E-04 T(ND)=2.2449E+02
 NST=   193 JCONV= 92 CHG=4.32E-05 dt0=1.00E+04 DIVF(1)= 1.89E-03 DIVFrms= 3.32E-03 DT(ND)= 3.82E-04 T(ND)=2.2449E+02
 NST=   194 JCONV= 92 CHG=3.03E-04 dt0=1.00E+04 DIVF(1)= 1.87E-03 DIVFrms= 3.32E-03 DT(ND)= 3.84E-04 T(ND)=2.2449E+02
 NST=   195 JCONV= 92 CHG=2.05E-04 dt0=1.00E+04 DIVF(1)= 1.89E-03 DIVFrms= 3.32E-03 DT(ND)= 3.85E-04 T(ND)=2.2449E+02
 NST=   196 JCONV= 92 CHG=1.28E-04 dt0=1.00E+04 DIVF(1)= 1.89E-03 DIVFrms= 3.32E-03 DT(ND)= 3.88E-04 T(ND)=2.2449E+02
 NST=   197 JCONV= 92 CHG=8.27E-05 dt0=1.00E+04 DIVF(1)= 1.89E-03 DIVFrms= 3.32E-03 DT(ND)= 3.88E-04 T(ND)=2.2449E+02
 NST=   198 JCONV= 92 CHG=3.84E-05 dt0=1.00E+04 DIVF(1)= 1.89E-03 DIVFrms= 3.32E-03 DT(ND)= 3.91E-04 T(ND)=2.2449E+02
 NST=   199 JCONV= 92 CHG=2.10E-04 dt0=1.00E+04 DIVF(1)= 1.90E-03 DIVFrms= 3.32E-03 DT(ND)= 3.93E-04 T(ND)=2.2449E+02
 NST=   200 JCONV= 92 CHG=1.28E-04 dt0=1.00E+04 DIVF(1)= 1.90E-03 DIVFrms= 3.32E-03 DT(ND)= 3.96E-04 T(ND)=2.2449E+02
 NST=   201 JCONV= 92 CHG=4.78E-05 dt0=1.00E+04 DIVF(1)= 1.90E-03 DIVFrms= 3.32E-03 DT(ND)= 3.98E-04 T(ND)=2.2449E+02
 NST=   202 JCONV= 92 CHG=3.24E-05 dt0=1.00E+04 DIVF(1)= 1.90E-03 DIVFrms= 3.33E-03 DT(ND)= 4.01E-04 T(ND)=2.2449E+02
 NST=   203 JCONV= 92 CHG=4.38E-05 dt0=1.00E+04 DIVF(1)= 1.90E-03 DIVFrms= 3.32E-03 DT(ND)= 4.02E-04 T(ND)=2.2449E+02
 NST=   204 JCONV= 92 CHG=1.10E-04 dt0=1.00E+04 DIVF(1)= 1.92E-03 DIVFrms= 3.34E-03 DT(ND)= 4.12E-04 T(ND)=2.2449E+02
 NST=   205 JCONV= 92 CHG=4.15E-05 dt0=1.00E+04 DIVF(1)= 1.70E-03 DIVFrms= 2.67E-03 DT(ND)= 2.71E-04 T(ND)=2.2449E+02
 NST=   206 JCONV= 92 CHG=6.99E-05 dt0=1.00E+04 DIVF(1)= 1.93E-03 DIVFrms= 3.33E-03 DT(ND)= 3.70E-04 T(ND)=2.2449E+02
 NST=   207 JCONV= 92 CHG=2.31E-04 dt0=1.00E+04 DIVF(1)= 1.71E-03 DIVFrms= 2.67E-03 DT(ND)= 2.58E-04 T(ND)=2.2449E+02
 NST=   208 JCONV= 92 CHG=5.49E-05 dt0=1.00E+04 DIVF(1)= 1.92E-03 DIVFrms= 3.33E-03 DT(ND)= 3.66E-04 T(ND)=2.2449E+02
 NST=   209 JCONV= 92 CHG=7.79E-05 dt0=1.00E+04 DIVF(1)= 1.70E-03 DIVFrms= 2.66E-03 DT(ND)= 2.59E-04 T(ND)=2.2449E+02
 NST=   210 JCONV= 92 CHG=1.63E-04 dt0=1.00E+04 DIVF(1)= 1.93E-03 DIVFrms= 3.33E-03 DT(ND)= 3.69E-04 T(ND)=2.2450E+02
 NST=   211 JCONV= 92 CHG=1.25E-04 dt0=1.00E+04 DIVF(1)= 1.71E-03 DIVFrms= 2.66E-03 DT(ND)= 2.61E-04 T(ND)=2.2450E+02
 NST=   212 JCONV= 92 CHG=1.43E-04 dt0=1.00E+04 DIVF(1)= 1.93E-03 DIVFrms= 3.33E-03 DT(ND)= 3.72E-04 T(ND)=2.2450E+02
 NST=   213 JCONV= 92 CHG=9.11E-05 dt0=1.00E+04 DIVF(1)= 1.70E-03 DIVFrms= 2.66E-03 DT(ND)= 2.66E-04 T(ND)=2.2450E+02
 NST=   214 JCONV= 92 CHG=1.36E-04 dt0=1.00E+04 DIVF(1)= 1.94E-03 DIVFrms= 3.33E-03 DT(ND)= 3.76E-04 T(ND)=2.2450E+02
 NST=   215 JCONV= 92 CHG=5.50E-05 dt0=1.00E+04 DIVF(1)= 1.71E-03 DIVFrms= 2.66E-03 DT(ND)= 2.70E-04 T(ND)=2.2450E+02
 NST=   216 JCONV= 92 CHG=2.18E-05 dt0=1.00E+04 DIVF(1)= 1.94E-03 DIVFrms= 3.33E-03 DT(ND)= 3.81E-04 T(ND)=2.2450E+02
 NST=   217 JCONV= 92 CHG=3.91E-05 dt0=1.00E+04 DIVF(1)= 1.71E-03 DIVFrms= 2.66E-03 DT(ND)= 2.74E-04 T(ND)=2.2450E+02
 NST=   218 JCONV= 92 CHG=7.32E-05 dt0=1.00E+04 DIVF(1)= 1.94E-03 DIVFrms= 3.33E-03 DT(ND)= 3.82E-04 T(ND)=2.2450E+02
 NST=   219 JCONV= 92 CHG=2.19E-04 dt0=1.00E+04 DIVF(1)= 1.71E-03 DIVFrms= 2.66E-03 DT(ND)= 2.79E-04 T(ND)=2.2450E+02
 NST=   220 JCONV= 92 CHG=1.02E-04 dt0=1.00E+04 DIVF(1)= 1.95E-03 DIVFrms= 3.33E-03 DT(ND)= 3.87E-04 T(ND)=2.2450E+02
 NST=   221 JCONV= 92 CHG=1.17E-04 dt0=1.00E+04 DIVF(1)= 1.72E-03 DIVFrms= 2.66E-03 DT(ND)= 2.82E-04 T(ND)=2.2450E+02
 NST=   222 JCONV= 92 CHG=3.29E-04 dt0=1.00E+04 DIVF(1)= 1.94E-03 DIVFrms= 3.34E-03 DT(ND)= 3.93E-04 T(ND)=2.2450E+02
 NST=   223 JCONV= 92 CHG=1.77E-04 dt0=1.00E+04 DIVF(1)= 1.72E-03 DIVFrms= 2.67E-03 DT(ND)= 2.86E-04 T(ND)=2.2450E+02
 NST=   224 JCONV= 92 CHG=1.23E-04 dt0=1.00E+04 DIVF(1)= 1.95E-03 DIVFrms= 3.33E-03 DT(ND)= 3.95E-04 T(ND)=2.2450E+02
 NST=   225 JCONV= 92 CHG=5.09E-05 dt0=1.00E+04 DIVF(1)= 1.73E-03 DIVFrms= 2.66E-03 DT(ND)= 2.88E-04 T(ND)=2.2450E+02
 NST=   226 JCONV= 92 CHG=8.03E-05 dt0=1.00E+04 DIVF(1)= 1.95E-03 DIVFrms= 3.33E-03 DT(ND)= 3.98E-04 T(ND)=2.2450E+02
 NST=   227 JCONV= 92 CHG=2.70E-05 dt0=1.00E+04 DIVF(1)= 1.72E-03 DIVFrms= 2.66E-03 DT(ND)= 2.91E-04 T(ND)=2.2450E+02
 NST=   228 JCONV= 92 CHG=5.39E-05 dt0=1.00E+04 DIVF(1)= 1.96E-03 DIVFrms= 3.34E-03 DT(ND)= 4.04E-04 T(ND)=2.2450E+02
 NST=   229 JCONV= 92 CHG=1.06E-04 dt0=1.00E+04 DIVF(1)= 1.72E-03 DIVFrms= 2.66E-03 DT(ND)= 2.95E-04 T(ND)=2.2450E+02
 NST=   230 JCONV= 92 CHG=5.51E-05 dt0=1.00E+04 DIVF(1)= 1.96E-03 DIVFrms= 3.33E-03 DT(ND)= 4.06E-04 T(ND)=2.2450E+02
 NST=   231 JCONV= 92 CHG=3.96E-05 dt0=1.00E+04 DIVF(1)= 1.72E-03 DIVFrms= 2.65E-03 DT(ND)= 2.98E-04 T(ND)=2.2450E+02
 NST=   232 JCONV= 92 CHG=1.73E-04 dt0=1.00E+04 DIVF(1)= 1.96E-03 DIVFrms= 3.33E-03 DT(ND)= 4.10E-04 T(ND)=2.2450E+02
 NST=   233 JCONV= 92 CHG=7.44E-05 dt0=1.00E+04 DIVF(1)= 1.73E-03 DIVFrms= 2.65E-03 DT(ND)= 3.01E-04 T(ND)=2.2450E+02
 NST=   234 JCONV= 92 CHG=9.26E-05 dt0=1.00E+04 DIVF(1)= 1.96E-03 DIVFrms= 3.33E-03 DT(ND)= 4.13E-04 T(ND)=2.2450E+02
 NST=   235 JCONV= 92 CHG=9.45E-05 dt0=1.00E+04 DIVF(1)= 1.73E-03 DIVFrms= 2.65E-03 DT(ND)= 3.04E-04 T(ND)=2.2450E+02
 NST=   236 JCONV= 92 CHG=2.76E-04 dt0=1.00E+04 DIVF(1)= 1.97E-03 DIVFrms= 3.32E-03 DT(ND)= 4.15E-04 T(ND)=2.2450E+02
 NST=   237 JCONV= 92 CHG=4.53E-05 dt0=1.00E+04 DIVF(1)= 1.73E-03 DIVFrms= 2.65E-03 DT(ND)= 3.09E-04 T(ND)=2.2450E+02
 NST=   238 JCONV= 92 CHG=1.52E-04 dt0=1.00E+04 DIVF(1)= 1.96E-03 DIVFrms= 3.32E-03 DT(ND)= 4.19E-04 T(ND)=2.2450E+02
 NST=   239 JCONV= 92 CHG=8.00E-05 dt0=1.00E+04 DIVF(1)= 1.73E-03 DIVFrms= 2.65E-03 DT(ND)= 3.12E-04 T(ND)=2.2451E+02
 NST=   240 JCONV= 92 CHG=3.73E-05 dt0=1.00E+04 DIVF(1)= 1.73E-03 DIVFrms= 2.65E-03 DT(ND)= 2.79E-04 T(ND)=2.2451E+02
 NST=   241 JCONV= 92 CHG=1.98E-04 dt0=1.00E+04 DIVF(1)= 1.96E-03 DIVFrms= 3.33E-03 DT(ND)= 4.14E-04 T(ND)=2.2451E+02
 NST=   242 JCONV= 92 CHG=1.32E-04 dt0=1.00E+04 DIVF(1)= 1.73E-03 DIVFrms= 2.65E-03 DT(ND)= 3.11E-04 T(ND)=2.2451E+02
 NST=   243 JCONV= 92 CHG=8.52E-05 dt0=1.00E+04 DIVF(1)= 1.72E-03 DIVFrms= 2.64E-03 DT(ND)= 2.80E-04 T(ND)=2.2451E+02
 NST=   244 JCONV= 92 CHG=4.41E-05 dt0=1.00E+04 DIVF(1)= 1.96E-03 DIVFrms= 3.31E-03 DT(ND)= 4.12E-04 T(ND)=2.2451E+02
 NST=   245 JCONV= 92 CHG=1.51E-04 dt0=1.00E+04 DIVF(1)= 1.73E-03 DIVFrms= 2.64E-03 DT(ND)= 3.14E-04 T(ND)=2.2451E+02
 NST=   246 JCONV= 92 CHG=1.33E-04 dt0=1.00E+04 DIVF(1)= 1.73E-03 DIVFrms= 2.65E-03 DT(ND)= 2.86E-04 T(ND)=2.2451E+02
 NST=   247 JCONV= 92 CHG=2.66E-05 dt0=1.00E+04 DIVF(1)= 1.96E-03 DIVFrms= 3.31E-03 DT(ND)= 4.17E-04 T(ND)=2.2451E+02
 NST=   248 JCONV= 92 CHG=1.47E-04 dt0=1.00E+04 DIVF(1)= 1.73E-03 DIVFrms= 2.64E-03 DT(ND)= 3.19E-04 T(ND)=2.2451E+02
 NST=   249 JCONV= 92 CHG=8.84E-05 dt0=1.00E+04 DIVF(1)= 1.73E-03 DIVFrms= 2.64E-03 DT(ND)= 2.90E-04 T(ND)=2.2451E+02
 NST=   250 JCONV= 92 CHG=2.55E-04 dt0=1.00E+04 DIVF(1)= 1.97E-03 DIVFrms= 3.30E-03 DT(ND)= 4.20E-04 T(ND)=2.2451E+02

 TIME= 2.492E+06  TIME IN DAYS = 2.885E+01

 PLANETARY ALBEDO:  ALBP = 0.6086

  J     P         ALT         T        CONVEC       DT          TOLD        FH20       FSAVE       TCOOL       THEAT
  1 5.4116E-05 6.0407E+01 1.9534E+02  0.00E+00   5.3781E-02  1.9528E+02  4.9242E-07  5.0390E-07 -2.9908E+01  2.7342E+01
  2 6.3355E-05 5.9478E+01 2.0859E+02  0.00E+00   5.3240E-02  2.0854E+02  4.9242E-07  5.0390E-07 -2.4406E+01  2.6257E+01
  3 7.4082E-05 5.8501E+01 2.1957E+02  0.00E+00   1.3128E-02  2.1955E+02  4.9242E-07  5.0390E-07 -2.3974E+01  2.5069E+01
  4 8.6522E-05 5.7488E+01 2.2748E+02  0.00E+00  -4.0605E-03  2.2748E+02  4.9242E-07  5.0390E-07 -2.2828E+01  2.3783E+01
  5 1.0093E-04 5.6455E+01 2.3199E+02  0.00E+00  -4.2482E-03  2.3200E+02  4.9242E-07  5.0390E-07 -2.1014E+01  2.2405E+01
  6 1.1760E-04 5.5416E+01 2.3358E+02  0.00E+00  -1.4375E-03  2.3358E+02  4.9242E-07  5.0390E-07 -2.0587E+01  2.0945E+01
  7 1.3685E-04 5.4383E+01 2.3318E+02  0.00E+00  -1.7815E-04  2.3318E+02  4.9242E-07  5.0390E-07 -1.9700E+01  1.9415E+01
  8 1.5907E-04 5.3363E+01 2.3171E+02  0.00E+00   9.3994E-05  2.3170E+02  4.9242E-07  5.0390E-07 -1.8266E+01  1.7834E+01
  9 1.8468E-04 5.2357E+01 2.2983E+02  0.00E+00  -1.3696E-04  2.2983E+02  4.9242E-07  5.0390E-07 -1.6621E+01  1.6229E+01
 10 2.1415E-04 5.1368E+01 2.2795E+02  0.00E+00  -2.9103E-04  2.2795E+02  4.9242E-07  5.0390E-07 -1.4848E+01  1.4631E+01
 11 2.4802E-04 5.0395E+01 2.2630E+02  0.00E+00  -3.5510E-04  2.2630E+02  4.9242E-07  5.0390E-07 -1.3220E+01  1.3074E+01
 12 2.8692E-04 4.9435E+01 2.2501E+02  0.00E+00  -3.5795E-04  2.2501E+02  4.9242E-07  5.0390E-07 -1.1781E+01  1.1612E+01
 13 3.3151E-04 4.8488E+01 2.2412E+02  0.00E+00  -3.3593E-04  2.2412E+02  4.9242E-07  5.0390E-07 -1.0638E+01  1.0466E+01
 14 3.8258E-04 4.7552E+01 2.2357E+02  0.00E+00  -3.2682E-04  2.2357E+02  4.9242E-07  5.0390E-07 -9.7989E+00  9.8122E+00
 15 4.4098E-04 4.6625E+01 2.2327E+02  0.00E+00  -3.2903E-04  2.2327E+02  4.9242E-07  5.0390E-07 -9.2753E+00  9.3157E+00
 16 5.0770E-04 4.5708E+01 2.2314E+02  0.00E+00  -3.4037E-04  2.2314E+02  4.9242E-07  5.0390E-07 -8.9267E+00  8.9381E+00
 17 5.8381E-04 4.4798E+01 2.2315E+02  0.00E+00  -3.5208E-04  2.2315E+02  4.9242E-07  5.0390E-07 -8.7130E+00  8.6651E+00
 18 6.7053E-04 4.3896E+01 2.2323E+02  0.00E+00  -3.6974E-04  2.2323E+02  4.9242E-07  5.0390E-07 -8.5832E+00  8.4705E+00
 19 7.6921E-04 4.3001E+01 2.2330E+02  0.00E+00  -3.8450E-04  2.2330E+02  4.9242E-07  5.0390E-07 -8.4439E+00  8.3196E+00
 20 8.8135E-04 4.2114E+01 2.2318E+02  0.00E+00  -3.8657E-04  2.2318E+02  4.9242E-07  5.0390E-07 -8.1348E+00  8.1777E+00
 21 1.0086E-03 4.1236E+01 2.2262E+02  0.00E+00  -4.3424E-04  2.2262E+02  4.9242E-07  5.0390E-07 -7.6298E+00  8.1080E+00
 22 1.1529E-03 4.0369E+01 2.2159E+02  0.00E+00  -4.5880E-04  2.2159E+02  4.9242E-07  5.0390E-07 -8.5540E+00  8.6522E+00
 23 1.3163E-03 3.9515E+01 2.2022E+02  0.00E+00  -6.0710E-04  2.2022E+02  4.9242E-07  5.0390E-07 -8.9786E+00  8.9581E+00
 24 1.5010E-03 3.8674E+01 2.1863E+02  0.00E+00  -5.5695E-04  2.1863E+02  4.9242E-07  5.0390E-07 -8.9681E+00  8.9621E+00
 25 1.7096E-03 3.7847E+01 2.1697E+02  0.00E+00  -6.5084E-04  2.1697E+02  4.9242E-07  5.0390E-07 -8.6954E+00  8.6994E+00
 26 1.9449E-03 3.7033E+01 2.1537E+02  0.00E+00  -8.2067E-04  2.1538E+02  4.9242E-07  5.0390E-07 -8.3045E+00  8.2403E+00
 27 2.2098E-03 3.6233E+01 2.1396E+02  0.00E+00   1.5100E-04  2.1396E+02  4.9242E-07  5.0390E-07 -7.7565E+00  7.6766E+00
 28 2.5079E-03 3.5445E+01 2.1282E+02  0.00E+00  -2.3337E-03  2.1283E+02  4.9242E-07  5.0390E-07 -7.2111E+00  7.0981E+00
 29 2.8428E-03 3.4668E+01 2.1200E+02  0.00E+00  -2.2585E-03  2.1200E+02  4.9242E-07  5.0390E-07 -6.6886E+00  6.5673E+00
 30 3.2186E-03 3.3900E+01 2.1146E+02  0.00E+00  -1.2718E-03  2.1147E+02  4.9242E-07  5.0390E-07 -6.1251E+00  6.0843E+00
 31 3.6396E-03 3.3142E+01 2.1117E+02  0.00E+00   9.4599E-05  2.1117E+02  4.9242E-07  5.0390E-07 -5.6278E+00  5.5798E+00
 32 4.1109E-03 3.2392E+01 2.1105E+02  0.00E+00  -1.2912E-03  2.1105E+02  4.9242E-07  5.0390E-07 -5.1758E+00  5.1519E+00
 33 4.6376E-03 3.1649E+01 2.1100E+02  0.00E+00  -1.4902E-03  2.1100E+02  4.9242E-07  5.0390E-07 -4.7707E+00  4.7733E+00
 34 5.2255E-03 3.0914E+01 2.1093E+02  0.00E+00  -8.9751E-04  2.1093E+02  4.9242E-07  5.0390E-07 -4.3776E+00  4.4220E+00
 35 5.8809E-03 3.0187E+01 2.1077E+02  0.00E+00  -8.3315E-04  2.1077E+02  4.9242E-07  5.0390E-07 -4.0600E+00  4.0895E+00
 36 6.6107E-03 2.9468E+01 2.1047E+02  0.00E+00  -9.8238E-04  2.1048E+02  4.9242E-07  5.0390E-07 -3.7767E+00  3.7750E+00
 37 7.4221E-03 2.8757E+01 2.1002E+02  0.00E+00  -1.1080E-03  2.1002E+02  4.9242E-07  5.0390E-07 -3.5059E+00  3.4816E+00
 38 8.3231E-03 2.8056E+01 2.0935E+02  0.00E+00  -1.1612E-03  2.0935E+02  4.9242E-07  5.0390E-07 -3.1737E+00  3.2130E+00
 39 9.3224E-03 2.7365E+01 2.0843E+02  0.00E+00  -1.1651E-03  2.0843E+02  4.9242E-07  5.0390E-07 -2.7725E+00  2.9680E+00
 40 1.0429E-02 2.6684E+01 2.0729E+02  0.00E+00  -1.1565E-03  2.0729E+02  4.9242E-07  5.0390E-07 -2.5448E+00  2.7333E+00
 41 1.1653E-02 2.6014E+01 2.0610E+02  0.00E+00  -1.1497E-03  2.0610E+02  4.9242E-07  5.0390E-07 -2.5563E+00  2.4810E+00
 42 1.3006E-02 2.5356E+01 2.0508E+02  0.00E+00  -1.1487E-03  2.0508E+02  4.9242E-07  5.0390E-07 -2.4470E+00  2.2478E+00
 43 1.4498E-02 2.4707E+01 2.0436E+02  0.00E+00  -1.1600E-03  2.0436E+02  4.9242E-07  5.0390E-07 -2.2517E+00  2.0594E+00
 44 1.6142E-02 2.4067E+01 2.0397E+02  0.00E+00  -1.1897E-03  2.0397E+02  4.9242E-07  5.0390E-07 -2.0182E+00  1.9075E+00
 45 1.7950E-02 2.3434E+01 2.0383E+02  0.00E+00  -1.2400E-03  2.0383E+02  4.9242E-07  5.0390E-07 -1.8137E+00  1.7777E+00
 46 1.9938E-02 2.2810E+01 2.0386E+02  0.00E+00  -1.3074E-03  2.0386E+02  4.9242E-07  5.0390E-07 -1.6392E+00  1.6605E+00
 47 2.2119E-02 2.2192E+01 2.0394E+02  0.00E+00  -1.3841E-03  2.0395E+02  4.9242E-07  5.0390E-07 -1.5017E+00  1.5511E+00
 48 2.4509E-02 2.1581E+01 2.0403E+02  0.00E+00  -1.4583E-03  2.0403E+02  4.9242E-07  5.0390E-07 -1.4181E+00  1.4467E+00
 49 2.7126E-02 2.0977E+01 2.0408E+02  0.00E+00  -1.5173E-03  2.0408E+02  4.9242E-07  5.0390E-07 -1.3291E+00  1.3452E+00
 50 2.9986E-02 2.0380E+01 2.0407E+02  0.00E+00  -1.5490E-03  2.0407E+02  4.9242E-07  5.0390E-07 -1.2474E+00  1.2455E+00
 51 3.3107E-02 1.9790E+01 2.0401E+02  0.00E+00  -1.5449E-03  2.0402E+02  4.9242E-07  5.0390E-07 -1.1645E+00  1.1462E+00
 52 3.6510E-02 1.9207E+01 2.0390E+02  0.00E+00  -1.5017E-03  2.0390E+02  4.9242E-07  5.0390E-07 -1.0562E+00  1.0474E+00
 53 4.0215E-02 1.8632E+01 2.0373E+02  0.00E+00  -1.4224E-03  2.0373E+02  4.9242E-07  5.0390E-07 -9.6558E-01  9.5036E-01
 54 4.4242E-02 1.8065E+01 2.0351E+02  0.00E+00  -1.3157E-03  2.0351E+02  4.9242E-07  5.0390E-07 -8.7352E-01  8.5617E-01
 55 4.8615E-02 1.7505E+01 2.0322E+02  0.00E+00  -1.1947E-03  2.0322E+02  4.9242E-07  5.0390E-07 -7.8322E-01  7.6586E-01
 56 5.3356E-02 1.6954E+01 2.0286E+02  0.00E+00  -1.0749E-03  2.0286E+02  4.9242E-07  5.0390E-07 -6.8195E-01  6.8046E-01
 57 5.8490E-02 1.6411E+01 2.0243E+02  0.00E+00  -9.7218E-04  2.0243E+02  4.9242E-07  5.0390E-07 -6.0355E-01  6.0082E-01
 58 6.4041E-02 1.5876E+01 2.0190E+02  0.00E+00  -9.0337E-04  2.0190E+02  4.9242E-07  5.0390E-07 -5.1905E-01  5.2742E-01
 59 7.0035E-02 1.5349E+01 2.0129E+02  0.00E+00  -8.8199E-04  2.0129E+02  4.9242E-07  5.0390E-07 -4.5614E-01  4.6028E-01
 60 7.6498E-02 1.4831E+01 2.0060E+02  0.00E+00  -9.1525E-04  2.0060E+02  4.9242E-07  5.0390E-07 -3.8994E-01  3.9904E-01
 61 8.3458E-02 1.4322E+01 1.9985E+02  0.00E+00  -1.0068E-03  1.9985E+02  4.9242E-07  5.0390E-07 -3.3815E-01  3.4295E-01
 62 9.0943E-02 1.3822E+01 1.9906E+02  0.00E+00  -1.1368E-03  1.9906E+02  4.9242E-07  5.0390E-07 -2.9948E-01  2.9109E-01
 63 9.8980E-02 1.3331E+01 1.9826E+02  0.00E+00  -1.3138E-03  1.9826E+02  4.9242E-07  5.0390E-07 -2.6345E-01  2.4532E-01
 64 1.0760E-01 1.2849E+01 1.9748E+02  0.00E+00  -1.5228E-03  1.9749E+02  4.9242E-07  5.0390E-07 -2.5754E-01  2.3375E-01
 65 1.1683E-01 1.2376E+01 1.9675E+02  0.00E+00  -1.7343E-03  1.9675E+02  4.9242E-07  5.0390E-07 -2.5473E-01  2.2808E-01
 66 1.2670E-01 1.1911E+01 1.9608E+02  0.00E+00  -1.9258E-03  1.9608E+02  4.9242E-07  5.0390E-07 -2.5315E-01  2.2192E-01
 67 1.3724E-01 1.1454E+01 1.9548E+02  0.00E+00  -2.0878E-03  1.9549E+02  4.9242E-07  5.0390E-07 -2.4469E-01  2.1479E-01
 68 1.4848E-01 1.1005E+01 1.9496E+02  0.00E+00  -2.2190E-03  1.9496E+02  4.9242E-07  5.0390E-07 -2.3297E-01  2.0658E-01
 69 1.6044E-01 1.0565E+01 1.9450E+02  0.00E+00  -2.3110E-03  1.9451E+02  4.9242E-07  5.0390E-07 -2.2211E-01  1.9737E-01
 70 1.7317E-01 1.0132E+01 1.9411E+02  0.00E+00  -2.3415E-03  1.9411E+02  4.9242E-07  5.0390E-07 -2.0955E-01  1.8736E-01
 71 1.8668E-01 9.7068E+00 1.9377E+02  0.00E+00  -2.3013E-03  1.9377E+02  4.9242E-07  5.0390E-07 -1.9342E-01  1.7682E-01
 72 2.0100E-01 9.2889E+00 1.9347E+02  0.00E+00  -2.2001E-03  1.9347E+02  4.9242E-07  5.0390E-07 -1.8007E-01  1.6606E-01
 73 2.1617E-01 8.8785E+00 1.9321E+02  0.00E+00  -2.0484E-03  1.9321E+02  4.9242E-07  5.0390E-07 -1.6732E-01  1.5533E-01
 74 2.3220E-01 8.4753E+00 1.9299E+02  0.00E+00  -1.8678E-03  1.9299E+02  4.9242E-07  5.0390E-07 -1.5355E-01  1.4487E-01
 75 2.4912E-01 8.0792E+00 1.9280E+02  0.00E+00  -1.6465E-03  1.9280E+02  4.9242E-07  5.0390E-07 -1.4321E-01  1.3485E-01
 76 2.6695E-01 7.6903E+00 1.9264E+02  0.00E+00  -1.4016E-03  1.9265E+02  4.9242E-07  5.0390E-07 -1.3428E-01  1.2538E-01
 77 2.8572E-01 7.3083E+00 1.9254E+02  0.00E+00  -1.1415E-03  1.9254E+02  4.9242E-07  5.0390E-07 -1.2682E-01  1.1653E-01
 78 3.0544E-01 6.9332E+00 1.9249E+02  0.00E+00  -7.8930E-04  1.9250E+02  4.9242E-07  5.0390E-07 -1.2067E-01  1.0848E-01
 79 3.2614E-01 6.5648E+00 1.9251E+02  0.00E+00  -5.8079E-04  1.9251E+02  4.9242E-07  5.0390E-07 -1.1465E-01  1.0289E-01
 80 3.4782E-01 6.2030E+00 1.9260E+02  0.00E+00  -4.0944E-05  1.9260E+02  4.9242E-07  5.0390E-07 -1.0836E-01  9.9760E-02
 81 3.7050E-01 5.8478E+00 1.9275E+02  0.00E+00   1.1959E-04  1.9275E+02  4.9242E-07  5.0390E-07 -1.0251E-01  9.7194E-02
 82 3.9419E-01 5.4989E+00 1.9296E+02  0.00E+00   2.2363E-04  1.9296E+02  4.9242E-07  5.0390E-07 -9.6918E-02  9.4949E-02
 83 4.1889E-01 5.1564E+00 1.9323E+02  0.00E+00   1.6895E-03  1.9323E+02  4.9242E-07  5.0390E-07 -9.2153E-02  9.2965E-02
 84 4.4461E-01 4.8201E+00 1.9354E+02  0.00E+00  -1.5168E-03  1.9355E+02  4.9242E-07  5.0390E-07 -8.5256E-02  9.1187E-02
 85 4.7134E-01 4.4899E+00 1.9389E+02  0.00E+00   5.2424E-03  1.9388E+02  4.9864E-07  5.0390E-07 -7.7100E-02  8.9576E-02
 86 4.9908E-01 4.1660E+00 1.9424E+02  0.00E+00  -2.5429E-03  1.9424E+02  5.2353E-07  5.0390E-07 -6.6680E-02  8.8153E-02
 87 5.2782E-01 3.8482E+00 1.9461E+02  0.00E+00   3.3593E-03  1.9461E+02  5.5717E-07  5.1030E-07 -5.7984E-02  8.7008E-02
 88 5.5755E-01 3.5364E+00 1.9522E+02  0.00E+00   2.6747E-03  1.9521E+02  6.1545E-07  5.3592E-07 -6.3106E-02  8.6216E-02
 89 5.8825E-01 3.2303E+00 1.9615E+02  0.00E+00   3.1081E-03  1.9615E+02  7.1654E-07  5.7627E-07 -5.8978E-02  8.5832E-02
 90 6.1990E-01 2.9296E+00 1.9693E+02  0.00E+00   3.8031E-03  1.9692E+02  8.1131E-07  6.7712E-07 -5.2736E-02  8.5595E-02
 91 6.5248E-01 2.6340E+00 1.9862E+02  0.00E+00   5.4464E-04  1.9862E+02  1.0605E-06  1.0561E-06 -1.1226E-01  8.6790E-02
 92 6.8594E-01 2.3419E+00 2.0150E+02  1.00E+00   5.5218E-04  2.0150E+02  1.6503E-06  1.6435E-06 -2.2365E-01  9.0862E-02
 93 7.2026E-01 2.0527E+00 2.0435E+02  1.00E+00   5.5228E-04  2.0435E+02  2.5253E-06  2.5147E-06 -3.2885E-01  9.7357E-02
 94 7.5539E-01 1.7667E+00 2.0716E+02  1.00E+00   5.4491E-04  2.0716E+02  3.8019E-06  3.7853E-06 -4.3240E-01  1.0659E-01
 95 7.9129E-01 1.4841E+00 2.0994E+02  1.00E+00   5.3146E-04  2.0994E+02  5.6342E-06  5.6078E-06 -5.2818E-01  1.1884E-01
 96 8.2790E-01 1.2051E+00 2.1269E+02  1.00E+00   5.1462E-04  2.1269E+02  8.2224E-06  8.1802E-06 -6.1149E-01  1.3425E-01
 97 8.6518E-01 9.2996E-01 2.1539E+02  1.00E+00   4.9715E-04  2.1539E+02  1.1821E-05  1.1755E-05 -6.8187E-01  1.5331E-01
 98 9.0305E-01 6.5894E-01 2.1805E+02  1.00E+00   4.7969E-04  2.1805E+02  1.6750E-05  1.6645E-05 -7.5510E-01  1.7768E-01
 99 9.4145E-01 3.9228E-01 2.2067E+02  1.00E+00   4.6034E-04  2.2067E+02  2.3397E-05  2.3236E-05 -8.6111E-01  2.1036E-01
100 9.8032E-01 1.3021E-01 2.2323E+02  1.00E+00   4.4061E-04  2.2323E+02  3.2230E-05  3.1988E-05 -9.5178E-01  2.5481E-01
101 1.0000E+00 0.0000E+00 2.2451E+02  1.00E+00   4.2038E-04  2.2451E+02  3.7690E-05  3.7383E-05 -3.2571E+00  4.0100E+00

 FCO2
  3.00E-03 3.00E-03 3.00E-03 3.00E-03 3.00E-03 3.00E-03 3.00E-03 3.00E-03 3.00E-03 3.00E-03
  3.00E-03 3.00E-03 3.00E-03 3.00E-03 3.00E-03 3.00E-03 3.00E-03 3.00E-03 3.00E-03 3.00E-03
  3.00E-03 3.00E-03 3.00E-03 3.00E-03 3.00E-03 3.00E-03 3.00E-03 3.00E-03 3.00E-03 3.00E-03
  3.00E-03 3.00E-03 3.00E-03 3.00E-03 3.00E-03 3.00E-03 3.00E-03 3.00E-03 3.00E-03 3.00E-03
  3.00E-03 3.00E-03 3.00E-03 3.00E-03 3.00E-03 3.00E-03 3.00E-03 3.00E-03 3.00E-03 3.00E-03
  3.00E-03 3.00E-03 3.00E-03 3.00E-03 3.00E-03 3.00E-03 3.00E-03 3.00E-03 3.00E-03 3.00E-03
  3.00E-03 3.00E-03 3.00E-03 3.00E-03 3.00E-03 3.00E-03 3.00E-03 3.00E-03 3.00E-03 3.00E-03
  3.00E-03 3.00E-03 3.00E-03 3.00E-03 3.00E-03 3.00E-03 3.00E-03 3.00E-03 3.00E-03 3.00E-03
  3.00E-03 3.00E-03 3.00E-03 3.00E-03 3.00E-03 3.00E-03 3.00E-03 3.00E-03 3.00E-03 3.00E-03
  3.00E-03 3.00E-03 3.00E-03 3.00E-03 3.00E-03 3.00E-03 3.00E-03 3.00E-03 3.00E-03 3.00E-03
  3.00E-03

  J    PF         ALT       FTOTAL       FTIR       FDNIR       FUPIR       FTSOL       FDNSOL       FUPSOL       DIVF
  1 5.0000E-05 6.0407E+01  2.4798E+02 -1.2618E+05  0.0000E+00  1.2618E+05  1.2643E+05  3.2300E+05  1.9657E+05  1.9653E-03
  2 5.8571E-05 5.9478E+01  2.5058E+02 -1.2615E+05  5.2285E+01  1.2620E+05  1.2640E+05  3.2297E+05  1.9657E+05  1.9855E-03
  3 6.8529E-05 5.8501E+01  2.4840E+02 -1.2612E+05  1.0309E+02  1.2622E+05  1.2637E+05  3.2294E+05  1.9657E+05  1.9679E-03
  4 8.0085E-05 5.7488E+01  2.4691E+02 -1.2609E+05  1.5136E+02  1.2624E+05  1.2634E+05  3.2290E+05  1.9657E+05  1.9558E-03
  5 9.3477E-05 5.6455E+01  2.4539E+02 -1.2605E+05  1.9473E+02  1.2625E+05  1.2630E+05  3.2286E+05  1.9657E+05  1.9437E-03
  6 1.0898E-04 5.5416E+01  2.4284E+02 -1.2601E+05  2.3197E+02  1.2625E+05  1.2626E+05  3.2282E+05  1.9657E+05  1.9235E-03
  7 1.2690E-04 5.4383E+01  2.4208E+02 -1.2597E+05  2.6781E+02  1.2624E+05  1.2621E+05  3.2278E+05  1.9657E+05  1.9176E-03
  8 1.4759E-04 5.3363E+01  2.4278E+02 -1.2592E+05  3.0453E+02  1.2623E+05  1.2617E+05  3.2273E+05  1.9657E+05  1.9234E-03
  9 1.7145E-04 5.2357E+01  2.4400E+02 -1.2587E+05  3.4333E+02  1.2621E+05  1.2611E+05  3.2268E+05  1.9657E+05  1.9332E-03
 10 1.9893E-04 5.1368E+01  2.4527E+02 -1.2582E+05  3.8489E+02  1.2620E+05  1.2606E+05  3.2263E+05  1.9657E+05  1.9435E-03
 11 2.3053E-04 5.0395E+01  2.4609E+02 -1.2576E+05  4.2912E+02  1.2619E+05  1.2601E+05  3.2257E+05  1.9656E+05  1.9501E-03
 12 2.6684E-04 4.9435E+01  2.4672E+02 -1.2570E+05  4.7620E+02  1.2618E+05  1.2595E+05  3.2252E+05  1.9656E+05  1.9553E-03
 13 3.0850E-04 4.8488E+01  2.4755E+02 -1.2565E+05  5.2612E+02  1.2617E+05  1.2589E+05  3.2246E+05  1.9656E+05  1.9620E-03
 14 3.5624E-04 4.7552E+01  2.4852E+02 -1.2559E+05  5.7915E+02  1.2617E+05  1.2583E+05  3.2240E+05  1.9656E+05  1.9698E-03
 15 4.1087E-04 4.6625E+01  2.4843E+02 -1.2552E+05  6.3587E+02  1.2616E+05  1.2577E+05  3.2233E+05  1.9656E+05  1.9692E-03
 16 4.7331E-04 4.5708E+01  2.4813E+02 -1.2545E+05  6.9753E+02  1.2615E+05  1.2570E+05  3.2226E+05  1.9656E+05  1.9669E-03
 17 5.4459E-04 4.4798E+01  2.4804E+02 -1.2538E+05  7.6496E+02  1.2614E+05  1.2563E+05  3.2219E+05  1.9656E+05  1.9663E-03
 18 6.2585E-04 4.3896E+01  2.4850E+02 -1.2530E+05  8.3888E+02  1.2613E+05  1.2554E+05  3.2210E+05  1.9656E+05  1.9701E-03
 19 7.1839E-04 4.3001E+01  2.4973E+02 -1.2520E+05  9.1954E+02  1.2612E+05  1.2545E+05  3.2201E+05  1.9656E+05  1.9801E-03
 20 8.2362E-04 4.2114E+01  2.5128E+02 -1.2510E+05  1.0061E+03  1.2610E+05  1.2535E+05  3.2191E+05  1.9656E+05  1.9927E-03
 21 9.4313E-04 4.1236E+01  2.5067E+02 -1.2498E+05  1.0961E+03  1.2608E+05  1.2523E+05  3.2179E+05  1.9656E+05  1.9882E-03
 22 1.0787E-03 4.0369E+01  2.4300E+02 -1.2486E+05  1.1881E+03  1.2605E+05  1.2510E+05  3.2166E+05  1.9656E+05  1.9279E-03
 23 1.2323E-03 3.9515E+01  2.4122E+02 -1.2470E+05  1.3042E+03  1.2601E+05  1.2494E+05  3.2150E+05  1.9656E+05  1.9143E-03
 24 1.4060E-03 3.8674E+01  2.4164E+02 -1.2452E+05  1.4430E+03  1.2596E+05  1.2476E+05  3.2132E+05  1.9656E+05  1.9184E-03
 25 1.6024E-03 3.7847E+01  2.4178E+02 -1.2431E+05  1.6027E+03  1.2591E+05  1.2455E+05  3.2111E+05  1.9656E+05  1.9202E-03
 26 1.8240E-03 3.7033E+01  2.4168E+02 -1.2408E+05  1.7828E+03  1.2587E+05  1.2432E+05  3.2089E+05  1.9656E+05  1.9201E-03
 27 2.0737E-03 3.6233E+01  2.4357E+02 -1.2384E+05  1.9841E+03  1.2582E+05  1.2408E+05  3.2065E+05  1.9657E+05  1.9358E-03
 28 2.3549E-03 3.5445E+01  2.4623E+02 -1.2358E+05  2.2042E+03  1.2578E+05  1.2383E+05  3.2040E+05  1.9657E+05  1.9575E-03
 29 2.6709E-03 3.4668E+01  2.5044E+02 -1.2331E+05  2.4424E+03  1.2575E+05  1.2356E+05  3.2014E+05  1.9658E+05  1.9916E-03
 30 3.0258E-03 3.3900E+01  2.5553E+02 -1.2303E+05  2.6973E+03  1.2573E+05  1.2329E+05  3.1987E+05  1.9658E+05  2.0324E-03
 31 3.4236E-03 3.3142E+01  2.5745E+02 -1.2274E+05  2.9633E+03  1.2571E+05  1.2300E+05  3.1959E+05  1.9659E+05  2.0480E-03
 32 3.8692E-03 3.2392E+01  2.5998E+02 -1.2245E+05  3.2378E+03  1.2568E+05  1.2271E+05  3.1931E+05  1.9661E+05  2.0685E-03
 33 4.3676E-03 3.1649E+01  2.6138E+02 -1.2214E+05  3.5170E+03  1.2566E+05  1.2240E+05  3.1902E+05  1.9662E+05  2.0801E-03
 34 4.9242E-03 3.0914E+01  2.6121E+02 -1.2183E+05  3.7975E+03  1.2562E+05  1.2209E+05  3.1872E+05  1.9663E+05  2.0793E-03
 35 5.5452E-03 3.0187E+01  2.5795E+02 -1.2151E+05  4.0751E+03  1.2558E+05  1.2176E+05  3.1841E+05  1.9665E+05  2.0540E-03
 36 6.2370E-03 2.9468E+01  2.5554E+02 -1.2117E+05  4.3508E+03  1.2552E+05  1.2143E+05  3.1810E+05  1.9667E+05  2.0357E-03
 37 7.0067E-03 2.8757E+01  2.5568E+02 -1.2083E+05  4.6239E+03  1.2545E+05  1.2109E+05  3.1778E+05  1.9669E+05  2.0381E-03
 38 7.8620E-03 2.8056E+01  2.5814E+02 -1.2048E+05  4.8932E+03  1.2537E+05  1.2073E+05  3.1745E+05  1.9672E+05  2.0590E-03
 39 8.8112E-03 2.7365E+01  2.5373E+02 -1.2012E+05  5.1525E+03  1.2527E+05  1.2037E+05  3.1712E+05  1.9675E+05  2.0254E-03
 40 9.8632E-03 2.6684E+01  2.2943E+02 -1.1978E+05  5.3982E+03  1.2517E+05  1.2001E+05  3.1679E+05  1.9679E+05  1.8329E-03
 41 1.1028E-02 2.6014E+01  2.0350E+02 -1.1943E+05  5.6563E+03  1.2508E+05  1.1963E+05  3.1645E+05  1.9682E+05  1.6269E-03
 42 1.2315E-02 2.5356E+01  2.1495E+02 -1.1904E+05  5.9680E+03  1.2501E+05  1.1925E+05  3.1612E+05  1.9686E+05  1.7195E-03
 43 1.3736E-02 2.4707E+01  2.4837E+02 -1.1863E+05  6.3263E+03  1.2495E+05  1.1887E+05  3.1578E+05  1.9691E+05  1.9877E-03
 44 1.5302E-02 2.4067E+01  2.8396E+02 -1.1821E+05  6.7159E+03  1.2493E+05  1.1849E+05  3.1544E+05  1.9695E+05  2.2730E-03
 45 1.7027E-02 2.3434E+01  3.0650E+02 -1.1780E+05  7.1197E+03  1.2492E+05  1.1811E+05  3.1510E+05  1.9699E+05  2.4536E-03
 46 1.8924E-02 2.2810E+01  3.1458E+02 -1.1739E+05  7.5291E+03  1.2492E+05  1.1771E+05  3.1475E+05  1.9704E+05  2.5182E-03
 47 2.1006E-02 2.2192E+01  3.0934E+02 -1.1699E+05  7.9373E+03  1.2493E+05  1.1730E+05  3.1438E+05  1.9709E+05  2.4762E-03
 48 2.3291E-02 2.1581E+01  2.9599E+02 -1.1658E+05  8.3427E+03  1.2493E+05  1.1688E+05  3.1401E+05  1.9713E+05  2.3693E-03
 49 2.5792E-02 2.0977E+01  2.8756E+02 -1.1616E+05  8.7531E+03  1.2492E+05  1.1645E+05  3.1363E+05  1.9718E+05  2.3020E-03
 50 2.8528E-02 2.0380E+01  2.8234E+02 -1.1574E+05  9.1635E+03  1.2490E+05  1.1602E+05  3.1324E+05  1.9723E+05  2.2605E-03
 51 3.1517E-02 1.9790E+01  2.8302E+02 -1.1529E+05  9.5734E+03  1.2487E+05  1.1558E+05  3.1285E+05  1.9727E+05  2.2666E-03
 52 3.4777E-02 1.9207E+01  2.9006E+02 -1.1485E+05  9.9792E+03  1.2483E+05  1.1514E+05  3.1245E+05  1.9732E+05  2.3238E-03
 53 3.8329E-02 1.8632E+01  2.9376E+02 -1.1440E+05  1.0368E+04  1.2477E+05  1.1470E+05  3.1206E+05  1.9736E+05  2.3544E-03
 54 4.2193E-02 1.8065E+01  3.0071E+02 -1.1396E+05  1.0741E+04  1.2470E+05  1.1426E+05  3.1166E+05  1.9740E+05  2.4114E-03
 55 4.6391E-02 1.7505E+01  3.0931E+02 -1.1353E+05  1.1092E+04  1.2462E+05  1.1384E+05  3.1127E+05  1.9743E+05  2.4820E-03
 56 5.0946E-02 1.6954E+01  3.1865E+02 -1.1311E+05  1.1415E+04  1.2452E+05  1.1343E+05  3.1089E+05  1.9746E+05  2.5589E-03
 57 5.5881E-02 1.6411E+01  3.1951E+02 -1.1271E+05  1.1700E+04  1.2441E+05  1.1303E+05  3.1052E+05  1.9749E+05  2.5682E-03
 58 6.1221E-02 1.5876E+01  3.2123E+02 -1.1233E+05  1.1951E+04  1.2428E+05  1.1265E+05  3.1015E+05  1.9750E+05  2.5847E-03
 59 6.6991E-02 1.5349E+01  3.1553E+02 -1.1198E+05  1.2162E+04  1.2414E+05  1.1229E+05  3.0980E+05  1.9751E+05  2.5417E-03
 60 7.3217E-02 1.4831E+01  3.1248E+02 -1.1164E+05  1.2343E+04  1.2398E+05  1.1195E+05  3.0946E+05  1.9751E+05  2.5203E-03
 61 7.9926E-02 1.4322E+01  3.0528E+02 -1.1133E+05  1.2492E+04  1.2382E+05  1.1164E+05  3.0913E+05  1.9749E+05  2.4654E-03
 62 8.7146E-02 1.3822E+01  3.0119E+02 -1.1104E+05  1.2621E+04  1.2366E+05  1.1135E+05  3.0881E+05  1.9747E+05  2.4355E-03
 63 9.4905E-02 1.3331E+01  3.0888E+02 -1.1077E+05  1.2739E+04  1.2351E+05  1.1108E+05  3.0850E+05  1.9743E+05  2.5009E-03
 64 1.0323E-01 1.2849E+01  3.2671E+02 -1.1051E+05  1.2853E+04  1.2336E+05  1.1084E+05  3.0821E+05  1.9737E+05  2.6483E-03
 65 1.1215E-01 1.2376E+01  3.5177E+02 -1.1024E+05  1.2992E+04  1.2323E+05  1.1059E+05  3.0789E+05  1.9730E+05  2.8545E-03
 66 1.2170E-01 1.1911E+01  3.8180E+02 -1.0995E+05  1.3164E+04  1.2312E+05  1.1033E+05  3.0757E+05  1.9723E+05  3.1012E-03
 67 1.3190E-01 1.1454E+01  4.1941E+02 -1.0965E+05  1.3373E+04  1.2302E+05  1.1007E+05  3.0722E+05  1.9715E+05  3.4092E-03
 68 1.4279E-01 1.1005E+01  4.5784E+02 -1.0933E+05  1.3612E+04  1.2294E+05  1.0979E+05  3.0686E+05  1.9707E+05  3.7239E-03
 69 1.5439E-01 1.0565E+01  4.9397E+02 -1.0901E+05  1.3875E+04  1.2289E+05  1.0951E+05  3.0648E+05  1.9698E+05  4.0196E-03
 70 1.6673E-01 1.0132E+01  5.3002E+02 -1.0869E+05  1.4162E+04  1.2285E+05  1.0922E+05  3.0610E+05  1.9688E+05  4.3142E-03
 71 1.7985E-01 9.7068E+00  5.6438E+02 -1.0837E+05  1.4468E+04  1.2283E+05  1.0893E+05  3.0570E+05  1.9677E+05  4.5946E-03
 72 1.9376E-01 9.2889E+00  5.9163E+02 -1.0805E+05  1.4782E+04  1.2283E+05  1.0864E+05  3.0529E+05  1.9665E+05  4.8166E-03
 73 2.0851E-01 8.8785E+00  6.1601E+02 -1.0773E+05  1.5108E+04  1.2284E+05  1.0835E+05  3.0487E+05  1.9652E+05  5.0146E-03
 74 2.2410E-01 8.4753E+00  6.3809E+02 -1.0743E+05  1.5444E+04  1.2287E+05  1.0807E+05  3.0445E+05  1.9639E+05  5.1931E-03
 75 2.4058E-01 8.0792E+00  6.5496E+02 -1.0713E+05  1.5787E+04  1.2292E+05  1.0778E+05  3.0403E+05  1.9624E+05  5.3285E-03
 76 2.5796E-01 7.6903E+00  6.7211E+02 -1.0683E+05  1.6143E+04  1.2298E+05  1.0751E+05  3.0359E+05  1.9609E+05  5.4653E-03
 77 2.7626E-01 7.3083E+00  6.9133E+02 -1.0654E+05  1.6515E+04  1.2306E+05  1.0724E+05  3.0316E+05  1.9592E+05  5.6178E-03
 78 2.9551E-01 6.9332E+00  7.1470E+02 -1.0626E+05  1.6907E+04  1.2316E+05  1.0697E+05  3.0272E+05  1.9575E+05  5.8028E-03
 79 3.1572E-01 6.5648E+00  7.4376E+02 -1.0597E+05  1.7323E+04  1.2329E+05  1.0671E+05  3.0227E+05  1.9556E+05  6.0325E-03
 80 3.3691E-01 6.2030E+00  7.7318E+02 -1.0568E+05  1.7764E+04  1.2345E+05  1.0646E+05  3.0182E+05  1.9536E+05  6.2633E-03
 81 3.5909E-01 5.8478E+00  7.9568E+02 -1.0540E+05  1.8231E+04  1.2363E+05  1.0619E+05  3.0135E+05  1.9516E+05  6.4361E-03
 82 3.8228E-01 5.4989E+00  8.1024E+02 -1.0512E+05  1.8724E+04  1.2384E+05  1.0593E+05  3.0087E+05  1.9495E+05  6.5425E-03
 83 4.0647E-01 5.1564E+00  8.1586E+02 -1.0484E+05  1.9241E+04  1.2408E+05  1.0566E+05  3.0038E+05  1.9473E+05  6.5752E-03
 84 4.3168E-01 4.8201E+00  8.1345E+02 -1.0457E+05  1.9785E+04  1.2435E+05  1.0538E+05  2.9988E+05  1.9450E+05  6.5415E-03
 85 4.5791E-01 4.4899E+00  7.9509E+02 -1.0430E+05  2.0344E+04  1.2465E+05  1.0510E+05  2.9937E+05  1.9427E+05  6.3787E-03
 86 4.8515E-01 4.1660E+00  7.5498E+02 -1.0405E+05  2.0915E+04  1.2497E+05  1.0481E+05  2.9884E+05  1.9403E+05  6.0412E-03
 87 5.1340E-01 3.8482E+00  6.8338E+02 -1.0383E+05  2.1505E+04  1.2534E+05  1.0452E+05  2.9830E+05  1.9379E+05  5.4523E-03
 88 5.4264E-01 3.5364E+00  5.8320E+02 -1.0363E+05  2.2169E+04  1.2580E+05  1.0422E+05  2.9775E+05  1.9354E+05  4.6359E-03
 89 5.7287E-01 3.2303E+00  5.0075E+02 -1.0341E+05  2.2972E+04  1.2638E+05  1.0391E+05  2.9719E+05  1.9328E+05  3.9623E-03
 90 6.0405E-01 2.9296E+00  4.0190E+02 -1.0319E+05  2.3834E+04  1.2702E+05  1.0359E+05  2.9661E+05  1.9302E+05  3.1639E-03
 91 6.3617E-01 2.6340E+00  2.7730E+02 -1.0299E+05  2.4994E+04  1.2798E+05  1.0327E+05  2.9602E+05  1.9276E+05  2.1667E-03
 92 6.6920E-01 2.3419E+00  3.7661E+02 -1.0255E+05  2.6734E+04  1.2929E+05  1.0293E+05  2.9542E+05  1.9249E+05  2.9130E-03
 93 7.0310E-01 2.0527E+00  9.0822E+02 -1.0166E+05  2.9023E+04  1.3068E+05  1.0257E+05  2.9479E+05  1.9223E+05  6.9500E-03
 94 7.3784E-01 1.7667E+00  1.8580E+03 -1.0031E+05  3.1878E+04  1.3219E+05  1.0217E+05  2.9413E+05  1.9196E+05  1.4056E-02
 95 7.7336E-01 1.4841E+00  3.2255E+03 -9.8493E+04  3.5309E+04  1.3380E+05  1.0172E+05  2.9343E+05  1.9171E+05  2.4106E-02
 96 8.0963E-01 1.2051E+00  4.9798E+03 -9.6229E+04  3.9275E+04  1.3550E+05  1.0121E+05  2.9267E+05  1.9147E+05  3.6750E-02
 97 8.4659E-01 9.2996E-01  7.0643E+03 -9.3559E+04  4.3729E+04  1.3729E+05  1.0062E+05  2.9186E+05  1.9124E+05  5.1456E-02
 98 8.8418E-01 6.5894E-01  9.4128E+03 -9.0529E+04  4.8593E+04  1.3912E+05  9.9942E+04  2.9099E+05  1.9105E+05  6.7659E-02
 99 9.2233E-01 3.9228E-01  1.2017E+04 -8.7123E+04  5.3827E+04  1.4095E+05  9.9140E+04  2.9004E+05  1.9090E+05  8.5261E-02
100 9.6098E-01 1.3021E-01  1.4992E+04 -8.3187E+04  5.9382E+04  1.4257E+05  9.8179E+04  2.8899E+05  1.9081E+05  1.0515E-01
101 1.0000E+00 0.0000E+00  1.8213E+04 -7.8788E+04  6.4524E+04  1.4331E+05  9.7001E+04  2.8784E+05  1.9084E+05  1.2709E-01
 
