 
    OUTPUT FILES FOR THE Sun  
 
 Solar Constant= 0.950   F_CH4= 1.0000E-60  F_CO2= 5.0000E-01  F_O2= 2.1000E-01  F_N2= 2.9000E-01  IO3 =  1   IUP=  0
 ICONSERV= 1  FAC= 4.0  ND=101  SRFALB= 0.663  G= 980.0  IMW= 1

 FNO2 = 1.000E-60
 
 NST=     1 JCONV= 84 CHG=1.95E-03 dt0=7.50E+03 DIVF(1)=-2.45E-03 DIVFrms= 2.77E-03 DT(ND)=-3.82E-02 T(ND)=2.6221E+02

 TIME= 5.000E+03  TIME IN DAYS = 5.787E-02

 PLANETARY ALBEDO:  ALBP = 0.5422

  J     P         ALT         T        CONVEC       DT          TOLD        FH20       FSAVE       TCOOL       THEAT
  1 5.4117E-05 4.5005E+01 2.1740E+02  0.00E+00  -9.6059E-01  2.1836E+02  1.7215E-06  1.7198E-06 -7.4873E+02  7.4945E+02
  2 6.3358E-05 4.4233E+01 2.1044E+02  0.00E+00   4.0864E-01  2.1003E+02  1.7215E-06  1.7198E-06 -1.8528E+02  1.6688E+02
  3 7.4089E-05 4.3484E+01 2.0770E+02  0.00E+00   3.2259E-01  2.0738E+02  1.7215E-06  1.7198E-06 -1.3944E+02  1.4386E+02
  4 8.6534E-05 4.2747E+01 2.0671E+02  0.00E+00  -5.1638E-02  2.0677E+02  1.7215E-06  1.7198E-06 -1.2238E+02  1.2242E+02
  5 1.0095E-04 4.2022E+01 2.0457E+02  0.00E+00  -1.8851E-01  2.0476E+02  1.7215E-06  1.7198E-06 -9.6372E+01  1.0229E+02
  6 1.1762E-04 4.1314E+01 2.0044E+02  0.00E+00  -9.0466E-02  2.0053E+02  1.7215E-06  1.7198E-06 -8.2748E+01  8.3972E+01
  7 1.3689E-04 4.0627E+01 1.9522E+02  0.00E+00   9.4784E-03  1.9521E+02  1.7215E-06  1.7198E-06 -6.8287E+01  6.7716E+01
  8 1.5912E-04 3.9963E+01 1.9006E+02  0.00E+00   4.4841E-02  1.9002E+02  1.7215E-06  1.7198E-06 -5.4548E+01  5.3726E+01
  9 1.8473E-04 3.9321E+01 1.8572E+02  0.00E+00   4.3170E-02  1.8567E+02  1.7215E-06  1.7198E-06 -4.2726E+01  4.2120E+01
 10 2.1422E-04 3.8697E+01 1.8250E+02  0.00E+00   2.7970E-02  1.8248E+02  1.7215E-06  1.7198E-06 -3.3309E+01  3.2880E+01
 11 2.4812E-04 3.8087E+01 1.8042E+02  0.00E+00   1.3749E-02  1.8041E+02  1.7215E-06  1.7198E-06 -2.6001E+01  2.5843E+01
 12 2.8704E-04 3.7487E+01 1.7929E+02  0.00E+00   5.2552E-03  1.7928E+02  1.7215E-06  1.7198E-06 -2.0794E+01  2.0745E+01
 13 3.3166E-04 3.6895E+01 1.7887E+02  0.00E+00  -2.5563E-03  1.7887E+02  1.7215E-06  1.7198E-06 -1.7386E+01  1.7415E+01
 14 3.8276E-04 3.6308E+01 1.7892E+02  0.00E+00  -4.7563E-03  1.7893E+02  1.7215E-06  1.7198E-06 -1.5479E+01  1.5625E+01
 15 4.4121E-04 3.5726E+01 1.7927E+02  0.00E+00  -4.1136E-03  1.7927E+02  1.7215E-06  1.7198E-06 -1.4623E+01  1.4686E+01
 16 5.0798E-04 3.5147E+01 1.7978E+02  0.00E+00  -5.9155E-03  1.7978E+02  1.7215E-06  1.7198E-06 -1.4176E+01  1.4259E+01
 17 5.8415E-04 3.4571E+01 1.8037E+02  0.00E+00  -5.8319E-03  1.8038E+02  1.7215E-06  1.7198E-06 -1.3987E+01  1.4110E+01
 18 6.7094E-04 3.3998E+01 1.8106E+02  0.00E+00   6.9766E-03  1.8105E+02  1.7215E-06  1.7198E-06 -1.4073E+01  1.4068E+01
 19 7.6971E-04 3.3428E+01 1.8187E+02  0.00E+00   1.3563E-02  1.8185E+02  1.7215E-06  1.7198E-06 -1.4309E+01  1.4022E+01
 20 8.8195E-04 3.2860E+01 1.8267E+02  0.00E+00  -2.4831E-02  1.8269E+02  1.7215E-06  1.7198E-06 -1.3845E+01  1.3911E+01
 21 1.0094E-03 3.2294E+01 1.8331E+02  0.00E+00  -1.9888E-02  1.8333E+02  1.7215E-06  1.7198E-06 -1.2934E+01  1.3875E+01
 22 1.1538E-03 3.1732E+01 1.8404E+02  0.00E+00   1.4273E-02  1.8402E+02  1.7215E-06  1.7198E-06 -1.5655E+01  1.5251E+01
 23 1.3173E-03 3.1172E+01 1.8515E+02  0.00E+00   2.5766E-02  1.8512E+02  1.7215E-06  1.7198E-06 -1.6729E+01  1.6154E+01
 24 1.5022E-03 3.0613E+01 1.8667E+02  0.00E+00   1.7082E-02  1.8665E+02  1.7215E-06  1.7198E-06 -1.6721E+01  1.6471E+01
 25 1.7110E-03 3.0055E+01 1.8838E+02  0.00E+00  -2.4187E-03  1.8838E+02  1.7215E-06  1.7198E-06 -1.6186E+01  1.6206E+01
 26 1.9465E-03 2.9496E+01 1.8998E+02  0.00E+00  -1.3558E-02  1.8999E+02  1.7215E-06  1.7198E-06 -1.5084E+01  1.5419E+01
 27 2.2118E-03 2.8939E+01 1.9128E+02  0.00E+00  -1.1419E-02  1.9129E+02  1.7215E-06  1.7198E-06 -1.3997E+01  1.4229E+01
 28 2.5102E-03 2.8383E+01 1.9225E+02  0.00E+00  -8.2152E-03  1.9226E+02  1.7215E-06  1.7198E-06 -1.2688E+01  1.2792E+01
 29 2.8455E-03 2.7831E+01 1.9295E+02  0.00E+00  -4.0560E-03  1.9295E+02  1.7215E-06  1.7198E-06 -1.1168E+01  1.1277E+01
 30 3.2217E-03 2.7282E+01 1.9349E+02  0.00E+00   3.9472E-03  1.9349E+02  1.7215E-06  1.7198E-06 -9.8323E+00  9.8087E+00
 31 3.6433E-03 2.6736E+01 1.9402E+02  0.00E+00   6.5747E-03  1.9402E+02  1.7215E-06  1.7198E-06 -8.5831E+00  8.4313E+00
 32 4.1152E-03 2.6195E+01 1.9463E+02  0.00E+00   5.3578E-03  1.9462E+02  1.7215E-06  1.7198E-06 -7.3870E+00  7.3315E+00
 33 4.6425E-03 2.5656E+01 1.9532E+02  0.00E+00   4.3084E-03  1.9531E+02  1.7215E-06  1.7198E-06 -6.5401E+00  6.4943E+00
 34 5.2313E-03 2.5122E+01 1.9607E+02  0.00E+00   9.4827E-04  1.9607E+02  1.7215E-06  1.7198E-06 -5.8922E+00  5.8664E+00
 35 5.8876E-03 2.4590E+01 1.9684E+02  0.00E+00  -9.0691E-04  1.9684E+02  1.7215E-06  1.7198E-06 -5.3289E+00  5.3868E+00
 36 6.6183E-03 2.4062E+01 1.9759E+02  0.00E+00   1.3010E-03  1.9759E+02  1.7215E-06  1.7198E-06 -4.9877E+00  5.0009E+00
 37 7.4309E-03 2.3537E+01 1.9829E+02  0.00E+00   2.4493E-03  1.9829E+02  1.7215E-06  1.7198E-06 -4.7107E+00  4.6690E+00
 38 8.3332E-03 2.3016E+01 1.9889E+02  0.00E+00  -1.5586E-03  1.9890E+02  1.7215E-06  1.7198E-06 -4.3403E+00  4.3680E+00
 39 9.3339E-03 2.2500E+01 1.9933E+02  0.00E+00  -7.9148E-03  1.9934E+02  1.7215E-06  1.7198E-06 -3.9311E+00  4.0825E+00
 40 1.0442E-02 2.1987E+01 1.9960E+02  0.00E+00  -5.7627E-03  1.9960E+02  1.7215E-06  1.7198E-06 -3.6484E+00  3.8223E+00
 41 1.1668E-02 2.1480E+01 1.9978E+02  0.00E+00   2.2452E-03  1.9978E+02  1.7215E-06  1.7198E-06 -3.6100E+00  3.5710E+00
 42 1.3023E-02 2.0977E+01 2.0001E+02  0.00E+00   6.2430E-03  2.0000E+02  1.7215E-06  1.7198E-06 -3.4311E+00  3.3026E+00
 43 1.4517E-02 2.0480E+01 2.0033E+02  0.00E+00   3.8898E-03  2.0032E+02  1.7215E-06  1.7198E-06 -3.0962E+00  3.0384E+00
 44 1.6164E-02 1.9987E+01 2.0075E+02  0.00E+00   2.4170E-03  2.0075E+02  1.7215E-06  1.7198E-06 -2.7585E+00  2.7923E+00
 45 1.7975E-02 1.9498E+01 2.0127E+02  0.00E+00   3.2561E-04  2.0127E+02  1.7215E-06  1.7198E-06 -2.5652E+00  2.5745E+00
 46 1.9966E-02 1.9013E+01 2.0187E+02  0.00E+00  -8.9761E-05  2.0187E+02  1.7215E-06  1.7198E-06 -2.3184E+00  2.3901E+00
 47 2.2151E-02 1.8533E+01 2.0256E+02  0.00E+00   1.6941E-03  2.0256E+02  1.7215E-06  1.7198E-06 -2.2200E+00  2.2379E+00
 48 2.4545E-02 1.8056E+01 2.0336E+02  0.00E+00   3.5816E-03  2.0335E+02  1.7215E-06  1.7198E-06 -2.1295E+00  2.1114E+00
 49 2.7166E-02 1.7583E+01 2.0426E+02  0.00E+00   4.3441E-03  2.0425E+02  1.7215E-06  1.7198E-06 -2.0326E+00  2.0019E+00
 50 3.0031E-02 1.7113E+01 2.0524E+02  0.00E+00   3.8399E-03  2.0523E+02  1.7215E-06  1.7198E-06 -1.9211E+00  1.9009E+00
 51 3.3158E-02 1.6646E+01 2.0625E+02  0.00E+00   2.6191E-03  2.0625E+02  1.7215E-06  1.7198E-06 -1.7978E+00  1.8014E+00
 52 3.6567E-02 1.6183E+01 2.0722E+02  0.00E+00   1.5841E-03  2.0722E+02  1.7215E-06  1.7198E-06 -1.6721E+00  1.6997E+00
 53 4.0279E-02 1.5724E+01 2.0806E+02  0.00E+00  -4.4781E-04  2.0806E+02  1.7215E-06  1.7198E-06 -1.5499E+00  1.5947E+00
 54 4.4314E-02 1.5268E+01 2.0870E+02  0.00E+00  -1.2683E-03  2.0870E+02  1.7215E-06  1.7198E-06 -1.3974E+00  1.4861E+00
 55 4.8695E-02 1.4818E+01 2.0909E+02  0.00E+00  -1.2324E-03  2.0909E+02  1.7215E-06  1.7198E-06 -1.3093E+00  1.3743E+00
 56 5.3445E-02 1.4372E+01 2.0920E+02  0.00E+00  -5.3802E-04  2.0920E+02  1.7215E-06  1.7198E-06 -1.1937E+00  1.2604E+00
 57 5.8588E-02 1.3932E+01 2.0904E+02  0.00E+00  -8.3995E-05  2.0904E+02  1.7215E-06  1.7198E-06 -1.0955E+00  1.1455E+00
 58 6.4150E-02 1.3499E+01 2.0861E+02  0.00E+00  -3.7353E-04  2.0861E+02  1.7215E-06  1.7198E-06 -9.7251E-01  1.0313E+00
 59 7.0155E-02 1.3072E+01 2.0795E+02  0.00E+00   1.3934E-04  2.0795E+02  1.7215E-06  1.7198E-06 -8.5492E-01  9.1948E-01
 60 7.6631E-02 1.2653E+01 2.0712E+02  0.00E+00   9.0132E-04  2.0712E+02  1.7215E-06  1.7198E-06 -7.7647E-01  8.1162E-01
 61 8.3605E-02 1.2241E+01 2.0617E+02  0.00E+00   1.4406E-03  2.0617E+02  1.7215E-06  1.7198E-06 -6.8268E-01  7.0911E-01
 62 9.1105E-02 1.1836E+01 2.0517E+02  0.00E+00   1.9722E-03  2.0517E+02  1.7215E-06  1.7198E-06 -6.0107E-01  6.1303E-01
 63 9.9159E-02 1.1440E+01 2.0419E+02  0.00E+00   2.1080E-03  2.0419E+02  1.7215E-06  1.7198E-06 -5.3110E-01  5.2682E-01
 64 1.0780E-01 1.1050E+01 2.0328E+02  0.00E+00   1.8946E-03  2.0328E+02  1.7215E-06  1.7198E-06 -5.0142E-01  4.9621E-01
 65 1.1704E-01 1.0668E+01 2.0247E+02  0.00E+00   1.5408E-03  2.0247E+02  1.7215E-06  1.7198E-06 -4.7873E-01  4.7048E-01
 66 1.2693E-01 1.0293E+01 2.0181E+02  0.00E+00   1.4882E-03  2.0181E+02  1.7215E-06  1.7198E-06 -4.5530E-01  4.4554E-01
 67 1.3750E-01 9.9238E+00 2.0131E+02  0.00E+00   1.2341E-03  2.0131E+02  1.7215E-06  1.7198E-06 -4.4639E-01  4.2343E-01
 68 1.4876E-01 9.5613E+00 2.0099E+02  0.00E+00   9.8104E-04  2.0099E+02  1.7215E-06  1.7198E-06 -4.2306E-01  4.0502E-01
 69 1.6075E-01 9.2047E+00 2.0085E+02  0.00E+00   4.1848E-04  2.0085E+02  1.7215E-06  1.7198E-06 -4.1219E-01  3.9014E-01
 70 1.7350E-01 8.8538E+00 2.0087E+02  0.00E+00  -1.2334E-04  2.0087E+02  1.7215E-06  1.7198E-06 -4.0083E-01  3.7802E-01
 71 1.8704E-01 8.5082E+00 2.0105E+02  0.00E+00   1.5428E-03  2.0105E+02  1.7215E-06  1.7198E-06 -3.9866E-01  3.6769E-01
 72 2.0140E-01 8.1676E+00 2.0135E+02  0.00E+00  -3.0659E-03  2.0135E+02  1.7215E-06  1.7198E-06 -3.8159E-01  3.5824E-01
 73 2.1660E-01 7.8320E+00 2.0174E+02  0.00E+00   1.3639E-03  2.0174E+02  1.7215E-06  1.7198E-06 -3.6291E-01  3.4895E-01
 74 2.3266E-01 7.5013E+00 2.0220E+02  0.00E+00  -3.8088E-04  2.0220E+02  1.7495E-06  1.7486E-06 -3.4997E-01  3.3948E-01
 75 2.4962E-01 7.1753E+00 2.0267E+02  0.00E+00  -7.3937E-03  2.0268E+02  1.8612E-06  1.8640E-06 -3.2414E-01  3.2975E-01
 76 2.6750E-01 6.8540E+00 2.0320E+02  0.00E+00  -1.4155E-04  2.0320E+02  2.0230E-06  2.0231E-06 -3.2206E-01  3.1961E-01
 77 2.8631E-01 6.5372E+00 2.0410E+02  0.00E+00  -1.0256E-03  2.0410E+02  2.3238E-06  2.3243E-06 -3.2702E-01  3.0930E-01
 78 3.0608E-01 6.2247E+00 2.0491E+02  0.00E+00  -7.0938E-04  2.0491E+02  2.6292E-06  2.6296E-06 -3.1109E-01  2.9883E-01
 79 3.2682E-01 5.9164E+00 2.0589E+02  0.00E+00  -1.0405E-03  2.0589E+02  3.0479E-06  3.0485E-06 -3.0820E-01  2.9023E-01
 80 3.4855E-01 5.6122E+00 2.0704E+02  0.00E+00  -2.6117E-04  2.0704E+02  3.6075E-06  3.6077E-06 -2.8814E-01  2.8362E-01
 81 3.7129E-01 5.3119E+00 2.0822E+02  0.00E+00  -1.0861E-03  2.0822E+02  4.2828E-06  4.2836E-06 -2.9638E-01  2.7761E-01
 82 3.9503E-01 5.0151E+00 2.1014E+02  0.00E+00  -3.7613E-04  2.1014E+02  5.6297E-06  5.6302E-06 -2.8006E-01  2.7356E-01
 83 4.1979E-01 4.7218E+00 2.1151E+02  0.00E+00   3.3005E-02  2.1148E+02  6.8220E-06  6.7915E-06 -3.2449E-01  2.6971E-01
 84 4.4557E-01 4.4310E+00 2.1489E+02  1.00E+00   3.3391E-02  2.1486E+02  1.0794E-05  1.0747E-05 -6.3137E-01  2.7437E-01
 85 4.7236E-01 4.1415E+00 2.1824E+02  1.00E+00   3.4299E-02  2.1821E+02  1.6774E-05  1.6701E-05 -8.9130E-01  2.8434E-01
 86 5.0017E-01 3.8536E+00 2.2156E+02  1.00E+00   3.5698E-02  2.2153E+02  2.5614E-05  2.5500E-05 -1.0886E+00  2.9932E-01
 87 5.2898E-01 3.5674E+00 2.2484E+02  1.00E+00   3.7051E-02  2.2481E+02  3.8443E-05  3.8272E-05 -1.2525E+00  3.2037E-01
 88 5.5879E-01 3.2833E+00 2.2808E+02  1.00E+00   3.7378E-02  2.2804E+02  5.6728E-05  5.6480E-05 -1.3970E+00  3.4946E-01
 89 5.8956E-01 3.0015E+00 2.3127E+02  1.00E+00   3.6607E-02  2.3123E+02  8.2321E-05  8.1979E-05 -1.4911E+00  3.8620E-01
 90 6.2129E-01 2.7221E+00 2.3439E+02  1.00E+00   3.4742E-02  2.3436E+02  1.1750E-04  1.1705E-04 -1.5350E+00  4.2447E-01
 91 6.5395E-01 2.4455E+00 2.3746E+02  1.00E+00   3.1781E-02  2.3743E+02  1.6499E-04  1.6442E-04 -1.5233E+00  4.5541E-01
 92 6.8749E-01 2.1718E+00 2.4045E+02  1.00E+00   2.7731E-02  2.4043E+02  2.2793E-04  2.2727E-04 -1.4783E+00  4.7427E-01
 93 7.2190E-01 1.9014E+00 2.4337E+02  1.00E+00   2.2624E-02  2.4335E+02  3.0985E-04  3.0913E-04 -1.4290E+00  4.8543E-01
 94 7.5712E-01 1.6344E+00 2.4620E+02  1.00E+00   1.6529E-02  2.4619E+02  4.1454E-04  4.1387E-04 -1.3920E+00  5.0064E-01
 95 7.9311E-01 1.3712E+00 2.4894E+02  1.00E+00   9.5676E-03  2.4893E+02  5.4597E-04  5.4547E-04 -1.3661E+00  5.2899E-01
 96 8.2982E-01 1.1120E+00 2.5159E+02  1.00E+00   1.9161E-03  2.5158E+02  7.0804E-04  7.0793E-04 -1.3934E+00  5.7013E-01
 97 8.6718E-01 8.5694E-01 2.5413E+02  1.00E+00  -6.1978E-03  2.5413E+02  9.0447E-04  9.0504E-04 -1.4444E+00  6.1825E-01
 98 9.0515E-01 6.0636E-01 2.5656E+02  1.00E+00  -1.4503E-02  2.5658E+02  1.1386E-03  1.1402E-03 -1.4381E+00  6.6888E-01
 99 9.4366E-01 3.6046E-01 2.5890E+02  1.00E+00  -2.2698E-02  2.5892E+02  1.4132E-03  1.4162E-03 -1.5328E+00  7.2235E-01
100 9.8262E-01 1.1948E-01 2.6112E+02  1.00E+00  -3.0457E-02  2.6115E+02  1.7304E-03  1.7352E-03 -1.5823E+00  7.8730E-01
101 1.0024E+00 0.0000E+00 2.6221E+02  1.00E+00  -3.8154E-02  2.6225E+02  1.9092E-03  1.9158E-03 -1.4525E+00  3.5362E+00

 FCO2
  5.00E-01 5.00E-01 5.00E-01 5.00E-01 5.00E-01 5.00E-01 5.00E-01 5.00E-01 5.00E-01 5.00E-01
  5.00E-01 5.00E-01 5.00E-01 5.00E-01 5.00E-01 5.00E-01 5.00E-01 5.00E-01 5.00E-01 5.00E-01
  5.00E-01 5.00E-01 5.00E-01 5.00E-01 5.00E-01 5.00E-01 5.00E-01 5.00E-01 5.00E-01 5.00E-01
  5.00E-01 5.00E-01 5.00E-01 5.00E-01 5.00E-01 5.00E-01 5.00E-01 5.00E-01 5.00E-01 5.00E-01
  5.00E-01 5.00E-01 5.00E-01 5.00E-01 5.00E-01 5.00E-01 5.00E-01 5.00E-01 5.00E-01 5.00E-01
  5.00E-01 5.00E-01 5.00E-01 5.00E-01 5.00E-01 5.00E-01 5.00E-01 5.00E-01 5.00E-01 5.00E-01
  5.00E-01 5.00E-01 5.00E-01 5.00E-01 5.00E-01 5.00E-01 5.00E-01 5.00E-01 5.00E-01 5.00E-01
  5.00E-01 5.00E-01 5.00E-01 5.00E-01 5.00E-01 5.00E-01 5.00E-01 5.00E-01 5.00E-01 5.00E-01
  5.00E-01 5.00E-01 5.00E-01 5.00E-01 5.00E-01 5.00E-01 5.00E-01 5.00E-01 5.00E-01 5.00E-01
  5.00E-01 5.00E-01 5.00E-01 5.00E-01 5.00E-01 5.00E-01 5.00E-01 5.00E-01 5.00E-01 5.00E-01
  5.00E-01

  J    PF         ALT       FTOTAL       FTIR       FDNIR       FUPIR       FTSOL       FDNSOL       FUPSOL       DIVF
  1 5.0000E-05 4.5005E+01 -3.6342E+02 -1.4822E+05  0.0000E+00  1.4822E+05  1.4785E+05  3.2300E+05  1.7514E+05 -2.4520E-03
  2 5.8573E-05 4.4233E+01 -3.6404E+02 -1.4757E+05  5.3173E+02  1.4811E+05  1.4721E+05  3.2235E+05  1.7514E+05 -2.4580E-03
  3 6.8534E-05 4.3484E+01 -3.4583E+02 -1.4739E+05  6.5945E+02  1.4805E+05  1.4705E+05  3.2219E+05  1.7514E+05 -2.3359E-03
  4 8.0094E-05 4.2747E+01 -3.5089E+02 -1.4723E+05  7.6920E+02  1.4800E+05  1.4688E+05  3.2202E+05  1.7514E+05 -2.3709E-03
  5 9.3491E-05 4.2022E+01 -3.5094E+02 -1.4707E+05  8.6005E+02  1.4793E+05  1.4672E+05  3.2186E+05  1.7514E+05 -2.3724E-03
  6 1.0900E-04 4.1314E+01 -3.6002E+02 -1.4692E+05  9.1923E+02  1.4784E+05  1.4656E+05  3.2170E+05  1.7514E+05 -2.4352E-03
  7 1.2693E-04 4.0627E+01 -3.6219E+02 -1.4677E+05  9.6903E+02  1.4774E+05  1.4641E+05  3.2155E+05  1.7514E+05 -2.4515E-03
  8 1.4763E-04 3.9963E+01 -3.6103E+02 -1.4664E+05  1.0193E+03  1.4766E+05  1.4628E+05  3.2142E+05  1.7514E+05 -2.4451E-03
  9 1.7150E-04 3.9321E+01 -3.5911E+02 -1.4651E+05  1.0770E+03  1.4759E+05  1.4615E+05  3.2129E+05  1.7514E+05 -2.4332E-03
 10 1.9899E-04 3.8697E+01 -3.5748E+02 -1.4639E+05  1.1447E+03  1.4754E+05  1.4604E+05  3.2118E+05  1.7514E+05 -2.4230E-03
 11 2.3062E-04 3.8087E+01 -3.5616E+02 -1.4629E+05  1.2221E+03  1.4751E+05  1.4594E+05  3.2107E+05  1.7514E+05 -2.4144E-03
 12 2.6695E-04 3.7487E+01 -3.5561E+02 -1.4620E+05  1.3079E+03  1.4751E+05  1.4584E+05  3.2098E+05  1.7514E+05 -2.4108E-03
 13 3.0863E-04 3.6895E+01 -3.5541E+02 -1.4612E+05  1.4017E+03  1.4752E+05  1.4576E+05  3.2090E+05  1.7514E+05 -2.4093E-03
 14 3.5640E-04 3.6308E+01 -3.5555E+02 -1.4604E+05  1.5042E+03  1.4754E+05  1.4568E+05  3.2082E+05  1.7514E+05 -2.4098E-03
 15 4.1107E-04 3.5726E+01 -3.5632E+02 -1.4595E+05  1.6178E+03  1.4757E+05  1.4560E+05  3.2073E+05  1.7513E+05 -2.4146E-03
 16 4.7356E-04 3.5147E+01 -3.5670E+02 -1.4587E+05  1.7461E+03  1.4761E+05  1.4551E+05  3.2064E+05  1.7513E+05 -2.4165E-03
 17 5.4490E-04 3.4571E+01 -3.5728E+02 -1.4577E+05  1.8908E+03  1.4766E+05  1.4541E+05  3.2054E+05  1.7513E+05 -2.4196E-03
 18 6.2623E-04 3.3998E+01 -3.5825E+02 -1.4566E+05  2.0554E+03  1.4771E+05  1.4530E+05  3.2043E+05  1.7513E+05 -2.4253E-03
 19 7.1884E-04 3.3428E+01 -3.5820E+02 -1.4553E+05  2.2439E+03  1.4777E+05  1.4517E+05  3.2030E+05  1.7513E+05 -2.4240E-03
 20 8.2417E-04 3.2860E+01 -3.5525E+02 -1.4538E+05  2.4553E+03  1.4784E+05  1.4503E+05  3.2016E+05  1.7513E+05 -2.4030E-03
 21 9.4379E-04 3.2294E+01 -3.5602E+02 -1.4522E+05  2.6823E+03  1.4790E+05  1.4487E+05  3.1999E+05  1.7513E+05 -2.4071E-03
 22 1.0795E-03 3.1732E+01 -3.6844E+02 -1.4505E+05  2.9303E+03  1.4798E+05  1.4468E+05  3.1981E+05  1.7513E+05 -2.4898E-03
 23 1.2332E-03 3.1172E+01 -3.6239E+02 -1.4482E+05  3.2845E+03  1.4810E+05  1.4446E+05  3.1958E+05  1.7512E+05 -2.4469E-03
 24 1.4072E-03 3.0613E+01 -3.5265E+02 -1.4453E+05  3.7283E+03  1.4826E+05  1.4418E+05  3.1930E+05  1.7512E+05 -2.3785E-03
 25 1.6037E-03 3.0055E+01 -3.4787E+02 -1.4421E+05  4.2315E+03  1.4845E+05  1.4387E+05  3.1899E+05  1.7512E+05 -2.3434E-03
 26 1.8255E-03 2.9496E+01 -3.4829E+02 -1.4386E+05  4.7628E+03  1.4863E+05  1.4351E+05  3.1864E+05  1.7512E+05 -2.3434E-03
 27 2.0756E-03 2.8939E+01 -3.5650E+02 -1.4349E+05  5.2915E+03  1.4879E+05  1.4314E+05  3.1826E+05  1.7512E+05 -2.3960E-03
 28 2.3570E-03 2.8383E+01 -3.6288E+02 -1.4311E+05  5.8127E+03  1.4892E+05  1.4275E+05  3.1787E+05  1.7512E+05 -2.4367E-03
 29 2.6734E-03 2.7831E+01 -3.6609E+02 -1.4272E+05  6.3218E+03  1.4904E+05  1.4235E+05  3.1747E+05  1.7512E+05 -2.4564E-03
 30 3.0287E-03 2.7282E+01 -3.6989E+02 -1.4233E+05  6.8201E+03  1.4915E+05  1.4196E+05  3.1708E+05  1.7513E+05 -2.4801E-03
 31 3.4271E-03 2.6736E+01 -3.6897E+02 -1.4194E+05  7.3237E+03  1.4927E+05  1.4157E+05  3.1671E+05  1.7513E+05 -2.4719E-03
 32 3.8732E-03 2.6195E+01 -3.6233E+02 -1.4157E+05  7.8373E+03  1.4940E+05  1.4120E+05  3.1634E+05  1.7514E+05 -2.4252E-03
 33 4.3722E-03 2.5656E+01 -3.5961E+02 -1.4121E+05  8.3547E+03  1.4956E+05  1.4085E+05  3.1599E+05  1.7514E+05 -2.4045E-03
 34 4.9296E-03 2.5122E+01 -3.5711E+02 -1.4085E+05  8.8826E+03  1.4973E+05  1.4049E+05  3.1564E+05  1.7515E+05 -2.3850E-03
 35 5.5514E-03 2.4590E+01 -3.5553E+02 -1.4049E+05  9.4180E+03  1.4991E+05  1.4013E+05  3.1529E+05  1.7516E+05 -2.3717E-03
 36 6.2441E-03 2.4062E+01 -3.5948E+02 -1.4012E+05  9.9531E+03  1.5008E+05  1.3976E+05  3.1494E+05  1.7517E+05 -2.3953E-03
 37 7.0149E-03 2.3537E+01 -3.6048E+02 -1.3975E+05  1.0495E+04  1.5024E+05  1.3939E+05  3.1457E+05  1.7518E+05 -2.3993E-03
 38 7.8715E-03 2.3016E+01 -3.5696E+02 -1.3935E+05  1.1037E+04  1.5039E+05  1.3899E+05  3.1419E+05  1.7520E+05 -2.3736E-03
 39 8.8220E-03 2.2500E+01 -3.5955E+02 -1.3894E+05  1.1557E+04  1.5050E+05  1.3858E+05  3.1380E+05  1.7521E+05 -2.3891E-03
 40 9.8756E-03 2.1987E+01 -3.7527E+02 -1.3853E+05  1.2050E+04  1.5058E+05  1.3816E+05  3.1339E+05  1.7523E+05 -2.4921E-03
 41 1.1042E-02 2.1480E+01 -3.9525E+02 -1.3812E+05  1.2547E+04  1.5066E+05  1.3772E+05  3.1298E+05  1.7526E+05 -2.6234E-03
 42 1.2331E-02 2.0977E+01 -3.9029E+02 -1.3766E+05  1.3109E+04  1.5077E+05  1.3727E+05  3.1255E+05  1.7528E+05 -2.5887E-03
 43 1.3754E-02 2.0480E+01 -3.7226E+02 -1.3718E+05  1.3732E+04  1.5091E+05  1.3680E+05  3.1211E+05  1.7530E+05 -2.4668E-03
 44 1.5323E-02 1.9987E+01 -3.6332E+02 -1.3670E+05  1.4392E+04  1.5109E+05  1.3633E+05  3.1166E+05  1.7532E+05 -2.4047E-03
 45 1.7051E-02 1.9498E+01 -3.6907E+02 -1.3623E+05  1.5080E+04  1.5131E+05  1.3586E+05  3.1121E+05  1.7535E+05 -2.4392E-03
 46 1.8950E-02 1.9013E+01 -3.7083E+02 -1.3575E+05  1.5819E+04  1.5156E+05  1.3538E+05  3.1075E+05  1.7537E+05 -2.4467E-03
 47 2.1037E-02 1.8533E+01 -3.8560E+02 -1.3527E+05  1.6591E+04  1.5186E+05  1.3488E+05  3.1027E+05  1.7539E+05 -2.5392E-03
 48 2.3324E-02 1.8056E+01 -3.8964E+02 -1.3477E+05  1.7435E+04  1.5220E+05  1.3438E+05  3.0979E+05  1.7541E+05 -2.5600E-03
 49 2.5830E-02 1.7583E+01 -3.8514E+02 -1.3424E+05  1.8349E+04  1.5259E+05  1.3385E+05  3.0929E+05  1.7543E+05 -2.5240E-03
 50 2.8571E-02 1.7113E+01 -3.7682E+02 -1.3369E+05  1.9322E+04  1.5301E+05  1.3331E+05  3.0876E+05  1.7545E+05 -2.4627E-03
 51 3.1565E-02 1.6646E+01 -3.7084E+02 -1.3312E+05  2.0323E+04  1.5344E+05  1.3275E+05  3.0821E+05  1.7547E+05 -2.4168E-03
 52 3.4832E-02 1.6183E+01 -3.7201E+02 -1.3254E+05  2.1317E+04  1.5385E+05  1.3217E+05  3.0764E+05  1.7548E+05 -2.4179E-03
 53 3.8390E-02 1.5724E+01 -3.8172E+02 -1.3195E+05  2.2262E+04  1.5421E+05  1.3157E+05  3.0705E+05  1.7549E+05 -2.4754E-03
 54 4.2261E-02 1.5268E+01 -3.9892E+02 -1.3135E+05  2.3122E+04  1.5447E+05  1.3095E+05  3.0645E+05  1.7549E+05 -2.5824E-03
 55 4.6466E-02 1.4818E+01 -4.3594E+02 -1.3077E+05  2.3855E+04  1.5462E+05  1.3033E+05  3.0582E+05  1.7549E+05 -2.8194E-03
 56 5.1030E-02 1.4372E+01 -4.6540E+02 -1.3018E+05  2.4472E+04  1.5465E+05  1.2971E+05  3.0520E+05  1.7548E+05 -3.0094E-03
 57 5.5974E-02 1.3932E+01 -4.9812E+02 -1.2959E+05  2.4958E+04  1.5455E+05  1.2909E+05  3.0456E+05  1.7547E+05 -3.2231E-03
 58 6.1324E-02 1.3499E+01 -5.2465E+02 -1.2901E+05  2.5326E+04  1.5433E+05  1.2848E+05  3.0393E+05  1.7545E+05 -3.3994E-03
 59 6.7105E-02 1.3072E+01 -5.5838E+02 -1.2845E+05  2.5578E+04  1.5403E+05  1.2789E+05  3.0331E+05  1.7542E+05 -3.6252E-03
 60 7.3344E-02 1.2653E+01 -5.9833E+02 -1.2792E+05  2.5740E+04  1.5366E+05  1.2732E+05  3.0270E+05  1.7537E+05 -3.8938E-03
 61 8.0066E-02 1.2241E+01 -6.2176E+02 -1.2740E+05  2.5859E+04  1.5326E+05  1.2678E+05  3.0210E+05  1.7532E+05 -4.0568E-03
 62 8.7301E-02 1.1836E+01 -6.4070E+02 -1.2691E+05  2.5951E+04  1.5287E+05  1.2627E+05  3.0153E+05  1.7525E+05 -4.1912E-03
 63 9.5075E-02 1.1440E+01 -6.4990E+02 -1.2645E+05  2.6045E+04  1.5250E+05  1.2580E+05  3.0097E+05  1.7517E+05 -4.2617E-03
 64 1.0342E-01 1.1050E+01 -6.4637E+02 -1.2601E+05  2.6167E+04  1.5218E+05  1.2537E+05  3.0044E+05  1.7507E+05 -4.2474E-03
 65 1.1236E-01 1.0668E+01 -6.4176E+02 -1.2557E+05  2.6368E+04  1.5194E+05  1.2493E+05  2.9989E+05  1.7496E+05 -4.2238E-03
 66 1.2193E-01 1.0293E+01 -6.3397E+02 -1.2512E+05  2.6668E+04  1.5179E+05  1.2448E+05  2.9933E+05  1.7485E+05 -4.1767E-03
 67 1.3215E-01 9.9238E+00 -6.2412E+02 -1.2466E+05  2.7071E+04  1.5173E+05  1.2404E+05  2.9876E+05  1.7472E+05 -4.1134E-03
 68 1.4306E-01 9.5613E+00 -5.9940E+02 -1.2418E+05  2.7602E+04  1.5178E+05  1.2358E+05  2.9817E+05  1.7459E+05 -3.9491E-03
 69 1.5468E-01 9.2047E+00 -5.7872E+02 -1.2369E+05  2.8234E+04  1.5193E+05  1.2312E+05  2.9756E+05  1.7445E+05 -3.8092E-03
 70 1.6706E-01 8.8538E+00 -5.5182E+02 -1.2319E+05  2.8986E+04  1.5218E+05  1.2264E+05  2.9693E+05  1.7429E+05 -3.6262E-03
 71 1.8020E-01 8.5082E+00 -5.2225E+02 -1.2267E+05  2.9850E+04  1.5252E+05  1.2215E+05  2.9628E+05  1.7413E+05 -3.4241E-03
 72 1.9415E-01 8.1676E+00 -4.7965E+02 -1.2212E+05  3.0849E+04  1.5297E+05  1.2164E+05  2.9560E+05  1.7396E+05 -3.1355E-03
 73 2.0892E-01 7.8320E+00 -4.4560E+02 -1.2157E+05  3.1930E+04  1.5350E+05  1.2112E+05  2.9490E+05  1.7377E+05 -2.9030E-03
 74 2.2455E-01 7.5013E+00 -4.2407E+02 -1.2101E+05  3.3082E+04  1.5409E+05  1.2058E+05  2.9416E+05  1.7358E+05 -2.7521E-03
 75 2.4106E-01 7.1753E+00 -4.0696E+02 -1.2044E+05  3.4326E+04  1.5476E+05  1.2003E+05  2.9340E+05  1.7337E+05 -2.6296E-03
 76 2.5848E-01 6.8540E+00 -4.1661E+02 -1.1988E+05  3.5643E+04  1.5552E+05  1.1946E+05  2.9262E+05  1.7315E+05 -2.6788E-03
 77 2.7682E-01 6.5372E+00 -4.1217E+02 -1.1929E+05  3.7235E+04  1.5653E+05  1.1888E+05  2.9181E+05  1.7292E+05 -2.6332E-03
 78 2.9612E-01 6.2247E+00 -3.7837E+02 -1.1867E+05  3.8940E+04  1.5761E+05  1.1829E+05  2.9098E+05  1.7268E+05 -2.4006E-03
 79 3.1637E-01 5.9164E+00 -3.5379E+02 -1.1805E+05  4.0814E+04  1.5886E+05  1.1769E+05  2.9012E+05  1.7243E+05 -2.2271E-03
 80 3.3761E-01 5.6122E+00 -3.1598E+02 -1.1740E+05  4.2930E+04  1.6033E+05  1.1708E+05  2.8925E+05  1.7216E+05 -1.9708E-03
 81 3.5985E-01 5.3119E+00 -3.0603E+02 -1.1676E+05  4.5301E+04  1.6207E+05  1.1646E+05  2.8835E+05  1.7189E+05 -1.8883E-03
 82 3.8309E-01 5.0151E+00 -2.6276E+02 -1.1608E+05  4.8272E+04  1.6435E+05  1.1582E+05  2.8742E+05  1.7161E+05 -1.5988E-03
 83 4.0734E-01 4.7218E+00 -2.4710E+02 -1.1541E+05  5.1353E+04  1.6676E+05  1.1516E+05  2.8647E+05  1.7131E+05 -1.4818E-03
 84 4.3261E-01 4.4310E+00 -1.0940E+02 -1.1459E+05  5.5893E+04  1.7048E+05  1.1448E+05  2.8550E+05  1.7101E+05 -6.4170E-04
 85 4.5891E-01 4.1415E+00  8.2673E+02 -1.1293E+05  6.1598E+04  1.7453E+05  1.1376E+05  2.8447E+05  1.7071E+05  4.7368E-03
 86 4.8621E-01 3.8536E+00  2.4842E+03 -1.1050E+05  6.8474E+04  1.7897E+05  1.1298E+05  2.8338E+05  1.7039E+05  1.3880E-02
 87 5.1453E-01 3.5674E+00  4.7252E+03 -1.0741E+05  7.6344E+04  1.8375E+05  1.1213E+05  2.8221E+05  1.7008E+05  2.5715E-02
 88 5.4384E-01 3.2833E+00  7.4723E+03 -1.0372E+05  8.5141E+04  1.8886E+05  1.1119E+05  2.8094E+05  1.6975E+05  3.9565E-02
 89 5.7414E-01 3.0015E+00  1.0671E+04 -9.9452E+04  9.4876E+04  1.9433E+05  1.1012E+05  2.7955E+05  1.6943E+05  5.4913E-02
 90 6.0540E-01 2.7221E+00  1.4162E+04 -9.4742E+04  1.0536E+05  2.0010E+05  1.0890E+05  2.7801E+05  1.6911E+05  7.0773E-02
 91 6.3760E-01 2.4455E+00  1.7784E+04 -8.9735E+04  1.1641E+05  2.0614E+05  1.0752E+05  2.7631E+05  1.6879E+05  8.6271E-02
 92 6.7071E-01 2.1718E+00  2.1375E+04 -8.4613E+04  1.2781E+05  2.1243E+05  1.0599E+05  2.7447E+05  1.6848E+05  1.0062E-01
 93 7.0470E-01 1.9014E+00  2.4848E+04 -7.9498E+04  1.3941E+05  2.1891E+05  1.0435E+05  2.7254E+05  1.6819E+05  1.1351E-01
 94 7.3952E-01 1.6344E+00  2.8201E+04 -7.4421E+04  1.5112E+05  2.2554E+05  1.0262E+05  2.7054E+05  1.6792E+05  1.2504E-01
 95 7.7514E-01 1.3712E+00  3.1448E+04 -6.9351E+04  1.6291E+05  2.3227E+05  1.0080E+05  2.6849E+05  1.6769E+05  1.3539E-01
 96 8.1150E-01 1.1120E+00  3.4567E+04 -6.4260E+04  1.7471E+05  2.3897E+05  9.8827E+04  2.6633E+05  1.6750E+05  1.4465E-01
 97 8.4855E-01 8.5694E-01  3.7700E+04 -5.8958E+04  1.8667E+05  2.4563E+05  9.6658E+04  2.6404E+05  1.6738E+05  1.5348E-01
 98 8.8623E-01 6.0636E-01  4.0903E+04 -5.3357E+04  1.9892E+05  2.5228E+05  9.4261E+04  2.6162E+05  1.6736E+05  1.6214E-01
 99 9.2448E-01 3.6046E-01  4.3937E+04 -4.7686E+04  2.1097E+05  2.5866E+05  9.1623E+04  2.5908E+05  1.6746E+05  1.6987E-01
100 9.6323E-01 1.1948E-01  4.7181E+04 -4.1551E+04  2.2268E+05  2.6423E+05  8.8731E+04  2.5647E+05  1.6774E+05  1.7856E-01
101 1.0024E+00 0.0000E+00  5.0403E+04 -3.5137E+04  2.3166E+05  2.6679E+05  8.5540E+04  2.5383E+05  1.6829E+05  1.8892E-01
 
 NST=     2 JCONV= 84 CHG=6.52E-04 dt0=1.00E+04 DIVF(1)=-2.34E-03 DIVFrms= 2.69E-03 DT(ND)=-2.91E-03 T(ND)=2.6221E+02
 NST=     3 JCONV= 85 CHG=1.26E-03 dt0=1.00E+04 DIVF(1)=-2.35E-03 DIVFrms= 2.68E-03 DT(ND)= 1.61E-02 T(ND)=2.6222E+02
 NST=     4 JCONV= 85 CHG=3.91E-04 dt0=1.00E+04 DIVF(1)=-2.22E-03 DIVFrms= 2.26E-03 DT(ND)= 8.57E-03 T(ND)=2.6223E+02
 NST=     5 JCONV= 85 CHG=1.10E-04 dt0=1.00E+04 DIVF(1)=-2.40E-03 DIVFrms= 2.73E-03 DT(ND)= 5.07E-03 T(ND)=2.6224E+02
 NST=     6 JCONV= 85 CHG=3.68E-05 dt0=1.00E+04 DIVF(1)=-2.41E-03 DIVFrms= 2.73E-03 DT(ND)= 3.11E-03 T(ND)=2.6224E+02
 NST=     7 JCONV= 85 CHG=6.60E-05 dt0=1.00E+04 DIVF(1)=-2.42E-03 DIVFrms= 2.74E-03 DT(ND)= 1.91E-03 T(ND)=2.6224E+02
 NST=     8 JCONV= 84 CHG=4.29E-05 dt0=1.00E+04 DIVF(1)=-2.26E-03 DIVFrms= 2.30E-03 DT(ND)= 1.16E-03 T(ND)=2.6224E+02
 NST=     9 JCONV= 84 CHG=3.48E-05 dt0=1.00E+04 DIVF(1)=-2.43E-03 DIVFrms= 2.77E-03 DT(ND)= 6.94E-04 T(ND)=2.6225E+02
 NST=    10 JCONV= 84 CHG=3.01E-05 dt0=1.00E+04 DIVF(1)=-2.43E-03 DIVFrms= 2.76E-03 DT(ND)= 3.89E-04 T(ND)=2.6225E+02
 NST=    11 JCONV= 84 CHG=6.59E-05 dt0=1.00E+04 DIVF(1)=-2.43E-03 DIVFrms= 2.76E-03 DT(ND)= 1.77E-04 T(ND)=2.6225E+02
 NST=    12 JCONV= 84 CHG=4.27E-05 dt0=1.00E+04 DIVF(1)=-2.27E-03 DIVFrms= 2.31E-03 DT(ND)= 2.57E-05 T(ND)=2.6225E+02
 NST=    13 JCONV= 84 CHG=3.47E-05 dt0=1.00E+04 DIVF(1)=-2.44E-03 DIVFrms= 2.77E-03 DT(ND)=-7.05E-05 T(ND)=2.6225E+02
 NST=    14 JCONV= 84 CHG=3.00E-05 dt0=1.00E+04 DIVF(1)=-2.44E-03 DIVFrms= 2.77E-03 DT(ND)=-1.45E-04 T(ND)=2.6225E+02
 NST=    15 JCONV= 84 CHG=6.60E-05 dt0=1.00E+04 DIVF(1)=-2.44E-03 DIVFrms= 2.77E-03 DT(ND)=-2.01E-04 T(ND)=2.6225E+02
 NST=    16 JCONV= 84 CHG=4.26E-05 dt0=1.00E+04 DIVF(1)=-2.28E-03 DIVFrms= 2.31E-03 DT(ND)=-2.39E-04 T(ND)=2.6224E+02
 NST=    17 JCONV= 84 CHG=3.46E-05 dt0=1.00E+04 DIVF(1)=-2.45E-03 DIVFrms= 2.77E-03 DT(ND)=-2.53E-04 T(ND)=2.6224E+02
 NST=    18 JCONV= 84 CHG=2.99E-05 dt0=1.00E+04 DIVF(1)=-2.45E-03 DIVFrms= 2.77E-03 DT(ND)=-2.70E-04 T(ND)=2.6224E+02
 NST=    19 JCONV= 84 CHG=6.66E-05 dt0=1.00E+04 DIVF(1)=-2.45E-03 DIVFrms= 2.74E-03 DT(ND)=-2.86E-04 T(ND)=2.6224E+02
 NST=    20 JCONV= 84 CHG=4.23E-05 dt0=1.00E+04 DIVF(1)=-2.28E-03 DIVFrms= 2.30E-03 DT(ND)=-2.96E-04 T(ND)=2.6224E+02
 NST=    21 JCONV= 84 CHG=3.42E-05 dt0=1.00E+04 DIVF(1)=-2.45E-03 DIVFrms= 2.75E-03 DT(ND)=-2.91E-04 T(ND)=2.6224E+02
 NST=    22 JCONV= 84 CHG=2.95E-05 dt0=1.00E+04 DIVF(1)=-2.45E-03 DIVFrms= 2.75E-03 DT(ND)=-2.96E-04 T(ND)=2.6224E+02
 NST=    23 JCONV= 84 CHG=6.69E-05 dt0=1.00E+04 DIVF(1)=-2.45E-03 DIVFrms= 2.75E-03 DT(ND)=-3.04E-04 T(ND)=2.6224E+02
 NST=    24 JCONV= 84 CHG=5.11E-05 dt0=1.00E+04 DIVF(1)=-2.29E-03 DIVFrms= 2.29E-03 DT(ND)=-3.09E-04 T(ND)=2.6224E+02
 NST=    25 JCONV= 84 CHG=3.40E-05 dt0=1.00E+04 DIVF(1)=-2.45E-03 DIVFrms= 2.75E-03 DT(ND)=-3.01E-04 T(ND)=2.6224E+02
 NST=    26 JCONV= 84 CHG=2.93E-05 dt0=1.00E+04 DIVF(1)=-2.46E-03 DIVFrms= 2.75E-03 DT(ND)=-3.04E-04 T(ND)=2.6224E+02
 NST=    27 JCONV= 84 CHG=6.73E-05 dt0=1.00E+04 DIVF(1)=-2.46E-03 DIVFrms= 2.75E-03 DT(ND)=-3.11E-04 T(ND)=2.6224E+02
 NST=    28 JCONV= 84 CHG=4.21E-05 dt0=1.00E+04 DIVF(1)=-2.29E-03 DIVFrms= 2.30E-03 DT(ND)=-3.15E-04 T(ND)=2.6224E+02
 NST=    29 JCONV= 84 CHG=3.39E-05 dt0=1.00E+04 DIVF(1)=-2.46E-03 DIVFrms= 2.76E-03 DT(ND)=-3.07E-04 T(ND)=2.6224E+02
 NST=    30 JCONV= 84 CHG=5.47E-05 dt0=1.00E+04 DIVF(1)=-2.46E-03 DIVFrms= 2.75E-03 DT(ND)=-3.08E-04 T(ND)=2.6224E+02
 NST=    31 JCONV= 84 CHG=5.01E-05 dt0=1.00E+04 DIVF(1)=-2.29E-03 DIVFrms= 2.29E-03 DT(ND)=-3.13E-04 T(ND)=2.6224E+02
 NST=    32 JCONV= 84 CHG=3.39E-05 dt0=1.00E+04 DIVF(1)=-2.46E-03 DIVFrms= 2.75E-03 DT(ND)=-3.05E-04 T(ND)=2.6224E+02
 NST=    33 JCONV= 84 CHG=2.93E-05 dt0=1.00E+04 DIVF(1)=-2.46E-03 DIVFrms= 2.75E-03 DT(ND)=-3.08E-04 T(ND)=2.6224E+02
 NST=    34 JCONV= 84 CHG=6.37E-05 dt0=1.00E+04 DIVF(1)=-2.47E-03 DIVFrms= 2.75E-03 DT(ND)=-3.16E-04 T(ND)=2.6224E+02
 NST=    35 JCONV= 84 CHG=4.77E-05 dt0=1.00E+04 DIVF(1)=-2.30E-03 DIVFrms= 2.30E-03 DT(ND)=-3.21E-04 T(ND)=2.6224E+02
 NST=    36 JCONV= 84 CHG=3.44E-05 dt0=1.00E+04 DIVF(1)=-2.55E-03 DIVFrms= 2.85E-03 DT(ND)=-3.16E-04 T(ND)=2.6224E+02
 NST=    37 JCONV= 84 CHG=5.24E-05 dt0=1.00E+04 DIVF(1)=-2.55E-03 DIVFrms= 2.84E-03 DT(ND)=-3.20E-04 T(ND)=2.6224E+02
 NST=    38 JCONV= 84 CHG=4.16E-05 dt0=1.00E+04 DIVF(1)=-2.39E-03 DIVFrms= 2.39E-03 DT(ND)=-3.26E-04 T(ND)=2.6224E+02
 NST=    39 JCONV= 84 CHG=3.46E-05 dt0=1.00E+04 DIVF(1)=-2.56E-03 DIVFrms= 2.85E-03 DT(ND)=-3.20E-04 T(ND)=2.6224E+02
 NST=    40 JCONV= 84 CHG=4.98E-05 dt0=1.00E+04 DIVF(1)=-2.55E-03 DIVFrms= 2.84E-03 DT(ND)=-3.24E-04 T(ND)=2.6224E+02
 NST=    41 JCONV= 84 CHG=4.12E-05 dt0=1.00E+04 DIVF(1)=-2.39E-03 DIVFrms= 2.39E-03 DT(ND)=-3.30E-04 T(ND)=2.6224E+02
 NST=    42 JCONV= 84 CHG=3.45E-05 dt0=1.00E+04 DIVF(1)=-2.56E-03 DIVFrms= 2.85E-03 DT(ND)=-3.24E-04 T(ND)=2.6224E+02
 NST=    43 JCONV= 84 CHG=4.92E-05 dt0=1.00E+04 DIVF(1)=-2.56E-03 DIVFrms= 2.84E-03 DT(ND)=-3.28E-04 T(ND)=2.6224E+02
 NST=    44 JCONV= 84 CHG=4.70E-05 dt0=1.00E+04 DIVF(1)=-2.39E-03 DIVFrms= 2.39E-03 DT(ND)=-3.33E-04 T(ND)=2.6224E+02
 NST=    45 JCONV= 84 CHG=3.43E-05 dt0=1.00E+04 DIVF(1)=-2.56E-03 DIVFrms= 2.85E-03 DT(ND)=-3.27E-04 T(ND)=2.6224E+02
 NST=    46 JCONV= 84 CHG=4.88E-05 dt0=1.00E+04 DIVF(1)=-2.56E-03 DIVFrms= 2.84E-03 DT(ND)=-3.31E-04 T(ND)=2.6224E+02
 NST=    47 JCONV= 84 CHG=4.43E-05 dt0=1.00E+04 DIVF(1)=-2.40E-03 DIVFrms= 2.39E-03 DT(ND)=-3.36E-04 T(ND)=2.6224E+02
 NST=    48 JCONV= 84 CHG=3.41E-05 dt0=1.00E+04 DIVF(1)=-2.56E-03 DIVFrms= 2.85E-03 DT(ND)=-3.30E-04 T(ND)=2.6224E+02
 NST=    49 JCONV= 84 CHG=4.86E-05 dt0=1.00E+04 DIVF(1)=-2.56E-03 DIVFrms= 2.84E-03 DT(ND)=-3.33E-04 T(ND)=2.6223E+02
 NST=    50 JCONV= 84 CHG=4.37E-05 dt0=1.00E+04 DIVF(1)=-2.40E-03 DIVFrms= 2.39E-03 DT(ND)=-3.39E-04 T(ND)=2.6223E+02
 NST=    51 JCONV= 84 CHG=3.40E-05 dt0=1.00E+04 DIVF(1)=-2.57E-03 DIVFrms= 2.85E-03 DT(ND)=-3.32E-04 T(ND)=2.6223E+02
 NST=    52 JCONV= 84 CHG=4.84E-05 dt0=1.00E+04 DIVF(1)=-2.57E-03 DIVFrms= 2.84E-03 DT(ND)=-3.36E-04 T(ND)=2.6223E+02
 NST=    53 JCONV= 84 CHG=4.34E-05 dt0=1.00E+04 DIVF(1)=-2.40E-03 DIVFrms= 2.39E-03 DT(ND)=-3.42E-04 T(ND)=2.6223E+02
 NST=    54 JCONV= 84 CHG=3.38E-05 dt0=1.00E+04 DIVF(1)=-2.57E-03 DIVFrms= 2.85E-03 DT(ND)=-3.35E-04 T(ND)=2.6223E+02
 NST=    55 JCONV= 84 CHG=4.83E-05 dt0=1.00E+04 DIVF(1)=-2.57E-03 DIVFrms= 2.84E-03 DT(ND)=-3.38E-04 T(ND)=2.6223E+02
 NST=    56 JCONV= 84 CHG=4.32E-05 dt0=1.00E+04 DIVF(1)=-2.40E-03 DIVFrms= 2.39E-03 DT(ND)=-3.44E-04 T(ND)=2.6223E+02
 NST=    57 JCONV= 84 CHG=3.37E-05 dt0=1.00E+04 DIVF(1)=-2.57E-03 DIVFrms= 2.85E-03 DT(ND)=-3.38E-04 T(ND)=2.6223E+02
 NST=    58 JCONV= 84 CHG=4.83E-05 dt0=1.00E+04 DIVF(1)=-2.57E-03 DIVFrms= 2.84E-03 DT(ND)=-3.41E-04 T(ND)=2.6223E+02
 NST=    59 JCONV= 84 CHG=4.31E-05 dt0=1.00E+04 DIVF(1)=-2.41E-03 DIVFrms= 2.39E-03 DT(ND)=-3.47E-04 T(ND)=2.6223E+02
 NST=    60 JCONV= 84 CHG=3.35E-05 dt0=1.00E+04 DIVF(1)=-2.57E-03 DIVFrms= 2.85E-03 DT(ND)=-3.40E-04 T(ND)=2.6223E+02
 NST=    61 JCONV= 84 CHG=4.84E-05 dt0=1.00E+04 DIVF(1)=-2.57E-03 DIVFrms= 2.84E-03 DT(ND)=-3.43E-04 T(ND)=2.6223E+02
 NST=    62 JCONV= 84 CHG=3.99E-05 dt0=1.00E+04 DIVF(1)=-2.41E-03 DIVFrms= 2.40E-03 DT(ND)=-3.49E-04 T(ND)=2.6223E+02
 NST=    63 JCONV= 84 CHG=3.27E-05 dt0=1.00E+04 DIVF(1)=-2.70E-03 DIVFrms= 2.98E-03 DT(ND)=-3.50E-04 T(ND)=2.6223E+02
 NST=    64 JCONV= 84 CHG=4.94E-05 dt0=1.00E+04 DIVF(1)=-2.70E-03 DIVFrms= 2.97E-03 DT(ND)=-3.58E-04 T(ND)=2.6223E+02
 NST=    65 JCONV= 84 CHG=3.92E-05 dt0=1.00E+04 DIVF(1)=-2.54E-03 DIVFrms= 2.53E-03 DT(ND)=-3.67E-04 T(ND)=2.6223E+02
 NST=    66 JCONV= 84 CHG=3.27E-05 dt0=1.00E+04 DIVF(1)=-2.70E-03 DIVFrms= 2.98E-03 DT(ND)=-3.64E-04 T(ND)=2.6223E+02
 NST=    67 JCONV= 84 CHG=4.96E-05 dt0=1.00E+04 DIVF(1)=-2.70E-03 DIVFrms= 2.98E-03 DT(ND)=-3.69E-04 T(ND)=2.6223E+02
 NST=    68 JCONV= 84 CHG=3.91E-05 dt0=1.00E+04 DIVF(1)=-2.54E-03 DIVFrms= 2.53E-03 DT(ND)=-3.76E-04 T(ND)=2.6223E+02
 NST=    69 JCONV= 84 CHG=3.34E-05 dt0=1.00E+04 DIVF(1)=-2.70E-03 DIVFrms= 2.98E-03 DT(ND)=-3.70E-04 T(ND)=2.6223E+02
 NST=    70 JCONV= 84 CHG=4.98E-05 dt0=1.00E+04 DIVF(1)=-2.70E-03 DIVFrms= 2.97E-03 DT(ND)=-3.74E-04 T(ND)=2.6223E+02
 NST=    71 JCONV= 84 CHG=3.91E-05 dt0=1.00E+04 DIVF(1)=-2.54E-03 DIVFrms= 2.53E-03 DT(ND)=-3.81E-04 T(ND)=2.6223E+02
 NST=    72 JCONV= 84 CHG=3.25E-05 dt0=1.00E+04 DIVF(1)=-2.70E-03 DIVFrms= 2.98E-03 DT(ND)=-3.74E-04 T(ND)=2.6223E+02
 NST=    73 JCONV= 84 CHG=5.00E-05 dt0=1.00E+04 DIVF(1)=-2.71E-03 DIVFrms= 2.97E-03 DT(ND)=-3.78E-04 T(ND)=2.6223E+02
 NST=    74 JCONV= 84 CHG=3.90E-05 dt0=1.00E+04 DIVF(1)=-2.54E-03 DIVFrms= 2.52E-03 DT(ND)=-3.84E-04 T(ND)=2.6223E+02
 NST=    75 JCONV= 84 CHG=3.40E-05 dt0=1.00E+04 DIVF(1)=-2.71E-03 DIVFrms= 2.98E-03 DT(ND)=-3.77E-04 T(ND)=2.6223E+02
 NST=    76 JCONV= 84 CHG=5.01E-05 dt0=1.00E+04 DIVF(1)=-2.70E-03 DIVFrms= 2.97E-03 DT(ND)=-3.80E-04 T(ND)=2.6223E+02
 NST=    77 JCONV= 84 CHG=3.89E-05 dt0=1.00E+04 DIVF(1)=-2.55E-03 DIVFrms= 2.53E-03 DT(ND)=-3.86E-04 T(ND)=2.6222E+02
 NST=    78 JCONV= 84 CHG=3.23E-05 dt0=1.00E+04 DIVF(1)=-2.71E-03 DIVFrms= 2.97E-03 DT(ND)=-3.79E-04 T(ND)=2.6222E+02
 NST=    79 JCONV= 84 CHG=5.03E-05 dt0=1.00E+04 DIVF(1)=-2.71E-03 DIVFrms= 2.97E-03 DT(ND)=-3.83E-04 T(ND)=2.6222E+02
 NST=    80 JCONV= 84 CHG=3.89E-05 dt0=1.00E+04 DIVF(1)=-2.54E-03 DIVFrms= 2.52E-03 DT(ND)=-3.88E-04 T(ND)=2.6222E+02
 NST=    81 JCONV= 84 CHG=3.43E-05 dt0=1.00E+04 DIVF(1)=-2.70E-03 DIVFrms= 2.96E-03 DT(ND)=-3.82E-04 T(ND)=2.6222E+02
 NST=    82 JCONV= 84 CHG=3.81E-05 dt0=1.00E+04 DIVF(1)=-2.54E-03 DIVFrms= 2.52E-03 DT(ND)=-3.83E-04 T(ND)=2.6222E+02
 NST=    83 JCONV= 84 CHG=3.44E-05 dt0=1.00E+04 DIVF(1)=-2.71E-03 DIVFrms= 2.97E-03 DT(ND)=-3.77E-04 T(ND)=2.6222E+02
 NST=    84 JCONV= 84 CHG=4.58E-05 dt0=1.00E+04 DIVF(1)=-2.69E-03 DIVFrms= 2.95E-03 DT(ND)=-3.82E-04 T(ND)=2.6222E+02
 NST=    85 JCONV= 84 CHG=3.80E-05 dt0=1.00E+04 DIVF(1)=-2.55E-03 DIVFrms= 2.52E-03 DT(ND)=-3.89E-04 T(ND)=2.6222E+02
 NST=    86 JCONV= 84 CHG=3.36E-05 dt0=1.00E+04 DIVF(1)=-2.69E-03 DIVFrms= 2.95E-03 DT(ND)=-3.83E-04 T(ND)=2.6222E+02
 NST=    87 JCONV= 84 CHG=3.75E-05 dt0=1.00E+04 DIVF(1)=-2.55E-03 DIVFrms= 2.52E-03 DT(ND)=-3.85E-04 T(ND)=2.6222E+02
 NST=    88 JCONV= 84 CHG=3.21E-05 dt0=1.00E+04 DIVF(1)=-2.69E-03 DIVFrms= 2.95E-03 DT(ND)=-3.79E-04 T(ND)=2.6222E+02
 NST=    89 JCONV= 84 CHG=3.69E-05 dt0=1.00E+04 DIVF(1)=-2.55E-03 DIVFrms= 2.52E-03 DT(ND)=-3.82E-04 T(ND)=2.6222E+02
 NST=    90 JCONV= 84 CHG=3.15E-05 dt0=1.00E+04 DIVF(1)=-2.69E-03 DIVFrms= 2.94E-03 DT(ND)=-3.77E-04 T(ND)=2.6222E+02
 NST=    91 JCONV= 84 CHG=3.64E-05 dt0=1.00E+04 DIVF(1)=-2.54E-03 DIVFrms= 2.51E-03 DT(ND)=-3.81E-04 T(ND)=2.6222E+02
 NST=    92 JCONV= 84 CHG=3.12E-05 dt0=1.00E+04 DIVF(1)=-2.69E-03 DIVFrms= 2.94E-03 DT(ND)=-3.77E-04 T(ND)=2.6222E+02
 NST=    93 JCONV= 84 CHG=3.56E-05 dt0=1.00E+04 DIVF(1)=-2.68E-03 DIVFrms= 2.66E-03 DT(ND)=-3.92E-04 T(ND)=2.6222E+02
 NST=    94 JCONV= 84 CHG=3.07E-05 dt0=1.00E+04 DIVF(1)=-2.83E-03 DIVFrms= 3.09E-03 DT(ND)=-3.95E-04 T(ND)=2.6222E+02
 NST=    95 JCONV= 84 CHG=3.54E-05 dt0=1.00E+04 DIVF(1)=-2.67E-03 DIVFrms= 2.64E-03 DT(ND)=-4.05E-04 T(ND)=2.6222E+02
 NST=    96 JCONV= 84 CHG=3.06E-05 dt0=1.00E+04 DIVF(1)=-2.84E-03 DIVFrms= 3.10E-03 DT(ND)=-4.07E-04 T(ND)=2.6222E+02
 NST=    97 JCONV= 84 CHG=3.52E-05 dt0=1.00E+04 DIVF(1)=-2.67E-03 DIVFrms= 2.64E-03 DT(ND)=-4.14E-04 T(ND)=2.6222E+02
 NST=    98 JCONV= 84 CHG=3.05E-05 dt0=1.00E+04 DIVF(1)=-2.84E-03 DIVFrms= 3.10E-03 DT(ND)=-4.13E-04 T(ND)=2.6222E+02
 NST=    99 JCONV= 84 CHG=3.50E-05 dt0=1.00E+04 DIVF(1)=-2.67E-03 DIVFrms= 2.63E-03 DT(ND)=-4.19E-04 T(ND)=2.6222E+02
 NST=   100 JCONV= 84 CHG=3.03E-05 dt0=1.00E+04 DIVF(1)=-2.82E-03 DIVFrms= 3.08E-03 DT(ND)=-4.17E-04 T(ND)=2.6222E+02
 NST=   101 JCONV= 84 CHG=3.49E-05 dt0=1.00E+04 DIVF(1)=-2.66E-03 DIVFrms= 2.63E-03 DT(ND)=-4.22E-04 T(ND)=2.6222E+02
 NST=   102 JCONV= 84 CHG=3.03E-05 dt0=1.00E+04 DIVF(1)=-2.84E-03 DIVFrms= 3.09E-03 DT(ND)=-4.19E-04 T(ND)=2.6221E+02
 NST=   103 JCONV= 84 CHG=3.47E-05 dt0=1.00E+04 DIVF(1)=-2.75E-03 DIVFrms= 2.71E-03 DT(ND)=-4.65E-04 T(ND)=2.6221E+02
 NST=   104 JCONV= 84 CHG=4.12E-05 dt0=1.00E+04 DIVF(1)=-2.91E-03 DIVFrms= 3.17E-03 DT(ND)=-4.64E-04 T(ND)=2.6221E+02
 NST=   105 JCONV= 84 CHG=3.46E-05 dt0=1.00E+04 DIVF(1)=-2.75E-03 DIVFrms= 2.71E-03 DT(ND)=-4.62E-04 T(ND)=2.6221E+02
 NST=   106 JCONV= 84 CHG=3.68E-05 dt0=1.00E+04 DIVF(1)=-2.92E-03 DIVFrms= 3.18E-03 DT(ND)=-4.54E-04 T(ND)=2.6221E+02
 NST=   107 JCONV= 84 CHG=3.35E-05 dt0=1.00E+04 DIVF(1)=-2.87E-03 DIVFrms= 2.84E-03 DT(ND)=-4.62E-04 T(ND)=2.6221E+02
 NST=   108 JCONV= 84 CHG=3.57E-05 dt0=1.00E+04 DIVF(1)=-2.91E-03 DIVFrms= 3.16E-03 DT(ND)=-4.54E-04 T(ND)=2.6221E+02
 NST=   109 JCONV= 84 CHG=3.36E-05 dt0=1.00E+04 DIVF(1)=-2.87E-03 DIVFrms= 2.84E-03 DT(ND)=-4.63E-04 T(ND)=2.6221E+02
 NST=   110 JCONV= 84 CHG=3.54E-05 dt0=1.00E+04 DIVF(1)=-3.03E-03 DIVFrms= 3.29E-03 DT(ND)=-4.61E-04 T(ND)=2.6221E+02
 NST=   111 JCONV= 84 CHG=3.38E-05 dt0=1.00E+04 DIVF(1)=-2.86E-03 DIVFrms= 2.83E-03 DT(ND)=-4.67E-04 T(ND)=2.6221E+02
 NST=   112 JCONV= 84 CHG=3.53E-05 dt0=1.00E+04 DIVF(1)=-3.04E-03 DIVFrms= 3.30E-03 DT(ND)=-4.66E-04 T(ND)=2.6221E+02
 NST=   113 JCONV= 84 CHG=3.40E-05 dt0=1.00E+04 DIVF(1)=-2.86E-03 DIVFrms= 2.83E-03 DT(ND)=-4.71E-04 T(ND)=2.6221E+02
 NST=   114 JCONV= 84 CHG=3.00E-05 dt0=1.00E+04 DIVF(1)=-3.02E-03 DIVFrms= 3.28E-03 DT(ND)=-4.68E-04 T(ND)=2.6221E+02
 NST=   115 JCONV= 84 CHG=3.41E-05 dt0=1.00E+04 DIVF(1)=-2.86E-03 DIVFrms= 2.83E-03 DT(ND)=-4.73E-04 T(ND)=2.6221E+02
 NST=   116 JCONV= 84 CHG=3.00E-05 dt0=1.00E+04 DIVF(1)=-3.02E-03 DIVFrms= 3.28E-03 DT(ND)=-4.70E-04 T(ND)=2.6221E+02
 NST=   117 JCONV= 84 CHG=3.42E-05 dt0=1.00E+04 DIVF(1)=-2.86E-03 DIVFrms= 2.83E-03 DT(ND)=-4.74E-04 T(ND)=2.6221E+02
 NST=   118 JCONV= 84 CHG=4.25E-05 dt0=1.00E+04 DIVF(1)=-3.02E-03 DIVFrms= 3.28E-03 DT(ND)=-4.71E-04 T(ND)=2.6221E+02
 NST=   119 JCONV= 84 CHG=3.43E-05 dt0=1.00E+04 DIVF(1)=-2.86E-03 DIVFrms= 2.82E-03 DT(ND)=-4.75E-04 T(ND)=2.6221E+02
 NST=   120 JCONV= 84 CHG=3.74E-05 dt0=1.00E+04 DIVF(1)=-3.02E-03 DIVFrms= 3.27E-03 DT(ND)=-4.72E-04 T(ND)=2.6221E+02
 NST=   121 JCONV= 84 CHG=3.44E-05 dt0=1.00E+04 DIVF(1)=-2.85E-03 DIVFrms= 2.82E-03 DT(ND)=-4.76E-04 T(ND)=2.6221E+02
 NST=   122 JCONV= 84 CHG=3.02E-05 dt0=1.00E+04 DIVF(1)=-3.01E-03 DIVFrms= 3.27E-03 DT(ND)=-4.73E-04 T(ND)=2.6221E+02
 NST=   123 JCONV= 84 CHG=3.45E-05 dt0=1.00E+04 DIVF(1)=-2.86E-03 DIVFrms= 2.82E-03 DT(ND)=-4.77E-04 T(ND)=2.6221E+02
 NST=   124 JCONV= 84 CHG=3.02E-05 dt0=1.00E+04 DIVF(1)=-3.01E-03 DIVFrms= 3.26E-03 DT(ND)=-4.74E-04 T(ND)=2.6220E+02
 NST=   125 JCONV= 84 CHG=3.46E-05 dt0=1.00E+04 DIVF(1)=-2.85E-03 DIVFrms= 2.81E-03 DT(ND)=-4.78E-04 T(ND)=2.6220E+02
 NST=   126 JCONV= 84 CHG=4.28E-05 dt0=1.00E+04 DIVF(1)=-3.01E-03 DIVFrms= 3.26E-03 DT(ND)=-4.74E-04 T(ND)=2.6220E+02
 NST=   127 JCONV= 84 CHG=3.46E-05 dt0=1.00E+04 DIVF(1)=-2.85E-03 DIVFrms= 2.81E-03 DT(ND)=-4.79E-04 T(ND)=2.6220E+02
 NST=   128 JCONV= 84 CHG=3.76E-05 dt0=1.00E+04 DIVF(1)=-3.01E-03 DIVFrms= 3.26E-03 DT(ND)=-4.75E-04 T(ND)=2.6220E+02
 NST=   129 JCONV= 84 CHG=3.47E-05 dt0=1.00E+04 DIVF(1)=-2.85E-03 DIVFrms= 2.81E-03 DT(ND)=-4.79E-04 T(ND)=2.6220E+02
 NST=   130 JCONV= 84 CHG=3.03E-05 dt0=1.00E+04 DIVF(1)=-3.01E-03 DIVFrms= 3.25E-03 DT(ND)=-4.76E-04 T(ND)=2.6220E+02
 NST=   131 JCONV= 84 CHG=3.48E-05 dt0=1.00E+04 DIVF(1)=-2.85E-03 DIVFrms= 2.81E-03 DT(ND)=-4.80E-04 T(ND)=2.6220E+02
 NST=   132 JCONV= 84 CHG=3.04E-05 dt0=1.00E+04 DIVF(1)=-3.00E-03 DIVFrms= 3.25E-03 DT(ND)=-4.76E-04 T(ND)=2.6220E+02
 NST=   133 JCONV= 84 CHG=3.48E-05 dt0=1.00E+04 DIVF(1)=-2.84E-03 DIVFrms= 2.80E-03 DT(ND)=-4.80E-04 T(ND)=2.6220E+02
 NST=   134 JCONV= 84 CHG=4.29E-05 dt0=1.00E+04 DIVF(1)=-3.01E-03 DIVFrms= 3.25E-03 DT(ND)=-4.77E-04 T(ND)=2.6220E+02
 NST=   135 JCONV= 84 CHG=3.49E-05 dt0=1.00E+04 DIVF(1)=-2.84E-03 DIVFrms= 2.80E-03 DT(ND)=-4.81E-04 T(ND)=2.6220E+02
 NST=   136 JCONV= 84 CHG=3.04E-05 dt0=1.00E+04 DIVF(1)=-3.00E-03 DIVFrms= 3.24E-03 DT(ND)=-4.77E-04 T(ND)=2.6220E+02
 NST=   137 JCONV= 84 CHG=3.49E-05 dt0=1.00E+04 DIVF(1)=-2.84E-03 DIVFrms= 2.80E-03 DT(ND)=-4.82E-04 T(ND)=2.6220E+02
 NST=   138 JCONV= 84 CHG=3.04E-05 dt0=1.00E+04 DIVF(1)=-3.00E-03 DIVFrms= 3.24E-03 DT(ND)=-4.78E-04 T(ND)=2.6220E+02
 NST=   139 JCONV= 84 CHG=3.50E-05 dt0=1.00E+04 DIVF(1)=-2.84E-03 DIVFrms= 2.79E-03 DT(ND)=-4.82E-04 T(ND)=2.6220E+02
 NST=   140 JCONV= 84 CHG=4.32E-05 dt0=1.00E+04 DIVF(1)=-3.00E-03 DIVFrms= 3.24E-03 DT(ND)=-4.78E-04 T(ND)=2.6220E+02
 NST=   141 JCONV= 84 CHG=3.50E-05 dt0=1.00E+04 DIVF(1)=-2.83E-03 DIVFrms= 2.79E-03 DT(ND)=-4.83E-04 T(ND)=2.6220E+02
 NST=   142 JCONV= 84 CHG=3.05E-05 dt0=1.00E+04 DIVF(1)=-2.99E-03 DIVFrms= 3.23E-03 DT(ND)=-4.79E-04 T(ND)=2.6220E+02
 NST=   143 JCONV= 84 CHG=3.51E-05 dt0=1.00E+04 DIVF(1)=-2.84E-03 DIVFrms= 2.79E-03 DT(ND)=-4.83E-04 T(ND)=2.6220E+02
 NST=   144 JCONV= 84 CHG=3.05E-05 dt0=1.00E+04 DIVF(1)=-2.99E-03 DIVFrms= 3.23E-03 DT(ND)=-4.79E-04 T(ND)=2.6219E+02
 NST=   145 JCONV= 84 CHG=3.51E-05 dt0=1.00E+04 DIVF(1)=-2.83E-03 DIVFrms= 2.78E-03 DT(ND)=-4.84E-04 T(ND)=2.6219E+02
 NST=   146 JCONV= 84 CHG=4.32E-05 dt0=1.00E+04 DIVF(1)=-2.99E-03 DIVFrms= 3.23E-03 DT(ND)=-4.80E-04 T(ND)=2.6219E+02
 NST=   147 JCONV= 84 CHG=3.52E-05 dt0=1.00E+04 DIVF(1)=-2.83E-03 DIVFrms= 2.78E-03 DT(ND)=-4.84E-04 T(ND)=2.6219E+02
 NST=   148 JCONV= 84 CHG=3.05E-05 dt0=1.00E+04 DIVF(1)=-2.99E-03 DIVFrms= 3.22E-03 DT(ND)=-4.80E-04 T(ND)=2.6219E+02
 NST=   149 JCONV= 84 CHG=3.52E-05 dt0=1.00E+04 DIVF(1)=-2.83E-03 DIVFrms= 2.77E-03 DT(ND)=-4.84E-04 T(ND)=2.6219E+02
 NST=   150 JCONV= 84 CHG=4.59E-05 dt0=1.00E+04 DIVF(1)=-2.99E-03 DIVFrms= 3.22E-03 DT(ND)=-4.81E-04 T(ND)=2.6219E+02
 NST=   151 JCONV= 84 CHG=3.53E-05 dt0=1.00E+04 DIVF(1)=-2.82E-03 DIVFrms= 2.77E-03 DT(ND)=-4.85E-04 T(ND)=2.6219E+02
 NST=   152 JCONV= 84 CHG=3.03E-05 dt0=1.00E+04 DIVF(1)=-3.12E-03 DIVFrms= 3.36E-03 DT(ND)=-4.95E-04 T(ND)=2.6219E+02
 NST=   153 JCONV= 84 CHG=3.46E-05 dt0=1.00E+04 DIVF(1)=-3.10E-03 DIVFrms= 3.07E-03 DT(ND)=-5.20E-04 T(ND)=2.6219E+02
 NST=   154 JCONV= 84 CHG=4.63E-05 dt0=1.00E+04 DIVF(1)=-3.26E-03 DIVFrms= 3.51E-03 DT(ND)=-5.35E-04 T(ND)=2.6219E+02
 NST=   155 JCONV= 84 CHG=3.46E-05 dt0=1.00E+04 DIVF(1)=-3.10E-03 DIVFrms= 3.06E-03 DT(ND)=-5.55E-04 T(ND)=2.6219E+02
 NST=   156 JCONV= 84 CHG=3.00E-05 dt0=1.00E+04 DIVF(1)=-3.26E-03 DIVFrms= 3.51E-03 DT(ND)=-5.64E-04 T(ND)=2.6219E+02
 NST=   157 JCONV= 84 CHG=3.47E-05 dt0=1.00E+04 DIVF(1)=-3.10E-03 DIVFrms= 3.06E-03 DT(ND)=-5.77E-04 T(ND)=2.6219E+02
 NST=   158 JCONV= 84 CHG=4.64E-05 dt0=1.00E+04 DIVF(1)=-3.26E-03 DIVFrms= 3.51E-03 DT(ND)=-5.79E-04 T(ND)=2.6219E+02
 NST=   159 JCONV= 84 CHG=3.51E-05 dt0=1.00E+04 DIVF(1)=-3.20E-03 DIVFrms= 3.17E-03 DT(ND)=-5.92E-04 T(ND)=2.6219E+02
 NST=   160 JCONV= 84 CHG=3.07E-05 dt0=1.00E+04 DIVF(1)=-3.25E-03 DIVFrms= 3.50E-03 DT(ND)=-5.88E-04 T(ND)=2.6219E+02
 NST=   161 JCONV= 84 CHG=3.50E-05 dt0=1.00E+04 DIVF(1)=-3.20E-03 DIVFrms= 3.17E-03 DT(ND)=-5.99E-04 T(ND)=2.6219E+02
 NST=   162 JCONV= 84 CHG=4.65E-05 dt0=1.00E+04 DIVF(1)=-3.25E-03 DIVFrms= 3.50E-03 DT(ND)=-5.93E-04 T(ND)=2.6219E+02
 NST=   163 JCONV= 84 CHG=3.49E-05 dt0=1.00E+04 DIVF(1)=-3.20E-03 DIVFrms= 3.16E-03 DT(ND)=-6.02E-04 T(ND)=2.6218E+02
 NST=   164 JCONV= 84 CHG=3.07E-05 dt0=1.00E+04 DIVF(1)=-3.25E-03 DIVFrms= 3.49E-03 DT(ND)=-5.95E-04 T(ND)=2.6218E+02
 NST=   165 JCONV= 84 CHG=3.48E-05 dt0=1.00E+04 DIVF(1)=-3.19E-03 DIVFrms= 3.16E-03 DT(ND)=-6.03E-04 T(ND)=2.6218E+02
 NST=   166 JCONV= 84 CHG=4.65E-05 dt0=1.00E+04 DIVF(1)=-3.25E-03 DIVFrms= 3.49E-03 DT(ND)=-5.95E-04 T(ND)=2.6218E+02
 NST=   167 JCONV= 84 CHG=3.47E-05 dt0=1.00E+04 DIVF(1)=-3.19E-03 DIVFrms= 3.15E-03 DT(ND)=-6.03E-04 T(ND)=2.6218E+02
 NST=   168 JCONV= 84 CHG=3.06E-05 dt0=1.00E+04 DIVF(1)=-3.24E-03 DIVFrms= 3.48E-03 DT(ND)=-5.96E-04 T(ND)=2.6218E+02
 NST=   169 JCONV= 84 CHG=4.50E-05 dt0=1.00E+04 DIVF(1)=-3.19E-03 DIVFrms= 3.13E-03 DT(ND)=-6.02E-04 T(ND)=2.6218E+02
 NST=   170 JCONV= 84 CHG=4.59E-05 dt0=1.00E+04 DIVF(1)=-3.24E-03 DIVFrms= 3.48E-03 DT(ND)=-5.95E-04 T(ND)=2.6218E+02
 NST=   171 JCONV= 84 CHG=3.45E-05 dt0=1.00E+04 DIVF(1)=-3.19E-03 DIVFrms= 3.13E-03 DT(ND)=-6.02E-04 T(ND)=2.6218E+02
 NST=   172 JCONV= 84 CHG=3.05E-05 dt0=1.00E+04 DIVF(1)=-3.23E-03 DIVFrms= 3.45E-03 DT(ND)=-5.94E-04 T(ND)=2.6218E+02
 NST=   173 JCONV= 84 CHG=3.45E-05 dt0=1.00E+04 DIVF(1)=-3.18E-03 DIVFrms= 3.13E-03 DT(ND)=-6.01E-04 T(ND)=2.6218E+02
 NST=   174 JCONV= 84 CHG=4.65E-05 dt0=1.00E+04 DIVF(1)=-3.23E-03 DIVFrms= 3.47E-03 DT(ND)=-5.94E-04 T(ND)=2.6218E+02
 NST=   175 JCONV= 84 CHG=3.45E-05 dt0=1.00E+04 DIVF(1)=-3.18E-03 DIVFrms= 3.12E-03 DT(ND)=-6.00E-04 T(ND)=2.6218E+02
 NST=   176 JCONV= 84 CHG=3.05E-05 dt0=1.00E+04 DIVF(1)=-3.34E-03 DIVFrms= 3.56E-03 DT(ND)=-5.98E-04 T(ND)=2.6218E+02
 NST=   177 JCONV= 84 CHG=4.42E-05 dt0=1.00E+04 DIVF(1)=-3.17E-03 DIVFrms= 3.11E-03 DT(ND)=-6.03E-04 T(ND)=2.6218E+02
 NST=   178 JCONV= 84 CHG=4.61E-05 dt0=1.00E+04 DIVF(1)=-3.34E-03 DIVFrms= 3.56E-03 DT(ND)=-6.00E-04 T(ND)=2.6218E+02
 NST=   179 JCONV= 84 CHG=3.40E-05 dt0=1.00E+04 DIVF(1)=-3.17E-03 DIVFrms= 3.11E-03 DT(ND)=-6.04E-04 T(ND)=2.6218E+02
 NST=   180 JCONV= 84 CHG=3.03E-05 dt0=1.00E+04 DIVF(1)=-3.33E-03 DIVFrms= 3.55E-03 DT(ND)=-6.01E-04 T(ND)=2.6217E+02
 NST=   181 JCONV= 84 CHG=3.39E-05 dt0=1.00E+04 DIVF(1)=-3.17E-03 DIVFrms= 3.11E-03 DT(ND)=-6.05E-04 T(ND)=2.6217E+02
 NST=   182 JCONV= 84 CHG=4.66E-05 dt0=1.00E+04 DIVF(1)=-3.33E-03 DIVFrms= 3.55E-03 DT(ND)=-6.01E-04 T(ND)=2.6217E+02
 NST=   183 JCONV= 84 CHG=3.38E-05 dt0=1.00E+04 DIVF(1)=-3.17E-03 DIVFrms= 3.10E-03 DT(ND)=-6.05E-04 T(ND)=2.6217E+02
 NST=   184 JCONV= 84 CHG=3.01E-05 dt0=1.00E+04 DIVF(1)=-3.32E-03 DIVFrms= 3.54E-03 DT(ND)=-6.01E-04 T(ND)=2.6217E+02
 NST=   185 JCONV= 84 CHG=4.40E-05 dt0=1.00E+04 DIVF(1)=-3.16E-03 DIVFrms= 3.09E-03 DT(ND)=-6.04E-04 T(ND)=2.6217E+02
 NST=   186 JCONV= 84 CHG=4.62E-05 dt0=1.00E+04 DIVF(1)=-3.32E-03 DIVFrms= 3.54E-03 DT(ND)=-6.00E-04 T(ND)=2.6217E+02
 NST=   187 JCONV= 84 CHG=3.36E-05 dt0=1.00E+04 DIVF(1)=-3.16E-03 DIVFrms= 3.09E-03 DT(ND)=-6.04E-04 T(ND)=2.6217E+02
 NST=   188 JCONV= 84 CHG=3.00E-05 dt0=1.00E+04 DIVF(1)=-3.31E-03 DIVFrms= 3.53E-03 DT(ND)=-6.00E-04 T(ND)=2.6217E+02
 NST=   189 JCONV= 84 CHG=3.35E-05 dt0=1.00E+04 DIVF(1)=-3.15E-03 DIVFrms= 3.09E-03 DT(ND)=-6.03E-04 T(ND)=2.6217E+02
 NST=   190 JCONV= 84 CHG=3.00E-05 dt0=1.00E+04 DIVF(1)=-3.31E-03 DIVFrms= 3.53E-03 DT(ND)=-5.99E-04 T(ND)=2.6217E+02
 NST=   191 JCONV= 84 CHG=4.47E-05 dt0=1.00E+04 DIVF(1)=-3.15E-03 DIVFrms= 3.08E-03 DT(ND)=-6.03E-04 T(ND)=2.6217E+02
 NST=   192 JCONV= 84 CHG=4.85E-05 dt0=1.00E+04 DIVF(1)=-3.31E-03 DIVFrms= 3.52E-03 DT(ND)=-5.99E-04 T(ND)=2.6217E+02
 NST=   193 JCONV= 84 CHG=3.34E-05 dt0=1.00E+04 DIVF(1)=-3.15E-03 DIVFrms= 3.08E-03 DT(ND)=-6.02E-04 T(ND)=2.6217E+02
 NST=   194 JCONV= 84 CHG=2.99E-05 dt0=1.00E+04 DIVF(1)=-3.30E-03 DIVFrms= 3.52E-03 DT(ND)=-5.98E-04 T(ND)=2.6217E+02
 NST=   195 JCONV= 84 CHG=3.34E-05 dt0=1.00E+04 DIVF(1)=-3.14E-03 DIVFrms= 3.07E-03 DT(ND)=-6.02E-04 T(ND)=2.6217E+02
 NST=   196 JCONV= 84 CHG=4.65E-05 dt0=1.00E+04 DIVF(1)=-3.30E-03 DIVFrms= 3.51E-03 DT(ND)=-5.98E-04 T(ND)=2.6217E+02
 NST=   197 JCONV= 84 CHG=3.34E-05 dt0=1.00E+04 DIVF(1)=-3.14E-03 DIVFrms= 3.07E-03 DT(ND)=-6.01E-04 T(ND)=2.6216E+02
 NST=   198 JCONV= 84 CHG=2.99E-05 dt0=1.00E+04 DIVF(1)=-3.30E-03 DIVFrms= 3.51E-03 DT(ND)=-5.97E-04 T(ND)=2.6216E+02
 NST=   199 JCONV= 84 CHG=3.34E-05 dt0=1.00E+04 DIVF(1)=-3.14E-03 DIVFrms= 3.06E-03 DT(ND)=-6.00E-04 T(ND)=2.6216E+02
 NST=   200 JCONV= 84 CHG=2.99E-05 dt0=1.00E+04 DIVF(1)=-3.29E-03 DIVFrms= 3.50E-03 DT(ND)=-5.96E-04 T(ND)=2.6216E+02
 NST=   201 JCONV= 84 CHG=4.36E-05 dt0=1.00E+04 DIVF(1)=-3.13E-03 DIVFrms= 3.05E-03 DT(ND)=-6.00E-04 T(ND)=2.6216E+02
 NST=   202 JCONV= 84 CHG=4.87E-05 dt0=1.00E+04 DIVF(1)=-3.29E-03 DIVFrms= 3.50E-03 DT(ND)=-5.96E-04 T(ND)=2.6216E+02
 NST=   203 JCONV= 84 CHG=3.33E-05 dt0=1.00E+04 DIVF(1)=-3.13E-03 DIVFrms= 3.05E-03 DT(ND)=-5.99E-04 T(ND)=2.6216E+02
 NST=   204 JCONV= 84 CHG=3.00E-05 dt0=1.00E+04 DIVF(1)=-3.28E-03 DIVFrms= 3.49E-03 DT(ND)=-5.95E-04 T(ND)=2.6216E+02
 NST=   205 JCONV= 84 CHG=4.09E-05 dt0=1.00E+04 DIVF(1)=-3.12E-03 DIVFrms= 3.05E-03 DT(ND)=-5.98E-04 T(ND)=2.6216E+02
 NST=   206 JCONV= 84 CHG=3.00E-05 dt0=1.00E+04 DIVF(1)=-3.28E-03 DIVFrms= 3.48E-03 DT(ND)=-5.94E-04 T(ND)=2.6216E+02
 NST=   207 JCONV= 84 CHG=3.33E-05 dt0=1.00E+04 DIVF(1)=-3.12E-03 DIVFrms= 3.04E-03 DT(ND)=-5.98E-04 T(ND)=2.6216E+02
 NST=   208 JCONV= 84 CHG=4.97E-05 dt0=1.00E+04 DIVF(1)=-3.28E-03 DIVFrms= 3.48E-03 DT(ND)=-5.94E-04 T(ND)=2.6216E+02
 NST=   209 JCONV= 84 CHG=3.33E-05 dt0=1.00E+04 DIVF(1)=-3.12E-03 DIVFrms= 3.04E-03 DT(ND)=-5.97E-04 T(ND)=2.6216E+02
 NST=   210 JCONV= 84 CHG=3.07E-05 dt0=1.00E+04 DIVF(1)=-3.27E-03 DIVFrms= 3.47E-03 DT(ND)=-5.93E-04 T(ND)=2.6216E+02
 NST=   211 JCONV= 84 CHG=3.33E-05 dt0=1.00E+04 DIVF(1)=-3.11E-03 DIVFrms= 3.03E-03 DT(ND)=-5.96E-04 T(ND)=2.6216E+02
 NST=   212 JCONV= 84 CHG=3.01E-05 dt0=1.00E+04 DIVF(1)=-3.27E-03 DIVFrms= 3.47E-03 DT(ND)=-5.92E-04 T(ND)=2.6216E+02
 NST=   213 JCONV= 84 CHG=4.02E-05 dt0=1.00E+04 DIVF(1)=-3.11E-03 DIVFrms= 3.03E-03 DT(ND)=-5.96E-04 T(ND)=2.6215E+02
 NST=   214 JCONV= 84 CHG=4.82E-05 dt0=1.00E+04 DIVF(1)=-3.27E-03 DIVFrms= 3.46E-03 DT(ND)=-5.92E-04 T(ND)=2.6215E+02
 NST=   215 JCONV= 84 CHG=3.33E-05 dt0=1.00E+04 DIVF(1)=-3.11E-03 DIVFrms= 3.03E-03 DT(ND)=-5.95E-04 T(ND)=2.6215E+02
 NST=   216 JCONV= 84 CHG=3.01E-05 dt0=1.00E+04 DIVF(1)=-3.26E-03 DIVFrms= 3.46E-03 DT(ND)=-5.91E-04 T(ND)=2.6215E+02
 NST=   217 JCONV= 84 CHG=4.03E-05 dt0=1.00E+04 DIVF(1)=-3.10E-03 DIVFrms= 3.01E-03 DT(ND)=-5.94E-04 T(ND)=2.6215E+02
 NST=   218 JCONV= 84 CHG=3.02E-05 dt0=1.00E+04 DIVF(1)=-3.26E-03 DIVFrms= 3.45E-03 DT(ND)=-5.90E-04 T(ND)=2.6215E+02
 NST=   219 JCONV= 84 CHG=3.33E-05 dt0=1.00E+04 DIVF(1)=-3.10E-03 DIVFrms= 3.02E-03 DT(ND)=-5.94E-04 T(ND)=2.6215E+02
 NST=   220 JCONV= 84 CHG=4.98E-05 dt0=1.00E+04 DIVF(1)=-3.25E-03 DIVFrms= 3.45E-03 DT(ND)=-5.89E-04 T(ND)=2.6215E+02
 NST=   221 JCONV= 84 CHG=3.33E-05 dt0=1.00E+04 DIVF(1)=-3.09E-03 DIVFrms= 3.01E-03 DT(ND)=-5.93E-04 T(ND)=2.6215E+02
 NST=   222 JCONV= 84 CHG=3.05E-05 dt0=1.00E+04 DIVF(1)=-3.25E-03 DIVFrms= 3.44E-03 DT(ND)=-5.89E-04 T(ND)=2.6215E+02
 NST=   223 JCONV= 84 CHG=3.34E-05 dt0=1.00E+04 DIVF(1)=-3.09E-03 DIVFrms= 3.00E-03 DT(ND)=-5.92E-04 T(ND)=2.6215E+02
 NST=   224 JCONV= 84 CHG=3.03E-05 dt0=1.00E+04 DIVF(1)=-3.24E-03 DIVFrms= 3.44E-03 DT(ND)=-5.88E-04 T(ND)=2.6215E+02
 NST=   225 JCONV= 84 CHG=4.01E-05 dt0=1.00E+04 DIVF(1)=-3.08E-03 DIVFrms= 2.99E-03 DT(ND)=-5.91E-04 T(ND)=2.6215E+02
 NST=   226 JCONV= 84 CHG=4.83E-05 dt0=1.00E+04 DIVF(1)=-3.24E-03 DIVFrms= 3.44E-03 DT(ND)=-5.87E-04 T(ND)=2.6215E+02
 NST=   227 JCONV= 84 CHG=3.34E-05 dt0=1.00E+04 DIVF(1)=-3.08E-03 DIVFrms= 3.00E-03 DT(ND)=-5.90E-04 T(ND)=2.6215E+02
 NST=   228 JCONV= 84 CHG=3.03E-05 dt0=1.00E+04 DIVF(1)=-3.24E-03 DIVFrms= 3.43E-03 DT(ND)=-5.86E-04 T(ND)=2.6215E+02
 NST=   229 JCONV= 84 CHG=4.01E-05 dt0=1.00E+04 DIVF(1)=-3.07E-03 DIVFrms= 2.99E-03 DT(ND)=-5.90E-04 T(ND)=2.6215E+02
 NST=   230 JCONV= 84 CHG=3.04E-05 dt0=1.00E+04 DIVF(1)=-3.23E-03 DIVFrms= 3.42E-03 DT(ND)=-5.85E-04 T(ND)=2.6214E+02
 NST=   231 JCONV= 84 CHG=3.34E-05 dt0=1.00E+04 DIVF(1)=-3.07E-03 DIVFrms= 2.99E-03 DT(ND)=-5.89E-04 T(ND)=2.6214E+02
 NST=   232 JCONV= 84 CHG=3.06E-05 dt0=1.00E+04 DIVF(1)=-3.22E-03 DIVFrms= 3.41E-03 DT(ND)=-5.85E-04 T(ND)=2.6214E+02
 NST=   233 JCONV= 84 CHG=3.34E-05 dt0=1.00E+04 DIVF(1)=-3.07E-03 DIVFrms= 2.98E-03 DT(ND)=-5.88E-04 T(ND)=2.6214E+02
 NST=   234 JCONV= 84 CHG=5.27E-05 dt0=1.00E+04 DIVF(1)=-3.23E-03 DIVFrms= 3.41E-03 DT(ND)=-5.84E-04 T(ND)=2.6214E+02
 NST=   235 JCONV= 84 CHG=3.34E-05 dt0=1.00E+04 DIVF(1)=-3.07E-03 DIVFrms= 2.98E-03 DT(ND)=-5.87E-04 T(ND)=2.6214E+02
 NST=   236 JCONV= 84 CHG=3.05E-05 dt0=1.00E+04 DIVF(1)=-3.22E-03 DIVFrms= 3.40E-03 DT(ND)=-5.83E-04 T(ND)=2.6214E+02
 NST=   237 JCONV= 84 CHG=3.35E-05 dt0=1.00E+04 DIVF(1)=-3.06E-03 DIVFrms= 2.97E-03 DT(ND)=-5.86E-04 T(ND)=2.6214E+02
 NST=   238 JCONV= 84 CHG=3.05E-05 dt0=1.00E+04 DIVF(1)=-3.21E-03 DIVFrms= 3.40E-03 DT(ND)=-5.82E-04 T(ND)=2.6214E+02
 NST=   239 JCONV= 84 CHG=3.94E-05 dt0=1.00E+04 DIVF(1)=-3.05E-03 DIVFrms= 2.96E-03 DT(ND)=-5.86E-04 T(ND)=2.6214E+02
 NST=   240 JCONV= 84 CHG=4.85E-05 dt0=1.00E+04 DIVF(1)=-3.21E-03 DIVFrms= 3.40E-03 DT(ND)=-5.81E-04 T(ND)=2.6214E+02
 NST=   241 JCONV= 84 CHG=3.35E-05 dt0=1.00E+04 DIVF(1)=-3.05E-03 DIVFrms= 2.96E-03 DT(ND)=-5.85E-04 T(ND)=2.6214E+02
 NST=   242 JCONV= 84 CHG=3.06E-05 dt0=1.00E+04 DIVF(1)=-3.21E-03 DIVFrms= 3.39E-03 DT(ND)=-5.80E-04 T(ND)=2.6214E+02
 NST=   243 JCONV= 84 CHG=3.99E-05 dt0=1.00E+04 DIVF(1)=-3.05E-03 DIVFrms= 2.95E-03 DT(ND)=-5.84E-04 T(ND)=2.6214E+02
 NST=   244 JCONV= 84 CHG=3.07E-05 dt0=1.00E+04 DIVF(1)=-3.20E-03 DIVFrms= 3.38E-03 DT(ND)=-5.80E-04 T(ND)=2.6214E+02
 NST=   245 JCONV= 84 CHG=3.35E-05 dt0=1.00E+04 DIVF(1)=-3.05E-03 DIVFrms= 2.95E-03 DT(ND)=-5.83E-04 T(ND)=2.6214E+02
 NST=   246 JCONV= 84 CHG=3.07E-05 dt0=1.00E+04 DIVF(1)=-3.19E-03 DIVFrms= 3.38E-03 DT(ND)=-5.79E-04 T(ND)=2.6214E+02
 NST=   247 JCONV= 84 CHG=3.35E-05 dt0=1.00E+04 DIVF(1)=-3.04E-03 DIVFrms= 2.95E-03 DT(ND)=-5.82E-04 T(ND)=2.6213E+02
 NST=   248 JCONV= 84 CHG=3.07E-05 dt0=1.00E+04 DIVF(1)=-3.19E-03 DIVFrms= 3.37E-03 DT(ND)=-5.78E-04 T(ND)=2.6213E+02
 NST=   249 JCONV= 84 CHG=3.92E-05 dt0=1.00E+04 DIVF(1)=-3.03E-03 DIVFrms= 2.94E-03 DT(ND)=-5.81E-04 T(ND)=2.6213E+02
 NST=   250 JCONV= 84 CHG=4.98E-05 dt0=1.00E+04 DIVF(1)=-3.19E-03 DIVFrms= 3.37E-03 DT(ND)=-5.77E-04 T(ND)=2.6213E+02

 TIME= 2.492E+06  TIME IN DAYS = 2.885E+01

 PLANETARY ALBEDO:  ALBP = 0.5424

  J     P         ALT         T        CONVEC       DT          TOLD        FH20       FSAVE       TCOOL       THEAT
  1 5.4117E-05 4.5015E+01 2.1793E+02  0.00E+00   4.4632E-03  2.1792E+02  1.7969E-06  1.7198E-06 -7.3690E+02  7.4972E+02
  2 6.3358E-05 4.4243E+01 2.1004E+02  0.00E+00  -2.3872E-03  2.1005E+02  1.7969E-06  1.7198E-06 -1.8777E+02  1.6687E+02
  3 7.4089E-05 4.3495E+01 2.0744E+02  0.00E+00  -1.6354E-03  2.0744E+02  1.7969E-06  1.7198E-06 -1.4053E+02  1.4385E+02
  4 8.6534E-05 4.2759E+01 2.0678E+02  0.00E+00  -2.4625E-04  2.0678E+02  1.7969E-06  1.7198E-06 -1.2272E+02  1.2241E+02
  5 1.0095E-04 4.2034E+01 2.0474E+02  0.00E+00  -9.2508E-05  2.0474E+02  1.7969E-06  1.7198E-06 -9.6466E+01  1.0229E+02
  6 1.1762E-04 4.1325E+01 2.0051E+02  0.00E+00  -2.1167E-04  2.0051E+02  1.7969E-06  1.7198E-06 -8.2800E+01  8.3973E+01
  7 1.3689E-04 4.0638E+01 1.9520E+02  0.00E+00  -2.2561E-05  1.9520E+02  1.7969E-06  1.7198E-06 -6.8328E+01  6.7716E+01
  8 1.5912E-04 3.9974E+01 1.9001E+02  0.00E+00   1.2878E-04  1.9001E+02  1.7969E-06  1.7198E-06 -5.4582E+01  5.3726E+01
  9 1.8473E-04 3.9333E+01 1.8567E+02  0.00E+00   1.5514E-04  1.8567E+02  1.7969E-06  1.7198E-06 -4.2753E+01  4.2120E+01
 10 2.1422E-04 3.8709E+01 1.8247E+02  0.00E+00   1.7359E-04  1.8247E+02  1.7969E-06  1.7198E-06 -3.3332E+01  3.2880E+01
 11 2.4812E-04 3.8099E+01 1.8040E+02  0.00E+00   1.9628E-04  1.8040E+02  1.7969E-06  1.7198E-06 -2.6019E+01  2.5843E+01
 12 2.8704E-04 3.7499E+01 1.7928E+02  0.00E+00   2.1378E-04  1.7928E+02  1.7969E-06  1.7198E-06 -2.0807E+01  2.0745E+01
 13 3.3166E-04 3.6907E+01 1.7888E+02  0.00E+00   2.2831E-04  1.7888E+02  1.7969E-06  1.7198E-06 -1.7395E+01  1.7415E+01
 14 3.8276E-04 3.6320E+01 1.7893E+02  0.00E+00   2.4796E-04  1.7893E+02  1.7969E-06  1.7198E-06 -1.5485E+01  1.5625E+01
 15 4.4121E-04 3.5737E+01 1.7928E+02  0.00E+00   2.6931E-04  1.7928E+02  1.7969E-06  1.7198E-06 -1.4627E+01  1.4686E+01
 16 5.0798E-04 3.5158E+01 1.7979E+02  0.00E+00   2.8550E-04  1.7979E+02  1.7969E-06  1.7198E-06 -1.4178E+01  1.4259E+01
 17 5.8415E-04 3.4582E+01 1.8039E+02  0.00E+00   3.1559E-04  1.8039E+02  1.7969E-06  1.7198E-06 -1.3989E+01  1.4110E+01
 18 6.7094E-04 3.4009E+01 1.8106E+02  0.00E+00   3.1344E-04  1.8106E+02  1.7969E-06  1.7198E-06 -1.4074E+01  1.4068E+01
 19 7.6971E-04 3.3439E+01 1.8187E+02  0.00E+00   3.6762E-04  1.8186E+02  1.7969E-06  1.7198E-06 -1.4312E+01  1.4021E+01
 20 8.8195E-04 3.2871E+01 1.8271E+02  0.00E+00   3.1074E-04  1.8271E+02  1.7969E-06  1.7198E-06 -1.3845E+01  1.3910E+01
 21 1.0094E-03 3.2306E+01 1.8334E+02  0.00E+00   4.4495E-04  1.8334E+02  1.7969E-06  1.7198E-06 -1.2930E+01  1.3875E+01
 22 1.1538E-03 3.1743E+01 1.8404E+02  0.00E+00   5.2736E-04  1.8404E+02  1.7969E-06  1.7198E-06 -1.5660E+01  1.5250E+01
 23 1.3173E-03 3.1183E+01 1.8514E+02  0.00E+00   6.3444E-04  1.8514E+02  1.7969E-06  1.7198E-06 -1.6748E+01  1.6154E+01
 24 1.5022E-03 3.0624E+01 1.8667E+02  0.00E+00  -8.9328E-04  1.8667E+02  1.7969E-06  1.7198E-06 -1.6700E+01  1.6471E+01
 25 1.7110E-03 3.0066E+01 1.8839E+02  0.00E+00   8.6093E-03  1.8838E+02  1.7969E-06  1.7198E-06 -1.6118E+01  1.6205E+01
 26 1.9465E-03 2.9507E+01 1.9001E+02  0.00E+00   9.4533E-03  1.9000E+02  1.7969E-06  1.7198E-06 -1.5049E+01  1.5419E+01
 27 2.2118E-03 2.8950E+01 1.9132E+02  0.00E+00  -4.1258E-04  1.9132E+02  1.7969E-06  1.7198E-06 -1.3985E+01  1.4229E+01
 28 2.5102E-03 2.8394E+01 1.9230E+02  0.00E+00   3.2393E-03  1.9229E+02  1.7969E-06  1.7198E-06 -1.2668E+01  1.2791E+01
 29 2.8455E-03 2.7841E+01 1.9300E+02  0.00E+00   2.2277E-03  1.9300E+02  1.7969E-06  1.7198E-06 -1.1168E+01  1.1277E+01
 30 3.2217E-03 2.7292E+01 1.9355E+02  0.00E+00  -1.1349E-03  1.9355E+02  1.7969E-06  1.7198E-06 -9.8473E+00  9.8082E+00
 31 3.6433E-03 2.6747E+01 1.9409E+02  0.00E+00  -1.5020E-03  1.9409E+02  1.7969E-06  1.7198E-06 -8.5990E+00  8.4308E+00
 32 4.1152E-03 2.6205E+01 1.9470E+02  0.00E+00  -7.5457E-04  1.9470E+02  1.7969E-06  1.7198E-06 -7.4006E+00  7.3310E+00
 33 4.6425E-03 2.5666E+01 1.9540E+02  0.00E+00  -4.3150E-04  1.9540E+02  1.7969E-06  1.7198E-06 -6.5516E+00  6.4938E+00
 34 5.2313E-03 2.5131E+01 1.9617E+02  0.00E+00   2.1044E-04  1.9617E+02  1.7969E-06  1.7198E-06 -5.9031E+00  5.8660E+00
 35 5.8876E-03 2.4600E+01 1.9694E+02  0.00E+00  -2.7143E-04  1.9694E+02  1.7969E-06  1.7198E-06 -5.3370E+00  5.3864E+00
 36 6.6183E-03 2.4071E+01 1.9769E+02  0.00E+00   1.1161E-03  1.9769E+02  1.7969E-06  1.7198E-06 -4.9902E+00  5.0004E+00
 37 7.4309E-03 2.3546E+01 1.9839E+02  0.00E+00  -1.7186E-03  1.9839E+02  1.7969E-06  1.7198E-06 -4.7121E+00  4.6686E+00
 38 8.3332E-03 2.3025E+01 1.9900E+02  0.00E+00  -1.4723E-03  1.9900E+02  1.7969E-06  1.7198E-06 -4.4022E+00  4.3676E+00
 39 9.3339E-03 2.2508E+01 1.9945E+02  0.00E+00   2.8786E-04  1.9945E+02  1.7969E-06  1.7198E-06 -3.9224E+00  4.0821E+00
 40 1.0442E-02 2.1995E+01 1.9973E+02  0.00E+00   8.8560E-04  1.9973E+02  1.7969E-06  1.7198E-06 -3.6440E+00  3.8219E+00
 41 1.1668E-02 2.1488E+01 1.9991E+02  0.00E+00   9.8870E-04  1.9991E+02  1.7969E-06  1.7198E-06 -3.6085E+00  3.5706E+00
 42 1.3023E-02 2.0985E+01 2.0014E+02  0.00E+00   1.0083E-03  2.0014E+02  1.7969E-06  1.7198E-06 -3.4321E+00  3.3021E+00
 43 1.4517E-02 2.0487E+01 2.0048E+02  0.00E+00   1.0319E-03  2.0047E+02  1.7969E-06  1.7198E-06 -3.0961E+00  3.0380E+00
 44 1.6164E-02 1.9993E+01 2.0091E+02  0.00E+00   1.0635E-03  2.0091E+02  1.7969E-06  1.7198E-06 -2.7512E+00  2.7918E+00
 45 1.7975E-02 1.9504E+01 2.0143E+02  0.00E+00   1.0961E-03  2.0143E+02  1.7969E-06  1.7198E-06 -2.5591E+00  2.5741E+00
 46 1.9966E-02 1.9019E+01 2.0206E+02  0.00E+00   1.1213E-03  2.0206E+02  1.7969E-06  1.7198E-06 -2.4054E+00  2.3897E+00
 47 2.2151E-02 1.8538E+01 2.0279E+02  0.00E+00   1.1394E-03  2.0279E+02  1.7969E-06  1.7198E-06 -2.2089E+00  2.2374E+00
 48 2.4545E-02 1.8061E+01 2.0362E+02  0.00E+00   1.1516E-03  2.0361E+02  1.7969E-06  1.7198E-06 -2.1326E+00  2.1108E+00
 49 2.7166E-02 1.7587E+01 2.0454E+02  0.00E+00   1.1595E-03  2.0454E+02  1.7969E-06  1.7198E-06 -2.0415E+00  2.0013E+00
 50 3.0031E-02 1.7116E+01 2.0555E+02  0.00E+00   1.1661E-03  2.0555E+02  1.7969E-06  1.7198E-06 -1.9323E+00  1.9004E+00
 51 3.3158E-02 1.6649E+01 2.0657E+02  0.00E+00   1.1744E-03  2.0657E+02  1.7969E-06  1.7198E-06 -1.8087E+00  1.8009E+00
 52 3.6567E-02 1.6185E+01 2.0755E+02  0.00E+00   1.1866E-03  2.0754E+02  1.7969E-06  1.7198E-06 -1.6799E+00  1.6991E+00
 53 4.0279E-02 1.5725E+01 2.0839E+02  0.00E+00   1.2038E-03  2.0839E+02  1.7969E-06  1.7198E-06 -1.5571E+00  1.5941E+00
 54 4.4314E-02 1.5269E+01 2.0904E+02  0.00E+00   1.2259E-03  2.0904E+02  1.7969E-06  1.7198E-06 -1.4472E+00  1.4856E+00
 55 4.8695E-02 1.4817E+01 2.0944E+02  0.00E+00   1.2529E-03  2.0944E+02  1.7969E-06  1.7198E-06 -1.3140E+00  1.3739E+00
 56 5.3445E-02 1.4371E+01 2.0956E+02  0.00E+00   1.2811E-03  2.0956E+02  1.7969E-06  1.7198E-06 -1.2032E+00  1.2599E+00
 57 5.8588E-02 1.3930E+01 2.0940E+02  0.00E+00   1.3096E-03  2.0940E+02  1.7969E-06  1.7198E-06 -1.1052E+00  1.1451E+00
 58 6.4150E-02 1.3496E+01 2.0897E+02  0.00E+00   1.3295E-03  2.0897E+02  1.7969E-06  1.7198E-06 -9.7923E-01  1.0309E+00
 59 7.0155E-02 1.3069E+01 2.0832E+02  0.00E+00   1.3392E-03  2.0831E+02  1.7969E-06  1.7198E-06 -8.9463E-01  9.1911E-01
 60 7.6631E-02 1.2649E+01 2.0748E+02  0.00E+00   1.3245E-03  2.0748E+02  1.7969E-06  1.7198E-06 -7.8864E-01  8.1128E-01
 61 8.3605E-02 1.2236E+01 2.0652E+02  0.00E+00   1.2959E-03  2.0652E+02  1.7969E-06  1.7198E-06 -6.9215E-01  7.0880E-01
 62 9.1105E-02 1.1831E+01 2.0550E+02  0.00E+00   1.2154E-03  2.0550E+02  1.7969E-06  1.7198E-06 -6.0847E-01  6.1275E-01
 63 9.9159E-02 1.1434E+01 2.0448E+02  0.00E+00   1.1489E-03  2.0448E+02  1.7969E-06  1.7198E-06 -5.3601E-01  5.2658E-01
 64 1.0780E-01 1.1044E+01 2.0352E+02  0.00E+00   1.0858E-03  2.0352E+02  1.7969E-06  1.7198E-06 -5.0362E-01  4.9599E-01
 65 1.1704E-01 1.0661E+01 2.0266E+02  0.00E+00   1.0235E-03  2.0266E+02  1.7969E-06  1.7198E-06 -4.7843E-01  4.7028E-01
 66 1.2693E-01 1.0285E+01 2.0194E+02  0.00E+00   8.8890E-04  2.0194E+02  1.7969E-06  1.7198E-06 -4.5255E-01  4.4535E-01
 67 1.3750E-01 9.9165E+00 2.0138E+02  0.00E+00   8.1359E-04  2.0138E+02  1.7969E-06  1.7198E-06 -4.4145E-01  4.2326E-01
 68 1.4876E-01 9.5539E+00 2.0100E+02  0.00E+00   5.6378E-04  2.0100E+02  1.7969E-06  1.7198E-06 -4.1638E-01  4.0486E-01
 69 1.6075E-01 9.1974E+00 2.0080E+02  0.00E+00   6.3873E-04  2.0080E+02  1.7969E-06  1.7198E-06 -4.0374E-01  3.9000E-01
 70 1.7350E-01 8.8466E+00 2.0078E+02  0.00E+00   5.7614E-05  2.0077E+02  1.7969E-06  1.7198E-06 -3.9061E-01  3.7789E-01
 71 1.8704E-01 8.5012E+00 2.0091E+02  0.00E+00   8.1317E-04  2.0091E+02  1.7969E-06  1.7198E-06 -3.7718E-01  3.6756E-01
 72 2.0140E-01 8.1609E+00 2.0117E+02  0.00E+00  -1.1119E-03  2.0118E+02  1.7969E-06  1.7198E-06 -3.7097E-01  3.5812E-01
 73 2.1660E-01 7.8256E+00 2.0154E+02  0.00E+00   2.3041E-03  2.0154E+02  1.7969E-06  1.7198E-06 -3.5117E-01  3.4884E-01
 74 2.3266E-01 7.4952E+00 2.0197E+02  0.00E+00  -5.7956E-03  2.0198E+02  1.7969E-06  1.7486E-06 -3.3034E-01  3.3935E-01
 75 2.4962E-01 7.1696E+00 2.0245E+02  0.00E+00   6.2294E-03  2.0244E+02  1.8265E-06  1.8640E-06 -3.1096E-01  3.2959E-01
 76 2.6750E-01 6.8487E+00 2.0293E+02  0.00E+00  -3.9259E-03  2.0293E+02  1.9451E-06  2.0231E-06 -3.0150E-01  3.1941E-01
 77 2.8631E-01 6.5323E+00 2.0385E+02  0.00E+00  -1.1969E-03  2.0385E+02  2.2389E-06  2.3243E-06 -3.1942E-01  3.0908E-01
 78 3.0608E-01 6.2201E+00 2.0475E+02  0.00E+00  -7.2907E-04  2.0475E+02  2.5700E-06  2.6296E-06 -3.0495E-01  2.9865E-01
 79 3.2682E-01 5.9122E+00 2.0557E+02  0.00E+00  -1.1394E-03  2.0557E+02  2.9079E-06  3.0485E-06 -2.9969E-01  2.8985E-01
 80 3.4855E-01 5.6082E+00 2.0695E+02  0.00E+00  -8.2968E-04  2.0695E+02  3.5645E-06  3.6077E-06 -2.9066E-01  2.8350E-01
 81 3.7129E-01 5.3082E+00 2.0797E+02  0.00E+00  -5.9095E-04  2.0797E+02  4.1343E-06  4.2836E-06 -2.8229E-01  2.7719E-01
 82 3.9503E-01 5.0118E+00 2.0989E+02  0.00E+00  -1.0639E-03  2.0989E+02  5.4347E-06  5.6302E-06 -2.8221E-01  2.7302E-01
 83 4.1979E-01 4.7187E+00 2.1135E+02  0.00E+00  -8.3660E-04  2.1135E+02  6.6689E-06  6.7915E-06 -3.4181E-01  2.6943E-01
 84 4.4557E-01 4.4281E+00 2.1473E+02  1.00E+00  -8.4575E-04  2.1473E+02  1.0557E-05  1.0747E-05 -6.4280E-01  2.7400E-01
 85 4.7236E-01 4.1389E+00 2.1807E+02  1.00E+00  -8.3680E-04  2.1808E+02  1.6412E-05  1.6701E-05 -8.9865E-01  2.8381E-01
 86 5.0017E-01 3.8512E+00 2.2139E+02  1.00E+00  -8.1022E-04  2.2139E+02  2.5070E-05  2.5500E-05 -1.0920E+00  2.9857E-01
 87 5.2898E-01 3.5653E+00 2.2467E+02  1.00E+00  -7.8053E-04  2.2467E+02  3.7641E-05  3.8272E-05 -1.2507E+00  3.1930E-01
 88 5.5879E-01 3.2814E+00 2.2790E+02  1.00E+00  -7.7374E-04  2.2791E+02  5.5572E-05  5.6480E-05 -1.3877E+00  3.4798E-01
 89 5.8956E-01 2.9997E+00 2.3109E+02  1.00E+00  -7.6291E-04  2.3109E+02  8.0693E-05  8.1979E-05 -1.4975E+00  3.8443E-01
 90 6.2129E-01 2.7206E+00 2.3422E+02  1.00E+00  -7.4896E-04  2.3422E+02  1.1526E-04  1.1705E-04 -1.5391E+00  4.2276E-01
 91 6.5395E-01 2.4441E+00 2.3729E+02  1.00E+00  -7.3296E-04  2.3729E+02  1.6198E-04  1.6442E-04 -1.5270E+00  4.5407E-01
 92 6.8749E-01 2.1707E+00 2.4029E+02  1.00E+00  -7.1591E-04  2.4029E+02  2.2399E-04  2.2727E-04 -1.4814E+00  4.7336E-01
 93 7.2190E-01 1.9005E+00 2.4321E+02  1.00E+00  -6.9858E-04  2.4321E+02  3.0482E-04  3.0913E-04 -1.4311E+00  4.8464E-01
 94 7.5712E-01 1.6337E+00 2.4605E+02  1.00E+00  -6.8144E-04  2.4605E+02  4.0829E-04  4.1387E-04 -1.3930E+00  4.9950E-01
 95 7.9311E-01 1.3706E+00 2.4880E+02  1.00E+00  -6.6466E-04  2.4880E+02  5.3838E-04  5.4547E-04 -1.3665E+00  5.2733E-01
 96 8.2982E-01 1.1115E+00 2.5145E+02  1.00E+00  -6.4821E-04  2.5146E+02  6.9907E-04  7.0793E-04 -1.3937E+00  5.6817E-01
 97 8.6718E-01 8.5660E-01 2.5401E+02  1.00E+00  -6.3201E-04  2.5401E+02  8.9416E-04  9.0504E-04 -1.4453E+00  6.1632E-01
 98 9.0515E-01 6.0613E-01 2.5646E+02  1.00E+00  -6.1602E-04  2.5646E+02  1.1270E-03  1.1402E-03 -1.4399E+00  6.6724E-01
 99 9.4366E-01 3.6034E-01 2.5880E+02  1.00E+00  -6.0024E-04  2.5880E+02  1.4006E-03  1.4162E-03 -1.5355E+00  7.2113E-01
100 9.8262E-01 1.1944E-01 2.6103E+02  1.00E+00  -5.8464E-04  2.6103E+02  1.7169E-03  1.7352E-03 -1.5857E+00  7.8647E-01
101 1.0024E+00 0.0000E+00 2.6213E+02  1.00E+00  -5.7691E-04  2.6213E+02  1.8959E-03  1.9158E-03 -1.4537E+00  3.5373E+00

 FCO2
  5.00E-01 5.00E-01 5.00E-01 5.00E-01 5.00E-01 5.00E-01 5.00E-01 5.00E-01 5.00E-01 5.00E-01
  5.00E-01 5.00E-01 5.00E-01 5.00E-01 5.00E-01 5.00E-01 5.00E-01 5.00E-01 5.00E-01 5.00E-01
  5.00E-01 5.00E-01 5.00E-01 5.00E-01 5.00E-01 5.00E-01 5.00E-01 5.00E-01 5.00E-01 5.00E-01
  5.00E-01 5.00E-01 5.00E-01 5.00E-01 5.00E-01 5.00E-01 5.00E-01 5.00E-01 5.00E-01 5.00E-01
  5.00E-01 5.00E-01 5.00E-01 5.00E-01 5.00E-01 5.00E-01 5.00E-01 5.00E-01 5.00E-01 5.00E-01
  5.00E-01 5.00E-01 5.00E-01 5.00E-01 5.00E-01 5.00E-01 5.00E-01 5.00E-01 5.00E-01 5.00E-01
  5.00E-01 5.00E-01 5.00E-01 5.00E-01 5.00E-01 5.00E-01 5.00E-01 5.00E-01 5.00E-01 5.00E-01
  5.00E-01 5.00E-01 5.00E-01 5.00E-01 5.00E-01 5.00E-01 5.00E-01 5.00E-01 5.00E-01 5.00E-01
  5.00E-01 5.00E-01 5.00E-01 5.00E-01 5.00E-01 5.00E-01 5.00E-01 5.00E-01 5.00E-01 5.00E-01
  5.00E-01 5.00E-01 5.00E-01 5.00E-01 5.00E-01 5.00E-01 5.00E-01 5.00E-01 5.00E-01 5.00E-01
  5.00E-01

  J    PF         ALT       FTOTAL       FTIR       FDNIR       FUPIR       FTSOL       FDNSOL       FUPSOL       DIVF
  1 5.0000E-05 4.5015E+01 -4.7343E+02 -1.4827E+05  0.0000E+00  1.4827E+05  1.4779E+05  3.2300E+05  1.7520E+05 -3.1931E-03
  2 5.8573E-05 4.4243E+01 -4.8442E+02 -1.4764E+05  5.2644E+02  1.4816E+05  1.4715E+05  3.2235E+05  1.7520E+05 -3.2695E-03
  3 6.8534E-05 4.3495E+01 -4.6374E+02 -1.4745E+05  6.5666E+02  1.4811E+05  1.4699E+05  3.2219E+05  1.7520E+05 -3.1311E-03
  4 8.0094E-05 4.2759E+01 -4.6754E+02 -1.4729E+05  7.6718E+02  1.4806E+05  1.4682E+05  3.2202E+05  1.7520E+05 -3.1579E-03
  5 9.3491E-05 4.2034E+01 -4.6714E+02 -1.4713E+05  8.5831E+02  1.4798E+05  1.4666E+05  3.2186E+05  1.7520E+05 -3.1567E-03
  6 1.0900E-04 4.1325E+01 -4.7608E+02 -1.4698E+05  9.1768E+02  1.4790E+05  1.4650E+05  3.2170E+05  1.7520E+05 -3.2190E-03
  7 1.2693E-04 4.0638E+01 -4.7815E+02 -1.4683E+05  9.6768E+02  1.4780E+05  1.4635E+05  3.2155E+05  1.7520E+05 -3.2351E-03
  8 1.4763E-04 3.9974E+01 -4.7691E+02 -1.4669E+05  1.0181E+03  1.4771E+05  1.4622E+05  3.2142E+05  1.7520E+05 -3.2287E-03
  9 1.7150E-04 3.9333E+01 -4.7491E+02 -1.4657E+05  1.0760E+03  1.4764E+05  1.4609E+05  3.2129E+05  1.7520E+05 -3.2167E-03
 10 1.9899E-04 3.8709E+01 -4.7322E+02 -1.4645E+05  1.1438E+03  1.4759E+05  1.4598E+05  3.2118E+05  1.7520E+05 -3.2062E-03
 11 2.3062E-04 3.8099E+01 -4.7183E+02 -1.4635E+05  1.2214E+03  1.4757E+05  1.4588E+05  3.2107E+05  1.7520E+05 -3.1973E-03
 12 2.6695E-04 3.7499E+01 -4.7121E+02 -1.4626E+05  1.3073E+03  1.4756E+05  1.4579E+05  3.2098E+05  1.7520E+05 -3.1933E-03
 13 3.0863E-04 3.6907E+01 -4.7096E+02 -1.4617E+05  1.4012E+03  1.4757E+05  1.4570E+05  3.2090E+05  1.7520E+05 -3.1913E-03
 14 3.5640E-04 3.6320E+01 -4.7105E+02 -1.4609E+05  1.5038E+03  1.4760E+05  1.4562E+05  3.2082E+05  1.7519E+05 -3.1915E-03
 15 4.1107E-04 3.5737E+01 -4.7179E+02 -1.4601E+05  1.6176E+03  1.4763E+05  1.4554E+05  3.2073E+05  1.7519E+05 -3.1958E-03
 16 4.7356E-04 3.5158E+01 -4.7215E+02 -1.4592E+05  1.7460E+03  1.4767E+05  1.4545E+05  3.2064E+05  1.7519E+05 -3.1974E-03
 17 5.4490E-04 3.4582E+01 -4.7271E+02 -1.4582E+05  1.8908E+03  1.4771E+05  1.4535E+05  3.2054E+05  1.7519E+05 -3.2002E-03
 18 6.2623E-04 3.4009E+01 -4.7367E+02 -1.4571E+05  2.0556E+03  1.4777E+05  1.4524E+05  3.2043E+05  1.7519E+05 -3.2055E-03
 19 7.1884E-04 3.3439E+01 -4.7361E+02 -1.4559E+05  2.2442E+03  1.4783E+05  1.4511E+05  3.2030E+05  1.7519E+05 -3.2038E-03
 20 8.2417E-04 3.2871E+01 -4.7064E+02 -1.4544E+05  2.4557E+03  1.4790E+05  1.4497E+05  3.2016E+05  1.7519E+05 -3.1822E-03
 21 9.4379E-04 3.2306E+01 -4.7140E+02 -1.4528E+05  2.6829E+03  1.4796E+05  1.4481E+05  3.1999E+05  1.7519E+05 -3.1860E-03
 22 1.0795E-03 3.1743E+01 -4.8388E+02 -1.4511E+05  2.9310E+03  1.4804E+05  1.4462E+05  3.1981E+05  1.7518E+05 -3.2686E-03
 23 1.2332E-03 3.1183E+01 -4.7775E+02 -1.4487E+05  3.2855E+03  1.4816E+05  1.4440E+05  3.1958E+05  1.7518E+05 -3.2246E-03
 24 1.4072E-03 3.0624E+01 -4.6769E+02 -1.4459E+05  3.7297E+03  1.4832E+05  1.4412E+05  3.1930E+05  1.7518E+05 -3.1532E-03
 25 1.6037E-03 3.0066E+01 -4.6330E+02 -1.4427E+05  4.2323E+03  1.4850E+05  1.4381E+05  3.1899E+05  1.7518E+05 -3.1198E-03
 26 1.8255E-03 2.9507E+01 -4.6519E+02 -1.4392E+05  4.7633E+03  1.4868E+05  1.4346E+05  3.1864E+05  1.7518E+05 -3.1287E-03
 27 2.0756E-03 2.8950E+01 -4.7423E+02 -1.4355E+05  5.2933E+03  1.4885E+05  1.4308E+05  3.1826E+05  1.7518E+05 -3.1860E-03
 28 2.3570E-03 2.8394E+01 -4.8095E+02 -1.4317E+05  5.8157E+03  1.4898E+05  1.4269E+05  3.1787E+05  1.7518E+05 -3.2282E-03
 29 2.6734E-03 2.7841E+01 -4.8478E+02 -1.4278E+05  6.3266E+03  1.4910E+05  1.4229E+05  3.1747E+05  1.7518E+05 -3.2514E-03
 30 3.0287E-03 2.7292E+01 -4.8858E+02 -1.4239E+05  6.8275E+03  1.4921E+05  1.4190E+05  3.1708E+05  1.7519E+05 -3.2743E-03
 31 3.4271E-03 2.6747E+01 -4.8705E+02 -1.4200E+05  7.3338E+03  1.4934E+05  1.4151E+05  3.1671E+05  1.7519E+05 -3.2614E-03
 32 3.8732E-03 2.6205E+01 -4.7968E+02 -1.4163E+05  7.8497E+03  1.4948E+05  1.4115E+05  3.1634E+05  1.7520E+05 -3.2091E-03
 33 4.3722E-03 2.5666E+01 -4.7628E+02 -1.4126E+05  8.3694E+03  1.4963E+05  1.4079E+05  3.1599E+05  1.7520E+05 -3.1830E-03
 34 4.9296E-03 2.5131E+01 -4.7311E+02 -1.4090E+05  8.8993E+03  1.4980E+05  1.4043E+05  3.1564E+05  1.7521E+05 -3.1582E-03
 35 5.5514E-03 2.4600E+01 -4.7084E+02 -1.4054E+05  9.4368E+03  1.4998E+05  1.4007E+05  3.1529E+05  1.7522E+05 -3.1394E-03
 36 6.2441E-03 2.4071E+01 -4.7421E+02 -1.4018E+05  9.9736E+03  1.5015E+05  1.3971E+05  3.1494E+05  1.7523E+05 -3.1582E-03
 37 7.0149E-03 2.3546E+01 -4.7499E+02 -1.3980E+05  1.0517E+04  1.5032E+05  1.3933E+05  3.1457E+05  1.7524E+05 -3.1599E-03
 38 7.8715E-03 2.3025E+01 -4.7132E+02 -1.3940E+05  1.1061E+04  1.5047E+05  1.3893E+05  3.1419E+05  1.7526E+05 -3.1324E-03
 39 8.8220E-03 2.2508E+01 -4.6808E+02 -1.3899E+05  1.1590E+04  1.5058E+05  1.3852E+05  3.1380E+05  1.7527E+05 -3.1085E-03
 40 9.8756E-03 2.1995E+01 -4.8466E+02 -1.3859E+05  1.2085E+04  1.5067E+05  1.3810E+05  3.1339E+05  1.7529E+05 -3.2167E-03
 41 1.1042E-02 2.1488E+01 -5.0509E+02 -1.3817E+05  1.2585E+04  1.5075E+05  1.3766E+05  3.1298E+05  1.7532E+05 -3.3505E-03
 42 1.2331E-02 2.0985E+01 -5.0028E+02 -1.3771E+05  1.3150E+04  1.5086E+05  1.3721E+05  3.1255E+05  1.7534E+05 -3.3162E-03
 43 1.3754E-02 2.0487E+01 -4.8205E+02 -1.3723E+05  1.3777E+04  1.5100E+05  1.3674E+05  3.1211E+05  1.7536E+05 -3.1923E-03
 44 1.5323E-02 1.9993E+01 -4.7305E+02 -1.3675E+05  1.4440E+04  1.5119E+05  1.3627E+05  3.1166E+05  1.7538E+05 -3.1289E-03
 45 1.7051E-02 1.9504E+01 -4.7998E+02 -1.3628E+05  1.5131E+04  1.5141E+05  1.3580E+05  3.1121E+05  1.7541E+05 -3.1701E-03
 46 1.8950E-02 1.9019E+01 -4.8280E+02 -1.3580E+05  1.5878E+04  1.5168E+05  1.3532E+05  3.1075E+05  1.7543E+05 -3.1831E-03
 47 2.1037E-02 1.8538E+01 -4.7957E+02 -1.3530E+05  1.6687E+04  1.5199E+05  1.3482E+05  3.1027E+05  1.7545E+05 -3.1552E-03
 48 2.3324E-02 1.8061E+01 -4.8601E+02 -1.3480E+05  1.7541E+04  1.5235E+05  1.3432E+05  3.0979E+05  1.7547E+05 -3.1902E-03
 49 2.5830E-02 1.7587E+01 -4.8063E+02 -1.3428E+05  1.8467E+04  1.5274E+05  1.3380E+05  3.0929E+05  1.7549E+05 -3.1466E-03
 50 2.8571E-02 1.7116E+01 -4.6973E+02 -1.3372E+05  1.9450E+04  1.5317E+05  1.3325E+05  3.0876E+05  1.7551E+05 -3.0667E-03
 51 3.1565E-02 1.6649E+01 -4.6026E+02 -1.3315E+05  2.0460E+04  1.5361E+05  1.3269E+05  3.0821E+05  1.7552E+05 -2.9963E-03
 52 3.4832E-02 1.6185E+01 -4.5775E+02 -1.3256E+05  2.1459E+04  1.5402E+05  1.3211E+05  3.0764E+05  1.7554E+05 -2.9719E-03
 53 3.8390E-02 1.5725E+01 -4.6454E+02 -1.3197E+05  2.2408E+04  1.5438E+05  1.3151E+05  3.0705E+05  1.7555E+05 -3.0091E-03
 54 4.2261E-02 1.5269E+01 -4.7877E+02 -1.3137E+05  2.3274E+04  1.5465E+05  1.3090E+05  3.0645E+05  1.7555E+05 -3.0959E-03
 55 4.6466E-02 1.4817E+01 -4.9483E+02 -1.3077E+05  2.4032E+04  1.5480E+05  1.3027E+05  3.0583E+05  1.7555E+05 -3.1965E-03
 56 5.1030E-02 1.4371E+01 -5.2196E+02 -1.3017E+05  2.4654E+04  1.5483E+05  1.2965E+05  3.0520E+05  1.7554E+05 -3.3712E-03
 57 5.5974E-02 1.3930E+01 -5.4979E+02 -1.2958E+05  2.5143E+04  1.5473E+05  1.2903E+05  3.0456E+05  1.7553E+05 -3.5533E-03
 58 6.1324E-02 1.3496E+01 -5.7096E+02 -1.2900E+05  2.5511E+04  1.5451E+05  1.2843E+05  3.0393E+05  1.7551E+05 -3.6953E-03
 59 6.7105E-02 1.3069E+01 -6.0061E+02 -1.2843E+05  2.5762E+04  1.5420E+05  1.2783E+05  3.0331E+05  1.7548E+05 -3.8951E-03
 60 7.3344E-02 1.2649E+01 -6.1576E+02 -1.2788E+05  2.5938E+04  1.5382E+05  1.2726E+05  3.0270E+05  1.7543E+05 -4.0032E-03
 61 8.0066E-02 1.2236E+01 -6.3084E+02 -1.2735E+05  2.6051E+04  1.5341E+05  1.2672E+05  3.0210E+05  1.7538E+05 -4.1123E-03
 62 8.7301E-02 1.1831E+01 -6.4278E+02 -1.2686E+05  2.6131E+04  1.5299E+05  1.2622E+05  3.0153E+05  1.7531E+05 -4.2015E-03
 63 9.5075E-02 1.1434E+01 -6.4607E+02 -1.2639E+05  2.6208E+04  1.5260E+05  1.2574E+05  3.0097E+05  1.7523E+05 -4.2338E-03
 64 1.0342E-01 1.1044E+01 -6.3830E+02 -1.2595E+05  2.6308E+04  1.5226E+05  1.2531E+05  3.0044E+05  1.7513E+05 -4.1923E-03
 65 1.1236E-01 1.0661E+01 -6.3155E+02 -1.2550E+05  2.6482E+04  1.5198E+05  1.2487E+05  2.9989E+05  1.7502E+05 -4.1553E-03
 66 1.2193E-01 1.0285E+01 -6.2385E+02 -1.2505E+05  2.6750E+04  1.5180E+05  1.2443E+05  2.9933E+05  1.7491E+05 -4.1096E-03
 67 1.3215E-01 9.9165E+00 -6.1658E+02 -1.2459E+05  2.7120E+04  1.5171E+05  1.2398E+05  2.9876E+05  1.7478E+05 -4.0641E-03
 68 1.4306E-01 9.5539E+00 -5.9700E+02 -1.2412E+05  2.7618E+04  1.5174E+05  1.2352E+05  2.9817E+05  1.7465E+05 -3.9344E-03
 69 1.5468E-01 9.1974E+00 -5.8379E+02 -1.2364E+05  2.8217E+04  1.5186E+05  1.2306E+05  2.9756E+05  1.7451E+05 -3.8443E-03
 70 1.6706E-01 8.8466E+00 -5.6703E+02 -1.2315E+05  2.8937E+04  1.5209E+05  1.2258E+05  2.9694E+05  1.7435E+05 -3.7283E-03
 71 1.8020E-01 8.5012E+00 -5.5054E+02 -1.2264E+05  2.9770E+04  1.5241E+05  1.2209E+05  2.9628E+05  1.7419E+05 -3.6121E-03
 72 1.9415E-01 8.1609E+00 -5.3731E+02 -1.2212E+05  3.0707E+04  1.5283E+05  1.2159E+05  2.9560E+05  1.7402E+05 -3.5157E-03
 73 2.0892E-01 7.8256E+00 -5.1858E+02 -1.2158E+05  3.1765E+04  1.5335E+05  1.2106E+05  2.9490E+05  1.7383E+05 -3.3817E-03
 74 2.2455E-01 7.4952E+00 -5.1497E+02 -1.2104E+05  3.2894E+04  1.5394E+05  1.2053E+05  2.9416E+05  1.7364E+05 -3.3453E-03
 75 2.4106E-01 7.1696E+00 -5.2965E+02 -1.2050E+05  3.4077E+04  1.5458E+05  1.1997E+05  2.9341E+05  1.7343E+05 -3.4264E-03
 76 2.5848E-01 6.8487E+00 -5.6170E+02 -1.1997E+05  3.5367E+04  1.5534E+05  1.1941E+05  2.9262E+05  1.7321E+05 -3.6161E-03
 77 2.7682E-01 6.5323E+00 -5.9416E+02 -1.1942E+05  3.6906E+04  1.5633E+05  1.1883E+05  2.9181E+05  1.7298E+05 -3.8007E-03
 78 2.9612E-01 6.2201E+00 -5.7444E+02 -1.1881E+05  3.8603E+04  1.5742E+05  1.1824E+05  2.9098E+05  1.7274E+05 -3.6492E-03
 79 3.1637E-01 5.9122E+00 -5.6181E+02 -1.1820E+05  4.0405E+04  1.5861E+05  1.1764E+05  2.9013E+05  1.7249E+05 -3.5422E-03
 80 3.3761E-01 5.6082E+00 -5.4111E+02 -1.1757E+05  4.2617E+04  1.6019E+05  1.1703E+05  2.8925E+05  1.7222E+05 -3.3780E-03
 81 3.5985E-01 5.3082E+00 -5.2532E+02 -1.1693E+05  4.4881E+04  1.6181E+05  1.1641E+05  2.8835E+05  1.7195E+05 -3.2465E-03
 82 3.8309E-01 5.0118E+00 -5.1355E+02 -1.1628E+05  4.7786E+04  1.6407E+05  1.1577E+05  2.8743E+05  1.7167E+05 -3.1301E-03
 83 4.0734E-01 4.7187E+00 -4.9140E+02 -1.1560E+05  5.0881E+04  1.6648E+05  1.1511E+05  2.8648E+05  1.7137E+05 -2.9517E-03
 84 4.3261E-01 4.4281E+00 -3.0947E+02 -1.1474E+05  5.5454E+04  1.7019E+05  1.1443E+05  2.8551E+05  1.7107E+05 -1.8183E-03
 85 4.5891E-01 4.1389E+00  6.5749E+02 -1.1306E+05  6.1179E+04  1.7423E+05  1.1371E+05  2.8448E+05  1.7077E+05  3.7736E-03
 86 4.8621E-01 3.8512E+00  2.3363E+03 -1.1060E+05  6.8064E+04  1.7867E+05  1.1294E+05  2.8339E+05  1.7045E+05  1.3077E-02
 87 5.1453E-01 3.5653E+00  4.5888E+03 -1.0750E+05  7.5935E+04  1.8344E+05  1.1209E+05  2.8223E+05  1.7014E+05  2.5016E-02
 88 5.4384E-01 3.2814E+00  7.3335E+03 -1.0382E+05  8.4724E+04  1.8854E+05  1.1115E+05  2.8096E+05  1.6981E+05  3.8896E-02
 89 5.7414E-01 2.9997E+00  1.0508E+04 -9.9579E+04  9.4377E+04  1.9396E+05  1.1009E+05  2.7958E+05  1.6949E+05  5.4178E-02
 90 6.0540E-01 2.7206E+00  1.4024E+04 -9.4849E+04  1.0486E+05  1.9971E+05  1.0887E+05  2.7804E+05  1.6917E+05  7.0221E-02
 91 6.3760E-01 2.4441E+00  1.7665E+04 -8.9829E+04  1.1591E+05  2.0574E+05  1.0749E+05  2.7634E+05  1.6885E+05  8.5859E-02
 92 6.7071E-01 2.1707E+00  2.1272E+04 -8.4695E+04  1.2732E+05  2.1202E+05  1.0597E+05  2.7451E+05  1.6854E+05  1.0033E-01
 93 7.0470E-01 1.9005E+00  2.4759E+04 -7.9571E+04  1.3892E+05  2.1849E+05  1.0433E+05  2.7258E+05  1.6825E+05  1.1332E-01
 94 7.3952E-01 1.6337E+00  2.8121E+04 -7.4486E+04  1.5062E+05  2.2511E+05  1.0261E+05  2.7059E+05  1.6798E+05  1.2492E-01
 95 7.7514E-01 1.3706E+00  3.1375E+04 -6.9413E+04  1.6241E+05  2.3182E+05  1.0079E+05  2.6853E+05  1.6775E+05  1.3534E-01
 96 8.1150E-01 1.1115E+00  3.4502E+04 -6.4322E+04  1.7419E+05  2.3851E+05  9.8824E+04  2.6638E+05  1.6756E+05  1.4466E-01
 97 8.4855E-01 8.5660E-01  3.7643E+04 -5.9019E+04  1.8615E+05  2.4517E+05  9.6662E+04  2.6410E+05  1.6744E+05  1.5354E-01
 98 8.8623E-01 6.0613E-01  4.0858E+04 -5.3415E+04  1.9840E+05  2.5181E+05  9.4272E+04  2.6168E+05  1.6741E+05  1.6225E-01
 99 9.2448E-01 3.6034E-01  4.3905E+04 -4.7737E+04  2.1045E+05  2.5819E+05  9.1641E+04  2.5915E+05  1.6751E+05  1.7005E-01
100 9.6323E-01 1.1944E-01  4.7164E+04 -4.1591E+04  2.2217E+05  2.6376E+05  8.8755E+04  2.5655E+05  1.6779E+05  1.7881E-01
101 1.0024E+00 0.0000E+00  5.0403E+04 -3.5164E+04  2.3116E+05  2.6632E+05  8.5568E+04  2.5391E+05  1.6834E+05  1.8926E-01
 
