
 WAVELENGTHS (U)

    0.0   0.0   0.0   0.0   0.0   0.0   0.0   0.0   0.0   0.0
    0.0   0.0   0.0   0.0   0.0   0.0   0.0   0.0   0.0   0.0
    0.0   0.0   0.0   0.0   0.0   0.0   0.0   0.0   0.0   0.0
    0.0   0.0   0.0   0.0   0.0   0.0   0.0   0.0   0.0   0.0
    0.0   0.0   0.0   0.0   0.0   0.0   0.0   0.0   0.0   0.0
    0.0   0.0   0.0   0.0   0.0

 WAVELENGTHS (U)

    0.0   0.0   0.0   0.0   0.0   0.0   0.0   0.0   0.0   0.0
    0.0   0.0   0.0   0.0   0.0   0.0   0.0   0.0   0.0   0.0
    0.0   0.0   0.0   0.0   0.0   0.0   0.0   0.0   0.0   0.0
    0.0   0.0   0.0   0.0   0.0   0.0   0.0   0.0   0.0   0.0
    0.0   0.0   0.0   0.0   0.0   0.0   0.0   0.0   0.0   0.0
    0.0   0.0   0.0   0.0   0.0

 WAVELENGTHS (U)

    0.0   0.0   0.0   0.0   0.0   0.0   0.0   0.0   0.0   0.0
    0.0   0.0   0.0   0.0   0.0   0.0   0.0   0.0   0.0   0.0
    0.0   0.0   0.0   0.0   0.0   0.0   0.0   0.0   0.0   0.0
    0.0   0.0   0.0   0.0   0.0   0.0   0.0   0.0   0.0   0.0
    0.0   0.0   0.0   0.0   0.0   0.0   0.0   0.0   0.0   0.0
    0.0   0.0   0.0   0.0   0.0

 WAVELENGTHS (U)

    0.0   0.0   0.0   0.0   0.0   0.0   0.0   0.0   0.0   0.0
    0.0   0.0   0.0   0.0   0.0   0.0   0.0   0.0   0.0   0.0
    0.0   0.0   0.0   0.0   0.0   0.0   0.0   0.0   0.0   0.0
    0.0   0.0   0.0   0.0   0.0   0.0   0.0   0.0   0.0   0.0
    0.0   0.0   0.0   0.0   0.0   0.0   0.0   0.0   0.0   0.0
    0.0   0.0   0.0   0.0   0.0

 WAVELENGTHS (U)

    0.0   0.0   0.0   0.0   0.0   0.0   0.0   0.0   0.0   0.0
    0.0   0.0   0.0   0.0   0.0   0.0   0.0   0.0   0.0   0.0
    0.0   0.0   0.0   0.0   0.0   0.0   0.0   0.0   0.0   0.0
    0.0   0.0   0.0   0.0   0.0   0.0   0.0   0.0   0.0   0.0
    0.0   0.0   0.0   0.0   0.0   0.0   0.0   0.0   0.0   0.0
    0.0   0.0   0.0   0.0   0.0

 WAVELENGTHS (U)

    0.0   0.0   0.0   0.0   0.0   0.0   0.0   0.0   0.0   0.0
    0.0   0.0   0.0   0.0   0.0   0.0   0.0   0.0   0.0   0.0
    0.0   0.0   0.0   0.0   0.0   0.0   0.0   0.0   0.0   0.0
    0.0   0.0   0.0   0.0   0.0   0.0   0.0   0.0   0.0   0.0
    0.0   0.0   0.0   0.0   0.0   0.0   0.0   0.0   0.0   0.0
    0.0   0.0   0.0   0.0   0.0
                  1         2         3         4         5         6         7         8         9
  1.00E-04  6.43E+00  1.59E+00  1.67E+00  1.27E-01  5.87E-03  1.63E-03  8.95E-04  3.51E-02  9.87E-03
  1.16E-04  6.24E+00  1.57E+00  1.66E+00  1.27E-01  5.85E-03  1.63E-03  8.93E-04  3.50E-02  9.84E-03
  1.34E-04  6.04E+00  1.55E+00  1.65E+00  1.26E-01  5.84E-03  1.62E-03  8.91E-04  3.49E-02  9.82E-03
  1.56E-04  5.83E+00  1.52E+00  1.64E+00  1.26E-01  5.83E-03  1.62E-03  8.90E-04  3.49E-02  9.81E-03
  1.80E-04  5.60E+00  1.50E+00  1.64E+00  1.26E-01  5.82E-03  1.62E-03  8.89E-04  3.49E-02  9.80E-03
  2.08E-04  5.34E+00  1.47E+00  1.63E+00  1.26E-01  5.82E-03  1.62E-03  8.89E-04  3.48E-02  9.79E-03
  2.40E-04  5.07E+00  1.44E+00  1.62E+00  1.26E-01  5.81E-03  1.62E-03  8.88E-04  3.48E-02  9.79E-03
  2.76E-04  4.80E+00  1.41E+00  1.62E+00  1.27E-01  5.85E-03  1.63E-03  8.93E-04  3.50E-02  9.84E-03
  3.18E-04  4.82E+00  1.48E+00  1.74E+00  1.36E-01  6.30E-03  1.76E-03  9.60E-04  3.77E-02  1.05E-02
  3.66E-04  4.98E+00  1.61E+00  1.95E+00  1.54E-01  7.12E-03  1.98E-03  1.08E-03  4.25E-02  1.18E-02
  4.20E-04  4.97E+00  1.72E+00  2.15E+00  1.72E-01  7.97E-03  2.22E-03  1.20E-03  4.75E-02  1.31E-02
  4.82E-04  4.75E+00  1.79E+00  2.35E+00  1.90E-01  8.81E-03  2.45E-03  1.33E-03  5.24E-02  1.44E-02
  5.52E-04  4.34E+00  1.82E+00  2.53E+00  2.08E-01  9.64E-03  2.68E-03  1.45E-03  5.73E-02  1.56E-02
  6.32E-04  3.76E+00  1.80E+00  2.69E+00  2.25E-01  1.05E-02  2.91E-03  1.57E-03  6.21E-02  1.69E-02
  7.23E-04  3.09E+00  1.73E+00  2.83E+00  2.42E-01  1.13E-02  3.14E-03  1.69E-03  6.69E-02  1.81E-02
  8.25E-04  2.37E+00  1.62E+00  2.94E+00  2.59E-01  1.21E-02  3.37E-03  1.81E-03  7.17E-02  1.94E-02
  9.42E-04  1.71E+00  1.48E+00  3.06E+00  2.79E-01  1.30E-02  3.63E-03  1.95E-03  7.73E-02  2.08E-02
  1.07E-03  1.19E+00  1.39E+00  3.38E+00  3.22E-01  1.51E-02  4.20E-03  2.25E-03  8.93E-02  2.40E-02
  1.22E-03  7.07E-01  1.21E+00  3.63E+00  3.67E-01  1.72E-02  4.80E-03  2.57E-03  1.02E-01  2.73E-02
  1.39E-03  3.48E-01  9.59E-01  3.78E+00  4.10E-01  1.93E-02  5.39E-03  2.88E-03  1.14E-01  3.05E-02
  1.58E-03  1.40E-01  6.89E-01  3.81E+00  4.53E-01  2.14E-02  5.98E-03  3.19E-03  1.27E-01  3.37E-02
  1.79E-03  4.72E-02  4.43E-01  3.71E+00  4.93E-01  2.35E-02  6.56E-03  3.49E-03  1.39E-01  3.69E-02
  2.03E-03  1.49E-02  2.51E-01  3.48E+00  5.32E-01  2.55E-02  7.13E-03  3.79E-03  1.51E-01  4.01E-02
  2.29E-03  5.77E-03  1.24E-01  3.15E+00  5.69E-01  2.75E-02  7.69E-03  4.09E-03  1.63E-01  4.32E-02
  2.59E-03  2.97E-03  5.30E-02  2.73E+00  6.04E-01  2.94E-02  8.25E-03  4.39E-03  1.75E-01  4.62E-02
  2.93E-03  1.64E-03  1.99E-02  2.26E+00  6.34E-01  3.12E-02  8.77E-03  4.67E-03  1.86E-01  4.91E-02
  3.30E-03  8.20E-04  7.09E-03  1.73E+00  6.41E-01  3.21E-02  9.01E-03  4.80E-03  1.91E-01  5.05E-02
  3.72E-03  3.69E-04  2.92E-03  1.26E+00  6.43E-01  3.26E-02  9.18E-03  4.89E-03  1.95E-01  5.14E-02
  4.19E-03  1.48E-04  1.53E-03  8.75E-01  6.41E-01  3.31E-02  9.34E-03  4.98E-03  1.99E-01  5.23E-02
  4.71E-03  5.27E-05  9.21E-04  5.79E-01  6.38E-01  3.36E-02  9.50E-03  5.07E-03  2.02E-01  5.32E-02
  5.29E-03  1.63E-05  5.61E-04  3.63E-01  6.32E-01  3.41E-02  9.65E-03  5.16E-03  2.06E-01  5.41E-02
  5.94E-03  4.31E-06  3.26E-04  2.16E-01  6.24E-01  3.45E-02  9.80E-03  5.24E-03  2.09E-01  5.49E-02
  6.65E-03  9.60E-07  1.77E-04  1.21E-01  6.14E-01  3.49E-02  9.94E-03  5.32E-03  2.13E-01  5.57E-02
  7.44E-03  1.77E-07  8.91E-05  6.51E-02  6.01E-01  3.53E-02  1.01E-02  5.40E-03  2.16E-01  5.65E-02
  8.32E-03  2.63E-08  4.09E-05  3.40E-02  5.85E-01  3.56E-02  1.02E-02  5.48E-03  2.19E-01  5.72E-02
  9.29E-03  3.11E-09  1.70E-05  1.80E-02  5.64E-01  3.58E-02  1.03E-02  5.54E-03  2.21E-01  5.77E-02
  1.04E-02  2.83E-10  6.24E-06  9.81E-03  5.20E-01  3.44E-02  9.94E-03  5.36E-03  2.14E-01  5.58E-02
  1.16E-02  2.19E-11  2.12E-06  5.92E-03  4.70E-01  3.26E-02  9.47E-03  5.12E-03  2.04E-01  5.32E-02
  1.29E-02  1.47E-12  6.80E-07  3.92E-03  4.23E-01  3.08E-02  8.99E-03  4.87E-03  1.95E-01  5.06E-02
  1.43E-02  8.68E-14  2.06E-07  2.73E-03  3.79E-01  2.91E-02  8.52E-03  4.63E-03  1.85E-01  4.80E-02
  1.59E-02  4.49E-15  5.93E-08  1.95E-03  3.38E-01  2.73E-02  8.05E-03  4.39E-03  1.76E-01  4.55E-02
  1.76E-02  2.04E-16  1.61E-08  1.39E-03  2.99E-01  2.56E-02  7.59E-03  4.16E-03  1.66E-01  4.30E-02
  1.95E-02  8.22E-18  4.17E-09  9.88E-04  2.64E-01  2.39E-02  7.14E-03  3.92E-03  1.57E-01  4.05E-02
  2.16E-02  2.94E-19  1.03E-09  6.95E-04  2.32E-01  2.23E-02  6.69E-03  3.69E-03  1.48E-01  3.81E-02
  2.39E-02  9.44E-21  2.42E-10  4.83E-04  2.02E-01  2.07E-02  6.25E-03  3.46E-03  1.39E-01  3.58E-02
  2.64E-02  2.74E-22  5.45E-11  3.32E-04  1.75E-01  1.91E-02  5.81E-03  3.24E-03  1.30E-01  3.34E-02
  2.91E-02  7.31E-24  1.18E-11  2.26E-04  1.51E-01  1.75E-02  5.38E-03  3.02E-03  1.21E-01  3.11E-02
  3.20E-02  1.81E-25  2.49E-12  1.52E-04  1.29E-01  1.60E-02  4.95E-03  2.79E-03  1.12E-01  2.89E-02
  3.52E-02  4.27E-27  5.13E-13  1.01E-04  1.10E-01  1.45E-02  4.53E-03  2.57E-03  1.03E-01  2.66E-02
  3.87E-02  9.81E-29  1.04E-13  6.69E-05  9.30E-02  1.31E-02  4.12E-03  2.35E-03  9.48E-02  2.44E-02
  4.25E-02  2.25E-30  2.12E-14  4.41E-05  7.81E-02  1.17E-02  3.71E-03  2.14E-03  8.64E-02  2.22E-02
  4.67E-02  5.30E-32  4.32E-15  2.89E-05  6.51E-02  1.03E-02  3.32E-03  1.93E-03  7.81E-02  2.01E-02
  5.11E-02  1.32E-33  9.00E-16  1.89E-05  5.38E-02  9.06E-03  2.94E-03  1.73E-03  7.00E-02  1.81E-02
  5.60E-02  3.59E-35  1.94E-16  1.24E-05  4.40E-02  7.85E-03  2.58E-03  1.53E-03  6.21E-02  1.61E-02
  6.12E-02  1.11E-36  4.36E-17  8.10E-06  3.56E-02  6.70E-03  2.22E-03  1.33E-03  5.43E-02  1.41E-02
  6.68E-02  4.05E-38  1.04E-17  5.31E-06  2.84E-02  5.61E-03  1.88E-03  1.15E-03  4.68E-02  1.22E-02
  7.28E-02  1.83E-39  2.69E-18  3.48E-06  2.22E-02  4.59E-03  1.56E-03  9.66E-04  3.94E-02  1.04E-02
  7.94E-02  1.06E-40  7.56E-19  2.27E-06  1.69E-02  3.64E-03  1.25E-03  7.92E-04  3.23E-02  8.61E-03
  8.64E-02  8.33E-42  2.34E-19  1.46E-06  1.24E-02  2.75E-03  9.56E-04  6.24E-04  2.53E-02  6.88E-03
  9.39E-02  9.24E-43  8.11E-20  9.23E-07  8.63E-03  1.98E-03  6.94E-04  4.72E-04  1.90E-02  5.31E-03
  1.02E-01  1.60E-43  3.61E-20  6.83E-07  6.92E-03  1.62E-03  5.76E-04  4.07E-04  1.62E-02  4.63E-03
  1.11E-01  3.30E-44  1.81E-20  5.53E-07  6.03E-03  1.44E-03  5.19E-04  3.78E-04  1.50E-02  4.33E-03
  1.20E-01  6.88E-45  9.08E-21  4.50E-07  5.27E-03  1.28E-03  4.68E-04  3.53E-04  1.39E-02  4.07E-03
  1.30E-01  1.44E-45  4.56E-21  3.65E-07  4.58E-03  1.14E-03  4.20E-04  3.29E-04  1.29E-02  3.82E-03
  1.40E-01  3.03E-46  2.29E-21  2.96E-07  3.97E-03  1.00E-03  3.75E-04  3.09E-04  1.19E-02  3.58E-03
  1.51E-01  6.51E-47  1.16E-21  2.39E-07  3.42E-03  8.75E-04  3.31E-04  2.90E-04  1.10E-02  3.35E-03
  1.63E-01  1.44E-47  5.90E-22  1.92E-07  2.93E-03  7.58E-04  2.91E-04  2.73E-04  1.01E-02  3.14E-03
  1.76E-01  3.29E-48  3.04E-22  1.54E-07  2.49E-03  6.52E-04  2.53E-04  2.58E-04  9.19E-03  2.93E-03
  1.89E-01  7.87E-49  1.58E-22  1.23E-07  2.11E-03  5.54E-04  2.18E-04  2.45E-04  8.36E-03  2.74E-03
  2.03E-01  1.99E-49  8.39E-23  9.84E-08  1.77E-03  4.66E-04  1.86E-04  2.34E-04  7.59E-03  2.56E-03
  2.18E-01  5.35E-50  4.53E-23  7.80E-08  1.47E-03  3.87E-04  1.56E-04  2.25E-04  6.86E-03  2.39E-03
  2.34E-01  1.55E-50  2.50E-23  6.13E-08  1.20E-03  3.16E-04  1.28E-04  2.16E-04  6.16E-03  2.22E-03
  2.51E-01  4.84E-51  1.41E-23  4.76E-08  9.66E-04  2.52E-04  1.03E-04  2.11E-04  5.52E-03  2.08E-03
  2.68E-01  1.65E-51  8.08E-24  3.62E-08  7.57E-04  1.96E-04  8.08E-05  2.06E-04  4.91E-03  1.94E-03
  2.87E-01  6.11E-52  4.67E-24  2.66E-08  5.71E-04  1.46E-04  6.05E-05  2.03E-04  4.35E-03  1.82E-03
  3.06E-01  2.49E-52  2.74E-24  1.90E-08  4.16E-04  1.05E-04  4.37E-05  2.03E-04  3.89E-03  1.72E-03
  3.27E-01  1.35E-52  2.04E-24  1.69E-08  3.78E-04  9.35E-05  3.92E-05  2.11E-04  3.90E-03  1.74E-03
  3.48E-01  7.42E-53  1.56E-24  1.54E-08  3.52E-04  8.57E-05  3.59E-05  2.22E-04  3.98E-03  1.79E-03
  3.70E-01  4.06E-53  1.18E-24  1.40E-08  3.28E-04  7.86E-05  3.29E-05  2.33E-04  4.05E-03  1.83E-03
  3.94E-01  2.20E-53  8.92E-25  1.27E-08  3.07E-04  7.23E-05  3.02E-05  2.42E-04  4.12E-03  1.87E-03
  4.18E-01  1.18E-53  6.71E-25  1.15E-08  2.87E-04  6.65E-05  2.76E-05  2.54E-04  4.21E-03  1.93E-03
  4.43E-01  6.31E-54  5.03E-25  1.04E-08  2.70E-04  6.13E-05  2.53E-05  2.65E-04  4.30E-03  1.99E-03
  4.69E-01  3.35E-54  3.76E-25  9.39E-09  2.53E-04  5.67E-05  2.32E-05  2.75E-04  4.38E-03  2.03E-03
  4.97E-01  1.77E-54  2.80E-25  8.47E-09  2.38E-04  5.25E-05  2.13E-05  2.87E-04  4.48E-03  2.10E-03
  5.25E-01  9.30E-55  2.09E-25  7.63E-09  2.23E-04  4.87E-05  1.95E-05  3.00E-04  4.60E-03  2.17E-03
  5.54E-01  4.88E-55  1.55E-25  6.86E-09  2.10E-04  4.52E-05  1.79E-05  3.13E-04  4.72E-03  2.23E-03
  5.85E-01  2.56E-55  1.15E-25  6.17E-09  1.97E-04  4.21E-05  1.65E-05  3.28E-04  4.85E-03  2.31E-03
  6.16E-01  1.34E-55  8.52E-26  5.54E-09  1.85E-04  3.92E-05  1.52E-05  3.44E-04  4.99E-03  2.39E-03
  6.48E-01  7.04E-56  6.31E-26  4.97E-09  1.74E-04  3.66E-05  1.40E-05  3.57E-04  5.10E-03  2.46E-03
  6.81E-01  3.70E-56  4.68E-26  4.46E-09  1.63E-04  3.42E-05  1.29E-05  3.71E-04  5.22E-03  2.52E-03
  7.15E-01  1.95E-56  3.47E-26  3.99E-09  1.53E-04  3.20E-05  1.19E-05  3.86E-04  5.35E-03  2.60E-03
  7.50E-01  1.03E-56  2.58E-26  3.58E-09  1.44E-04  2.99E-05  1.10E-05  3.99E-04  5.45E-03  2.66E-03
  7.85E-01  5.51E-57  1.93E-26  3.20E-09  1.34E-04  2.80E-05  1.02E-05  4.11E-04  5.53E-03  2.71E-03
  8.22E-01  2.96E-57  1.44E-26  2.87E-09  1.26E-04  2.62E-05  9.49E-06  4.25E-04  5.62E-03  2.77E-03
  8.59E-01  1.60E-57  1.08E-26  2.56E-09  1.17E-04  2.45E-05  8.82E-06  4.38E-04  5.71E-03  2.82E-03
  8.97E-01  8.73E-58  8.21E-27  2.30E-09  1.09E-04  2.29E-05  8.21E-06  4.50E-04  5.76E-03  2.86E-03
  9.35E-01  4.83E-58  6.27E-27  2.06E-09  1.02E-04  2.14E-05  7.64E-06  4.60E-04  5.80E-03  2.89E-03
  9.74E-01  2.72E-58  4.84E-27  1.84E-09  9.46E-05  1.99E-05  7.12E-06  4.72E-04  5.85E-03  2.92E-03
  1.01E+00  1.58E-58  3.80E-27  1.65E-09  8.78E-05  1.86E-05  6.64E-06  4.82E-04  5.87E-03  2.94E-03
  1.05E+00  9.83E-59  3.05E-27  1.48E-09  8.13E-05  1.73E-05  6.19E-06  4.90E-04  5.86E-03  2.94E-03
                 10        11        12        13        14        15        16        17        18
  1.00E-04  1.89E-02  5.44E-02  3.16E-02  3.34E-02  1.02E-02  4.15E-02  6.50E-03  1.97E-02  2.11E-01
  1.16E-04  1.88E-02  5.42E-02  3.15E-02  3.33E-02  1.02E-02  4.17E-02  6.48E-03  2.00E-02  2.11E-01
  1.34E-04  1.88E-02  5.41E-02  3.14E-02  3.33E-02  1.01E-02  4.18E-02  6.47E-03  2.02E-02  2.10E-01
  1.56E-04  1.88E-02  5.41E-02  3.14E-02  3.32E-02  1.01E-02  4.18E-02  6.46E-03  2.03E-02  2.10E-01
  1.80E-04  1.88E-02  5.40E-02  3.13E-02  3.32E-02  1.01E-02  4.18E-02  6.45E-03  2.03E-02  2.10E-01
  2.08E-04  1.87E-02  5.40E-02  3.13E-02  3.32E-02  1.01E-02  4.18E-02  6.45E-03  2.04E-02  2.09E-01
  2.40E-04  1.87E-02  5.40E-02  3.13E-02  3.32E-02  1.01E-02  4.19E-02  6.45E-03  2.04E-02  2.09E-01
  2.76E-04  1.89E-02  5.43E-02  3.14E-02  3.34E-02  1.02E-02  4.19E-02  6.45E-03  2.04E-02  2.09E-01
  3.18E-04  2.03E-02  5.85E-02  3.34E-02  3.58E-02  1.09E-02  4.19E-02  6.44E-03  2.04E-02  2.09E-01
  3.66E-04  2.30E-02  6.59E-02  3.70E-02  4.01E-02  1.21E-02  4.19E-02  6.44E-03  2.05E-02  2.09E-01
  4.20E-04  2.57E-02  7.36E-02  4.06E-02  4.46E-02  1.34E-02  4.19E-02  6.44E-03  2.05E-02  2.09E-01
  4.82E-04  2.84E-02  8.13E-02  4.42E-02  4.91E-02  1.47E-02  4.18E-02  6.44E-03  2.05E-02  2.08E-01
  5.52E-04  3.11E-02  8.89E-02  4.78E-02  5.35E-02  1.59E-02  4.18E-02  6.44E-03  2.05E-02  2.08E-01
  6.32E-04  3.37E-02  9.64E-02  5.14E-02  5.79E-02  1.72E-02  4.18E-02  6.44E-03  2.05E-02  2.08E-01
  7.23E-04  3.63E-02  1.04E-01  5.49E-02  6.22E-02  1.84E-02  4.18E-02  6.44E-03  2.05E-02  2.07E-01
  8.25E-04  3.90E-02  1.11E-01  5.85E-02  6.65E-02  1.97E-02  4.18E-02  6.44E-03  2.05E-02  2.07E-01
  9.42E-04  4.20E-02  1.20E-01  6.26E-02  7.16E-02  2.11E-02  4.18E-02  6.44E-03  2.05E-02  2.07E-01
  1.07E-03  4.86E-02  1.39E-01  7.15E-02  8.25E-02  2.43E-02  4.18E-02  6.43E-03  2.05E-02  2.06E-01
  1.22E-03  5.56E-02  1.58E-01  8.08E-02  9.39E-02  2.75E-02  4.18E-02  6.43E-03  2.05E-02  2.06E-01
  1.39E-03  6.24E-02  1.78E-01  9.00E-02  1.05E-01  3.08E-02  4.18E-02  6.43E-03  2.06E-02  2.05E-01
  1.58E-03  6.92E-02  1.97E-01  9.91E-02  1.16E-01  3.40E-02  4.18E-02  6.43E-03  2.06E-02  2.05E-01
  1.79E-03  7.59E-02  2.16E-01  1.08E-01  1.27E-01  3.72E-02  4.18E-02  6.43E-03  2.06E-02  2.04E-01
  2.03E-03  8.25E-02  2.34E-01  1.17E-01  1.38E-01  4.04E-02  4.18E-02  6.43E-03  2.06E-02  2.03E-01
  2.29E-03  8.91E-02  2.53E-01  1.26E-01  1.49E-01  4.35E-02  4.18E-02  6.43E-03  2.06E-02  2.02E-01
  2.59E-03  9.55E-02  2.71E-01  1.34E-01  1.60E-01  4.66E-02  4.17E-02  6.43E-03  2.06E-02  2.01E-01
  2.93E-03  1.02E-01  2.88E-01  1.42E-01  1.70E-01  4.95E-02  4.17E-02  6.42E-03  2.06E-02  2.00E-01
  3.30E-03  1.04E-01  2.96E-01  1.46E-01  1.75E-01  5.09E-02  4.17E-02  6.42E-03  2.06E-02  1.99E-01
  3.72E-03  1.06E-01  3.02E-01  1.49E-01  1.78E-01  5.18E-02  4.17E-02  6.42E-03  2.06E-02  1.98E-01
  4.19E-03  1.08E-01  3.07E-01  1.51E-01  1.81E-01  5.28E-02  4.17E-02  6.42E-03  2.06E-02  1.97E-01
  4.71E-03  1.10E-01  3.12E-01  1.54E-01  1.84E-01  5.37E-02  4.16E-02  6.42E-03  2.06E-02  1.95E-01
  5.29E-03  1.12E-01  3.17E-01  1.56E-01  1.87E-01  5.47E-02  4.16E-02  6.42E-03  2.07E-02  1.93E-01
  5.94E-03  1.14E-01  3.21E-01  1.58E-01  1.90E-01  5.56E-02  4.16E-02  6.41E-03  2.07E-02  1.92E-01
  6.65E-03  1.15E-01  3.26E-01  1.60E-01  1.93E-01  5.64E-02  4.15E-02  6.41E-03  2.07E-02  1.90E-01
  7.44E-03  1.17E-01  3.30E-01  1.62E-01  1.96E-01  5.73E-02  4.15E-02  6.41E-03  2.07E-02  1.87E-01
  8.32E-03  1.18E-01  3.34E-01  1.64E-01  1.99E-01  5.81E-02  4.14E-02  6.40E-03  2.07E-02  1.85E-01
  9.29E-03  1.19E-01  3.36E-01  1.65E-01  2.00E-01  5.87E-02  4.14E-02  6.40E-03  2.07E-02  1.82E-01
  1.04E-02  1.15E-01  3.24E-01  1.60E-01  1.94E-01  5.69E-02  4.13E-02  6.40E-03  2.07E-02  1.80E-01
  1.16E-02  1.10E-01  3.08E-01  1.52E-01  1.85E-01  5.44E-02  4.12E-02  6.39E-03  2.06E-02  1.76E-01
  1.29E-02  1.04E-01  2.93E-01  1.45E-01  1.76E-01  5.19E-02  4.11E-02  6.39E-03  2.06E-02  1.73E-01
  1.43E-02  9.89E-02  2.77E-01  1.37E-01  1.67E-01  4.94E-02  4.10E-02  6.38E-03  2.06E-02  1.70E-01
  1.59E-02  9.36E-02  2.62E-01  1.30E-01  1.59E-01  4.70E-02  4.09E-02  6.38E-03  2.06E-02  1.66E-01
  1.76E-02  8.83E-02  2.47E-01  1.23E-01  1.50E-01  4.45E-02  4.08E-02  6.37E-03  2.06E-02  1.62E-01
  1.95E-02  8.31E-02  2.32E-01  1.16E-01  1.42E-01  4.21E-02  4.07E-02  6.37E-03  2.06E-02  1.58E-01
  2.16E-02  7.80E-02  2.17E-01  1.09E-01  1.33E-01  3.98E-02  4.05E-02  6.36E-03  2.06E-02  1.53E-01
  2.39E-02  7.31E-02  2.03E-01  1.02E-01  1.25E-01  3.75E-02  4.04E-02  6.35E-03  2.05E-02  1.48E-01
  2.64E-02  6.82E-02  1.89E-01  9.54E-02  1.17E-01  3.52E-02  4.02E-02  6.34E-03  2.05E-02  1.43E-01
  2.91E-02  6.34E-02  1.76E-01  8.89E-02  1.09E-01  3.29E-02  4.01E-02  6.33E-03  2.05E-02  1.38E-01
  3.20E-02  5.86E-02  1.62E-01  8.24E-02  1.01E-01  3.06E-02  3.99E-02  6.32E-03  2.05E-02  1.33E-01
  3.52E-02  5.38E-02  1.49E-01  7.60E-02  9.34E-02  2.84E-02  3.98E-02  6.31E-03  2.06E-02  1.27E-01
  3.87E-02  4.92E-02  1.36E-01  6.98E-02  8.57E-02  2.61E-02  3.97E-02  6.30E-03  2.07E-02  1.22E-01
  4.25E-02  4.47E-02  1.23E-01  6.37E-02  7.82E-02  2.39E-02  3.96E-02  6.29E-03  2.08E-02  1.16E-01
  4.67E-02  4.03E-02  1.11E-01  5.78E-02  7.08E-02  2.18E-02  3.94E-02  6.27E-03  2.08E-02  1.10E-01
  5.11E-02  3.60E-02  9.92E-02  5.21E-02  6.37E-02  1.97E-02  3.95E-02  6.26E-03  2.11E-02  1.05E-01
  5.60E-02  3.18E-02  8.77E-02  4.66E-02  5.67E-02  1.76E-02  3.93E-02  6.24E-03  2.12E-02  9.90E-02
  6.12E-02  2.78E-02  7.66E-02  4.12E-02  4.99E-02  1.56E-02  3.96E-02  6.22E-03  2.17E-02  9.33E-02
  6.68E-02  2.39E-02  6.58E-02  3.60E-02  4.33E-02  1.36E-02  3.95E-02  6.21E-03  2.19E-02  8.78E-02
  7.28E-02  2.00E-02  5.55E-02  3.09E-02  3.69E-02  1.17E-02  4.06E-02  6.18E-03  2.32E-02  8.23E-02
  7.94E-02  1.63E-02  4.55E-02  2.60E-02  3.07E-02  9.76E-03  4.20E-02  6.16E-03  2.48E-02  7.71E-02
  8.64E-02  1.27E-02  3.59E-02  2.13E-02  2.46E-02  7.89E-03  4.35E-02  6.14E-03  2.66E-02  7.21E-02
  9.39E-02  9.45E-03  2.71E-02  1.70E-02  1.91E-02  6.18E-03  4.52E-02  6.11E-03  2.84E-02  6.74E-02
  1.02E-01  8.02E-03  2.34E-02  1.51E-02  1.68E-02  5.44E-03  4.66E-02  6.09E-03  2.99E-02  6.29E-02
  1.11E-01  7.40E-03  2.19E-02  1.42E-02  1.59E-02  5.12E-03  4.78E-02  6.06E-03  3.12E-02  5.88E-02
  1.20E-01  6.85E-03  2.06E-02  1.34E-02  1.51E-02  4.85E-03  4.90E-02  6.03E-03  3.24E-02  5.49E-02
  1.30E-01  6.32E-03  1.94E-02  1.27E-02  1.44E-02  4.58E-03  5.03E-02  6.00E-03  3.37E-02  5.13E-02
  1.40E-01  5.79E-03  1.83E-02  1.20E-02  1.38E-02  4.32E-03  5.29E-02  5.96E-03  3.62E-02  4.81E-02
  1.51E-01  5.29E-03  1.74E-02  1.13E-02  1.33E-02  4.07E-03  5.56E-02  5.93E-03  3.87E-02  4.52E-02
  1.63E-01  4.80E-03  1.65E-02  1.06E-02  1.29E-02  3.82E-03  5.84E-02  5.89E-03  4.13E-02  4.26E-02
  1.76E-01  4.32E-03  1.57E-02  9.87E-03  1.25E-02  3.58E-03  6.11E-02  5.85E-03  4.40E-02  4.02E-02
  1.89E-01  3.86E-03  1.50E-02  9.21E-03  1.22E-02  3.36E-03  6.38E-02  5.81E-03  4.68E-02  3.81E-02
  2.03E-01  3.41E-03  1.44E-02  8.57E-03  1.20E-02  3.14E-03  6.69E-02  5.77E-03  5.00E-02  3.63E-02
  2.18E-01  2.98E-03  1.39E-02  7.94E-03  1.18E-02  2.93E-03  6.97E-02  5.73E-03  5.29E-02  3.46E-02
  2.34E-01  2.57E-03  1.34E-02  7.34E-03  1.17E-02  2.73E-03  7.18E-02  5.68E-03  5.54E-02  3.31E-02
  2.51E-01  2.17E-03  1.31E-02  6.75E-03  1.17E-02  2.54E-03  7.46E-02  5.63E-03  5.84E-02  3.17E-02
  2.68E-01  1.79E-03  1.28E-02  6.19E-03  1.16E-02  2.35E-03  7.67E-02  5.58E-03  6.08E-02  3.05E-02
  2.87E-01  1.43E-03  1.26E-02  5.64E-03  1.17E-02  2.18E-03  7.88E-02  5.53E-03  6.31E-02  2.94E-02
  3.06E-01  1.11E-03  1.25E-02  5.15E-03  1.19E-02  2.04E-03  8.07E-02  5.48E-03  6.53E-02  2.83E-02
  3.27E-01  1.06E-03  1.31E-02  5.00E-03  1.24E-02  2.05E-03  8.18E-02  5.42E-03  6.67E-02  2.74E-02
  3.48E-01  1.03E-03  1.38E-02  4.88E-03  1.32E-02  2.08E-03  8.32E-02  5.36E-03  6.82E-02  2.65E-02
  3.70E-01  9.98E-04  1.45E-02  4.76E-03  1.39E-02  2.11E-03  8.38E-02  5.31E-03  6.91E-02  2.56E-02
  3.94E-01  9.70E-04  1.51E-02  4.64E-03  1.45E-02  2.14E-03  8.35E-02  5.25E-03  6.89E-02  2.48E-02
  4.18E-01  9.44E-04  1.58E-02  4.52E-03  1.52E-02  2.18E-03  8.34E-02  5.19E-03  6.89E-02  2.40E-02
  4.43E-01  9.20E-04  1.63E-02  4.40E-03  1.59E-02  2.23E-03  8.23E-02  5.12E-03  6.78E-02  2.32E-02
  4.69E-01  8.96E-04  1.68E-02  4.29E-03  1.65E-02  2.27E-03  8.03E-02  5.06E-03  6.60E-02  2.25E-02
  4.97E-01  8.76E-04  1.73E-02  4.17E-03  1.72E-02  2.33E-03  7.88E-02  5.00E-03  6.45E-02  2.18E-02
  5.25E-01  8.60E-04  1.79E-02  4.05E-03  1.79E-02  2.39E-03  7.68E-02  4.93E-03  6.26E-02  2.11E-02
  5.54E-01  8.45E-04  1.83E-02  3.94E-03  1.86E-02  2.46E-03  7.45E-02  4.87E-03  6.04E-02  2.05E-02
  5.85E-01  8.34E-04  1.88E-02  3.82E-03  1.93E-02  2.54E-03  7.26E-02  4.81E-03  5.87E-02  1.98E-02
  6.16E-01  8.24E-04  1.91E-02  3.71E-03  2.00E-02  2.62E-03  7.07E-02  4.75E-03  5.70E-02  1.93E-02
  6.48E-01  8.15E-04  1.93E-02  3.61E-03  2.05E-02  2.70E-03  6.84E-02  4.69E-03  5.50E-02  1.87E-02
  6.81E-01  8.09E-04  1.95E-02  3.50E-03  2.10E-02  2.79E-03  6.62E-02  4.63E-03  5.29E-02  1.81E-02
  7.15E-01  8.05E-04  1.96E-02  3.39E-03  2.16E-02  2.89E-03  6.40E-02  4.57E-03  5.09E-02  1.76E-02
  7.50E-01  8.02E-04  1.95E-02  3.29E-03  2.19E-02  2.98E-03  6.13E-02  4.51E-03  4.83E-02  1.71E-02
  7.85E-01  7.99E-04  1.93E-02  3.19E-03  2.22E-02  3.08E-03  5.81E-02  4.46E-03  4.54E-02  1.65E-02
  8.22E-01  8.00E-04  1.92E-02  3.10E-03  2.24E-02  3.18E-03  5.50E-02  4.41E-03  4.26E-02  1.61E-02
  8.59E-01  8.01E-04  1.89E-02  3.00E-03  2.26E-02  3.29E-03  5.16E-02  4.36E-03  3.97E-02  1.56E-02
  8.97E-01  8.02E-04  1.86E-02  2.91E-03  2.26E-02  3.39E-03  4.80E-02  4.31E-03  3.67E-02  1.51E-02
  9.35E-01  8.03E-04  1.82E-02  2.83E-03  2.26E-02  3.48E-03  4.43E-02  4.26E-03  3.38E-02  1.46E-02
  9.74E-01  8.07E-04  1.78E-02  2.74E-03  2.25E-02  3.58E-03  4.11E-02  4.22E-03  3.13E-02  1.42E-02
  1.01E+00  8.09E-04  1.74E-02  2.66E-03  2.23E-02  3.67E-03  3.77E-02  4.17E-03  2.87E-02  1.37E-02
  1.05E+00  8.09E-04  1.69E-02  2.58E-03  2.19E-02  3.73E-03  3.46E-02  4.12E-03  2.62E-02  1.32E-02
                 19        20        21        22        23        24        25        26        27
  1.00E-04  1.59E-01  2.79E-01  7.48E-03  1.44E-01  1.92E+00  1.84E-02  2.97E+00  9.36E-02  7.64E-01
  1.16E-04  1.64E-01  2.78E-01  7.51E-03  2.10E-01  2.26E+00  3.11E-02  3.67E+00  1.46E-01  1.17E+00
  1.34E-04  1.65E-01  2.78E-01  7.51E-03  2.58E-01  2.50E+00  3.99E-02  4.11E+00  1.84E-01  1.44E+00
  1.56E-04  1.67E-01  2.78E-01  7.51E-03  2.89E-01  2.65E+00  4.56E-02  4.38E+00  2.10E-01  1.61E+00
  1.80E-04  1.68E-01  2.78E-01  7.51E-03  3.06E-01  2.71E+00  4.89E-02  4.49E+00  2.25E-01  1.69E+00
  2.08E-04  1.68E-01  2.77E-01  7.51E-03  3.12E-01  2.70E+00  5.05E-02  4.45E+00  2.31E-01  1.70E+00
  2.40E-04  1.68E-01  2.77E-01  7.51E-03  3.17E-01  2.68E+00  5.16E-02  4.40E+00  2.36E-01  1.69E+00
  2.76E-04  1.69E-01  2.77E-01  7.51E-03  3.20E-01  2.65E+00  5.23E-02  4.33E+00  2.39E-01  1.68E+00
  3.18E-04  1.69E-01  2.77E-01  7.51E-03  3.23E-01  2.62E+00  5.29E-02  4.25E+00  2.41E-01  1.65E+00
  3.66E-04  1.69E-01  2.77E-01  7.51E-03  3.25E-01  2.59E+00  5.34E-02  4.17E+00  2.43E-01  1.61E+00
  4.20E-04  1.69E-01  2.77E-01  7.50E-03  3.28E-01  2.56E+00  5.39E-02  4.07E+00  2.45E-01  1.57E+00
  4.82E-04  1.69E-01  2.77E-01  7.50E-03  3.30E-01  2.52E+00  5.42E-02  3.96E+00  2.46E-01  1.52E+00
  5.52E-04  1.69E-01  2.77E-01  7.50E-03  3.32E-01  2.48E+00  5.46E-02  3.85E+00  2.47E-01  1.47E+00
  6.32E-04  1.68E-01  2.76E-01  7.50E-03  3.34E-01  2.43E+00  5.49E-02  3.73E+00  2.48E-01  1.40E+00
  7.23E-04  1.68E-01  2.76E-01  7.50E-03  3.35E-01  2.38E+00  5.51E-02  3.60E+00  2.49E-01  1.33E+00
  8.25E-04  1.68E-01  2.76E-01  7.50E-03  3.36E-01  2.32E+00  5.52E-02  3.46E+00  2.48E-01  1.25E+00
  9.42E-04  1.68E-01  2.76E-01  7.50E-03  3.37E-01  2.26E+00  5.53E-02  3.31E+00  2.48E-01  1.17E+00
  1.07E-03  1.68E-01  2.76E-01  7.50E-03  3.35E-01  2.19E+00  5.57E-02  3.15E+00  2.49E-01  1.07E+00
  1.22E-03  1.67E-01  2.75E-01  7.50E-03  3.33E-01  2.11E+00  5.62E-02  2.98E+00  2.50E-01  9.77E-01
  1.39E-03  1.67E-01  2.75E-01  7.50E-03  3.30E-01  2.03E+00  5.66E-02  2.81E+00  2.50E-01  8.81E-01
  1.58E-03  1.67E-01  2.75E-01  7.49E-03  3.26E-01  1.94E+00  5.69E-02  2.64E+00  2.50E-01  7.87E-01
  1.79E-03  1.66E-01  2.74E-01  7.49E-03  3.21E-01  1.85E+00  5.72E-02  2.47E+00  2.49E-01  6.94E-01
  2.03E-03  1.66E-01  2.74E-01  7.49E-03  3.16E-01  1.76E+00  5.74E-02  2.30E+00  2.47E-01  6.07E-01
  2.29E-03  1.65E-01  2.73E-01  7.49E-03  3.10E-01  1.66E+00  5.76E-02  2.13E+00  2.46E-01  5.27E-01
  2.59E-03  1.65E-01  2.73E-01  7.49E-03  3.04E-01  1.57E+00  5.77E-02  1.96E+00  2.43E-01  4.55E-01
  2.93E-03  1.64E-01  2.72E-01  7.49E-03  2.97E-01  1.47E+00  5.78E-02  1.80E+00  2.41E-01  3.92E-01
  3.30E-03  1.63E-01  2.72E-01  7.48E-03  2.89E-01  1.38E+00  5.79E-02  1.64E+00  2.38E-01  3.39E-01
  3.72E-03  1.62E-01  2.71E-01  7.48E-03  2.80E-01  1.28E+00  5.80E-02  1.50E+00  2.34E-01  2.96E-01
  4.19E-03  1.61E-01  2.70E-01  7.48E-03  2.71E-01  1.19E+00  5.80E-02  1.36E+00  2.30E-01  2.63E-01
  4.71E-03  1.60E-01  2.69E-01  7.48E-03  2.61E-01  1.11E+00  5.81E-02  1.24E+00  2.25E-01  2.38E-01
  5.29E-03  1.59E-01  2.68E-01  7.47E-03  2.51E-01  1.03E+00  5.81E-02  1.12E+00  2.21E-01  2.20E-01
  5.94E-03  1.58E-01  2.67E-01  7.47E-03  2.40E-01  9.49E-01  5.81E-02  1.01E+00  2.15E-01  2.08E-01
  6.65E-03  1.56E-01  2.66E-01  7.47E-03  2.29E-01  8.78E-01  5.80E-02  9.21E-01  2.09E-01  2.00E-01
  7.44E-03  1.55E-01  2.64E-01  7.46E-03  2.17E-01  8.11E-01  5.80E-02  8.37E-01  2.03E-01  1.96E-01
  8.32E-03  1.53E-01  2.63E-01  7.46E-03  2.05E-01  7.50E-01  5.78E-02  7.63E-01  1.97E-01  1.93E-01
  9.29E-03  1.51E-01  2.61E-01  7.46E-03  1.93E-01  6.92E-01  5.76E-02  6.98E-01  1.89E-01  1.91E-01
  1.04E-02  1.49E-01  2.59E-01  7.45E-03  1.80E-01  6.38E-01  5.73E-02  6.37E-01  1.83E-01  1.87E-01
  1.16E-02  1.47E-01  2.57E-01  7.44E-03  1.68E-01  5.87E-01  5.71E-02  5.84E-01  1.76E-01  1.83E-01
  1.29E-02  1.45E-01  2.55E-01  7.43E-03  1.56E-01  5.41E-01  5.69E-02  5.36E-01  1.70E-01  1.80E-01
  1.43E-02  1.42E-01  2.53E-01  7.42E-03  1.45E-01  4.97E-01  5.68E-02  4.95E-01  1.63E-01  1.76E-01
  1.59E-02  1.39E-01  2.50E-01  7.41E-03  1.34E-01  4.57E-01  5.66E-02  4.58E-01  1.57E-01  1.72E-01
  1.76E-02  1.37E-01  2.47E-01  7.40E-03  1.24E-01  4.19E-01  5.64E-02  4.26E-01  1.50E-01  1.67E-01
  1.95E-02  1.34E-01  2.44E-01  7.39E-03  1.15E-01  3.85E-01  5.61E-02  3.98E-01  1.44E-01  1.62E-01
  2.16E-02  1.31E-01  2.41E-01  7.38E-03  1.07E-01  3.53E-01  5.57E-02  3.73E-01  1.37E-01  1.55E-01
  2.39E-02  1.28E-01  2.37E-01  7.37E-03  9.94E-02  3.25E-01  5.53E-02  3.50E-01  1.32E-01  1.49E-01
  2.64E-02  1.24E-01  2.34E-01  7.36E-03  9.28E-02  2.98E-01  5.48E-02  3.29E-01  1.26E-01  1.42E-01
  2.91E-02  1.21E-01  2.29E-01  7.35E-03  8.73E-02  2.75E-01  5.43E-02  3.11E-01  1.21E-01  1.34E-01
  3.20E-02  1.18E-01  2.25E-01  7.33E-03  8.26E-02  2.54E-01  5.37E-02  2.93E-01  1.17E-01  1.27E-01
  3.52E-02  1.15E-01  2.21E-01  7.32E-03  7.91E-02  2.35E-01  5.32E-02  2.78E-01  1.13E-01  1.19E-01
  3.87E-02  1.12E-01  2.16E-01  7.30E-03  7.58E-02  2.17E-01  5.25E-02  2.62E-01  1.10E-01  1.12E-01
  4.25E-02  1.10E-01  2.11E-01  7.29E-03  7.37E-02  2.02E-01  5.20E-02  2.49E-01  1.08E-01  1.05E-01
  4.67E-02  1.06E-01  2.05E-01  7.27E-03  7.14E-02  1.87E-01  5.12E-02  2.34E-01  1.05E-01  9.82E-02
  5.11E-02  1.04E-01  2.00E-01  7.25E-03  7.04E-02  1.74E-01  5.06E-02  2.22E-01  1.03E-01  9.29E-02
  5.60E-02  1.01E-01  1.94E-01  7.23E-03  6.86E-02  1.62E-01  4.98E-02  2.07E-01  1.01E-01  8.81E-02
  6.12E-02  1.00E-01  1.88E-01  7.21E-03  6.86E-02  1.51E-01  4.94E-02  1.97E-01  1.01E-01  8.46E-02
  6.68E-02  9.77E-02  1.82E-01  7.18E-03  6.72E-02  1.39E-01  4.86E-02  1.80E-01  9.95E-02  8.12E-02
  7.28E-02  1.03E-01  1.77E-01  7.16E-03  6.97E-02  1.30E-01  4.87E-02  1.75E-01  1.05E-01  7.91E-02
  7.94E-02  1.09E-01  1.71E-01  7.13E-03  7.22E-02  1.21E-01  4.88E-02  1.65E-01  1.10E-01  7.68E-02
  8.64E-02  1.15E-01  1.65E-01  7.10E-03  7.40E-02  1.11E-01  4.89E-02  1.50E-01  1.14E-01  7.42E-02
  9.39E-02  1.21E-01  1.59E-01  7.07E-03  7.50E-02  1.02E-01  4.90E-02  1.34E-01  1.18E-01  7.09E-02
  1.02E-01  1.24E-01  1.52E-01  7.03E-03  7.34E-02  8.86E-02  4.84E-02  1.15E-01  1.18E-01  6.46E-02
  1.11E-01  1.26E-01  1.46E-01  6.99E-03  7.08E-02  7.60E-02  4.76E-02  9.71E-02  1.16E-01  5.78E-02
  1.20E-01  1.26E-01  1.39E-01  6.94E-03  6.82E-02  6.49E-02  4.67E-02  8.09E-02  1.13E-01  5.14E-02
  1.30E-01  1.28E-01  1.32E-01  6.90E-03  6.63E-02  5.54E-02  4.58E-02  6.63E-02  1.10E-01  4.55E-02
  1.40E-01  1.35E-01  1.25E-01  6.85E-03  6.66E-02  4.76E-02  4.54E-02  5.45E-02  1.10E-01  4.03E-02
  1.51E-01  1.41E-01  1.19E-01  6.81E-03  6.70E-02  4.08E-02  4.50E-02  4.39E-02  1.07E-01  3.56E-02
  1.63E-01  1.45E-01  1.13E-01  6.76E-03  6.68E-02  3.47E-02  4.47E-02  3.53E-02  1.01E-01  3.17E-02
  1.76E-01  1.46E-01  1.06E-01  6.72E-03  6.56E-02  2.93E-02  4.44E-02  2.90E-02  9.37E-02  2.85E-02
  1.89E-01  1.45E-01  9.99E-02  6.67E-03  6.31E-02  2.45E-02  4.40E-02  2.41E-02  8.59E-02  2.58E-02
  2.03E-01  1.42E-01  9.38E-02  6.63E-03  5.95E-02  2.04E-02  4.39E-02  1.96E-02  7.96E-02  2.37E-02
  2.18E-01  1.37E-01  8.77E-02  6.58E-03  5.43E-02  1.67E-02  4.36E-02  1.50E-02  7.40E-02  2.21E-02
  2.34E-01  1.30E-01  8.15E-02  6.54E-03  4.86E-02  1.37E-02  4.32E-02  1.07E-02  6.80E-02  2.09E-02
  2.51E-01  1.25E-01  7.57E-02  6.50E-03  4.45E-02  1.12E-02  4.32E-02  7.28E-03  6.20E-02  1.99E-02
  2.68E-01  1.20E-01  6.99E-02  6.46E-03  4.15E-02  9.13E-03  4.29E-02  4.66E-03  5.40E-02  1.90E-02
  2.87E-01  1.14E-01  6.43E-02  6.42E-03  4.00E-02  7.43E-03  4.27E-02  2.87E-03  4.54E-02  1.82E-02
  3.06E-01  1.08E-01  5.89E-02  6.38E-03  3.94E-02  5.98E-03  4.26E-02  1.66E-03  3.72E-02  1.75E-02
  3.27E-01  9.87E-02  5.36E-02  6.34E-03  3.84E-02  4.73E-03  4.22E-02  8.66E-04  3.02E-02  1.68E-02
  3.48E-01  8.94E-02  4.85E-02  6.31E-03  3.71E-02  3.69E-03  4.21E-02  3.94E-04  2.57E-02  1.61E-02
  3.70E-01  7.97E-02  4.36E-02  6.28E-03  3.50E-02  2.84E-03  4.18E-02  1.49E-04  2.31E-02  1.53E-02
  3.94E-01  7.06E-02  3.89E-02  6.25E-03  3.19E-02  2.16E-03  4.12E-02  4.76E-05  2.19E-02  1.45E-02
  4.18E-01  6.36E-02  3.45E-02  6.22E-03  2.88E-02  1.64E-03  4.08E-02  1.49E-05  2.17E-02  1.38E-02
  4.43E-01  5.74E-02  3.05E-02  6.20E-03  2.52E-02  1.23E-03  4.01E-02  5.87E-06  2.15E-02  1.29E-02
  4.69E-01  5.16E-02  2.69E-02  6.17E-03  2.18E-02  9.13E-04  3.90E-02  3.00E-06  2.12E-02  1.21E-02
  4.97E-01  4.63E-02  2.39E-02  6.15E-03  1.91E-02  6.69E-04  3.80E-02  1.60E-06  2.07E-02  1.14E-02
  5.25E-01  4.07E-02  2.13E-02  6.14E-03  1.71E-02  4.79E-04  3.68E-02  7.62E-07  1.98E-02  1.08E-02
  5.54E-01  3.48E-02  1.91E-02  6.13E-03  1.56E-02  3.33E-04  3.53E-02  3.09E-07  1.85E-02  1.02E-02
  5.85E-01  2.95E-02  1.72E-02  6.12E-03  1.49E-02  2.27E-04  3.38E-02  1.04E-07  1.70E-02  9.71E-03
  6.16E-01  2.48E-02  1.56E-02  6.12E-03  1.46E-02  1.51E-04  3.23E-02  2.80E-08  1.53E-02  9.34E-03
  6.48E-01  2.07E-02  1.41E-02  6.12E-03  1.44E-02  9.82E-05  3.06E-02  5.79E-09  1.34E-02  9.03E-03
  6.81E-01  1.73E-02  1.27E-02  6.12E-03  1.42E-02  6.35E-05  2.91E-02  8.98E-10  1.15E-02  8.80E-03
  7.15E-01  1.47E-02  1.14E-02  6.14E-03  1.40E-02  4.09E-05  2.78E-02  1.00E-10  9.72E-03  8.69E-03
  7.50E-01  1.23E-02  1.02E-02  6.15E-03  1.37E-02  2.64E-05  2.64E-02  7.57E-12  8.11E-03  8.59E-03
  7.85E-01  1.02E-02  9.12E-03  6.16E-03  1.31E-02  1.72E-05  2.50E-02  3.74E-13  6.72E-03  8.48E-03
  8.22E-01  8.20E-03  8.10E-03  6.18E-03  1.25E-02  1.14E-05  2.38E-02  1.17E-14  5.61E-03  8.45E-03
  8.59E-01  6.39E-03  7.17E-03  6.21E-03  1.17E-02  7.78E-06  2.25E-02  2.12E-16  4.69E-03  8.40E-03
  8.97E-01  4.76E-03  6.33E-03  6.24E-03  1.07E-02  5.44E-06  2.12E-02  2.11E-18  3.87E-03  8.27E-03
  9.35E-01  3.40E-03  5.59E-03  6.27E-03  9.73E-03  3.94E-06  1.98E-02  1.11E-20  3.14E-03  8.05E-03
  9.74E-01  2.36E-03  4.95E-03  6.32E-03  8.78E-03  2.97E-06  1.85E-02  2.96E-23  2.50E-03  7.84E-03
  1.01E+00  1.59E-03  4.38E-03  6.34E-03  7.78E-03  2.29E-06  1.70E-02  3.59E-26  1.91E-03  7.51E-03
  1.05E+00  1.09E-03  3.90E-03  6.35E-03  6.85E-03  1.87E-06  1.56E-02  1.88E-29  1.41E-03  7.06E-03
                 28        29        30        31        32        33        34        35        36
  1.00E-04  2.58E+00  1.84E-01  8.88E-02  1.32E+01  6.08E-01  3.05E+00  3.65E-01  8.99E+00  4.29E-01
  1.16E-04  3.28E+00  3.28E-01  1.99E-01  1.63E+01  9.61E-01  3.12E+00  9.64E-01  8.68E+00  8.23E-01
  1.34E-04  3.74E+00  4.49E-01  2.83E-01  1.65E+01  1.10E+00  1.40E+00  1.35E+00  7.17E+00  1.06E+00
  1.56E-04  4.01E+00  5.38E-01  3.40E-01  1.49E+01  1.14E+00  9.80E-01  1.54E+00  5.41E+00  1.17E+00
  1.80E-04  4.10E+00  5.86E-01  3.77E-01  1.25E+01  1.11E+00  9.24E-01  1.60E+00  3.98E+00  1.17E+00
  2.08E-04  4.03E+00  6.00E-01  4.04E-01  9.95E+00  1.03E+00  8.66E-01  1.57E+00  2.99E+00  1.10E+00
  2.40E-04  3.94E+00  5.90E-01  4.21E-01  7.90E+00  9.43E-01  8.02E-01  1.49E+00  2.41E+00  1.00E+00
  2.76E-04  3.83E+00  5.65E-01  4.32E-01  6.34E+00  8.62E-01  7.44E-01  1.38E+00  2.05E+00  8.92E-01
  3.18E-04  3.70E+00  5.26E-01  4.40E-01  5.20E+00  7.90E-01  6.99E-01  1.25E+00  1.78E+00  7.74E-01
  3.66E-04  3.56E+00  4.82E-01  4.45E-01  4.39E+00  7.30E-01  6.60E-01  1.12E+00  1.56E+00  6.54E-01
  4.20E-04  3.40E+00  4.36E-01  4.48E-01  3.79E+00  6.79E-01  6.24E-01  9.73E-01  1.35E+00  5.37E-01
  4.82E-04  3.22E+00  3.89E-01  4.50E-01  3.33E+00  6.35E-01  5.88E-01  8.28E-01  1.15E+00  4.28E-01
  5.52E-04  3.04E+00  3.44E-01  4.51E-01  2.93E+00  5.95E-01  5.51E-01  6.87E-01  9.64E-01  3.31E-01
  6.32E-04  2.84E+00  3.02E-01  4.49E-01  2.57E+00  5.56E-01  5.18E-01  5.53E-01  7.88E-01  2.47E-01
  7.23E-04  2.63E+00  2.64E-01  4.45E-01  2.23E+00  5.17E-01  4.89E-01  4.32E-01  6.32E-01  1.79E-01
  8.25E-04  2.42E+00  2.31E-01  4.37E-01  1.91E+00  4.77E-01  4.66E-01  3.26E-01  5.00E-01  1.26E-01
  9.42E-04  2.20E+00  2.05E-01  4.28E-01  1.61E+00  4.37E-01  4.54E-01  2.40E-01  3.95E-01  8.81E-02
  1.07E-03  1.99E+00  1.88E-01  4.18E-01  1.36E+00  4.00E-01  4.57E-01  1.72E-01  3.15E-01  6.28E-02
  1.22E-03  1.78E+00  1.74E-01  4.05E-01  1.13E+00  3.63E-01  4.62E-01  1.23E-01  2.60E-01  4.76E-02
  1.39E-03  1.60E+00  1.64E-01  3.90E-01  9.32E-01  3.26E-01  4.66E-01  8.84E-02  2.28E-01  3.98E-02
  1.58E-03  1.43E+00  1.57E-01  3.70E-01  7.72E-01  2.90E-01  4.66E-01  6.68E-02  2.14E-01  3.71E-02
  1.79E-03  1.28E+00  1.52E-01  3.46E-01  6.49E-01  2.56E-01  4.64E-01  5.48E-02  2.14E-01  3.76E-02
  2.03E-03  1.15E+00  1.48E-01  3.20E-01  5.62E-01  2.25E-01  4.62E-01  4.92E-02  2.22E-01  3.99E-02
  2.29E-03  1.04E+00  1.47E-01  2.92E-01  5.07E-01  1.98E-01  4.61E-01  4.76E-02  2.35E-01  4.33E-02
  2.59E-03  9.45E-01  1.46E-01  2.63E-01  4.79E-01  1.75E-01  4.61E-01  4.82E-02  2.50E-01  4.74E-02
  2.93E-03  8.64E-01  1.47E-01  2.33E-01  4.71E-01  1.57E-01  4.60E-01  5.00E-02  2.66E-01  5.19E-02
  3.30E-03  7.95E-01  1.48E-01  2.04E-01  4.77E-01  1.44E-01  4.59E-01  5.24E-02  2.79E-01  5.67E-02
  3.72E-03  7.35E-01  1.49E-01  1.76E-01  4.92E-01  1.36E-01  4.53E-01  5.52E-02  2.90E-01  6.17E-02
  4.19E-03  6.80E-01  1.51E-01  1.49E-01  5.10E-01  1.31E-01  4.41E-01  5.84E-02  2.96E-01  6.69E-02
  4.71E-03  6.30E-01  1.52E-01  1.25E-01  5.28E-01  1.30E-01  4.22E-01  6.18E-02  2.97E-01  7.21E-02
  5.29E-03  5.84E-01  1.52E-01  1.03E-01  5.43E-01  1.31E-01  3.96E-01  6.55E-02  2.91E-01  7.72E-02
  5.94E-03  5.41E-01  1.52E-01  8.48E-02  5.51E-01  1.33E-01  3.65E-01  6.94E-02  2.78E-01  8.19E-02
  6.65E-03  5.01E-01  1.50E-01  6.95E-02  5.53E-01  1.36E-01  3.32E-01  7.33E-02  2.60E-01  8.60E-02
  7.44E-03  4.63E-01  1.48E-01  5.74E-02  5.45E-01  1.40E-01  3.00E-01  7.72E-02  2.37E-01  8.93E-02
  8.32E-03  4.29E-01  1.45E-01  4.85E-02  5.27E-01  1.43E-01  2.73E-01  8.07E-02  2.12E-01  9.13E-02
  9.29E-03  3.98E-01  1.42E-01  4.24E-02  4.99E-01  1.46E-01  2.51E-01  8.35E-02  1.88E-01  9.17E-02
  1.04E-02  3.65E-01  1.38E-01  3.87E-02  4.51E-01  1.45E-01  2.35E-01  8.40E-02  1.63E-01  8.80E-02
  1.16E-02  3.36E-01  1.35E-01  3.72E-02  4.02E-01  1.44E-01  2.22E-01  8.37E-02  1.44E-01  8.33E-02
  1.29E-02  3.12E-01  1.31E-01  3.72E-02  3.58E-01  1.41E-01  2.11E-01  8.27E-02  1.28E-01  7.84E-02
  1.43E-02  2.93E-01  1.28E-01  3.80E-02  3.19E-01  1.38E-01  1.98E-01  8.06E-02  1.14E-01  7.35E-02
  1.59E-02  2.78E-01  1.25E-01  3.92E-02  2.85E-01  1.34E-01  1.82E-01  7.73E-02  1.01E-01  6.86E-02
  1.76E-02  2.66E-01  1.23E-01  4.07E-02  2.57E-01  1.29E-01  1.63E-01  7.24E-02  8.76E-02  6.41E-02
  1.95E-02  2.56E-01  1.20E-01  4.22E-02  2.32E-01  1.22E-01  1.41E-01  6.63E-02  7.45E-02  6.00E-02
  2.16E-02  2.48E-01  1.18E-01  4.37E-02  2.10E-01  1.14E-01  1.18E-01  5.90E-02  6.23E-02  5.65E-02
  2.39E-02  2.41E-01  1.15E-01  4.51E-02  1.90E-01  1.06E-01  9.53E-02  5.11E-02  5.14E-02  5.37E-02
  2.64E-02  2.34E-01  1.13E-01  4.65E-02  1.70E-01  9.77E-02  7.56E-02  4.31E-02  4.20E-02  5.14E-02
  2.91E-02  2.27E-01  1.11E-01  4.79E-02  1.50E-01  8.99E-02  6.00E-02  3.58E-02  3.40E-02  4.93E-02
  3.20E-02  2.19E-01  1.08E-01  4.93E-02  1.30E-01  8.25E-02  4.85E-02  2.94E-02  2.72E-02  4.71E-02
  3.52E-02  2.12E-01  1.07E-01  5.07E-02  1.12E-01  7.69E-02  4.20E-02  2.49E-02  2.15E-02  4.47E-02
  3.87E-02  2.02E-01  1.04E-01  5.19E-02  9.53E-02  7.12E-02  3.79E-02  2.17E-02  1.66E-02  4.19E-02
  4.25E-02  1.93E-01  1.03E-01  5.31E-02  8.14E-02  6.77E-02  3.73E-02  2.05E-02  1.27E-02  3.88E-02
  4.67E-02  1.81E-01  9.87E-02  5.37E-02  6.95E-02  6.32E-02  3.62E-02  1.99E-02  9.60E-03  3.53E-02
  5.11E-02  1.71E-01  9.70E-02  5.42E-02  5.97E-02  6.10E-02  3.74E-02  2.09E-02  7.21E-03  3.19E-02
  5.60E-02  1.59E-01  9.16E-02  5.39E-02  5.08E-02  5.60E-02  3.58E-02  2.14E-02  5.34E-03  2.86E-02
  6.12E-02  1.49E-01  9.05E-02  5.34E-02  4.31E-02  5.39E-02  3.69E-02  2.36E-02  3.85E-03  2.56E-02
  6.68E-02  1.36E-01  8.43E-02  5.17E-02  3.56E-02  4.77E-02  3.38E-02  2.44E-02  2.65E-03  2.28E-02
  7.28E-02  1.29E-01  8.77E-02  5.03E-02  2.94E-02  4.64E-02  3.60E-02  2.88E-02  1.71E-03  2.04E-02
  7.94E-02  1.20E-01  8.82E-02  4.80E-02  2.40E-02  4.21E-02  3.52E-02  3.31E-02  1.01E-03  1.82E-02
  8.64E-02  1.09E-01  8.44E-02  4.51E-02  1.96E-02  3.62E-02  3.23E-02  3.64E-02  5.36E-04  1.61E-02
  9.39E-02  9.67E-02  7.85E-02  4.17E-02  1.64E-02  3.08E-02  2.91E-02  3.84E-02  2.51E-04  1.40E-02
  1.02E-01  7.99E-02  7.27E-02  3.74E-02  1.36E-02  2.57E-02  2.51E-02  3.76E-02  1.01E-04  1.18E-02
  1.11E-01  6.42E-02  6.89E-02  3.33E-02  1.14E-02  2.06E-02  2.00E-02  3.54E-02  3.55E-05  9.96E-03
  1.20E-01  5.17E-02  6.56E-02  2.97E-02  9.67E-03  1.56E-02  1.47E-02  3.27E-02  1.08E-05  8.41E-03
  1.30E-01  4.25E-02  6.17E-02  2.68E-02  8.17E-03  1.12E-02  1.05E-02  3.05E-02  2.82E-06  7.13E-03
  1.40E-01  3.61E-02  5.77E-02  2.44E-02  6.80E-03  8.03E-03  8.08E-03  2.97E-02  6.22E-07  6.05E-03
  1.51E-01  3.13E-02  5.07E-02  2.25E-02  5.52E-03  5.73E-03  6.55E-03  2.88E-02  1.18E-07  5.14E-03
  1.63E-01  2.73E-02  4.24E-02  2.10E-02  4.35E-03  4.17E-03  5.37E-03  2.74E-02  2.27E-08  4.35E-03
  1.76E-01  2.36E-02  3.56E-02  1.98E-02  3.31E-03  2.94E-03  4.08E-03  2.51E-02  6.50E-09  3.67E-03
  1.89E-01  2.00E-02  3.17E-02  1.89E-02  2.42E-03  1.84E-03  2.68E-03  2.21E-02  3.04E-09  3.07E-03
  2.03E-01  1.67E-02  3.01E-02  1.83E-02  1.69E-03  9.56E-04  1.47E-03  1.90E-02  1.62E-09  2.56E-03
  2.18E-01  1.35E-02  2.89E-02  1.78E-02  1.12E-03  3.79E-04  6.15E-04  1.59E-02  8.31E-10  2.13E-03
  2.34E-01  1.05E-02  2.65E-02  1.74E-02  7.05E-04  1.07E-04  1.85E-04  1.31E-02  3.91E-10  1.77E-03
  2.51E-01  8.09E-03  2.35E-02  1.72E-02  4.17E-04  2.08E-05  3.79E-05  1.08E-02  1.67E-10  1.47E-03
  2.68E-01  6.22E-03  1.94E-02  1.69E-02  2.31E-04  2.53E-06  4.68E-06  8.54E-03  6.41E-11  1.22E-03
  2.87E-01  4.91E-03  1.53E-02  1.66E-02  1.19E-04  2.77E-07  4.06E-07  6.45E-03  2.19E-11  1.01E-03
  3.06E-01  4.01E-03  1.16E-02  1.63E-02  5.69E-05  7.29E-08  6.98E-08  4.69E-03  6.62E-12  8.21E-04
  3.27E-01  3.35E-03  8.82E-03  1.58E-02  2.52E-05  2.71E-08  2.37E-08  3.30E-03  1.74E-12  6.57E-04
  3.48E-01  2.82E-03  7.01E-03  1.54E-02  1.03E-05  8.16E-09  6.72E-09  2.30E-03  3.94E-13  5.13E-04
  3.70E-01  2.36E-03  5.76E-03  1.48E-02  3.87E-06  1.75E-09  1.31E-09  1.52E-03  7.57E-14  3.88E-04
  3.94E-01  1.95E-03  4.74E-03  1.41E-02  1.38E-06  2.51E-10  1.63E-10  9.07E-04  1.21E-14  2.82E-04
  4.18E-01  1.59E-03  3.82E-03  1.35E-02  4.99E-07  2.27E-11  1.20E-11  4.80E-04  1.60E-15  1.96E-04
  4.43E-01  1.26E-03  2.86E-03  1.28E-02  2.07E-07  1.15E-12  4.50E-13  2.10E-04  1.72E-16  1.30E-04
  4.69E-01  9.74E-04  1.95E-03  1.20E-02  1.08E-07  2.99E-14  7.64E-15  7.42E-05  1.50E-17  8.13E-05
  4.97E-01  7.31E-04  1.20E-03  1.14E-02  6.68E-08  3.60E-16  5.20E-17  2.07E-05  1.04E-18  4.83E-05
  5.25E-01  5.28E-04  6.46E-04  1.07E-02  4.41E-08  1.67E-18  1.09E-19  4.36E-06  5.79E-20  2.70E-05
  5.54E-01  3.66E-04  2.95E-04  9.99E-03  2.90E-08  2.59E-21  5.86E-23  7.24E-07  2.52E-21  1.41E-05
  5.85E-01  2.44E-04  1.14E-04  9.39E-03  1.86E-08  1.16E-24  6.60E-27  1.38E-07  8.51E-23  6.86E-06
  6.16E-01  1.55E-04  3.65E-05  8.82E-03  1.14E-08  1.14E-28  1.07E-31  5.03E-08  2.20E-24  3.10E-06
  6.48E-01  9.48E-05  1.01E-05  8.22E-03  6.74E-09  1.97E-33  1.75E-37  2.45E-08  4.31E-26  1.29E-06
  6.81E-01  5.57E-05  3.03E-06  7.63E-03  3.81E-09  4.84E-39  2.17E-44  1.11E-08  6.28E-28  4.96E-07
  7.15E-01  3.17E-05  1.32E-06  7.10E-03  2.05E-09  1.27E-45  1.30E-52  4.36E-09  6.75E-30  1.77E-07
  7.50E-01  1.74E-05  7.35E-07  6.49E-03  1.06E-09  2.32E-53  1.98E-62  1.41E-09  5.27E-32  6.06E-08
  7.85E-01  9.39E-06  4.04E-07  5.84E-03  5.17E-10  2.30E-62  5.07E-74  3.74E-10  2.97E-34  2.15E-08
  8.22E-01  5.02E-06  2.02E-07  5.22E-03  2.41E-10  9.42E-73  1.42E-87  7.96E-11  1.19E-36  9.04E-09
  8.59E-01  2.70E-06  8.77E-08  4.58E-03  1.07E-10  9.14E-85  1.74-103  1.31E-11  3.42E-39  4.90E-09
  8.97E-01  1.49E-06  3.26E-08  3.91E-03  4.52E-11  1.37E-98  4.56-122  1.63E-12  6.93E-42  3.17E-09
  9.35E-01  8.75E-07  1.02E-08  3.25E-03  1.80E-11  2.40-114  1.79-143  1.49E-13  9.91E-45  2.17E-09
  9.74E-01  5.62E-07  2.68E-09  2.66E-03  6.84E-12  3.65-132  0.00E+00  9.97E-15  1.00E-47  1.51E-09
  1.01E+00  3.90E-07  5.70E-10  2.11E-03  2.43E-12  2.29-152  0.00E+00  4.60E-16  7.16E-51  1.03E-09
  1.05E+00  2.97E-07  1.01E-10  1.63E-03  9.01E-13  0.00E+00  0.00E+00  1.50E-17  4.56E-54  7.30E-10
                 37        38
  1.00E-04  2.03E-04  1.20E+01
  1.16E-04  4.24E-04  5.29E+00
  1.34E-04  6.07E-04  4.91E+00
  1.56E-04  7.42E-04  3.97E+00
  1.80E-04  8.59E-04  3.36E+00
  2.08E-04  1.01E-03  3.11E+00
  2.40E-04  1.14E-03  2.98E+00
  2.76E-04  1.26E-03  2.88E+00
  3.18E-04  1.39E-03  2.82E+00
  3.66E-04  1.53E-03  2.82E+00
  4.20E-04  1.68E-03  2.82E+00
  4.82E-04  1.85E-03  2.80E+00
  5.52E-04  2.04E-03  2.72E+00
  6.32E-04  2.25E-03  2.53E+00
  7.23E-04  2.48E-03  2.25E+00
  8.25E-04  2.72E-03  1.90E+00
  9.42E-04  2.99E-03  1.52E+00
  1.07E-03  3.23E-03  1.20E+00
  1.22E-03  3.50E-03  9.72E-01
  1.39E-03  3.79E-03  8.56E-01
  1.58E-03  4.09E-03  8.31E-01
  1.79E-03  4.41E-03  8.55E-01
  2.03E-03  4.75E-03  8.88E-01
  2.29E-03  5.12E-03  9.07E-01
  2.59E-03  5.52E-03  9.00E-01
  2.93E-03  5.95E-03  8.62E-01
  3.30E-03  6.40E-03  7.90E-01
  3.72E-03  6.89E-03  6.86E-01
  4.19E-03  7.41E-03  5.58E-01
  4.71E-03  7.94E-03  4.19E-01
  5.29E-03  8.48E-03  2.85E-01
  5.94E-03  9.03E-03  1.74E-01
  6.65E-03  9.57E-03  9.40E-02
  7.44E-03  1.01E-02  4.60E-02
  8.32E-03  1.05E-02  2.28E-02
  9.29E-03  1.09E-02  1.44E-02
  1.04E-02  1.08E-02  1.24E-02
  1.16E-02  1.08E-02  1.25E-02
  1.29E-02  1.07E-02  1.32E-02
  1.43E-02  1.06E-02  1.40E-02
  1.59E-02  1.04E-02  1.49E-02
  1.76E-02  1.02E-02  1.58E-02
  1.95E-02  1.00E-02  1.68E-02
  2.16E-02  9.86E-03  1.78E-02
  2.39E-02  9.70E-03  1.89E-02
  2.64E-02  9.58E-03  2.00E-02
  2.91E-02  9.50E-03  2.12E-02
  3.20E-02  9.45E-03  2.24E-02
  3.52E-02  9.41E-03  2.36E-02
  3.87E-02  9.38E-03  2.47E-02
  4.25E-02  9.30E-03  2.58E-02
  4.67E-02  9.16E-03  2.68E-02
  5.11E-02  8.94E-03  2.78E-02
  5.60E-02  8.65E-03  2.84E-02
  6.12E-02  8.27E-03  2.91E-02
  6.68E-02  7.83E-03  2.94E-02
  7.28E-02  7.33E-03  2.98E-02
  7.94E-02  6.81E-03  2.98E-02
  8.64E-02  6.27E-03  2.94E-02
  9.39E-02  5.75E-03  2.94E-02
  1.02E-01  5.17E-03  2.92E-02
  1.11E-01  4.63E-03  2.83E-02
  1.20E-01  4.17E-03  2.65E-02
  1.30E-01  3.76E-03  2.40E-02
  1.40E-01  3.41E-03  2.11E-02
  1.51E-01  3.09E-03  1.77E-02
  1.63E-01  2.79E-03  1.44E-02
  1.76E-01  2.51E-03  1.14E-02
  1.89E-01  2.24E-03  8.90E-03
  2.03E-01  1.99E-03  7.02E-03
  2.18E-01  1.76E-03  5.73E-03
  2.34E-01  1.54E-03  4.94E-03
  2.51E-01  1.35E-03  4.50E-03
  2.68E-01  1.18E-03  4.27E-03
  2.87E-01  1.02E-03  4.12E-03
  3.06E-01  8.90E-04  4.00E-03
  3.27E-01  7.71E-04  3.85E-03
  3.48E-01  6.68E-04  3.69E-03
  3.70E-01  5.75E-04  3.47E-03
  3.94E-01  4.91E-04  3.21E-03
  4.18E-01  4.16E-04  2.93E-03
  4.43E-01  3.48E-04  2.61E-03
  4.69E-01  2.86E-04  2.27E-03
  4.97E-01  2.33E-04  1.94E-03
  5.25E-01  1.87E-04  1.60E-03
  5.54E-01  1.48E-04  1.28E-03
  5.85E-01  1.15E-04  9.91E-04
  6.16E-01  8.73E-05  7.39E-04
  6.48E-01  6.47E-05  5.25E-04
  6.81E-01  4.67E-05  3.55E-04
  7.15E-01  3.29E-05  2.27E-04
  7.50E-01  2.22E-05  1.36E-04
  7.85E-01  1.44E-05  7.52E-05
  8.22E-01  8.96E-06  3.88E-05
  8.59E-01  5.29E-06  1.84E-05
  8.97E-01  2.93E-06  7.90E-06
  9.35E-01  1.52E-06  3.07E-06
  9.74E-01  7.44E-07  1.09E-06
  1.01E+00  3.37E-07  3.54E-07
  1.05E+00  1.44E-07  1.12E-07
