     ALT          P          T          FH2O           O3           THEAT        TCOOL        PSATCO2        FCO2
7.8625E+01  5.4116E-05 1.2544E+02    9.4838E-08    0.0000E+00    4.2261E+00   -1.2208E+01    1.3414E-04    9.5000E-01
7.7608E+01  6.3355E-05 1.2620E+02    9.4838E-08    0.0000E+00    3.7352E+00   -3.6049E+00    1.5655E-04    9.5000E-01
7.6592E+01  7.4082E-05 1.2698E+02    9.4838E-08    0.0000E+00    3.2909E+00   -2.8653E+00    1.8266E-04    9.5000E-01
7.5578E+01  8.6522E-05 1.2776E+02    9.4838E-08    0.0000E+00    2.9034E+00   -2.6694E+00    2.1311E-04    9.5000E-01
7.4566E+01  1.0093E-04 1.2855E+02    9.4838E-08    0.0000E+00    2.5866E+00   -2.7500E+00    2.4859E-04    9.5000E-01
7.3555E+01  1.1760E-04 1.2935E+02    9.4838E-08    0.0000E+00    2.4299E+00   -3.7891E+00    2.8986E-04    9.5000E-01
7.2546E+01  1.3685E-04 1.3016E+02    9.4838E-08    0.0000E+00    2.2776E+00   -4.4173E+00    3.3779E-04    9.5000E-01
7.1539E+01  1.5907E-04 1.3098E+02    9.4838E-08    0.0000E+00    2.1610E+00   -4.5321E+00    3.9336E-04    9.5000E-01
7.0533E+01  1.8468E-04 1.3180E+02    9.4838E-08    0.0000E+00    2.0951E+00   -4.2026E+00    4.5768E-04    9.5000E-01
6.9529E+01  2.1415E-04 1.3262E+02    9.4838E-08    0.0000E+00    2.0717E+00   -3.6178E+00    5.3199E-04    9.5000E-01
6.8527E+01  2.4802E-04 1.3345E+02    9.4838E-08    0.0000E+00    2.0679E+00   -3.0500E+00    6.1771E-04    9.5000E-01
6.7527E+01  2.8691E-04 1.3429E+02    9.4838E-08    0.0000E+00    2.0620E+00   -2.6674E+00    7.1639E-04    9.5000E-01
6.6529E+01  3.3151E-04 1.3513E+02    9.4838E-08    0.0000E+00    2.0414E+00   -2.4699E+00    8.2978E-04    9.5000E-01
6.5533E+01  3.8257E-04 1.3597E+02    9.4838E-08    0.0000E+00    1.9994E+00   -2.3551E+00    9.5984E-04    9.5000E-01
6.4539E+01  4.4098E-04 1.3681E+02    9.4838E-08    0.0000E+00    1.9322E+00   -2.2396E+00    1.1087E-03    9.5000E-01
6.3548E+01  5.0769E-04 1.3766E+02    9.4838E-08    0.0000E+00    1.8390E+00   -2.0720E+00    1.2788E-03    9.5000E-01
6.2558E+01  5.8380E-04 1.3851E+02    9.4838E-08    0.0000E+00    1.7231E+00   -1.8535E+00    1.4727E-03    9.5000E-01
6.1572E+01  6.7052E-04 1.3935E+02    9.4838E-08    0.0000E+00    1.5927E+00   -1.6072E+00    1.6934E-03    9.5000E-01
6.0587E+01  7.6920E-04 1.4020E+02    9.4838E-08    0.0000E+00    1.4597E+00   -1.3666E+00    1.9440E-03    9.5000E-01
5.9606E+01  8.8134E-04 1.4105E+02    9.4838E-08    0.0000E+00    1.3372E+00   -1.1692E+00    2.2282E-03    9.5000E-01
5.8627E+01  1.0086E-03 1.4191E+02    9.4838E-08    0.0000E+00    1.2352E+00   -1.0712E+00    2.5498E-03    9.5000E-01
5.7651E+01  1.1529E-03 1.4276E+02    9.4838E-08    0.0000E+00    1.1567E+00   -1.2116E+00    2.9134E-03    9.5000E-01
5.6678E+01  1.3163E-03 1.4361E+02    9.4838E-08    0.0000E+00    1.1012E+00   -1.1542E+00    3.3237E-03    9.5000E-01
5.5708E+01  1.5010E-03 1.4447E+02    9.4838E-08    0.0000E+00    1.0647E+00   -1.1353E+00    3.7862E-03    9.5000E-01
5.4741E+01  1.7096E-03 1.4532E+02    9.4838E-08    0.0000E+00    1.0403E+00   -1.1546E+00    4.3067E-03    9.5000E-01
5.3777E+01  1.9448E-03 1.4617E+02    9.4838E-08    0.0000E+00    1.0194E+00   -1.1475E+00    4.8920E-03    9.5000E-01
5.2817E+01  2.2098E-03 1.4703E+02    9.4838E-08    0.0000E+00    9.9521E-01   -1.0909E+00    5.5490E-03    9.5000E-01
5.1860E+01  2.5079E-03 1.4789E+02    9.4838E-08    0.0000E+00    9.6402E-01   -9.8108E-01    6.2858E-03    9.5000E-01
5.0907E+01  2.8428E-03 1.4875E+02    9.4838E-08    0.0000E+00    9.2503E-01   -8.7212E-01    7.1109E-03    9.5000E-01
4.9957E+01  3.2185E-03 1.4961E+02    9.4838E-08    0.0000E+00    8.7969E-01   -7.6475E-01    8.0336E-03    9.5000E-01
4.9011E+01  3.6396E-03 1.5047E+02    9.4838E-08    0.0000E+00    8.3173E-01   -6.7526E-01    9.0642E-03    9.5000E-01
4.8068E+01  4.1108E-03 1.5133E+02    9.4838E-08    0.0000E+00    7.8460E-01   -6.3523E-01    1.0214E-02    9.5000E-01
4.7130E+01  4.6375E-03 1.5219E+02    9.4838E-08    0.0000E+00    7.4129E-01   -6.0711E-01    1.1494E-02    9.5000E-01
4.6196E+01  5.2254E-03 1.5305E+02    9.4838E-08    0.0000E+00    7.0396E-01   -5.9337E-01    1.2918E-02    9.5000E-01
4.5266E+01  5.8808E-03 1.5392E+02    9.4838E-08    0.0000E+00    6.7253E-01   -5.6430E-01    1.4515E-02    9.5000E-01
4.4340E+01  6.6105E-03 1.5478E+02    9.4838E-08    0.0000E+00    6.4515E-01   -5.7656E-01    1.6251E-02    9.5000E-01
4.3418E+01  7.4219E-03 1.5558E+02    9.4838E-08    0.0000E+00    6.1952E-01   -5.7456E-01    1.8047E-02    9.5000E-01
4.2502E+01  8.3229E-03 1.5631E+02    9.4838E-08    0.0000E+00    5.9404E-01   -5.5406E-01    1.9844E-02    9.5000E-01
4.1591E+01  9.3222E-03 1.5698E+02    9.4838E-08    0.0000E+00    5.6807E-01   -5.0012E-01    2.1618E-02    9.5000E-01
4.0686E+01  1.0429E-02 1.5762E+02    9.4838E-08    0.0000E+00    5.3991E-01   -5.6831E-01    2.3474E-02    9.5000E-01
3.9787E+01  1.1653E-02 1.5830E+02    9.4838E-08    0.0000E+00    5.0935E-01   -5.5190E-01    2.5574E-02    9.5000E-01
3.8894E+01  1.3005E-02 1.5904E+02    9.4838E-08    0.0000E+00    4.8073E-01   -5.1856E-01    2.8046E-02    9.5000E-01
3.8005E+01  1.4497E-02 1.5984E+02    9.4838E-08    0.0000E+00    4.5447E-01   -4.6237E-01    3.0950E-02    9.5000E-01
3.7123E+01  1.6141E-02 1.6067E+02    9.4838E-08    0.0000E+00    4.3066E-01   -4.4282E-01    3.4288E-02    9.5000E-01
3.6245E+01  1.7950E-02 1.6153E+02    9.4838E-08    0.0000E+00    4.0901E-01   -4.3269E-01    3.8027E-02    9.5000E-01
3.5373E+01  1.9937E-02 1.6238E+02    9.4838E-08    0.0000E+00    3.8920E-01   -4.2608E-01    4.2142E-02    9.5000E-01
3.4506E+01  2.2118E-02 1.6324E+02    9.4838E-08    0.0000E+00    3.7107E-01   -4.1388E-01    4.6647E-02    9.5000E-01
3.3645E+01  2.4509E-02 1.6409E+02    9.4838E-08    0.0000E+00    3.5472E-01   -3.9040E-01    5.1568E-02    9.5000E-01
3.2789E+01  2.7125E-02 1.6495E+02    9.4838E-08    0.0000E+00    3.4032E-01   -3.4977E-01    5.6941E-02    9.5000E-01
3.1939E+01  2.9985E-02 1.6580E+02    9.4838E-08    0.0000E+00    3.2789E-01   -3.2093E-01    6.2800E-02    9.5000E-01
3.1095E+01  3.3106E-02 1.6665E+02    9.4838E-08    0.0000E+00    3.1717E-01   -2.9313E-01    6.9181E-02    9.5000E-01
3.0256E+01  3.6509E-02 1.6751E+02    9.4838E-08    0.0000E+00    3.0765E-01   -2.7281E-01    7.6199E-02    9.5000E-01
2.9424E+01  4.0214E-02 1.6835E+02    9.4838E-08    0.0000E+00    2.9863E-01   -2.5987E-01    8.3649E-02    9.5000E-01
2.8598E+01  4.4241E-02 1.6912E+02    9.4838E-08    0.0000E+00    2.8954E-01   -2.5174E-01    9.1071E-02    9.5000E-01
2.7779E+01  4.8614E-02 1.6979E+02    9.4838E-08    0.0000E+00    2.7999E-01   -2.4415E-01    9.8004E-02    9.5000E-01
2.6967E+01  5.3355E-02 1.7035E+02    9.4838E-08    0.0000E+00    2.6984E-01   -2.4159E-01    1.0410E-01    9.5000E-01
2.6163E+01  5.8488E-02 1.7079E+02    9.4838E-08    0.0000E+00    2.5906E-01   -2.3525E-01    1.0914E-01    9.5000E-01
2.5368E+01  6.4039E-02 1.7112E+02    9.4838E-08    0.0000E+00    2.4771E-01   -2.3097E-01    1.1307E-01    9.5000E-01
2.4583E+01  7.0033E-02 1.7136E+02    9.4838E-08    0.0000E+00    2.3588E-01   -2.2233E-01    1.1598E-01    9.5000E-01
2.3807E+01  7.6496E-02 1.7152E+02    9.4838E-08    0.0000E+00    2.2373E-01   -2.1290E-01    1.1805E-01    9.5000E-01
2.3040E+01  8.3455E-02 1.7164E+02    9.4838E-08    0.0000E+00    2.1149E-01   -2.0275E-01    1.1955E-01    9.5000E-01
2.2284E+01  9.0940E-02 1.7174E+02    9.4838E-08    0.0000E+00    1.9944E-01   -1.9221E-01    1.2078E-01    9.5000E-01
2.1538E+01  9.8977E-02 1.7184E+02    9.4838E-08    0.0000E+00    1.8787E-01   -1.8217E-01    1.2207E-01    9.5000E-01
2.0802E+01  1.0760E-01 1.7198E+02    9.4838E-08    0.0000E+00    1.7219E-01   -1.8875E-01    1.2400E-01    9.5000E-01
2.0076E+01  1.1682E-01 1.7218E+02    9.4838E-08    0.0000E+00    1.5805E-01   -1.7696E-01    1.2663E-01    9.5000E-01
1.9359E+01  1.2669E-01 1.7246E+02    9.4838E-08    0.0000E+00    1.4593E-01   -1.6796E-01    1.3041E-01    9.5000E-01
1.8651E+01  1.3723E-01 1.7283E+02    9.4897E-08    0.0000E+00    1.3555E-01   -1.5970E-01    1.3556E-01    9.5000E-01
1.7953E+01  1.4847E-01 1.7323E+02    9.5134E-08    0.0000E+00    1.2655E-01   -1.5500E-01    1.4129E-01    9.5000E-01
1.7263E+01  1.6044E-01 1.7386E+02    1.0251E-07    0.0000E+00    1.1872E-01   -1.5222E-01    1.5090E-01    9.5000E-01
1.6581E+01  1.7316E-01 1.7460E+02    1.1035E-07    0.0000E+00    1.1178E-01   -1.5186E-01    1.6291E-01    9.5000E-01
1.5907E+01  1.8667E-01 1.7534E+02    1.1866E-07    0.0000E+00    1.0547E-01   -1.4945E-01    1.7567E-01    9.5000E-01
1.5241E+01  2.0099E-01 1.7607E+02    1.2745E-07    0.0000E+00    9.9665E-02   -1.4612E-01    1.8921E-01    9.5000E-01
1.4583E+01  2.1616E-01 1.7680E+02    1.3675E-07    0.0000E+00    9.4263E-02   -1.4048E-01    2.0355E-01    9.5000E-01
1.3933E+01  2.3219E-01 1.7752E+02    1.4657E-07    0.0000E+00    8.9196E-02   -1.3718E-01    2.1871E-01    9.5000E-01
1.3291E+01  2.4911E-01 1.7823E+02    1.5692E-07    0.0000E+00    8.4418E-02   -1.3360E-01    2.3474E-01    9.5000E-01
1.2658E+01  2.6694E-01 1.7894E+02    1.6782E-07    0.0000E+00    7.9900E-02   -1.2838E-01    2.5164E-01    9.5000E-01
1.2033E+01  2.8571E-01 1.7964E+02    1.7927E-07    0.0000E+00    7.5623E-02   -1.2532E-01    2.6943E-01    9.5000E-01
1.1417E+01  3.0543E-01 1.8034E+02    1.9130E-07    0.0000E+00    7.1576E-02   -1.2196E-01    2.8815E-01    9.5000E-01
1.0809E+01  3.2613E-01 1.8103E+02    2.0391E-07    0.0000E+00    6.7753E-02   -1.1823E-01    3.0780E-01    9.5000E-01
1.0210E+01  3.4781E-01 1.8171E+02    2.1712E-07    0.0000E+00    6.4148E-02   -1.1298E-01    3.2840E-01    9.5000E-01
9.6207E+00  3.7049E-01 1.8238E+02    2.3091E-07    0.0000E+00    6.0759E-02   -1.0924E-01    3.4996E-01    9.5000E-01
9.0399E+00  3.9417E-01 1.8305E+02    2.4531E-07    0.0000E+00    5.7579E-02   -1.0499E-01    3.7250E-01    9.5000E-01
8.4683E+00  4.1887E-01 1.8371E+02    2.6032E-07    0.0000E+00    5.4605E-02   -9.9379E-02    3.9601E-01    9.5000E-01
7.9060E+00  4.4459E-01 1.8436E+02    2.7594E-07    0.0000E+00    5.1827E-02   -9.5098E-02    4.2051E-01    9.5000E-01
7.3530E+00  4.7132E-01 1.8500E+02    2.9217E-07    0.0000E+00    4.9239E-02   -9.0417E-02    4.4600E-01    9.5000E-01
6.8095E+00  4.9906E-01 1.8564E+02    3.0900E-07    0.0000E+00    4.6831E-02   -8.4692E-02    4.7246E-01    9.5000E-01
6.2755E+00  5.2780E-01 1.8626E+02    3.2643E-07    0.0000E+00    4.4591E-02   -8.0130E-02    4.9990E-01    9.5000E-01
5.7511E+00  5.5753E-01 1.8688E+02    3.4446E-07    0.0000E+00    4.2509E-02   -7.4595E-02    5.2830E-01    9.5000E-01
5.2366E+00  5.8823E-01 1.8748E+02    3.6307E-07    0.0000E+00    4.0573E-02   -6.9995E-02    5.5765E-01    9.5000E-01
4.7319E+00  6.1988E-01 1.8808E+02    3.8224E-07    0.0000E+00    3.8769E-02   -6.4741E-02    5.8792E-01    9.5000E-01
4.2371E+00  6.5245E-01 1.8867E+02    4.0197E-07    0.0000E+00    3.7075E-02   -5.8156E-02    6.1909E-01    9.5000E-01
3.7524E+00  6.8591E-01 1.8925E+02    4.2223E-07    0.0000E+00    3.5505E-02   -5.0867E-02    6.5113E-01    9.5000E-01
3.2779E+00  7.2023E-01 1.8981E+02    4.4300E-07    0.0000E+00    3.4050E-02   -3.9597E-02    6.8401E-01    9.5000E-01
2.8136E+00  7.5536E-01 1.9037E+02    4.6425E-07    0.0000E+00    3.2703E-02   -1.5654E-02    7.1768E-01    9.5000E-01
2.3596E+00  7.9126E-01 1.9092E+02    4.8596E-07    0.0000E+00    3.1458E-02   -1.4412E-02    7.5210E-01    9.5000E-01
1.9145E+00  8.2787E-01 1.9283E+02    6.2082E-07    0.0000E+00    3.0424E-02   -5.0685E-02    8.8439E-01    9.5000E-01
1.4765E+00  8.6514E-01 1.9504E+02    8.5281E-07    0.0000E+00    2.9500E-02   -8.6001E-02    1.0625E+00    9.5000E-01
1.0456E+00  9.0301E-01 1.9721E+02    1.1556E-06    0.0000E+00    2.8654E-02   -1.1885E-01    1.2669E+00    9.5000E-01
6.2208E-01  9.4141E-01 1.9934E+02    1.5453E-06    0.0000E+00    2.7888E-02   -1.6592E-01    1.4994E+00    9.5000E-01
2.0637E-01  9.8027E-01 2.0142E+02    2.0402E-06    0.0000E+00    2.7205E-02   -2.0930E-01    1.7619E+00    9.5000E-01
0.0000E+00  1.0000E+00 2.0245E+02    2.3360E-06    0.0000E+00    1.9469E+00   -1.5604E+00    1.9062E+00    9.5000E-01
