 
    OUTPUT FILES FOR THE Sun  
 
 Solar Constant= 0.430   F_CH4= 1.0000E-60  F_CO2= 9.5000E-01  F_O2= 1.0000E-60  F_N2= 1.0000E+00  IO3 =  0   IUP=  0
 ICONSERV= 0  FAC= 4.0  ND=101  SRFALB= 0.200  G= 373.0  IMW= 0

 FNO2 = 1.000E-60
 
 NST=     1 JCONV= 50 CHG=1.56E-02 dt0=5.00E+03 DIVF(1)= 2.57E-02 DIVFrms= 2.56E-02 DT(ND)= 6.79E-01 T(ND)=2.6490E+02

 TIME= 5.000E+03  TIME IN DAYS = 5.787E-02

 PLANETARY ALBEDO:  ALBP = 0.4272

  J     P         ALT         T        CONVEC       DT          TOLD        FH20       FSAVE       TCOOL       THEAT
  1 5.4719E-05 9.8821E+01 1.8743E+02  0.00E+00  -2.9289E-02  1.8746E+02  4.3987E-08  5.0100E-08 -2.2157E+02  2.2107E+02
  2 6.5490E-05 9.7124E+01 1.8097E+02  0.00E+00  -5.4985E-03  1.8109E+02  4.3987E-08  5.0100E-08 -6.8997E+01  6.8902E+01
  3 7.8276E-05 9.5499E+01 1.7427E+02  0.00E+00  -6.1482E-02  1.7435E+02  4.3987E-08  5.0100E-08 -3.8278E+01  3.7215E+01
  4 9.3429E-05 9.3948E+01 1.6757E+02  0.00E+00  -2.2804E-02  1.6745E+02  4.3987E-08  5.0100E-08 -2.0889E+01  2.0495E+01
  5 1.1136E-04 9.2466E+01 1.6157E+02  0.00E+00  -1.1698E-01  1.6124E+02  4.3987E-08  5.0100E-08 -1.4421E+01  1.2399E+01
  6 1.3256E-04 9.1042E+01 1.5710E+02  0.00E+00  -1.1639E-01  1.5672E+02  4.3987E-08  5.0100E-08 -1.0808E+01  8.7965E+00
  7 1.5758E-04 8.9662E+01 1.5442E+02  0.00E+00  -3.3356E-02  1.5411E+02  4.3987E-08  5.0100E-08 -7.8651E+00  7.2887E+00
  8 1.8706E-04 8.8309E+01 1.5310E+02  0.00E+00   2.6484E-02  1.5289E+02  4.3987E-08  5.0100E-08 -6.1673E+00  6.6250E+00
  9 2.2176E-04 8.6976E+01 1.5254E+02  0.00E+00   3.6713E-02  1.5243E+02  4.3987E-08  5.0100E-08 -5.5994E+00  6.2338E+00
 10 2.6254E-04 8.5656E+01 1.5234E+02  0.00E+00   2.2487E-02  1.5229E+02  4.3987E-08  5.0100E-08 -5.5082E+00  5.8968E+00
 11 3.1038E-04 8.4348E+01 1.5229E+02  0.00E+00   7.5428E-03  1.5226E+02  4.3987E-08  5.0100E-08 -5.4170E+00  5.5474E+00
 12 3.6645E-04 8.3051E+01 1.5237E+02  0.00E+00   2.9753E-04  1.5233E+02  4.3987E-08  5.0100E-08 -5.1665E+00  5.1717E+00
 13 4.3206E-04 8.1763E+01 1.5259E+02  0.00E+00   7.0512E-04  1.5255E+02  4.3987E-08  5.0100E-08 -4.7580E+00  4.7702E+00
 14 5.0873E-04 8.0483E+01 1.5296E+02  0.00E+00   5.7759E-03  1.5292E+02  4.3987E-08  5.0100E-08 -4.2481E+00  4.3479E+00
 15 5.9818E-04 7.9211E+01 1.5347E+02  0.00E+00   8.3298E-03  1.5344E+02  4.3987E-08  5.0100E-08 -3.7682E+00  3.9122E+00
 16 7.0240E-04 7.7944E+01 1.5407E+02  0.00E+00   9.3648E-03  1.5406E+02  4.3987E-08  5.0100E-08 -3.3104E+00  3.4723E+00
 17 8.2365E-04 7.6684E+01 1.5466E+02  0.00E+00   1.2213E-02  1.5468E+02  4.3987E-08  5.0100E-08 -2.8276E+00  3.0387E+00
 18 9.6452E-04 7.5429E+01 1.5512E+02  0.00E+00   1.2184E-02  1.5517E+02  4.3987E-08  5.0100E-08 -2.4118E+00  2.6223E+00
 19 1.1279E-03 7.4183E+01 1.5536E+02  0.00E+00   3.2016E-03  1.5543E+02  4.3987E-08  5.0100E-08 -2.4612E+00  2.5165E+00
 20 1.3173E-03 7.2947E+01 1.5536E+02  0.00E+00   8.4928E-04  1.5542E+02  4.3987E-08  5.0100E-08 -2.3156E+00  2.3303E+00
 21 1.5363E-03 7.1723E+01 1.5515E+02  0.00E+00  -7.5351E-03  1.5518E+02  4.3987E-08  5.0100E-08 -2.1546E+00  2.0244E+00
 22 1.7892E-03 7.0511E+01 1.5485E+02  0.00E+00  -1.0756E-02  1.5484E+02  4.3987E-08  5.0100E-08 -1.8865E+00  1.7007E+00
 23 2.0810E-03 6.9312E+01 1.5459E+02  0.00E+00  -1.1083E-02  1.5456E+02  4.3987E-08  5.0100E-08 -1.6220E+00  1.4305E+00
 24 2.4171E-03 6.8126E+01 1.5448E+02  0.00E+00  -5.7986E-03  1.5444E+02  4.3987E-08  5.0100E-08 -1.3304E+00  1.2302E+00
 25 2.8036E-03 6.6951E+01 1.5454E+02  0.00E+00   2.0600E-04  1.5450E+02  4.3987E-08  5.0100E-08 -1.0745E+00  1.0781E+00
 26 3.2475E-03 6.5785E+01 1.5473E+02  0.00E+00   3.8481E-03  1.5471E+02  4.3987E-08  5.0100E-08 -8.8265E-01  9.4915E-01
 27 3.7566E-03 6.4628E+01 1.5501E+02  0.00E+00   4.7199E-03  1.5500E+02  4.3987E-08  5.0100E-08 -7.5124E-01  8.3280E-01
 28 4.3395E-03 6.3481E+01 1.5532E+02  0.00E+00   1.9875E-03  1.5531E+02  4.3987E-08  5.0100E-08 -6.9449E-01  7.2883E-01
 29 5.0061E-03 6.2341E+01 1.5563E+02  0.00E+00   1.3425E-03  1.5563E+02  4.3987E-08  5.0100E-08 -6.1618E-01  6.3938E-01
 30 5.7672E-03 6.1211E+01 1.5595E+02  0.00E+00   6.1058E-04  1.5594E+02  4.3987E-08  5.0100E-08 -5.5504E-01  5.6559E-01
 31 6.6349E-03 6.0088E+01 1.5629E+02  0.00E+00  -1.2601E-03  1.5627E+02  4.3987E-08  5.0100E-08 -5.2926E-01  5.0748E-01
 32 7.6229E-03 5.8975E+01 1.5668E+02  0.00E+00  -5.9764E-04  1.5666E+02  4.3987E-08  5.0100E-08 -4.7444E-01  4.6411E-01
 33 8.7459E-03 5.7869E+01 1.5716E+02  0.00E+00  -7.6378E-04  1.5713E+02  4.3987E-08  5.0100E-08 -4.4658E-01  4.3338E-01
 34 1.0021E-02 5.6770E+01 1.5773E+02  0.00E+00   4.6201E-04  1.5771E+02  4.3987E-08  5.0100E-08 -4.0593E-01  4.1391E-01
 35 1.1466E-02 5.5678E+01 1.5842E+02  0.00E+00  -5.6800E-04  1.5839E+02  4.3987E-08  5.0100E-08 -4.6304E-01  4.5322E-01
 36 1.3102E-02 5.4592E+01 1.5920E+02  0.00E+00   1.0243E-03  1.5918E+02  4.3987E-08  5.0100E-08 -4.6431E-01  4.8201E-01
 37 1.4950E-02 5.3511E+01 1.6006E+02  0.00E+00   2.8320E-03  1.6005E+02  4.3987E-08  5.0100E-08 -4.4830E-01  4.9724E-01
 38 1.7036E-02 5.2436E+01 1.6094E+02  0.00E+00   4.2475E-03  1.6095E+02  4.3987E-08  5.0100E-08 -4.2242E-01  4.9582E-01
 39 1.9387E-02 5.1366E+01 1.6179E+02  0.00E+00   3.1285E-03  1.6181E+02  4.3987E-08  5.0100E-08 -4.2299E-01  4.7705E-01
 40 2.2032E-02 5.0303E+01 1.6257E+02  0.00E+00   1.7979E-03  1.6259E+02  4.3987E-08  5.0100E-08 -4.1175E-01  4.4281E-01
 41 2.5004E-02 4.9246E+01 1.6324E+02  0.00E+00   8.4677E-04  1.6327E+02  4.3987E-08  5.0100E-08 -3.8234E-01  3.9697E-01
 42 2.8338E-02 4.8196E+01 1.6380E+02  0.00E+00   8.6190E-04  1.6383E+02  4.3987E-08  5.0100E-08 -3.2980E-01  3.4470E-01
 43 3.2073E-02 4.7154E+01 1.6425E+02  0.00E+00   2.9436E-04  1.6427E+02  4.3987E-08  5.0100E-08 -2.8650E-01  2.9159E-01
 44 3.6251E-02 4.6122E+01 1.6458E+02  0.00E+00   6.3032E-05  1.6460E+02  4.3987E-08  5.0100E-08 -2.4154E-01  2.4263E-01
 45 4.0917E-02 4.5099E+01 1.6482E+02  0.00E+00  -5.8036E-04  1.6484E+02  4.3987E-08  5.0100E-08 -2.1131E-01  2.0128E-01
 46 4.6121E-02 4.4087E+01 1.6501E+02  0.00E+00  -1.5172E-03  1.6501E+02  4.3987E-08  5.0100E-08 -1.9526E-01  1.6904E-01
 47 5.1916E-02 4.3085E+01 1.6517E+02  0.00E+00  -2.2179E-03  1.6517E+02  4.3987E-08  5.0100E-08 -1.8391E-01  1.4558E-01
 48 5.8359E-02 4.2093E+01 1.6538E+02  0.00E+00  -2.7811E-03  1.6535E+02  4.3987E-08  5.0100E-08 -1.7741E-01  1.2936E-01
 49 6.5513E-02 4.1111E+01 1.6584E+02  0.00E+00   5.9739E-02  1.6561E+02  4.5006E-08  5.0100E-08 -1.7358E-01  1.1831E-01
 50 7.3444E-02 4.0137E+01 1.6667E+02  3.00E+00   7.0028E-01  1.6597E+02  4.9083E-08  5.0100E-08 -1.6631E-01  1.1047E-01
 51 8.2222E-02 3.9169E+01 1.6768E+02  3.00E+00   1.3161E+00  1.6637E+02  5.4701E-08  5.0100E-08 -1.6122E-01  1.0434E-01
 52 9.1924E-02 3.8207E+01 1.6869E+02  3.00E+00   1.6616E+00  1.6703E+02  6.0887E-08  5.1188E-08 -1.5858E-01  9.8862E-02
 53 1.0263E-01 3.7251E+01 1.6970E+02  3.00E+00   1.8826E+00  1.6782E+02  6.7688E-08  5.5542E-08 -1.5792E-01  9.6478E-02
 54 1.1443E-01 3.6301E+01 1.7071E+02  3.00E+00   1.8677E+00  1.6884E+02  7.5155E-08  6.1505E-08 -1.6190E-01  1.0138E-01
 55 1.2741E-01 3.5358E+01 1.7171E+02  3.00E+00   1.9146E+00  1.6980E+02  8.3341E-08  6.8030E-08 -1.6155E-01  1.0344E-01
 56 1.4167E-01 3.4421E+01 1.7272E+02  3.00E+00   1.9616E+00  1.7076E+02  9.2304E-08  7.5160E-08 -1.6025E-01  1.0295E-01
 57 1.5731E-01 3.3490E+01 1.7373E+02  3.00E+00   2.0088E+00  1.7172E+02  1.0210E-07  8.2940E-08 -1.5720E-01  1.0042E-01
 58 1.7444E-01 3.2567E+01 1.7473E+02  3.00E+00   2.0560E+00  1.7268E+02  1.1280E-07  9.1418E-08 -1.5241E-01  9.6418E-02
 59 1.9317E-01 3.1650E+01 1.7574E+02  3.00E+00   2.1033E+00  1.7363E+02  1.2446E-07  1.0064E-07 -1.4632E-01  9.1535E-02
 60 2.1363E-01 3.0741E+01 1.7674E+02  3.00E+00   2.1508E+00  1.7459E+02  1.3715E-07  1.1067E-07 -1.3952E-01  8.6240E-02
 61 2.3592E-01 2.9838E+01 1.7774E+02  3.00E+00   2.1983E+00  1.7554E+02  1.5095E-07  1.2154E-07 -1.3255E-01  8.0856E-02
 62 2.6019E-01 2.8943E+01 1.7873E+02  3.00E+00   2.2460E+00  1.7649E+02  1.6593E-07  1.3333E-07 -1.2570E-01  7.5550E-02
 63 2.8657E-01 2.8056E+01 1.7973E+02  3.00E+00   2.2937E+00  1.7744E+02  1.8216E-07  1.4608E-07 -1.1901E-01  7.0358E-02
 64 3.1518E-01 2.7176E+01 1.8072E+02  3.00E+00   2.3416E+00  1.7838E+02  1.9972E-07  1.5985E-07 -1.1234E-01  6.5245E-02
 65 3.4619E-01 2.6304E+01 1.8171E+02  3.00E+00   2.3896E+00  1.7932E+02  2.1870E-07  1.7471E-07 -1.0552E-01  6.0156E-02
 66 3.7972E-01 2.5440E+01 1.8269E+02  3.00E+00   2.4377E+00  1.8026E+02  2.3917E-07  1.9071E-07 -9.8453E-02  5.5074E-02
 67 4.1594E-01 2.4585E+01 1.8368E+02  3.00E+00   2.4859E+00  1.8119E+02  2.6123E-07  2.0792E-07 -9.1144E-02  5.0035E-02
 68 4.5498E-01 2.3737E+01 1.8465E+02  3.00E+00   2.5342E+00  1.8212E+02  2.8496E-07  2.2641E-07 -8.3682E-02  4.5124E-02
 69 4.9702E-01 2.2898E+01 1.8563E+02  3.00E+00   2.5826E+00  1.8304E+02  3.1045E-07  2.4623E-07 -7.6169E-02  4.0447E-02
 70 5.4220E-01 2.2068E+01 1.8659E+02  3.00E+00   2.6311E+00  1.8396E+02  3.3779E-07  2.6745E-07 -6.8294E-02  3.6111E-02
 71 5.9069E-01 2.1246E+01 1.8756E+02  3.00E+00   2.6797E+00  1.8488E+02  3.6706E-07  2.9014E-07 -6.1873E-02  3.2192E-02
 72 6.4263E-01 2.0433E+01 1.8851E+02  3.00E+00   2.7284E+00  1.8579E+02  3.9836E-07  3.1436E-07 -5.5521E-02  2.8732E-02
 73 6.9819E-01 1.9630E+01 1.8947E+02  3.00E+00   2.7771E+00  1.8669E+02  4.3177E-07  3.4017E-07 -4.9099E-02  2.5735E-02
 74 7.5751E-01 1.8835E+01 1.9041E+02  3.00E+00   2.8258E+00  1.8759E+02  4.6738E-07  3.6763E-07 -4.2156E-02  2.3174E-02
 75 8.2076E-01 1.8050E+01 1.9135E+02  3.00E+00   2.8745E+00  1.8848E+02  5.0528E-07  3.9682E-07 -3.3681E-02  2.1001E-02
 76 8.8808E-01 1.7275E+01 1.9229E+02  3.00E+00   2.9231E+00  1.8936E+02  5.4554E-07  4.2778E-07 -1.9737E-02  1.9162E-02
 77 9.5961E-01 1.6509E+01 1.9321E+02  3.00E+00   2.9717E+00  1.9024E+02  5.8825E-07  4.6057E-07  4.2667E-04  1.7605E-02
 78 1.0355E+00 1.5753E+01 1.9413E+02  3.00E+00   2.4566E+00  1.9167E+02  6.3347E-07  5.4424E-07 -9.4468E-03  1.8284E-02
 79 1.1158E+00 1.5007E+01 1.9533E+02  3.00E+00  -1.5864E-03  1.9533E+02  7.1334E-07  9.2071E-07 -4.6817E-02  1.9403E-02
 80 1.2008E+00 1.4265E+01 1.9896E+02  0.00E+00  -3.2779E-03  1.9896E+02  1.1763E-06  1.5215E-06 -7.6236E-02  1.9594E-02
 81 1.2905E+00 1.3524E+01 2.0258E+02  0.00E+00  -5.1613E-03  2.0258E+02  1.8968E-06  2.4586E-06 -1.0875E-01  1.9567E-02
 82 1.3849E+00 1.2783E+01 2.0617E+02  0.00E+00  -6.7506E-03  2.0617E+02  2.9943E-06  3.8888E-06 -1.3682E-01  2.0171E-02
 83 1.4843E+00 1.2044E+01 2.0973E+02  0.00E+00  -7.6028E-03  2.0974E+02  4.6319E-06  6.0268E-06 -1.5280E-01  2.1427E-02
 84 1.5886E+00 1.1307E+01 2.1327E+02  0.00E+00  -8.1260E-03  2.1327E+02  7.0272E-06  9.1597E-06 -1.6344E-01  2.3020E-02
 85 1.6980E+00 1.0574E+01 2.1677E+02  0.00E+00  -7.9618E-03  2.1678E+02  1.0465E-05  1.3663E-05 -1.6212E-01  2.4540E-02
 86 1.8124E+00 9.8430E+00 2.2024E+02  0.00E+00  -7.6001E-03  2.2025E+02  1.5309E-05  2.0019E-05 -1.5691E-01  2.5575E-02
 87 1.9318E+00 9.1163E+00 2.2367E+02  0.00E+00  -7.0694E-03  2.2368E+02  2.2013E-05  2.8830E-05 -1.4813E-01  2.5974E-02
 88 2.0564E+00 8.3943E+00 2.2706E+02  0.00E+00  -6.7031E-03  2.2706E+02  3.1133E-05  4.0836E-05 -1.4190E-01  2.6074E-02
 89 2.1859E+00 7.6775E+00 2.3040E+02  0.00E+00  -5.9447E-03  2.3041E+02  4.3337E-05  5.6925E-05 -1.2921E-01  2.6482E-02
 90 2.3205E+00 6.9665E+00 2.3369E+02  0.00E+00  -4.8792E-03  2.3370E+02  5.9403E-05  7.8137E-05 -1.1176E-01  2.7445E-02
 91 2.4600E+00 6.2620E+00 2.3693E+02  0.00E+00  -3.5533E-03  2.3694E+02  8.0221E-05  1.0566E-04 -9.0023E-02  2.8623E-02
 92 2.6044E+00 5.5645E+00 2.4012E+02  0.00E+00  -2.1807E-03  2.4012E+02  1.0678E-04  1.4082E-04 -6.7249E-02  2.9566E-02
 93 2.7535E+00 4.8747E+00 2.4324E+02  0.00E+00  -9.8294E-04  2.4324E+02  1.4014E-04  1.8506E-04 -4.7117E-02  3.0131E-02
 94 2.9071E+00 4.1931E+00 2.4630E+02  0.00E+00   8.2043E-03  2.4629E+02  1.8157E-04  2.3988E-04 -3.4198E-02  3.0294E-02
 95 3.0651E+00 3.5203E+00 2.4937E+02  1.00E+00   1.0274E-01  2.4927E+02  2.3410E-04  3.0682E-04 -2.7843E-02  2.9920E-02
 96 3.2273E+00 2.8569E+00 2.5237E+02  1.00E+00   2.0034E-01  2.5217E+02  2.9790E-04  3.8738E-04 -2.6291E-02  2.9007E-02
 97 3.3935E+00 2.2033E+00 2.5530E+02  1.00E+00   3.0119E-01  2.5500E+02  3.7430E-04  4.8296E-04 -2.4434E-02  2.7926E-02
 98 3.5633E+00 1.5602E+00 2.5815E+02  1.00E+00   4.0536E-01  2.5774E+02  4.6453E-04  5.9476E-04 -2.4748E-02  2.7208E-02
 99 3.7366E+00 9.2819E-01 2.6091E+02  1.00E+00   5.1283E-01  2.6040E+02  5.6968E-04  7.2378E-04 -3.0910E-02  2.7166E-02
100 3.9129E+00 3.0789E-01 2.6359E+02  1.00E+00   6.2344E-01  2.6296E+02  6.9061E-04  8.7070E-04 -3.3953E-02  2.7804E-02
101 4.0029E+00 0.0000E+00 2.6490E+02  1.00E+00   6.7921E-01  2.6422E+02  7.5774E-04  9.5174E-04  0.0000E+00  0.0000E+00
  J     P         ALT         T        CONVEC       DT          TOLD        FH20       FSAVE       TCOOL       THEAT

 FCO2
  9.50E-01 9.50E-01 9.50E-01 9.50E-01 9.50E-01 9.50E-01 9.50E-01 9.50E-01 9.50E-01 9.50E-01
  9.50E-01 9.50E-01 9.50E-01 9.50E-01 9.50E-01 9.50E-01 9.50E-01 9.50E-01 9.50E-01 9.50E-01
  9.50E-01 9.50E-01 9.50E-01 9.50E-01 9.50E-01 9.50E-01 9.50E-01 9.50E-01 9.50E-01 9.50E-01
  9.50E-01 9.50E-01 9.50E-01 9.50E-01 9.50E-01 9.50E-01 9.50E-01 9.50E-01 9.50E-01 9.50E-01
  9.50E-01 9.50E-01 9.50E-01 9.50E-01 9.50E-01 9.50E-01 9.50E-01 9.50E-01 9.50E-01 9.50E-01
  9.50E-01 9.50E-01 9.50E-01 9.50E-01 9.50E-01 9.50E-01 9.50E-01 9.50E-01 9.50E-01 9.50E-01
  9.50E-01 9.50E-01 9.50E-01 9.50E-01 9.50E-01 9.50E-01 9.50E-01 9.50E-01 9.50E-01 9.50E-01
  9.50E-01 9.50E-01 9.50E-01 9.50E-01 9.50E-01 9.50E-01 9.50E-01 9.50E-01 9.50E-01 9.50E-01
  9.50E-01 9.50E-01 9.50E-01 9.50E-01 9.50E-01 9.50E-01 9.50E-01 9.50E-01 9.50E-01 9.50E-01
  9.50E-01 9.50E-01 9.50E-01 9.50E-01 9.50E-01 9.50E-01 9.50E-01 9.50E-01 9.50E-01 9.50E-01
  9.50E-01

  J    PF         ALT       FTOTAL       FTIR       FDNIR       FUPIR       FTSOL       FDNSOL       FUPSOL       DIVF
  1 5.0000E-05 9.8821E+01  2.0986E+03 -8.1638E+04  0.0000E+00  8.1638E+04  8.3737E+04  1.4620E+05  6.2461E+04  2.5706E-02
  2 5.9883E-05 9.7124E+01  2.0998E+03 -8.1139E+04  3.8497E+02  8.1524E+04  8.3238E+04  1.4570E+05  6.2461E+04  2.5756E-02
  3 7.1623E-05 9.5499E+01  2.1000E+03 -8.0956E+04  4.6280E+02  8.1418E+04  8.3056E+04  1.4552E+05  6.2460E+04  2.5793E-02
  4 8.5546E-05 9.3948E+01  2.1033E+03 -8.0836E+04  4.9410E+02  8.1330E+04  8.2939E+04  1.4540E+05  6.2460E+04  2.5862E-02
  5 1.0204E-04 9.2466E+01  2.1048E+03 -8.0760E+04  5.0751E+02  8.1267E+04  8.2865E+04  1.4532E+05  6.2460E+04  2.5899E-02
  6 1.2154E-04 9.1042E+01  2.1134E+03 -8.0698E+04  5.2648E+02  8.1224E+04  8.2811E+04  1.4527E+05  6.2459E+04  2.6020E-02
  7 1.4458E-04 8.9662E+01  2.1236E+03 -8.0644E+04  5.5576E+02  8.1199E+04  8.2767E+04  1.4523E+05  6.2459E+04  2.6152E-02
  8 1.7175E-04 8.8309E+01  2.1270E+03 -8.0597E+04  5.9060E+02  8.1188E+04  8.2724E+04  1.4518E+05  6.2458E+04  2.6198E-02
  9 2.0374E-04 8.6976E+01  2.1238E+03 -8.0554E+04  6.3002E+02  8.1184E+04  8.2678E+04  1.4514E+05  6.2458E+04  2.6160E-02
 10 2.4137E-04 8.5656E+01  2.1186E+03 -8.0509E+04  6.7682E+02  8.1185E+04  8.2627E+04  1.4508E+05  6.2457E+04  2.6096E-02
 11 2.8556E-04 8.4348E+01  2.1149E+03 -8.0456E+04  7.3393E+02  8.1190E+04  8.2571E+04  1.4503E+05  6.2456E+04  2.6049E-02
 12 3.3737E-04 8.3051E+01  2.1134E+03 -8.0395E+04  8.0282E+02  8.1198E+04  8.2508E+04  1.4496E+05  6.2455E+04  2.6028E-02
 13 3.9805E-04 8.1763E+01  2.1133E+03 -8.0327E+04  8.8345E+02  8.1210E+04  8.2440E+04  1.4489E+05  6.2453E+04  2.6023E-02
 14 4.6899E-04 8.0483E+01  2.1132E+03 -8.0254E+04  9.7434E+02  8.1228E+04  8.2367E+04  1.4482E+05  6.2452E+04  2.6015E-02
 15 5.5183E-04 7.9211E+01  2.1114E+03 -8.0177E+04  1.0726E+03  8.1250E+04  8.2288E+04  1.4474E+05  6.2450E+04  2.5986E-02
 16 6.4842E-04 7.7944E+01  2.1083E+03 -8.0098E+04  1.1758E+03  8.1274E+04  8.2206E+04  1.4465E+05  6.2448E+04  2.5941E-02
 17 7.6087E-04 7.6684E+01  2.1044E+03 -8.0017E+04  1.2793E+03  8.1296E+04  8.2121E+04  1.4457E+05  6.2445E+04  2.5885E-02
 18 8.9161E-04 7.5429E+01  2.0984E+03 -7.9937E+04  1.3760E+03  8.1313E+04  8.2035E+04  1.4448E+05  6.2443E+04  2.5806E-02
 19 1.0434E-03 7.4183E+01  2.0914E+03 -7.9857E+04  1.4623E+03  8.1319E+04  8.1948E+04  1.4439E+05  6.2439E+04  2.5719E-02
 20 1.2194E-03 7.2947E+01  2.0893E+03 -7.9762E+04  1.5526E+03  8.1315E+04  8.1852E+04  1.4429E+05  6.2436E+04  2.5694E-02
 21 1.4230E-03 7.1723E+01  2.0886E+03 -7.9660E+04  1.6419E+03  8.1302E+04  8.1748E+04  1.4418E+05  6.2431E+04  2.5690E-02
 22 1.6585E-03 7.0511E+01  2.0953E+03 -7.9549E+04  1.7359E+03  8.1285E+04  8.1644E+04  1.4407E+05  6.2426E+04  2.5777E-02
 23 1.9303E-03 6.9312E+01  2.1063E+03 -7.9437E+04  1.8363E+03  8.1274E+04  8.1544E+04  1.4396E+05  6.2420E+04  2.5916E-02
 24 2.2435E-03 6.8126E+01  2.1194E+03 -7.9327E+04  1.9472E+03  8.1274E+04  8.1446E+04  1.4386E+05  6.2413E+04  2.6077E-02
 25 2.6041E-03 6.6951E+01  2.1272E+03 -7.9222E+04  2.0648E+03  8.1287E+04  8.1350E+04  1.4376E+05  6.2406E+04  2.6169E-02
 26 3.0184E-03 6.5785E+01  2.1269E+03 -7.9126E+04  2.1852E+03  8.1311E+04  8.1252E+04  1.4365E+05  6.2397E+04  2.6158E-02
 27 3.4940E-03 6.4628E+01  2.1200E+03 -7.9034E+04  2.3067E+03  8.1341E+04  8.1154E+04  1.4354E+05  6.2386E+04  2.6064E-02
 28 4.0389E-03 6.3481E+01  2.1104E+03 -7.8945E+04  2.4296E+03  8.1375E+04  8.1055E+04  1.4343E+05  6.2375E+04  2.5934E-02
 29 4.6625E-03 6.2341E+01  2.1057E+03 -7.8851E+04  2.5608E+03  8.1411E+04  8.0956E+04  1.4332E+05  6.2361E+04  2.5865E-02
 30 5.3750E-03 6.1211E+01  2.1021E+03 -7.8755E+04  2.6960E+03  8.1451E+04  8.0857E+04  1.4320E+05  6.2346E+04  2.5808E-02
 31 6.1880E-03 6.0088E+01  2.1002E+03 -7.8657E+04  2.8389E+03  8.1495E+04  8.0757E+04  1.4309E+05  6.2328E+04  2.5771E-02
 32 7.1142E-03 5.8975E+01  2.1046E+03 -7.8550E+04  2.9998E+03  8.1549E+04  8.0654E+04  1.4296E+05  6.2309E+04  2.5808E-02
 33 8.1679E-03 5.7869E+01  2.1070E+03 -7.8440E+04  3.1738E+03  8.1614E+04  8.0547E+04  1.4283E+05  6.2286E+04  2.5816E-02
 34 9.3649E-03 5.6770E+01  2.1104E+03 -7.8324E+04  3.3697E+03  8.1693E+04  8.0434E+04  1.4269E+05  6.2261E+04  2.5834E-02
 35 1.0723E-02 5.5678E+01  2.1081E+03 -7.8203E+04  3.5806E+03  8.1784E+04  8.0311E+04  1.4254E+05  6.2232E+04  2.5776E-02
 36 1.2261E-02 5.4592E+01  2.1114E+03 -7.8047E+04  3.8490E+03  8.1896E+04  8.0159E+04  1.4236E+05  6.2199E+04  2.5781E-02
 37 1.4000E-02 5.3511E+01  2.1046E+03 -7.7870E+04  4.1570E+03  8.2027E+04  7.9975E+04  1.4214E+05  6.2163E+04  2.5658E-02
 38 1.5965E-02 5.2436E+01  2.0835E+03 -7.7677E+04  4.4925E+03  8.2170E+04  7.9761E+04  1.4188E+05  6.2122E+04  2.5357E-02
 39 1.8180E-02 5.1366E+01  2.0478E+03 -7.7471E+04  4.8401E+03  8.2312E+04  7.9519E+04  1.4159E+05  6.2075E+04  2.4879E-02
 40 2.0674E-02 5.0303E+01  2.0181E+03 -7.7239E+04  5.2087E+03  8.2448E+04  7.9258E+04  1.4128E+05  6.2023E+04  2.4478E-02
 41 2.3479E-02 4.9246E+01  1.9990E+03 -7.6985E+04  5.5884E+03  8.2573E+04  7.8984E+04  1.4095E+05  6.1966E+04  2.4208E-02
 42 2.6628E-02 4.8196E+01  1.9888E+03 -7.6720E+04  5.9649E+03  8.2685E+04  7.8708E+04  1.4061E+05  6.1901E+04  2.4053E-02
 43 3.0158E-02 4.7154E+01  1.9772E+03 -7.6463E+04  6.3154E+03  8.2778E+04  7.8440E+04  1.4027E+05  6.1829E+04  2.3886E-02
 44 3.4110E-02 4.6122E+01  1.9728E+03 -7.6213E+04  6.6438E+03  8.2857E+04  7.8186E+04  1.3993E+05  6.1749E+04  2.3809E-02
 45 3.8527E-02 4.5099E+01  1.9717E+03 -7.5977E+04  6.9452E+03  8.2923E+04  7.7949E+04  1.3961E+05  6.1661E+04  2.3778E-02
 46 4.3456E-02 4.4087E+01  1.9826E+03 -7.5747E+04  7.2357E+03  8.2983E+04  7.7730E+04  1.3929E+05  6.1562E+04  2.3892E-02
 47 4.8949E-02 4.3085E+01  2.0145E+03 -7.5510E+04  7.5375E+03  8.3048E+04  7.7525E+04  1.3898E+05  6.1454E+04  2.4257E-02
 48 5.5062E-02 4.2093E+01  2.0662E+03 -7.5262E+04  7.8642E+03  8.3126E+04  7.7328E+04  1.3866E+05  6.1335E+04  2.4857E-02
 49 6.1854E-02 4.1111E+01  2.1384E+03 -7.4995E+04  8.2339E+03  8.3229E+04  7.7134E+04  1.3834E+05  6.1204E+04  2.5693E-02
 50 6.9389E-02 4.0137E+01  2.2305E+03 -7.4706E+04  8.6572E+03  8.3363E+04  7.6937E+04  1.3800E+05  6.1061E+04  2.6756E-02
 51 7.7736E-02 3.9169E+01  2.3336E+03 -7.4399E+04  9.1197E+03  8.3519E+04  7.6732E+04  1.3764E+05  6.0903E+04  2.7942E-02
 52 8.6968E-02 3.8207E+01  2.4499E+03 -7.4069E+04  9.6747E+03  8.3744E+04  7.6519E+04  1.3725E+05  6.0732E+04  2.9255E-02
 53 9.7164E-02 3.7251E+01  2.5849E+03 -7.3711E+04  1.0304E+04  8.4015E+04  7.6296E+04  1.3684E+05  6.0545E+04  3.0767E-02
 54 1.0841E-01 3.6301E+01  2.7381E+03 -7.3317E+04  1.1030E+04  8.4347E+04  7.6055E+04  1.3640E+05  6.0341E+04  3.2463E-02
 55 1.2079E-01 3.5358E+01  2.9046E+03 -7.2872E+04  1.1815E+04  8.4687E+04  7.5776E+04  1.3590E+05  6.0121E+04  3.4298E-02
 56 1.3440E-01 3.4421E+01  3.0806E+03 -7.2382E+04  1.2666E+04  8.5049E+04  7.5463E+04  1.3534E+05  5.9882E+04  3.6221E-02
 57 1.4934E-01 3.3490E+01  3.2713E+03 -7.1849E+04  1.3585E+04  8.5434E+04  7.5120E+04  1.3474E+05  5.9623E+04  3.8291E-02
 58 1.6571E-01 3.2567E+01  3.4788E+03 -7.1275E+04  1.4568E+04  8.5843E+04  7.4753E+04  1.3410E+05  5.9344E+04  4.0525E-02
 59 1.8363E-01 3.1650E+01  3.7030E+03 -7.0664E+04  1.5612E+04  8.6277E+04  7.4367E+04  1.3341E+05  5.9043E+04  4.2920E-02
 60 2.0321E-01 3.0741E+01  3.9430E+03 -7.0023E+04  1.6713E+04  8.6736E+04  7.3966E+04  1.3269E+05  5.8720E+04  4.5459E-02
 61 2.2458E-01 2.9838E+01  4.1980E+03 -6.9356E+04  1.7867E+04  8.7222E+04  7.3554E+04  1.3193E+05  5.8372E+04  4.8130E-02
 62 2.4785E-01 2.8943E+01  4.4679E+03 -6.8664E+04  1.9073E+04  8.7736E+04  7.3131E+04  1.3113E+05  5.8000E+04  5.0924E-02
 63 2.7315E-01 2.8056E+01  4.7530E+03 -6.7949E+04  2.0330E+04  8.8279E+04  7.2702E+04  1.3030E+05  5.7601E+04  5.3841E-02
 64 3.0064E-01 2.7176E+01  5.0538E+03 -6.7213E+04  2.1637E+04  8.8851E+04  7.2267E+04  1.2944E+05  5.7174E+04  5.6880E-02
 65 3.3043E-01 2.6304E+01  5.3699E+03 -6.6459E+04  2.2994E+04  8.9454E+04  7.1829E+04  1.2855E+05  5.6717E+04  6.0030E-02
 66 3.6269E-01 2.5440E+01  5.6999E+03 -6.5691E+04  2.4398E+04  9.0089E+04  7.1391E+04  1.2762E+05  5.6231E+04  6.3270E-02
 67 3.9755E-01 2.4585E+01  6.0415E+03 -6.4916E+04  2.5842E+04  9.0758E+04  7.0958E+04  1.2667E+05  5.5712E+04  6.6567E-02
 68 4.3517E-01 2.3737E+01  6.3913E+03 -6.4140E+04  2.7323E+04  9.1463E+04  7.0532E+04  1.2569E+05  5.5160E+04  6.9879E-02
 69 4.7570E-01 2.2898E+01  6.7453E+03 -6.3372E+04  2.8834E+04  9.2207E+04  7.0118E+04  1.2469E+05  5.4574E+04  7.3154E-02
 70 5.1930E-01 2.2068E+01  7.0984E+03 -6.2619E+04  3.0373E+04  9.2993E+04  6.9718E+04  1.2367E+05  5.3950E+04  7.6333E-02
 71 5.6612E-01 2.1246E+01  7.4406E+03 -6.1893E+04  3.1922E+04  9.3815E+04  6.9334E+04  1.2262E+05  5.3289E+04  7.9311E-02
 72 6.1632E-01 2.0433E+01  7.7794E+03 -6.1187E+04  3.3500E+04  9.4687E+04  6.8966E+04  1.2156E+05  5.2589E+04  8.2159E-02
 73 6.7006E-01 1.9630E+01  8.1072E+03 -6.0508E+04  3.5107E+04  9.5615E+04  6.8615E+04  1.2046E+05  5.1848E+04  8.4790E-02
 74 7.2749E-01 1.8835E+01  8.4131E+03 -5.9865E+04  3.6745E+04  9.6609E+04  6.8278E+04  1.1934E+05  5.1064E+04  8.7083E-02
 75 7.8877E-01 1.8050E+01  8.6786E+03 -5.9275E+04  3.8413E+04  9.7688E+04  6.7954E+04  1.1819E+05  5.0237E+04  8.8840E-02
 76 8.5405E-01 1.7275E+01  8.8677E+03 -5.8773E+04  4.0112E+04  9.8884E+04  6.7640E+04  1.1700E+05  4.9364E+04  8.9678E-02
 77 9.2347E-01 1.6509E+01  8.8769E+03 -5.8459E+04  4.1840E+04  1.0030E+05  6.7336E+04  1.1578E+05  4.8445E+04  8.8504E-02
 78 9.9717E-01 1.5753E+01  8.5724E+03 -5.8466E+04  4.3946E+04  1.0241E+05  6.7039E+04  1.1452E+05  4.7477E+04  8.3705E-02
 79 1.0753E+00 1.5007E+01  8.4139E+03 -5.8297E+04  4.7738E+04  1.0603E+05  6.6711E+04  1.1317E+05  4.6461E+04  7.9350E-02
 80 1.1579E+00 1.4265E+01  8.9368E+03 -5.7404E+04  5.2544E+04  1.0995E+05  6.6341E+04  1.1173E+05  4.5394E+04  8.1283E-02
 81 1.2453E+00 1.3524E+01  1.0084E+04 -5.5860E+04  5.8238E+04  1.1410E+05  6.5944E+04  1.1022E+05  4.4276E+04  8.8382E-02
 82 1.3373E+00 1.2783E+01  1.1999E+04 -5.3525E+04  6.5169E+04  1.1869E+05  6.5524E+04  1.0863E+05  4.3106E+04  1.0109E-01
 83 1.4342E+00 1.2044E+01  1.4649E+04 -5.0417E+04  7.3479E+04  1.2390E+05  6.5065E+04  1.0695E+05  4.1883E+04  1.1823E-01
 84 1.5361E+00 1.1307E+01  1.7800E+04 -4.6751E+04  8.2833E+04  1.2958E+05  6.4551E+04  1.0516E+05  4.0607E+04  1.3736E-01
 85 1.6429E+00 1.0574E+01  2.1352E+04 -4.2618E+04  9.3210E+04  1.3583E+05  6.3969E+04  1.0325E+05  3.9277E+04  1.5720E-01
 86 1.7548E+00 9.8430E+00  2.5013E+04 -3.8303E+04  1.0423E+05  1.4254E+05  6.3316E+04  1.0121E+05  3.7894E+04  1.7548E-01
 87 1.8718E+00 9.1163E+00  2.8684E+04 -3.3917E+04  1.1584E+05  1.4976E+05  6.2601E+04  9.9058E+04  3.6457E+04  1.9153E-01
 88 1.9938E+00 8.3943E+00  3.2264E+04 -2.9576E+04  1.2784E+05  1.5742E+05  6.1840E+04  9.6807E+04  3.4967E+04  2.0496E-01
 89 2.1209E+00 7.6775E+00  3.5815E+04 -2.5225E+04  1.4031E+05  1.6553E+05  6.1041E+04  9.4466E+04  3.3425E+04  2.1636E-01
 90 2.2530E+00 6.9665E+00  3.9105E+04 -2.1088E+04  1.5295E+05  1.7403E+05  6.0193E+04  9.2026E+04  3.1833E+04  2.2469E-01
 91 2.3901E+00 6.2620E+00  4.1919E+04 -1.7358E+04  1.6552E+05  1.8288E+05  5.9277E+04  8.9469E+04  3.0192E+04  2.2921E-01
 92 2.5320E+00 5.5645E+00  4.4050E+04 -1.4232E+04  1.7779E+05  1.9203E+05  5.8283E+04  8.6787E+04  2.8504E+04  2.2940E-01
 93 2.6788E+00 4.8747E+00  4.5409E+04 -1.1809E+04  1.8965E+05  2.0146E+05  5.7217E+04  8.3990E+04  2.6773E+04  2.2540E-01
 94 2.8302E+00 4.1931E+00  4.6043E+04 -1.0049E+04  2.0106E+05  2.1111E+05  5.6092E+04  8.1094E+04  2.5002E+04  2.1810E-01
 95 2.9861E+00 3.5203E+00  4.6194E+04 -8.7291E+03  2.1218E+05  2.2091E+05  5.4923E+04  7.8116E+04  2.3194E+04  2.0911E-01
 96 3.1462E+00 2.8569E+00  4.6111E+04 -7.6203E+03  2.2315E+05  2.3077E+05  5.3731E+04  7.5085E+04  2.1354E+04  1.9982E-01
 97 3.3105E+00 2.2033E+00  4.5999E+04 -6.5425E+03  2.3422E+05  2.4076E+05  5.2542E+04  7.2031E+04  1.9489E+04  1.9106E-01
 98 3.4786E+00 1.5602E+00  4.5852E+04 -5.5135E+03  2.4525E+05  2.5077E+05  5.1366E+04  6.8970E+04  1.7604E+04  1.8285E-01
 99 3.6502E+00 9.2819E-01  4.5746E+04 -4.4455E+03  2.5629E+05  2.6073E+05  5.0192E+04  6.5901E+04  1.5709E+04  1.7545E-01
100 3.8251E+00 3.0789E-01  4.5911E+04 -3.0815E+03  2.6719E+05  2.7027E+05  4.8993E+04  6.2807E+04  1.3814E+04  1.6987E-01
101 4.0029E+00 0.0000E+00  4.6188E+04 -1.5531E+03  2.7335E+05  2.7491E+05  4.7741E+04  5.9677E+04  1.1935E+04  1.6802E-01
 
 NST=     2 JCONV= 18 CHG=2.12E-01 dt0=2.50E+03 DIVF(1)= 3.96E-03 DIVFrms= 4.16E-03 DT(ND)= 1.05E-01 T(ND)=2.6500E+02
 NST=     3 JCONV= 16 CHG=3.48E-02 dt0=1.25E+03 DIVF(1)=-2.03E-01 DIVFrms= 2.03E-01 DT(ND)=-5.37E+00 T(ND)=2.5964E+02
 NST=     4 JCONV= 16 CHG=2.84E-02 dt0=6.25E+02 DIVF(1)=-1.64E-01 DIVFrms= 1.64E-01 DT(ND)=-4.25E+00 T(ND)=2.5538E+02

 TIME= 1.375E+04  TIME IN DAYS = 1.591E-01

 PLANETARY ALBEDO:  ALBP = 0.4243

  J     P         ALT         T        CONVEC       DT          TOLD        FH20       FSAVE       TCOOL       THEAT
  1 5.4719E-05 1.0428E+02 1.8743E+02  0.00E+00   3.9905E-03  1.8743E+02  2.1115E-08  5.0100E-08 -2.2080E+02  2.2108E+02
  2 6.5490E-05 1.0258E+02 1.8088E+02  0.00E+00   2.4239E-02  1.8090E+02  2.1115E-08  5.0100E-08 -6.7245E+01  6.8921E+01
  3 7.8276E-05 1.0096E+02 1.7431E+02  0.00E+00  -1.2430E-02  1.7427E+02  2.1115E-08  5.0100E-08 -3.8079E+01  3.7220E+01
  4 9.3429E-05 9.9403E+01 1.6798E+02  0.00E+00  -1.8681E-02  1.6781E+02  2.1115E-08  5.0100E-08 -2.1776E+01  2.0485E+01
  5 1.1136E-04 9.7915E+01 1.6241E+02  0.00E+00  -5.4137E-02  1.6212E+02  2.1115E-08  5.0100E-08 -1.6125E+01  1.2384E+01
  6 1.3256E-04 9.6483E+01 1.5812E+02  0.00E+00  -5.3944E-02  1.5777E+02  2.1115E-08  5.0100E-08 -1.2512E+01  8.7832E+00
  7 1.5758E-04 9.5094E+01 1.5529E+02  0.00E+00  -2.4843E-02  1.5499E+02  2.1115E-08  5.0100E-08 -8.9966E+00  7.2794E+00
  8 1.8706E-04 9.3735E+01 1.5368E+02  0.00E+00  -1.6217E-03  1.5349E+02  2.1115E-08  5.0100E-08 -6.7313E+00  6.6192E+00
  9 2.2176E-04 9.2397E+01 1.5288E+02  0.00E+00   5.9252E-03  1.5278E+02  2.1115E-08  5.0100E-08 -5.8212E+00  6.2308E+00
 10 2.6254E-04 9.1076E+01 1.5253E+02  0.00E+00   2.1539E-03  1.5247E+02  2.1115E-08  5.0100E-08 -5.7463E+00  5.8952E+00
 11 3.1038E-04 8.9766E+01 1.5242E+02  0.00E+00  -4.7394E-03  1.5239E+02  2.1115E-08  5.0100E-08 -5.8739E+00  5.5464E+00
 12 3.6645E-04 8.8468E+01 1.5248E+02  0.00E+00  -1.0858E-02  1.5246E+02  2.1115E-08  5.0100E-08 -5.9212E+00  5.1707E+00
 13 4.3206E-04 8.7179E+01 1.5270E+02  0.00E+00  -2.0438E-02  1.5268E+02  2.1115E-08  5.0100E-08 -6.1819E+00  4.7692E+00
 14 5.0873E-04 8.5900E+01 1.5274E+02  0.00E+00  -1.8234E-02  1.5305E+02  2.1115E-08  5.0100E-08 -5.6074E+00  4.3471E+00
 15 5.9818E-04 8.4639E+01 1.5088E+02  0.00E+00   1.5025E-02  1.5223E+02  2.1115E-08  5.0100E-08 -2.8805E+00  3.9190E+00
 16 7.0240E-04 8.3410E+01 1.4745E+02  0.00E+00  -4.2533E+00  1.5026E+02  2.1115E-08  5.0100E-08 -5.3091E-01  3.4914E+00
 17 8.2365E-04 8.2212E+01 1.4597E+02  0.00E+00  -4.2533E+00  1.4982E+02  2.1923E-08  5.0100E-08 -3.6633E-01  3.0600E+00
 18 9.6452E-04 8.1027E+01 1.4673E+02  3.00E+00  -4.2533E+00  1.5098E+02  2.5159E-08  5.0100E-08 -9.1929E-01  2.6382E+00
 19 1.1279E-03 7.9845E+01 1.4790E+02  3.00E+00  -4.2533E+00  1.5215E+02  2.9930E-08  5.0100E-08 -1.4987E+00  2.5284E+00
 20 1.3173E-03 7.8663E+01 1.4907E+02  3.00E+00  -4.2533E+00  1.5333E+02  3.5545E-08  5.0100E-08 -1.7699E+00  2.3373E+00
 21 1.5363E-03 7.7483E+01 1.5025E+02  3.00E+00  -4.2533E+00  1.5451E+02  4.2114E-08  5.0100E-08 -1.8884E+00  2.0264E+00
 22 1.7892E-03 7.6304E+01 1.5144E+02  3.00E+00  -4.2533E+00  1.5569E+02  4.9777E-08  5.0100E-08 -1.9485E+00  1.6986E+00
 23 2.0810E-03 7.5126E+01 1.5263E+02  3.00E+00  -4.2533E+00  1.5688E+02  5.8691E-08  5.0100E-08 -1.8937E+00  1.4257E+00
 24 2.4171E-03 7.3949E+01 1.5383E+02  3.00E+00  -4.2533E+00  1.5808E+02  6.9040E-08  5.0100E-08 -1.7776E+00  1.2238E+00
 25 2.8036E-03 7.2775E+01 1.5503E+02  3.00E+00  -4.2533E+00  1.5928E+02  8.1086E-08  5.0100E-08 -1.5353E+00  1.0707E+00
 26 3.2475E-03 7.1602E+01 1.5624E+02  3.00E+00  -4.2533E+00  1.6049E+02  9.5111E-08  5.0100E-08 -1.3219E+00  9.4132E-01
 27 3.7566E-03 7.0430E+01 1.5746E+02  3.00E+00  -4.2533E+00  1.6171E+02  1.1142E-07  5.0100E-08 -1.1732E+00  8.2484E-01
 28 4.3395E-03 6.9261E+01 1.5869E+02  3.00E+00  -4.2533E+00  1.6294E+02  1.3035E-07  5.0100E-08 -1.0886E+00  7.2094E-01
 29 5.0061E-03 6.8094E+01 1.5992E+02  3.00E+00  -4.2533E+00  1.6417E+02  1.5222E-07  5.0100E-08 -1.0703E+00  6.3165E-01
 30 5.7672E-03 6.6928E+01 1.6116E+02  3.00E+00  -4.2533E+00  1.6541E+02  1.7739E-07  5.0100E-08 -1.0151E+00  5.5804E-01
 31 6.6349E-03 6.5765E+01 1.6240E+02  3.00E+00  -4.2533E+00  1.6665E+02  2.0627E-07  5.0100E-08 -9.5551E-01  5.0010E-01
 32 7.6229E-03 6.4605E+01 1.6364E+02  3.00E+00  -4.2533E+00  1.6790E+02  2.3936E-07  5.0100E-08 -8.8509E-01  4.5684E-01
 33 8.7459E-03 6.3447E+01 1.6490E+02  3.00E+00  -4.2533E+00  1.6915E+02  2.7725E-07  5.0100E-08 -8.2889E-01  4.2615E-01
 34 1.0021E-02 6.2292E+01 1.6615E+02  3.00E+00  -4.2533E+00  1.7041E+02  3.2062E-07  5.0100E-08 -7.6334E-01  4.0667E-01
 35 1.1466E-02 6.1140E+01 1.6742E+02  3.00E+00  -4.2533E+00  1.7167E+02  3.7017E-07  5.0100E-08 -8.4026E-01  4.4497E-01
 36 1.3102E-02 5.9991E+01 1.6868E+02  3.00E+00  -4.2533E+00  1.7294E+02  4.2670E-07  5.0100E-08 -8.2468E-01  4.7299E-01
 37 1.4950E-02 5.8845E+01 1.6996E+02  3.00E+00  -4.2533E+00  1.7421E+02  4.9125E-07  5.0100E-08 -8.0729E-01  4.8775E-01
 38 1.7036E-02 5.7702E+01 1.7124E+02  3.00E+00  -4.2533E+00  1.7550E+02  5.6497E-07  5.0100E-08 -7.6202E-01  4.8622E-01
 39 1.9387E-02 5.6562E+01 1.7254E+02  3.00E+00  -4.2533E+00  1.7679E+02  6.4907E-07  5.0100E-08 -7.0413E-01  4.6771E-01
 40 2.2032E-02 5.5426E+01 1.7383E+02  3.00E+00  -4.2533E+00  1.7809E+02  7.4486E-07  5.0100E-08 -6.3374E-01  4.3406E-01
 41 2.5004E-02 5.4294E+01 1.7513E+02  3.00E+00  -4.2533E+00  1.7939E+02  8.5270E-07  5.0100E-08 -5.4107E-01  3.8908E-01
 42 2.8338E-02 5.3166E+01 1.7643E+02  3.00E+00  -4.2533E+00  1.8068E+02  9.7331E-07  5.0100E-08 -4.7155E-01  3.3788E-01
 43 3.2073E-02 5.2042E+01 1.7773E+02  3.00E+00  -4.2533E+00  1.8198E+02  1.1078E-06  5.0100E-08 -4.3537E-01  2.8595E-01
 44 3.6251E-02 5.0921E+01 1.7902E+02  3.00E+00  -4.2533E+00  1.8327E+02  1.2574E-06  5.0100E-08 -4.3040E-01  2.3817E-01
 45 4.0917E-02 4.9806E+01 1.8031E+02  3.00E+00  -4.2533E+00  1.8456E+02  1.4242E-06  5.0100E-08 -4.3754E-01  1.9792E-01
 46 4.6121E-02 4.8695E+01 1.8161E+02  3.00E+00  -4.2533E+00  1.8586E+02  1.6101E-06  5.0100E-08 -4.5438E-01  1.6665E-01
 47 5.1916E-02 4.7589E+01 1.8290E+02  3.00E+00  -4.2533E+00  1.8715E+02  1.8169E-06  5.0100E-08 -4.7547E-01  1.4402E-01
 48 5.8359E-02 4.6487E+01 1.8420E+02  3.00E+00  -4.2533E+00  1.8845E+02  2.0463E-06  5.0100E-08 -4.8818E-01  1.2849E-01
 49 6.5513E-02 4.5391E+01 1.8549E+02  3.00E+00  -4.2533E+00  1.8975E+02  2.3004E-06  5.0100E-08 -4.9740E-01  1.1806E-01
 50 7.3444E-02 4.4300E+01 1.8679E+02  3.00E+00  -4.2533E+00  1.9104E+02  2.5811E-06  5.0100E-08 -5.0615E-01  1.1079E-01
 51 8.2222E-02 4.3215E+01 1.8809E+02  3.00E+00  -4.2533E+00  1.9234E+02  2.8907E-06  5.0100E-08 -5.0432E-01  1.0522E-01
 52 9.1924E-02 4.2136E+01 1.8938E+02  3.00E+00  -4.2533E+00  1.9363E+02  3.2301E-06  5.1188E-08 -4.9864E-01  1.0036E-01
 53 1.0263E-01 4.1062E+01 1.9066E+02  3.00E+00  -4.2533E+00  1.9491E+02  3.5974E-06  5.5542E-08 -5.0378E-01  9.8637E-02
 54 1.1443E-01 3.9994E+01 1.9193E+02  3.00E+00  -4.2533E+00  1.9619E+02  3.9931E-06  6.1505E-08 -5.5018E-01  1.0439E-01
 55 1.2741E-01 3.8933E+01 1.9319E+02  3.00E+00  -4.2533E+00  1.9745E+02  4.4182E-06  6.8030E-08 -5.6584E-01  1.0738E-01
 56 1.4167E-01 3.7879E+01 1.9445E+02  3.00E+00  -4.2533E+00  1.9870E+02  4.8735E-06  7.5160E-08 -5.6293E-01  1.0786E-01
 57 1.5731E-01 3.6831E+01 1.9569E+02  3.00E+00  -4.2533E+00  1.9994E+02  5.3604E-06  8.2940E-08 -5.4754E-01  1.0627E-01
 58 1.7444E-01 3.5791E+01 1.9692E+02  3.00E+00  -4.2533E+00  2.0117E+02  5.8798E-06  9.1418E-08 -5.3993E-01  1.0314E-01
 59 1.9317E-01 3.4757E+01 1.9814E+02  3.00E+00  -4.2533E+00  2.0239E+02  6.4322E-06  1.0064E-07 -5.0950E-01  9.9006E-02
 60 2.1363E-01 3.3732E+01 1.9935E+02  3.00E+00  -4.2533E+00  2.0360E+02  7.0179E-06  1.1067E-07 -4.7082E-01  9.4339E-02
 61 2.3592E-01 3.2714E+01 2.0055E+02  3.00E+00  -4.2533E+00  2.0480E+02  7.6369E-06  1.2154E-07 -4.3167E-01  8.9500E-02
 62 2.6019E-01 3.1704E+01 2.0173E+02  3.00E+00  -4.2533E+00  2.0598E+02  8.2892E-06  1.3333E-07 -3.9691E-01  8.4705E-02
 63 2.8657E-01 3.0702E+01 2.0291E+02  3.00E+00  -4.2533E+00  2.0716E+02  8.9751E-06  1.4608E-07 -3.7357E-01  8.0033E-02
 64 3.1518E-01 2.9709E+01 2.0407E+02  3.00E+00  -4.2533E+00  2.0832E+02  9.6949E-06  1.5985E-07 -3.3657E-01  7.5453E-02
 65 3.4619E-01 2.8724E+01 2.0522E+02  3.00E+00  -4.2533E+00  2.0948E+02  1.0449E-05  1.7471E-07 -2.9714E-01  7.0878E-02
 66 3.7972E-01 2.7748E+01 2.0636E+02  3.00E+00  -4.2533E+00  2.1062E+02  1.1237E-05  1.9071E-07 -2.6274E-01  6.6273E-02
 67 4.1594E-01 2.6781E+01 2.0770E+02  3.00E+00  -4.2533E+00  2.1195E+02  1.2423E-05  2.0792E-07 -2.4848E-01  6.1971E-02
 68 4.5498E-01 2.5822E+01 2.0925E+02  3.00E+00  -4.2533E+00  2.1351E+02  1.4138E-05  2.2641E-07 -2.4564E-01  5.8025E-02
 69 4.9702E-01 2.4870E+01 2.1082E+02  3.00E+00  -4.2533E+00  2.1508E+02  1.6094E-05  2.4623E-07 -2.3420E-01  5.4121E-02
 70 5.4220E-01 2.3926E+01 2.1241E+02  3.00E+00  -4.2533E+00  2.1666E+02  1.8326E-05  2.6745E-07 -2.1688E-01  5.0286E-02
 71 5.9069E-01 2.2989E+01 2.1400E+02  3.00E+00  -4.2533E+00  2.1826E+02  2.0872E-05  2.9014E-07 -2.0337E-01  4.6599E-02
 72 6.4263E-01 2.2061E+01 2.1562E+02  3.00E+00  -4.2533E+00  2.1987E+02  2.3775E-05  3.1436E-07 -1.8686E-01  4.3155E-02
 73 6.9819E-01 2.1141E+01 2.1725E+02  3.00E+00  -4.2533E+00  2.2150E+02  2.7086E-05  3.4017E-07 -1.7580E-01  4.0059E-02
 74 7.5751E-01 2.0228E+01 2.1889E+02  3.00E+00  -4.2533E+00  2.2314E+02  3.0857E-05  3.6763E-07 -1.6480E-01  3.7409E-02
 75 8.2076E-01 1.9325E+01 2.2053E+02  3.00E+00  -4.2533E+00  2.2479E+02  3.5090E-05  3.9682E-07 -1.5273E-01  3.5253E-02
 76 8.8808E-01 1.8430E+01 2.2217E+02  3.00E+00  -4.2533E+00  2.2643E+02  3.9804E-05  4.2778E-07 -1.4478E-01  3.3591E-02
 77 9.5961E-01 1.7544E+01 2.2380E+02  3.00E+00  -4.2533E+00  2.2806E+02  4.5039E-05  4.6057E-07 -1.3714E-01  3.2365E-02
 78 1.0355E+00 1.6668E+01 2.2542E+02  3.00E+00  -4.2533E+00  2.2968E+02  5.0823E-05  5.4424E-07 -1.3541E-01  3.2725E-02
 79 1.1158E+00 1.5800E+01 2.2703E+02  3.00E+00  -4.2533E+00  2.3128E+02  5.7190E-05  9.2071E-07 -1.3930E-01  3.3183E-02
 80 1.2008E+00 1.4943E+01 2.2863E+02  3.00E+00  -4.2533E+00  2.3288E+02  6.4176E-05  1.5215E-06 -1.3424E-01  3.3359E-02
 81 1.2905E+00 1.4096E+01 2.3021E+02  3.00E+00  -4.2533E+00  2.3446E+02  7.1773E-05  2.4586E-06 -1.2573E-01  3.3125E-02
 82 1.3849E+00 1.3259E+01 2.3176E+02  3.00E+00  -4.2533E+00  2.3601E+02  7.9975E-05  3.8888E-06 -1.1205E-01  3.2597E-02
 83 1.4843E+00 1.2433E+01 2.3330E+02  3.00E+00  -4.2533E+00  2.3755E+02  8.8797E-05  6.0268E-06 -9.4845E-02  3.1782E-02
 84 1.5886E+00 1.1617E+01 2.3480E+02  3.00E+00  -4.2533E+00  2.3906E+02  9.8230E-05  9.1597E-06 -7.8424E-02  3.0720E-02
 85 1.6980E+00 1.0813E+01 2.3628E+02  3.00E+00  -4.2533E+00  2.4054E+02  1.0825E-04  1.3663E-05 -6.1995E-02  2.9506E-02
 86 1.8124E+00 1.0021E+01 2.3774E+02  3.00E+00  -4.2533E+00  2.4199E+02  1.1884E-04  2.0019E-05 -4.8724E-02  2.8224E-02
 87 1.9318E+00 9.2403E+00 2.3916E+02  3.00E+00  -4.2533E+00  2.4341E+02  1.3000E-04  2.8830E-05 -3.8660E-02  2.6921E-02
 88 2.0564E+00 8.4718E+00 2.4056E+02  3.00E+00  -4.2533E+00  2.4481E+02  1.4174E-04  4.0836E-05 -3.0553E-02  2.5608E-02
 89 2.1859E+00 7.7158E+00 2.4193E+02  3.00E+00  -4.2533E+00  2.4618E+02  1.5405E-04  5.6925E-05 -2.4844E-02  2.4283E-02
 90 2.3205E+00 6.9725E+00 2.4327E+02  3.00E+00  -4.2533E+00  2.4752E+02  1.6690E-04  7.8137E-05 -2.0240E-02  2.2958E-02
 91 2.4600E+00 6.2421E+00 2.4458E+02  3.00E+00  -4.2533E+00  2.4884E+02  1.8024E-04  1.0566E-04 -1.7122E-02  2.1659E-02
 92 2.6044E+00 5.5250E+00 2.4586E+02  3.00E+00  -4.2533E+00  2.5012E+02  1.9397E-04  1.4082E-04 -1.5147E-02  2.0424E-02
 93 2.7535E+00 4.8214E+00 2.4711E+02  3.00E+00  -4.2533E+00  2.5136E+02  2.0806E-04  1.8506E-04 -1.3921E-02  1.9298E-02
 94 2.9071E+00 4.1317E+00 2.4832E+02  3.00E+00  -4.2533E+00  2.5258E+02  2.2247E-04  2.3988E-04 -1.2497E-02  1.8309E-02
 95 3.0651E+00 3.4560E+00 2.4950E+02  3.00E+00  -4.2533E+00  2.5376E+02  2.3713E-04  3.0682E-04 -1.1140E-02  1.7470E-02
 96 3.2273E+00 2.7946E+00 2.5065E+02  3.00E+00  -4.2533E+00  2.5490E+02  2.5196E-04  3.8738E-04 -1.0139E-02  1.6773E-02
 97 3.3935E+00 2.1478E+00 2.5176E+02  3.00E+00  -4.2533E+00  2.5601E+02  2.6692E-04  4.8296E-04 -9.4996E-03  1.6204E-02
 98 3.5633E+00 1.5158E+00 2.5283E+02  3.00E+00  -4.2533E+00  2.5709E+02  2.8197E-04  5.9476E-04 -8.7828E-03  1.5742E-02
 99 3.7366E+00 8.9890E-01 2.5388E+02  3.00E+00  -4.2533E+00  2.5813E+02  2.9707E-04  7.2378E-04 -1.1690E-02  1.5365E-02
100 3.9129E+00 2.9725E-01 2.5489E+02  3.00E+00  -4.2533E+00  2.5914E+02  3.1218E-04  8.7070E-04 -1.3688E-02  1.5060E-02
101 4.0029E+00 0.0000E+00 2.5538E+02  1.00E+00  -4.2533E+00  2.5964E+02  3.1978E-04  9.5174E-04  0.0000E+00  0.0000E+00
  J     P         ALT         T        CONVEC       DT          TOLD        FH20       FSAVE       TCOOL       THEAT

 FCO2
  9.50E-01 9.50E-01 9.50E-01 9.50E-01 9.50E-01 9.50E-01 9.50E-01 9.50E-01 9.50E-01 9.50E-01
  9.50E-01 9.50E-01 9.50E-01 9.50E-01 9.50E-01 9.50E-01 9.50E-01 9.50E-01 9.50E-01 9.50E-01
  9.50E-01 9.50E-01 9.50E-01 9.50E-01 9.50E-01 9.50E-01 9.50E-01 9.50E-01 9.50E-01 9.50E-01
  9.50E-01 9.50E-01 9.50E-01 9.50E-01 9.50E-01 9.50E-01 9.50E-01 9.50E-01 9.50E-01 9.50E-01
  9.50E-01 9.50E-01 9.50E-01 9.50E-01 9.50E-01 9.50E-01 9.50E-01 9.50E-01 9.50E-01 9.50E-01
  9.50E-01 9.50E-01 9.50E-01 9.50E-01 9.50E-01 9.50E-01 9.50E-01 9.50E-01 9.50E-01 9.50E-01
  9.50E-01 9.50E-01 9.50E-01 9.50E-01 9.50E-01 9.50E-01 9.50E-01 9.50E-01 9.50E-01 9.50E-01
  9.50E-01 9.50E-01 9.50E-01 9.50E-01 9.50E-01 9.50E-01 9.50E-01 9.50E-01 9.50E-01 9.50E-01
  9.50E-01 9.50E-01 9.50E-01 9.50E-01 9.50E-01 9.50E-01 9.50E-01 9.50E-01 9.50E-01 9.50E-01
  9.50E-01 9.50E-01 9.50E-01 9.50E-01 9.50E-01 9.50E-01 9.50E-01 9.50E-01 9.50E-01 9.50E-01
  9.50E-01

  J    PF         ALT       FTOTAL       FTIR       FDNIR       FUPIR       FTSOL       FDNSOL       FUPSOL       DIVF
  1 5.0000E-05 1.0428E+02 -1.6490E+04 -1.0066E+05  0.0000E+00  1.0066E+05  8.4171E+04  1.4620E+05  6.2027E+04 -1.6382E-01
  2 5.9883E-05 1.0258E+02 -1.6490E+04 -1.0016E+05  3.8341E+02  1.0055E+05  8.3672E+04  1.4570E+05  6.2027E+04 -1.6401E-01
  3 7.1623E-05 1.0096E+02 -1.6495E+04 -9.9984E+04  4.6029E+02  1.0044E+05  8.3489E+04  1.4552E+05  6.2027E+04 -1.6422E-01
  4 8.5546E-05 9.9403E+01 -1.6492E+04 -9.9865E+04  4.9477E+02  1.0036E+05  8.3373E+04  1.4540E+05  6.2027E+04 -1.6433E-01
  5 1.0204E-04 9.7915E+01 -1.6488E+04 -9.9786E+04  5.1310E+02  1.0030E+05  8.3298E+04  1.4532E+05  6.2026E+04 -1.6438E-01
  6 1.2154E-04 9.6483E+01 -1.6471E+04 -9.9716E+04  5.3704E+02  1.0025E+05  8.3245E+04  1.4527E+05  6.2026E+04 -1.6430E-01
  7 1.4458E-04 9.5094E+01 -1.6453E+04 -9.9653E+04  5.6986E+02  1.0022E+05  8.3201E+04  1.4523E+05  6.2025E+04 -1.6416E-01
  8 1.7175E-04 9.3735E+01 -1.6443E+04 -9.9600E+04  6.0562E+02  1.0021E+05  8.3158E+04  1.4518E+05  6.2025E+04 -1.6409E-01
  9 2.0374E-04 9.2397E+01 -1.6442E+04 -9.9553E+04  6.4352E+02  1.0020E+05  8.3112E+04  1.4514E+05  6.2024E+04 -1.6409E-01
 10 2.4137E-04 9.1076E+01 -1.6445E+04 -9.9506E+04  6.8735E+02  1.0019E+05  8.3061E+04  1.4508E+05  6.2023E+04 -1.6413E-01
 11 2.8556E-04 8.9766E+01 -1.6447E+04 -9.9451E+04  7.4199E+02  1.0019E+05  8.3004E+04  1.4503E+05  6.2022E+04 -1.6415E-01
 12 3.3737E-04 8.8468E+01 -1.6443E+04 -9.9385E+04  8.0984E+02  1.0019E+05  8.2942E+04  1.4496E+05  6.2021E+04 -1.6411E-01
 13 3.9805E-04 8.7179E+01 -1.6433E+04 -9.9307E+04  8.9045E+02  1.0020E+05  8.2874E+04  1.4489E+05  6.2020E+04 -1.6401E-01
 14 4.6899E-04 8.5900E+01 -1.6411E+04 -9.9211E+04  9.8148E+02  1.0019E+05  8.2800E+04  1.4482E+05  6.2018E+04 -1.6380E-01
 15 5.5183E-04 8.4639E+01 -1.6389E+04 -9.9111E+04  1.0540E+03  1.0016E+05  8.2722E+04  1.4474E+05  6.2016E+04 -1.6362E-01
 16 6.4842E-04 8.3410E+01 -1.6410E+04 -9.9050E+04  1.0831E+03  1.0013E+05  8.2640E+04  1.4465E+05  6.2014E+04 -1.6388E-01
 17 7.6087E-04 8.2212E+01 -1.6482E+04 -9.9037E+04  1.1122E+03  1.0015E+05  8.2555E+04  1.4457E+05  6.2012E+04 -1.6458E-01
 18 8.9161E-04 8.1027E+01 -1.6558E+04 -9.9027E+04  1.1753E+03  1.0020E+05  8.2468E+04  1.4448E+05  6.2009E+04 -1.6525E-01
 19 1.0434E-03 7.9845E+01 -1.6615E+04 -9.8997E+04  1.2584E+03  1.0026E+05  8.2382E+04  1.4439E+05  6.2006E+04 -1.6573E-01
 20 1.2194E-03 7.8663E+01 -1.6654E+04 -9.8939E+04  1.3798E+03  1.0032E+05  8.2285E+04  1.4429E+05  6.2002E+04 -1.6601E-01
 21 1.4230E-03 7.7483E+01 -1.6679E+04 -9.8861E+04  1.5340E+03  1.0040E+05  8.2182E+04  1.4418E+05  6.1998E+04 -1.6614E-01
 22 1.6585E-03 7.6304E+01 -1.6686E+04 -9.8764E+04  1.7173E+03  1.0048E+05  8.2078E+04  1.4407E+05  6.1992E+04 -1.6606E-01
 23 1.9303E-03 7.5126E+01 -1.6672E+04 -9.8649E+04  1.9299E+03  1.0058E+05  8.1977E+04  1.4396E+05  6.1987E+04 -1.6576E-01
 24 2.2435E-03 7.3949E+01 -1.6640E+04 -9.8519E+04  2.1670E+03  1.0069E+05  8.1880E+04  1.4386E+05  6.1980E+04 -1.6526E-01
 25 2.6041E-03 7.2775E+01 -1.6596E+04 -9.8379E+04  2.4278E+03  1.0081E+05  8.1783E+04  1.4376E+05  6.1972E+04 -1.6463E-01
 26 3.0184E-03 7.1602E+01 -1.6554E+04 -9.8240E+04  2.6993E+03  1.0094E+05  8.1686E+04  1.4365E+05  6.1963E+04 -1.6400E-01
 27 3.4940E-03 7.0430E+01 -1.6514E+04 -9.8102E+04  2.9812E+03  1.0108E+05  8.1588E+04  1.4354E+05  6.1953E+04 -1.6337E-01
 28 4.0389E-03 6.9261E+01 -1.6472E+04 -9.7961E+04  3.2778E+03  1.0124E+05  8.1489E+04  1.4343E+05  6.1941E+04 -1.6271E-01
 29 4.6625E-03 6.8094E+01 -1.6422E+04 -9.7812E+04  3.5950E+03  1.0141E+05  8.1390E+04  1.4332E+05  6.1928E+04 -1.6194E-01
 30 5.3750E-03 6.6928E+01 -1.6353E+04 -9.7643E+04  3.9459E+03  1.0159E+05  8.1290E+04  1.4320E+05  6.1912E+04 -1.6097E-01
 31 6.1880E-03 6.5765E+01 -1.6271E+04 -9.7461E+04  4.3236E+03  1.0178E+05  8.1190E+04  1.4308E+05  6.1895E+04 -1.5985E-01
 32 7.1142E-03 6.4605E+01 -1.6177E+04 -9.7265E+04  4.7273E+03  1.0199E+05  8.1088E+04  1.4296E+05  6.1875E+04 -1.5861E-01
 33 8.1679E-03 6.3447E+01 -1.6077E+04 -9.7058E+04  5.1536E+03  1.0221E+05  8.0981E+04  1.4283E+05  6.1852E+04 -1.5729E-01
 34 9.3649E-03 6.2292E+01 -1.5970E+04 -9.6837E+04  5.6076E+03  1.0244E+05  8.0867E+04  1.4269E+05  6.1827E+04 -1.5589E-01
 35 1.0723E-02 6.1140E+01 -1.5862E+04 -9.6606E+04  6.0786E+03  1.0269E+05  8.0744E+04  1.4254E+05  6.1798E+04 -1.5447E-01
 36 1.2261E-02 5.9991E+01 -1.5726E+04 -9.6318E+04  6.6361E+03  1.0295E+05  8.0592E+04  1.4236E+05  6.1766E+04 -1.5275E-01
 37 1.4000E-02 5.8845E+01 -1.5590E+04 -9.5997E+04  7.2524E+03  1.0325E+05  8.0408E+04  1.4214E+05  6.1729E+04 -1.5099E-01
 38 1.5965E-02 5.7702E+01 -1.5449E+04 -9.5642E+04  7.9326E+03  1.0357E+05  8.0193E+04  1.4188E+05  6.1688E+04 -1.4916E-01
 39 1.8180E-02 5.6562E+01 -1.5312E+04 -9.5264E+04  8.6627E+03  1.0393E+05  7.9952E+04  1.4159E+05  6.1641E+04 -1.4734E-01
 40 2.0674E-02 5.5426E+01 -1.5179E+04 -9.4869E+04  9.4340E+03  1.0430E+05  7.9689E+04  1.4128E+05  6.1589E+04 -1.4553E-01
 41 2.3479E-02 5.4294E+01 -1.5053E+04 -9.4469E+04  1.0239E+04  1.0471E+05  7.9415E+04  1.4095E+05  6.1531E+04 -1.4377E-01
 42 2.6628E-02 5.3166E+01 -1.4945E+04 -9.4084E+04  1.1054E+04  1.0514E+05  7.9139E+04  1.4061E+05  6.1467E+04 -1.4215E-01
 43 3.0158E-02 5.2042E+01 -1.4839E+04 -9.3708E+04  1.1887E+04  1.0559E+05  7.8869E+04  1.4026E+05  6.1395E+04 -1.4053E-01
 44 3.4110E-02 5.0921E+01 -1.4705E+04 -9.3318E+04  1.2758E+04  1.0608E+05  7.8613E+04  1.3993E+05  6.1315E+04 -1.3863E-01
 45 3.8527E-02 4.9806E+01 -1.4512E+04 -9.2887E+04  1.3704E+04  1.0659E+05  7.8375E+04  1.3960E+05  6.1226E+04 -1.3615E-01
 46 4.3456E-02 4.8695E+01 -1.4244E+04 -9.2397E+04  1.4738E+04  1.0714E+05  7.8153E+04  1.3928E+05  6.1128E+04 -1.3295E-01
 47 4.8949E-02 4.7589E+01 -1.3884E+04 -9.1829E+04  1.5881E+04  1.0771E+05  7.7945E+04  1.3896E+05  6.1020E+04 -1.2890E-01
 48 5.5062E-02 4.6487E+01 -1.3422E+04 -9.1166E+04  1.7154E+04  1.0832E+05  7.7744E+04  1.3864E+05  6.0900E+04 -1.2391E-01
 49 6.1854E-02 4.5391E+01 -1.2864E+04 -9.0408E+04  1.8555E+04  1.0896E+05  7.7544E+04  1.3831E+05  6.0769E+04 -1.1805E-01
 50 6.9389E-02 4.4300E+01 -1.2209E+04 -8.9550E+04  2.0090E+04  1.0964E+05  7.7341E+04  1.3797E+05  6.0625E+04 -1.1136E-01
 51 7.7736E-02 4.3215E+01 -1.1452E+04 -8.8581E+04  2.1772E+04  1.1035E+05  7.7128E+04  1.3760E+05  6.0468E+04 -1.0378E-01
 52 8.6968E-02 4.2136E+01 -1.0605E+04 -8.7511E+04  2.3588E+04  1.1110E+05  7.6905E+04  1.3720E+05  6.0296E+04 -9.5459E-02
 53 9.7164E-02 4.1062E+01 -9.6704E+03 -8.6340E+04  2.5532E+04  1.1187E+05  7.6670E+04  1.3678E+05  6.0109E+04 -8.6442E-02
 54 1.0841E-01 3.9994E+01 -8.6197E+03 -8.5034E+04  2.7644E+04  1.1268E+05  7.6414E+04  1.3632E+05  5.9905E+04 -7.6499E-02
 55 1.2079E-01 3.8933E+01 -7.3445E+03 -8.3460E+04  3.0084E+04  1.1354E+05  7.6115E+04  1.3580E+05  5.9684E+04 -6.4684E-02
 56 1.3440E-01 3.7879E+01 -5.9001E+03 -8.1677E+04  3.2789E+04  1.1447E+05  7.5777E+04  1.3522E+05  5.9445E+04 -5.1544E-02
 57 1.4934E-01 3.6831E+01 -4.3235E+03 -7.9727E+04  3.5717E+04  1.1544E+05  7.5403E+04  1.3459E+05  5.9186E+04 -3.7451E-02
 58 1.6571E-01 3.5791E+01 -2.6449E+03 -7.7644E+04  3.8826E+04  1.1647E+05  7.4999E+04  1.3391E+05  5.8907E+04 -2.2709E-02
 59 1.8363E-01 3.4757E+01 -8.2337E+02 -7.5392E+04  4.2185E+04  1.1758E+05  7.4569E+04  1.3317E+05  5.8606E+04 -7.0028E-03
 60 2.0321E-01 3.3732E+01  1.0503E+03 -7.3067E+04  4.5692E+04  1.1876E+05  7.4117E+04  1.3240E+05  5.8282E+04  8.8442E-03
 61 2.2458E-01 3.2714E+01  2.9283E+03 -7.0718E+04  4.9296E+04  1.2001E+05  7.3646E+04  1.3158E+05  5.7935E+04  2.4400E-02
 62 2.4785E-01 3.1704E+01  4.7907E+03 -6.8368E+04  5.2974E+04  1.2134E+05  7.3159E+04  1.3072E+05  5.7562E+04  3.9481E-02
 63 2.7315E-01 3.0702E+01  6.6420E+03 -6.6015E+04  5.6728E+04  1.2274E+05  7.2657E+04  1.2982E+05  5.7162E+04  5.4113E-02
 64 3.0064E-01 2.9709E+01  8.5352E+03 -6.3605E+04  6.0647E+04  1.2425E+05  7.2141E+04  1.2888E+05  5.6735E+04  6.8692E-02
 65 3.3043E-01 2.8724E+01  1.0364E+04 -6.1248E+04  6.4607E+04  1.2586E+05  7.1612E+04  1.2789E+05  5.6279E+04  8.2350E-02
 66 3.6269E-01 2.7748E+01  1.2083E+04 -5.8991E+04  6.8599E+04  1.2759E+05  7.1074E+04  1.2687E+05  5.5792E+04  9.4698E-02
 67 3.9755E-01 2.6781E+01  1.3698E+04 -5.6831E+04  7.2796E+04  1.2963E+05  7.0529E+04  1.2580E+05  5.5274E+04  1.0567E-01
 68 4.3517E-01 2.5822E+01  1.5356E+04 -5.4623E+04  7.7332E+04  1.3195E+05  6.9978E+04  1.2470E+05  5.4722E+04  1.1637E-01
 69 4.7570E-01 2.4870E+01  1.7156E+04 -5.2265E+04  8.2175E+04  1.3444E+05  6.9421E+04  1.2356E+05  5.4136E+04  1.2761E-01
 70 5.1930E-01 2.3926E+01  1.9019E+04 -4.9842E+04  8.7249E+04  1.3709E+05  6.8861E+04  1.2238E+05  5.3514E+04  1.3873E-01
 71 5.6612E-01 2.2989E+01  2.0874E+04 -4.7427E+04  9.2451E+04  1.3988E+05  6.8302E+04  1.2116E+05  5.2854E+04  1.4923E-01
 72 6.1632E-01 2.2061E+01  2.2750E+04 -4.4994E+04  9.7840E+04  1.4283E+05  6.7744E+04  1.1990E+05  5.2155E+04  1.5928E-01
 73 6.7006E-01 2.1141E+01  2.4595E+04 -4.2595E+04  1.0333E+05  1.4593E+05  6.7190E+04  1.1861E+05  5.1416E+04  1.6854E-01
 74 7.2749E-01 2.0228E+01  2.6461E+04 -4.0178E+04  1.0900E+05  1.4918E+05  6.6639E+04  1.1727E+05  5.0635E+04  1.7738E-01
 75 7.8877E-01 1.9325E+01  2.8335E+04 -3.7754E+04  1.1481E+05  1.5257E+05  6.6089E+04  1.1590E+05  4.9810E+04  1.8572E-01
 76 8.5405E-01 1.8430E+01  3.0179E+04 -3.5356E+04  1.2070E+05  1.5606E+05  6.5535E+04  1.1448E+05  4.8942E+04  1.9338E-01
 77 9.2347E-01 1.7544E+01  3.2040E+04 -3.2934E+04  1.2674E+05  1.5967E+05  6.4973E+04  1.1300E+05  4.8028E+04  2.0066E-01
 78 9.9717E-01 1.6668E+01  3.3905E+04 -3.0492E+04  1.3289E+05  1.6338E+05  6.4397E+04  1.1146E+05  4.7067E+04  2.0752E-01
 79 1.0753E+00 1.5800E+01  3.5848E+04 -2.7930E+04  1.3925E+05  1.6718E+05  6.3778E+04  1.0984E+05  4.6058E+04  2.1442E-01
 80 1.1579E+00 1.4943E+01  3.7976E+04 -2.5136E+04  1.4598E+05  1.7112E+05  6.3112E+04  1.0811E+05  4.5001E+04  2.2193E-01
 81 1.2453E+00 1.4096E+01  4.0118E+04 -2.2286E+04  1.5286E+05  1.7515E+05  6.2404E+04  1.0630E+05  4.3894E+04  2.2906E-01
 82 1.3373E+00 1.3259E+01  4.2197E+04 -1.9464E+04  1.5980E+05  1.7926E+05  6.1661E+04  1.0440E+05  4.2738E+04  2.3539E-01
 83 1.4342E+00 1.2433E+01  4.4078E+04 -1.6811E+04  1.6665E+05  1.8346E+05  6.0889E+04  1.0242E+05  4.1531E+04  2.4026E-01
 84 1.5361E+00 1.1617E+01  4.5650E+04 -1.4447E+04  1.7325E+05  1.8770E+05  6.0097E+04  1.0037E+05  4.0273E+04  2.4320E-01
 85 1.6429E+00 1.0813E+01  4.6900E+04 -1.2392E+04  1.7960E+05  1.9199E+05  5.9292E+04  9.8256E+04  3.8964E+04  2.4428E-01
 86 1.7548E+00 1.0021E+01  4.7793E+04 -1.0687E+04  1.8563E+05  1.9631E+05  5.8480E+04  9.6085E+04  3.7604E+04  2.4345E-01
 87 1.8718E+00 9.2403E+00  4.8383E+04 -9.2845E+03  1.9136E+05  2.0065E+05  5.7668E+04  9.3861E+04  3.6194E+04  2.4114E-01
 88 1.9938E+00 8.4718E+00  4.8737E+04 -8.1206E+03  1.9688E+05  2.0500E+05  5.6857E+04  9.1590E+04  3.4733E+04  2.3774E-01
 89 2.1209E+00 7.7158E+00  4.8892E+04 -7.1610E+03  2.0220E+05  2.0936E+05  5.6053E+04  8.9275E+04  3.3222E+04  2.3353E-01
 90 2.2530E+00 6.9725E+00  4.8910E+04 -6.3482E+03  2.0738E+05  2.1373E+05  5.5259E+04  8.6921E+04  3.1663E+04  2.2885E-01
 91 2.3901E+00 6.2421E+00  4.8818E+04 -5.6600E+03  2.1241E+05  2.1807E+05  5.4478E+04  8.4534E+04  3.0056E+04  2.2386E-01
 92 2.5320E+00 5.5250E+00  4.8658E+04 -5.0559E+03  2.1732E+05  2.2237E+05  5.3714E+04  8.2117E+04  2.8403E+04  2.1881E-01
 93 2.6788E+00 4.8214E+00  4.8465E+04 -4.5026E+03  2.2212E+05  2.2662E+05  5.2968E+04  7.9673E+04  2.6705E+04  2.1386E-01
 94 2.8302E+00 4.1317E+00  4.8262E+04 -3.9771E+03  2.2687E+05  2.3085E+05  5.2239E+04  7.7205E+04  2.4966E+04  2.0907E-01
 95 2.9861E+00 3.4560E+00  4.8036E+04 -3.4907E+03  2.3153E+05  2.3502E+05  5.1527E+04  7.4712E+04  2.3186E+04  2.0439E-01
 96 3.1462E+00 2.7946E+00  4.7782E+04 -3.0444E+03  2.3609E+05  2.3913E+05  5.0827E+04  7.2196E+04  2.1369E+04  1.9981E-01
 97 3.3105E+00 2.1478E+00  4.7509E+04 -2.6272E+03  2.4054E+05  2.4317E+05  5.0136E+04  6.9655E+04  1.9519E+04  1.9538E-01
 98 3.4786E+00 1.5158E+00  4.7227E+04 -2.2266E+03  2.4491E+05  2.4714E+05  4.9453E+04  6.7091E+04  1.7638E+04  1.9109E-01
 99 3.6502E+00 8.9890E-01  4.6927E+04 -1.8479E+03  2.4915E+05  2.5100E+05  4.8774E+04  6.4505E+04  1.5730E+04  1.8696E-01
100 3.8251E+00 2.9725E-01  4.6765E+04 -1.3336E+03  2.5327E+05  2.5460E+05  4.8098E+04  6.1900E+04  1.3801E+04  1.8368E-01
101 4.0029E+00 0.0000E+00  4.6703E+04 -7.2059E+02  2.5560E+05  2.5632E+05  4.7424E+04  5.9280E+04  1.1856E+04  1.8221E-01
 
