   144.979611813444       1.217390978324267E-008
   145.999937269304       1.217390978324267E-008
   146.897931517543       1.217390978324267E-008
   146.869626867374       1.217390978324267E-008
   145.592423247317       1.217390978324267E-008
   143.668061486397       1.217390978324267E-008
   141.961152013924       1.217390978324267E-008
   141.081342423695       1.217390978324267E-008
   141.212136630739       1.217390978324267E-008
   141.932357317102       1.217390978324267E-008
   142.824035210402       1.217390978324267E-008
   143.730820203250       1.217390978324267E-008
   144.631583044101       1.217390978324267E-008
   145.537189549503       1.217390978324267E-008
   146.351794938317       1.217390978324267E-008
   147.000316929063       1.217390978324267E-008
   147.474123284992       1.217390978324267E-008
   147.799172110970       1.217390978324267E-008
   148.015131908712       1.217390978324267E-008
   148.144552581382       1.217390978324267E-008
   148.182411500569       1.217390978324267E-008
   148.155562614854       1.217390978324267E-008
   148.127020219115       1.217390978324267E-008
   148.166334590511       1.217390978324267E-008
   148.336015881556       1.217390978324267E-008
   148.671226094345       1.217390978324267E-008
   149.166428070755       1.217390978324267E-008
   149.772295072804       1.217390978324267E-008
   150.416993513334       1.217390978324267E-008
   151.035492610983       1.217390978324267E-008
   151.569186530798       1.217390978324267E-008
   151.979407841472       1.217390978324267E-008
   152.267572797105       1.217390978324267E-008
   152.456148322137       1.217390978324267E-008
   152.575444814527       1.217390978324267E-008
   152.657329085683       1.217390978324267E-008
   152.727990270297       1.217390978324267E-008
   152.804106363414       1.217390978324267E-008
   152.892024387921       1.217390978324267E-008
   153.005902299671       1.217390978324267E-008
   153.155974122925       1.217390978324267E-008
   153.362114461537       1.217390978324267E-008
   153.626300909160       1.217390978324267E-008
   153.972537693063       1.217713622107282E-008
   154.348077787802       1.219004197239343E-008
   154.802344726308       1.231493376417970E-008
   155.508551408435       1.331944388030366E-008
   156.285136073470       1.465610092179151E-008
   157.060912384718       1.611126221308794E-008
   157.835694996111       1.769353558500466E-008
   158.609292817907       1.941192646724808E-008
   159.381510843237       2.127583752010251E-008
   160.152146647496       2.329503886404407E-008
   160.920993275781       2.547966299269986E-008
   161.687840303254       2.784019016876925E-008
   162.452474842613       3.038743152517747E-008
   163.214682763252       3.313251205341391E-008
   163.974247617050       3.608683418946743E-008
   164.730956040590       3.926209020799286E-008
   165.484599985601       4.267026106716501E-008
   166.234976440543       4.632359696072991E-008
   166.981888101144       5.023460641816897E-008
   167.725143171459       5.441603775660740E-008
   168.464554938512       5.888085672398680E-008
   169.199943104376       6.364224602258999E-008
   169.931124174204       6.871345302317154E-008
   170.657912139484       7.410774130311747E-008
   171.380117430810       7.983831188373236E-008
   172.097545687996       8.591820876733299E-008
   172.809997378917       9.236022550146396E-008
   173.517267831335       9.917680970121655E-008
   174.219147366427       1.063799619829715E-007
   174.915428263515       1.139812839664717E-007
   175.605906137465       1.219919418355225E-007
   176.290383659193       1.304227009260947E-007
   176.968674962879       1.392840135177633E-007
   178.871996854246       1.884457903298921E-007
   181.982930094665       3.172248872424531E-007
   185.077069500861       5.226301192325467E-007
   188.152470049129       8.434778309357591E-007
   191.207207345735       1.334720046324336E-006
   194.239368580648       2.072569231951078E-006
   197.247039259176       3.160642145540771E-006
   200.228285971421       4.737116238685250E-006
   203.181135937749       6.982807164837974E-006
   206.103554506411       1.012996483603003E-005
   208.993422080109       1.447144839128791E-005
   211.848512038425       2.036978071441930E-005
   214.666471094815       2.826540813194256E-005
   217.444803268948       3.868331287015352E-005
   220.180858443090       5.223696290230902E-005
   222.871826493131       6.962846158882731E-005
   225.514738311842       9.164371260764473E-005
   228.106475516840       1.191414867937547E-004
   230.643790899929       1.530355108619812E-004
   233.123341402987       1.942691265564457E-004
   235.541734602250       2.437827011840080E-004
   237.895588667031       3.024747830273440E-004
   240.181604713435       3.711589223981592E-004
   242.396649266493       4.505190015417299E-004
   243.492876635609       4.951285720627537E-004
