     ALT          P          T          FH2O           O3           THEAT        TCOOL        PSATCO2        FCO2
5.1066E+01  1.0768E-04 1.2889E+02    2.0983E-07    0.0000E+00    1.0697E+00   -2.4356E+00    2.6523E-04    2.0568E-02
5.0489E+01  1.2478E-04 1.3435E+02    2.0983E-07    0.0000E+00    1.2102E+00   -3.0769E-01    7.2481E-04    2.0568E-02
4.9893E+01  1.4445E-04 1.3911E+02    2.0983E-07    0.0000E+00    1.3653E+00   -7.8042E-01    1.6281E-03    2.0568E-02
4.9284E+01  1.6702E-04 1.4310E+02    2.0983E-07    0.0000E+00    1.5354E+00   -1.3691E+00    3.0702E-03    2.0568E-02
4.8663E+01  1.9290E-04 1.4642E+02    2.0983E-07    0.0000E+00    1.7202E+00   -1.7060E+00    5.0742E-03    2.0568E-02
4.8034E+01  2.2254E-04 1.4926E+02    2.0983E-07    0.0000E+00    1.9184E+00   -2.0038E+00    7.6448E-03    2.0568E-02
4.7398E+01  2.5645E-04 1.5173E+02    2.0983E-07    0.0000E+00    2.1548E+00   -2.2299E+00    1.0792E-02    2.0568E-02
4.6758E+01  2.9521E-04 1.5392E+02    2.0983E-07    0.0000E+00    2.4090E+00   -2.4610E+00    1.4512E-02    2.0568E-02
4.6115E+01  3.3943E-04 1.5587E+02    2.0983E-07    0.0000E+00    2.6619E+00   -2.6937E+00    1.8755E-02    2.0568E-02
4.5469E+01  3.8985E-04 1.5760E+02    2.0983E-07    0.0000E+00    2.9016E+00   -2.9209E+00    2.3395E-02    2.0568E-02
4.4821E+01  4.4725E-04 1.5909E+02    2.0983E-07    0.0000E+00    3.1121E+00   -3.1319E+00    2.8206E-02    2.0568E-02
4.4174E+01  5.1253E-04 1.6032E+02    2.0983E-07    0.0000E+00    3.2742E+00   -3.2847E+00    3.2838E-02    2.0568E-02
4.3527E+01  5.8668E-04 1.6126E+02    2.0983E-07    0.0000E+00    3.3670E+00   -3.3757E+00    3.6820E-02    2.0568E-02
4.2882E+01  6.7081E-04 1.6186E+02    2.0983E-07    0.0000E+00    3.3713E+00   -3.3440E+00    3.9578E-02    2.0568E-02
4.2242E+01  7.6615E-04 1.6207E+02    2.0983E-07    0.0000E+00    3.2749E+00   -3.2018E+00    4.0569E-02    2.0568E-02
4.1607E+01  8.7406E-04 1.6183E+02    2.0983E-07    0.0000E+00    3.0788E+00   -2.8483E+00    3.9458E-02    2.0568E-02
4.0979E+01  9.9606E-04 1.6119E+02    2.0983E-07    0.0000E+00    2.8035E+00   -2.4040E+00    3.6517E-02    2.0568E-02
4.0359E+01  1.1338E-03 1.6041E+02    2.0983E-07    0.0000E+00    2.5079E+00   -2.5699E+00    3.3190E-02    2.0568E-02
3.9747E+01  1.2892E-03 1.5984E+02    2.0983E-07    0.0000E+00    2.2237E+00   -2.4952E+00    3.0966E-02    2.0568E-02
3.9141E+01  1.4642E-03 1.5975E+02    2.0983E-07    0.0000E+00    2.0061E+00   -2.2972E+00    3.0634E-02    2.0568E-02
3.8540E+01  1.6611E-03 1.6023E+02    2.0983E-07    0.0000E+00    1.8924E+00   -2.0982E+00    3.2491E-02    2.0568E-02
3.7942E+01  1.8824E-03 1.6122E+02    2.0983E-07    0.0000E+00    1.8882E+00   -1.9735E+00    3.6634E-02    2.0568E-02
3.7345E+01  2.1308E-03 1.6257E+02    2.0983E-07    0.0000E+00    1.9665E+00   -1.9553E+00    4.3073E-02    2.0568E-02
3.6747E+01  2.4092E-03 1.6412E+02    2.0983E-07    0.0000E+00    2.0840E+00   -2.0279E+00    5.1715E-02    2.0568E-02
3.6150E+01  2.7210E-03 1.6573E+02    2.0983E-07    0.0000E+00    2.2008E+00   -2.1256E+00    6.2320E-02    2.0568E-02
3.5552E+01  3.0698E-03 1.6731E+02    2.0983E-07    0.0000E+00    2.2892E+00   -2.2258E+00    7.4516E-02    2.0568E-02
3.4955E+01  3.4593E-03 1.6879E+02    2.0983E-07    0.0000E+00    2.3319E+00   -2.2768E+00    8.7847E-02    2.0568E-02
3.4358E+01  3.8940E-03 1.7015E+02    2.0983E-07    0.0000E+00    2.3190E+00   -2.2876E+00    1.0188E-01    2.0568E-02
3.3762E+01  4.3783E-03 1.7138E+02    2.0983E-07    0.0000E+00    2.2468E+00   -2.2270E+00    1.1628E-01    2.0568E-02
3.3168E+01  4.9174E-03 1.7249E+02    2.0983E-07    0.0000E+00    2.1203E+00   -2.1136E+00    1.3081E-01    2.0568E-02
3.2575E+01  5.5167E-03 1.7350E+02    2.0983E-07    0.0000E+00    1.9529E+00   -1.9585E+00    1.4536E-01    2.0568E-02
3.1986E+01  6.1821E-03 1.7442E+02    2.0983E-07    0.0000E+00    1.7644E+00   -1.7789E+00    1.5984E-01    2.0568E-02
3.1399E+01  6.9200E-03 1.7525E+02    2.0983E-07    0.0000E+00    1.5760E+00   -1.5916E+00    1.7409E-01    2.0568E-02
3.0815E+01  7.7373E-03 1.7599E+02    2.0983E-07    0.0000E+00    1.4048E+00   -1.3947E+00    1.8775E-01    2.0568E-02
3.0235E+01  8.6415E-03 1.7663E+02    2.0983E-07    0.0000E+00    1.2600E+00   -1.2197E+00    2.0018E-01    2.0568E-02
2.9659E+01  9.6406E-03 1.7715E+02    2.0983E-07    0.0000E+00    1.1440E+00   -1.0623E+00    2.1088E-01    2.0568E-02
2.9088E+01  1.0743E-02 1.7759E+02    2.0983E-07    0.0000E+00    1.0548E+00   -1.0411E+00    2.2035E-01    2.0568E-02
2.8520E+01  1.1958E-02 1.7801E+02    2.0983E-07    0.0000E+00    9.9279E-01   -1.0489E+00    2.2966E-01    2.0568E-02
2.7958E+01  1.3296E-02 1.7848E+02    2.0983E-07    0.0000E+00    9.5574E-01   -1.0209E+00    2.4046E-01    2.0568E-02
2.7400E+01  1.4767E-02 1.7902E+02    2.0983E-07    0.0000E+00    9.3748E-01   -9.7491E-01    2.5354E-01    2.0568E-02
2.6845E+01  1.6383E-02 1.7958E+02    2.1218E-07    0.0000E+00    9.2821E-01   -9.0617E-01    2.6784E-01    2.0568E-02
2.6295E+01  1.8155E-02 1.8049E+02    2.2159E-07    0.0000E+00    9.1953E-01   -9.0557E-01    2.9251E-01    2.0568E-02
2.5748E+01  2.0096E-02 1.8164E+02    2.4634E-07    0.0000E+00    9.0283E-01   -8.9793E-01    3.2639E-01    2.0568E-02
2.5203E+01  2.2219E-02 1.8285E+02    2.7810E-07    0.0000E+00    8.7234E-01   -8.6484E-01    3.6557E-01    2.0568E-02
2.4660E+01  2.4540E-02 1.8400E+02    3.1122E-07    0.0000E+00    8.2663E-01   -8.2735E-01    4.0698E-01    2.0568E-02
2.4121E+01  2.7073E-02 1.8506E+02    3.4041E-07    0.0000E+00    7.6772E-01   -7.6470E-01    4.4843E-01    2.0568E-02
2.3585E+01  2.9834E-02 1.8599E+02    3.6179E-07    0.0000E+00    7.0023E-01   -6.9210E-01    4.8794E-01    2.0568E-02
2.3052E+01  3.2839E-02 1.8679E+02    3.7543E-07    0.0000E+00    6.3039E-01   -6.2872E-01    5.2423E-01    2.0568E-02
2.2524E+01  3.6107E-02 1.8745E+02    3.7973E-07    0.0000E+00    5.6481E-01   -5.6394E-01    5.5582E-01    2.0568E-02
2.2000E+01  3.9656E-02 1.8807E+02    3.8519E-07    0.0000E+00    5.0935E-01   -5.1241E-01    5.8720E-01    2.0568E-02
2.1480E+01  4.3505E-02 1.8872E+02    3.9303E-07    0.0000E+00    4.6729E-01   -4.6576E-01    6.2190E-01    2.0568E-02
2.0965E+01  4.7674E-02 1.8945E+02    3.9490E-07    0.0000E+00    4.3933E-01   -4.4003E-01    6.6262E-01    2.0568E-02
2.0454E+01  5.2184E-02 1.9030E+02    4.2631E-07    0.0000E+00    4.2360E-01   -4.2427E-01    7.1329E-01    2.0568E-02
1.9948E+01  5.7057E-02 1.9128E+02    4.4849E-07    0.0000E+00    4.1658E-01   -4.1659E-01    7.7563E-01    2.0568E-02
1.9444E+01  6.2316E-02 1.9237E+02    5.0225E-07    0.0000E+00    4.1440E-01   -4.1479E-01    8.5090E-01    2.0568E-02
1.8944E+01  6.7983E-02 1.9353E+02    5.4173E-07    0.0000E+00    4.1368E-01   -4.1220E-01    9.3761E-01    2.0568E-02
1.8448E+01  7.4082E-02 1.9469E+02    6.1695E-07    0.0000E+00    4.1200E-01   -4.1279E-01    1.0326E+00    2.0568E-02
1.7955E+01  8.0639E-02 1.9588E+02    6.5912E-07    0.0000E+00    4.0809E-01   -4.0694E-01    1.1372E+00    2.0568E-02
1.7466E+01  8.7677E-02 1.9694E+02    7.5423E-07    0.0000E+00    4.0119E-01   -3.9800E-01    1.2389E+00    2.0568E-02
1.6980E+01  9.5224E-02 1.9802E+02    7.8460E-07    0.0000E+00    3.9167E-01   -4.0530E-01    1.3506E+00    2.0568E-02
1.6499E+01  1.0330E-01 1.9904E+02    8.8968E-07    0.0000E+00    3.7802E-01   -3.6922E-01    1.4646E+00    2.0568E-02
1.6022E+01  1.1195E-01 1.9990E+02    9.2048E-07    0.0000E+00    3.5993E-01   -3.5761E-01    1.5665E+00    2.0568E-02
1.5550E+01  1.2117E-01 2.0062E+02    9.5094E-07    0.0000E+00    3.4106E-01   -3.4127E-01    1.6558E+00    2.0568E-02
1.5083E+01  1.3102E-01 2.0132E+02    1.0295E-06    0.0000E+00    3.2274E-01   -3.2134E-01    1.7475E+00    2.0568E-02
1.4621E+01  1.4150E-01 2.0187E+02    1.1509E-06    0.0000E+00    3.0522E-01   -2.9787E-01    1.8232E+00    2.0568E-02
1.4164E+01  1.5265E-01 2.0263E+02    1.2637E-06    0.0000E+00    2.8959E-01   -3.0825E-01    1.9317E+00    2.0568E-02
1.3713E+01  1.6450E-01 2.0353E+02    1.4476E-06    0.0000E+00    2.7595E-01   -2.6457E-01    2.0674E+00    2.0568E-02
1.3266E+01  1.7706E-01 2.0417E+02    1.6360E-06    0.0000E+00    2.6362E-01   -2.6441E-01    2.1695E+00    2.0568E-02
1.2823E+01  1.9038E-01 2.0604E+02    2.0239E-06    0.0000E+00    2.5711E-01   -2.5616E-01    2.4899E+00    2.0568E-02
1.2384E+01  2.0446E-01 2.0708E+02    2.4689E-06    0.0000E+00    2.5120E-01   -2.5105E-01    2.6861E+00    2.0568E-02
1.1948E+01  2.1935E-01 2.1054E+02    3.6753E-06    0.0000E+00    2.6105E-01   -5.9699E-01    3.4373E+00    2.0568E-02
1.1510E+01  2.3505E-01 2.1472E+02    6.5890E-06    0.0000E+00    2.8866E-01   -1.0286E+00    4.5818E+00    2.0568E-02
1.1071E+01  2.5160E-01 2.1890E+02    1.1548E-05    0.0000E+00    3.3440E-01   -1.4400E+00    5.7264E+00    2.0568E-02
1.0631E+01  2.6901E-01 2.2306E+02    1.9785E-05    0.0000E+00    3.9635E-01   -1.7969E+00    6.8043E+00    2.0568E-02
1.0190E+01  2.8730E-01 2.2719E+02    3.3128E-05    0.0000E+00    4.6703E-01   -2.0479E+00    8.0173E+00    2.0568E-02
9.7487E+00  3.0650E-01 2.3126E+02    5.4183E-05    0.0000E+00    5.4772E-01   -2.2098E+00    9.3660E+00    2.0568E-02
9.3075E+00  3.2661E-01 2.3525E+02    8.6504E-05    0.0000E+00    6.5906E-01   -2.3494E+00    1.0846E+01    2.0568E-02
8.8666E+00  3.4765E-01 2.3914E+02    1.3470E-04    0.0000E+00    8.0002E-01   -2.4440E+00    1.2449E+01    2.0568E-02
8.4267E+00  3.6964E-01 2.4290E+02    2.0442E-04    0.0000E+00    9.2369E-01   -2.4341E+00    1.4159E+01    2.0568E-02
7.9881E+00  3.9257E-01 2.4652E+02    3.0215E-04    0.0000E+00    9.9171E-01   -2.3751E+00    1.5959E+01    2.0568E-02
7.5515E+00  4.1647E-01 2.4997E+02    4.3492E-04    0.0000E+00    1.0168E+00   -2.3049E+00    1.7829E+01    2.0568E-02
7.1173E+00  4.4132E-01 2.5325E+02    6.0984E-04    0.0000E+00    1.0456E+00   -2.3447E+00    1.9749E+01    2.0568E-02
6.6860E+00  4.6714E-01 2.5636E+02    8.3371E-04    0.0000E+00    1.0970E+00   -2.3370E+00    2.1700E+01    2.0568E-02
6.2582E+00  4.9391E-01 2.5928E+02    1.1127E-03    0.0000E+00    1.1490E+00   -2.2795E+00    2.3666E+01    2.0568E-02
5.8342E+00  5.2163E-01 2.6204E+02    1.4521E-03    0.0000E+00    1.1767E+00   -2.1624E+00    2.5635E+01    2.0568E-02
5.4147E+00  5.5029E-01 2.6464E+02    1.8564E-03    0.0000E+00    1.1723E+00   -1.9698E+00    2.7598E+01    2.0568E-02
4.9999E+00  5.7988E-01 2.6709E+02    2.3293E-03    0.0000E+00    1.1437E+00   -1.7892E+00    2.9546E+01    2.0568E-02
4.5902E+00  6.1038E-01 2.6940E+02    2.8736E-03    0.0000E+00    1.1053E+00   -1.5690E+00    3.1476E+01    2.0568E-02
4.1860E+00  6.4176E-01 2.7158E+02    3.4917E-03    0.0000E+00    1.0665E+00   -1.3767E+00    3.3384E+01    2.0568E-02
3.7876E+00  6.7400E-01 2.7371E+02    4.1852E-03    0.0000E+00    1.0329E+00   -1.2586E+00    3.5329E+01    2.0568E-02
3.3951E+00  7.0707E-01 2.7590E+02    5.0175E-03    0.0000E+00    9.9354E-01   -1.1971E+00    3.7415E+01    2.0568E-02
3.0086E+00  7.4093E-01 2.7799E+02    5.8737E-03    0.0000E+00    9.4123E-01   -1.1564E+00    3.9490E+01    2.0568E-02
2.6284E+00  7.7555E-01 2.8001E+02    6.7362E-03    0.0000E+00    9.0469E-01   -1.1754E+00    4.1568E+01    2.0568E-02
2.2548E+00  8.1088E-01 2.8193E+02    7.8075E-03    0.0000E+00    8.6319E-01   -1.1804E+00    4.3627E+01    2.0568E-02
1.8880E+00  8.4687E-01 2.8378E+02    8.8326E-03    0.0000E+00    8.2817E-01   -1.2348E+00    4.5685E+01    2.0568E-02
1.5282E+00  8.8347E-01 2.8555E+02    1.0002E-02    0.0000E+00    8.0372E-01   -1.3147E+00    4.7722E+01    2.0568E-02
1.1757E+00  9.2062E-01 2.8725E+02    1.1270E-02    0.0000E+00    7.7890E-01   -1.3951E+00    4.9738E+01    2.0568E-02
8.3050E-01  9.5826E-01 2.8888E+02    1.2487E-02    0.0000E+00    7.6253E-01   -1.4954E+00    5.1745E+01    2.0568E-02
4.9293E-01  9.9632E-01 2.9045E+02    1.3893E-02    0.0000E+00    7.5406E-01   -1.6772E+00    5.3722E+01    2.0568E-02
1.6315E-01  1.0347E+00 2.9195E+02    1.5379E-02    0.0000E+00    9.0360E-01   -1.8407E+00    5.5670E+01    2.0568E-02
0.0000E+00  1.0542E+00 2.9271E+02    1.6128E-02    0.0000E+00    5.0733E+00   -1.6527E+00    5.6677E+01    2.0568E-02
