   123.498147659052       1.921765217775860E-007
   128.420752439722       1.921765217775860E-007
   132.833726198939       1.921765217775860E-007
   136.596623927581       1.921765217775860E-007
   139.743424095468       1.921765217775860E-007
   142.398149682545       1.921765217775860E-007
   144.709690692548       1.921765217775860E-007
   146.808570149115       1.921765217775860E-007
   148.790076007525       1.921765217775860E-007
   150.705063683420       1.921765217775860E-007
   152.569652402013       1.921765217775860E-007
   154.372354307643       1.921765217775860E-007
   156.074145512623       1.921765217775860E-007
   157.604663134949       1.921765217775860E-007
   158.863496786033       1.921765217775860E-007
   159.733753132555       1.921765217775860E-007
   160.120148468174       1.921765217775860E-007
   160.059110710060       1.921765217775860E-007
   159.689988641954       1.921765217775860E-007
   159.181831668769       1.921765217775860E-007
   158.693350402641       1.921765217775860E-007
   158.358446899271       1.921765217775860E-007
   158.278372604083       1.921765217775860E-007
   158.515355105543       1.921765217775860E-007
   159.090082302466       1.921765217775860E-007
   159.981209776624       1.921765217775860E-007
   161.133860789574       1.921765217775860E-007
   162.469977668502       1.921765217775860E-007
   163.902127649283       1.921765217775860E-007
   165.347177427223       1.921765217775860E-007
   166.732247157230       1.921765217775860E-007
   167.997180357808       1.921765217775860E-007
   169.097176737572       1.921765217775860E-007
   169.999850150504       1.921765217775860E-007
   170.689677236104       1.921765217775860E-007
   171.178742242719       1.921765217775860E-007
   171.533645942399       1.921765217775860E-007
   171.860477624217       1.921765217775860E-007
   172.244734761609       1.921765217775860E-007
   172.719850769153       1.921765217775860E-007
   173.281305248890       1.921765217775860E-007
   173.911981015559       1.921765217775860E-007
   174.603205818835       1.921765217775860E-007
   175.359366737147       1.921765217775860E-007
   176.190250624818       1.921765217775860E-007
   177.100791098493       1.921765217775860E-007
   178.084024490466       1.921765217775860E-007
   179.119409354810       1.921765217775860E-007
   180.175830760110       1.921765217775860E-007
   181.217320981295       1.921765217775860E-007
   182.209414544026       1.921765217775860E-007
   183.124554565534       1.921765217775860E-007
   183.944968212254       1.921765217775860E-007
   184.666338914473       1.921765217775860E-007
   185.297121258562       1.921765217775860E-007
   185.853892927033       1.921765217775860E-007
   186.357829306483       1.921765217775860E-007
   186.829479109408       1.921765217775860E-007
   187.286036277559       1.921765217775860E-007
   187.738600810875       1.921765217775860E-007
   188.192408448373       1.921765217775860E-007
   188.649561357823       1.921797230489498E-007
   189.107890854842       1.921925281344053E-007
   189.594912908942       2.075216955028039E-007
   190.326824231737       2.383039432842037E-007
   191.000154072464       2.703411418807131E-007
   191.906999884597       3.182186904183864E-007
   192.542443888469       3.572583540661466E-007
   193.525242912771       4.239034145035268E-007
   194.090050871346       4.687964592522627E-007
   195.236890308970       5.687556077926817E-007
   195.907090310445       6.377276735971510E-007
   197.494965097413       8.254903445322980E-007
   198.781626467813       1.015162617201934E-006
   202.567540072520       1.816587851405666E-006
   206.357452977650       3.183062522402607E-006
   210.147029435680       5.464228741361690E-006
   213.931485063503       9.194131422365100E-006
   217.705319944461       1.516902882949892E-005
   221.461584705582       2.454516477738262E-005
   225.191380587327       3.895328252430746E-005
   228.884152828045       6.062357987985960E-005
   232.527643581339       9.250268070339812E-005
   236.108062541470       1.383372381971415E-004
   239.610543402621       2.026928612987947E-004
   243.019900839312       2.908799957527541E-004
   246.321616773285       4.087735672011769E-004
   249.502895168643       5.625388060712468E-004
   252.553576087520       7.583025948434657E-004
   255.466724959628       1.001825378240067E-003
   258.238805307844       1.298225373047241E-003
   260.869457086407       1.651786847540880E-003
   263.360987617952       2.065857825365813E-003
   265.717717078195       2.542821341680870E-003
   267.945307348594       3.084114244119014E-003
   270.050163150635       3.690267820541203E-003
   272.038950551832       4.360951121102299E-003
   274.010499622672       5.143234939033758E-003
   275.972941285415       5.952484630666650E-003
   277.837813092408       6.722686663421959E-003
   278.773340695770       7.201567016747893E-003
