     ALT          P          T          FH2O           O3           THEAT        TCOOL        PSATCO2        FCO2
4.2564E+01  1.0787E-04 1.1943E+02    3.9774E-12    0.0000E+00    1.3127E+00   -4.6853E+00    3.7121E-05    1.6031E-01
4.2065E+01  1.2545E-04 1.2015E+02    3.9774E-12    0.0000E+00    1.4416E+00   -1.8493E+00    4.3589E-05    1.6031E-01
4.1567E+01  1.4573E-04 1.2087E+02    3.9774E-12    0.0000E+00    1.5617E+00   -1.4245E+00    5.1094E-05    1.6031E-01
4.1070E+01  1.6909E-04 1.2159E+02    3.9774E-12    0.0000E+00    1.6631E+00   -1.2980E+00    5.9848E-05    1.6031E-01
4.0574E+01  1.9597E-04 1.2232E+02    3.9774E-12    0.0000E+00    1.7337E+00   -1.2748E+00    7.0009E-05    1.6031E-01
4.0078E+01  2.2687E-04 1.2305E+02    3.9774E-12    0.0000E+00    1.7603E+00   -1.3089E+00    8.1794E-05    1.6031E-01
3.9584E+01  2.6234E-04 1.2379E+02    3.9774E-12    0.0000E+00    1.7319E+00   -1.3891E+00    9.5437E-05    1.6031E-01
3.9090E+01  3.0300E-04 1.2452E+02    3.9774E-12    0.0000E+00    1.6434E+00   -1.4518E+00    1.1120E-04    1.6031E-01
3.8598E+01  3.4956E-04 1.2507E+02    3.9774E-12    0.0000E+00    1.5013E+00   -1.4188E+00    1.2448E-04    1.6031E-01
3.8108E+01  4.0282E-04 1.2545E+02    4.0090E-12    0.0000E+00    1.3265E+00   -1.3255E+00    1.3458E-04    1.6031E-01
3.7620E+01  4.6367E-04 1.2587E+02    4.1351E-12    0.0000E+00    1.1528E+00   -1.1948E+00    1.4648E-04    1.6031E-01
3.7135E+01  5.3309E-04 1.2633E+02    4.5320E-12    0.0000E+00    1.0173E+00   -1.0964E+00    1.6061E-04    1.6031E-01
3.6651E+01  6.1221E-04 1.2708E+02    5.2516E-12    0.0000E+00    9.4470E-01   -1.0305E+00    1.8647E-04    1.6031E-01
3.6168E+01  7.0226E-04 1.2783E+02    6.0778E-12    0.0000E+00    9.3633E-01   -9.1386E-01    2.1620E-04    1.6031E-01
3.5687E+01  8.0464E-04 1.2859E+02    7.0251E-12    0.0000E+00    9.7200E-01   -9.2533E-01    2.5035E-04    1.6031E-01
3.5206E+01  9.2089E-04 1.2977E+02    8.1098E-12    0.0000E+00    1.0247E+00   -9.9047E-01    3.1359E-04    1.6031E-01
3.4726E+01  1.0527E-03 1.3061E+02    9.3502E-12    0.0000E+00    1.0774E+00   -1.0365E+00    3.6748E-04    1.6031E-01
3.4246E+01  1.2021E-03 1.3131E+02    1.1037E-11    0.0000E+00    1.1205E+00   -1.1379E+00    4.1888E-04    1.6031E-01
3.3769E+01  1.3710E-03 1.3210E+02    1.2977E-11    0.0000E+00    1.1408E+00   -1.1463E+00    4.8371E-04    1.6031E-01
3.3292E+01  1.5619E-03 1.3299E+02    1.5696E-11    0.0000E+00    1.1330E+00   -1.1347E+00    5.6852E-04    1.6031E-01
3.2816E+01  1.7773E-03 1.3403E+02    1.9806E-11    0.0000E+00    1.0941E+00   -1.1018E+00    6.8471E-04    1.6031E-01
3.2340E+01  2.0202E-03 1.3524E+02    2.6194E-11    0.0000E+00    1.0257E+00   -1.0320E+00    8.4593E-04    1.6031E-01
3.1864E+01  2.2936E-03 1.3656E+02    3.5801E-11    0.0000E+00    9.3380E-01   -9.3589E-01    1.0622E-03    1.6031E-01
3.1388E+01  2.6010E-03 1.3791E+02    4.9009E-11    0.0000E+00    8.2904E-01   -8.2527E-01    1.3336E-03    1.6031E-01
3.0912E+01  2.9463E-03 1.3920E+02    6.5360E-11    0.0000E+00    7.2405E-01   -7.2107E-01    1.6523E-03    1.6031E-01
3.0435E+01  3.3335E-03 1.4040E+02    8.3907E-11    0.0000E+00    6.3040E-01   -6.2609E-01    2.0054E-03    1.6031E-01
2.9960E+01  3.7674E-03 1.4146E+02    1.0302E-10    0.0000E+00    5.5611E-01   -5.5277E-01    2.3767E-03    1.6031E-01
2.9485E+01  4.2528E-03 1.4241E+02    1.2140E-10    0.0000E+00    5.0473E-01   -5.0203E-01    2.7579E-03    1.6031E-01
2.9012E+01  4.7953E-03 1.4326E+02    1.3920E-10    0.0000E+00    4.7559E-01   -4.7556E-01    3.1496E-03    1.6031E-01
2.8541E+01  5.4008E-03 1.4408E+02    1.5781E-10    0.0000E+00    4.6403E-01   -4.6853E-01    3.5729E-03    1.6031E-01
2.8071E+01  6.0758E-03 1.4489E+02    1.7746E-10    0.0000E+00    4.6235E-01   -4.6341E-01    4.0397E-03    1.6031E-01
2.7604E+01  6.8273E-03 1.4570E+02    1.9861E-10    0.0000E+00    4.6207E-01   -4.6228E-01    4.5587E-03    1.6031E-01
2.7139E+01  7.6630E-03 1.4647E+02    2.2132E-10    0.0000E+00    4.5666E-01   -4.6088E-01    5.1115E-03    1.6031E-01
2.6675E+01  8.5911E-03 1.4723E+02    2.4409E-10    0.0000E+00    4.4275E-01   -4.4727E-01    5.7103E-03    1.6031E-01
2.6215E+01  9.6207E-03 1.4784E+02    2.5878E-10    0.0000E+00    4.1988E-01   -3.9902E-01    6.2381E-03    1.6031E-01
2.5757E+01  1.0761E-02 1.4828E+02    2.5933E-10    0.0000E+00    3.8892E-01   -3.8854E-01    6.6552E-03    1.6031E-01
2.5303E+01  1.2023E-02 1.4870E+02    2.6146E-10    0.0000E+00    3.5352E-01   -3.6232E-01    7.0678E-03    1.6031E-01
2.4852E+01  1.3418E-02 1.4918E+02    2.6861E-10    0.0000E+00    3.1804E-01   -3.2308E-01    7.5665E-03    1.6031E-01
2.4404E+01  1.4957E-02 1.4985E+02    2.8159E-10    0.0000E+00    2.8632E-01   -2.8151E-01    8.3111E-03    1.6031E-01
2.3959E+01  1.6654E-02 1.5058E+02    3.1989E-10    0.0000E+00    2.6168E-01   -2.6195E-01    9.2054E-03    1.6031E-01
2.3516E+01  1.8522E-02 1.5145E+02    3.4830E-10    0.0000E+00    2.4444E-01   -2.4377E-01    1.0391E-02    1.6031E-01
2.3075E+01  2.0576E-02 1.5218E+02    4.0207E-10    0.0000E+00    2.3333E-01   -2.3342E-01    1.1481E-02    1.6031E-01
2.2637E+01  2.2832E-02 1.5320E+02    4.5499E-10    0.0000E+00    2.2664E-01   -2.2592E-01    1.3170E-02    1.6031E-01
2.2201E+01  2.5306E-02 1.5404E+02    5.3248E-10    0.0000E+00    2.2152E-01   -2.2155E-01    1.4740E-02    1.6031E-01
2.1767E+01  2.8016E-02 1.5525E+02    6.0983E-10    0.0000E+00    2.1645E-01   -2.1577E-01    1.7304E-02    1.6031E-01
2.1335E+01  3.0981E-02 1.5629E+02    7.4833E-10    0.0000E+00    2.0985E-01   -2.0987E-01    1.9800E-02    1.6031E-01
2.0904E+01  3.4220E-02 1.5778E+02    8.9510E-10    0.0000E+00    2.0193E-01   -2.0150E-01    2.3945E-02    1.6031E-01
2.0474E+01  3.7754E-02 1.5900E+02    1.1560E-09    0.0000E+00    1.9237E-01   -1.9303E-01    2.7907E-02    1.6031E-01
2.0046E+01  4.1606E-02 1.6067E+02    1.4895E-09    0.0000E+00    1.8245E-01   -1.8154E-01    3.4264E-02    1.6031E-01
1.9619E+01  4.5799E-02 1.6209E+02    1.9700E-09    0.0000E+00    1.7223E-01   -1.7037E-01    4.0668E-02    1.6031E-01
1.9192E+01  5.0356E-02 1.6378E+02    2.5007E-09    0.0000E+00    1.6271E-01   -1.6221E-01    4.9717E-02    1.6031E-01
1.8767E+01  5.5303E-02 1.6530E+02    3.3615E-09    0.0000E+00    1.5374E-01   -1.5189E-01    5.9281E-02    1.6031E-01
1.8343E+01  6.0667E-02 1.6689E+02    4.2177E-09    0.0000E+00    1.4554E-01   -1.4525E-01    7.1068E-02    1.6031E-01
1.7920E+01  6.6475E-02 1.6847E+02    5.5653E-09    0.0000E+00    1.3796E-01   -1.3623E-01    8.4747E-02    1.6031E-01
1.7498E+01  7.2756E-02 1.7000E+02    7.0316E-09    0.0000E+00    1.3097E-01   -1.3049E-01    1.0025E-01    1.6031E-01
1.7078E+01  7.9539E-02 1.7175E+02    9.2024E-09    0.0000E+00    1.2497E-01   -1.2356E-01    1.2093E-01    1.6031E-01
1.6659E+01  8.6855E-02 1.7346E+02    1.2031E-08    0.0000E+00    1.2010E-01   -1.1861E-01    1.4471E-01    1.6031E-01
1.6241E+01  9.4735E-02 1.7537E+02    1.6155E-08    0.0000E+00    1.1691E-01   -1.1525E-01    1.7630E-01    1.6031E-01
1.5824E+01  1.0321E-01 1.7735E+02    2.1649E-08    0.0000E+00    1.1458E-01   -1.1306E-01    2.1522E-01    1.6031E-01
1.5408E+01  1.1232E-01 1.7971E+02    3.0649E-08    0.0000E+00    1.1260E-01   -1.1108E-01    2.7117E-01    1.6031E-01
1.4992E+01  1.2209E-01 1.8170E+02    4.1507E-08    0.0000E+00    1.1163E-01   -1.1028E-01    3.2821E-01    1.6031E-01
1.4577E+01  1.3256E-01 1.8429E+02    6.0857E-08    0.0000E+00    1.1174E-01   -1.1040E-01    4.1786E-01    1.6031E-01
1.4162E+01  1.4376E-01 1.8626E+02    8.1629E-08    0.0000E+00    1.1159E-01   -1.1045E-01    4.9976E-01    1.6031E-01
1.3748E+01  1.5573E-01 1.8879E+02    1.1699E-07    0.0000E+00    1.1153E-01   -1.1037E-01    6.2592E-01    1.6031E-01
1.3336E+01  1.6850E-01 1.9033E+02    1.5879E-07    0.0000E+00    1.1027E-01   -1.0932E-01    7.1500E-01    1.6031E-01
1.2926E+01  1.8211E-01 1.9244E+02    2.2806E-07    0.0000E+00    1.0874E-01   -1.0775E-01    8.5637E-01    1.6031E-01
1.2519E+01  1.9660E-01 1.9343E+02    2.7970E-07    0.0000E+00    1.0578E-01   -1.0501E-01    9.2973E-01    1.6031E-01
1.2114E+01  2.1199E-01 1.9534E+02    3.7887E-07    0.0000E+00    1.0282E-01   -1.0194E-01    1.0887E+00    1.6031E-01
1.1713E+01  2.2833E-01 1.9596E+02    4.3577E-07    0.0000E+00    9.8452E-02   -9.7766E-02    1.1454E+00    1.6031E-01
1.1316E+01  2.4565E-01 1.9820E+02    6.0544E-07    0.0000E+00    9.4755E-02   -9.3897E-02    1.3704E+00    1.6031E-01
1.0922E+01  2.6397E-01 1.9888E+02    7.0454E-07    0.0000E+00    8.9782E-02   -8.9100E-02    1.4465E+00    1.6031E-01
1.0530E+01  2.8334E-01 2.0277E+02    1.1998E-06    0.0000E+00    8.7253E-02   -3.3810E-01    1.9522E+00    1.6031E-01
1.0136E+01  3.0379E-01 2.0678E+02    2.1811E-06    0.0000E+00    8.5761E-02   -5.8528E-01    2.6294E+00    1.6031E-01
9.7413E+00  3.2533E-01 2.1080E+02    3.8775E-06    0.0000E+00    8.5988E-02   -8.4304E-01    3.5020E+00    1.6031E-01
9.3457E+00  3.4801E-01 2.1482E+02    6.7442E-06    0.0000E+00    8.8813E-02   -1.0985E+00    4.6132E+00    1.6031E-01
8.9496E+00  3.7184E-01 2.1883E+02    1.1481E-05    0.0000E+00    9.4787E-02   -1.3423E+00    5.7104E+00    1.6031E-01
8.5530E+00  3.9684E-01 2.2283E+02    1.9135E-05    0.0000E+00    1.0374E-01   -1.5430E+00    6.7405E+00    1.6031E-01
8.1565E+00  4.2305E-01 2.2680E+02    3.1226E-05    0.0000E+00    1.1541E-01   -1.6726E+00    7.8965E+00    1.6031E-01
7.7602E+00  4.5046E-01 2.3072E+02    4.9890E-05    0.0000E+00    1.3164E-01   -1.7767E+00    9.1811E+00    1.6031E-01
7.3644E+00  4.7911E-01 2.3460E+02    7.8020E-05    0.0000E+00    1.5470E-01   -1.8681E+00    1.0595E+01    1.6031E-01
6.9697E+00  5.0899E-01 2.3840E+02    1.1938E-04    0.0000E+00    1.8033E-01   -1.9040E+00    1.2133E+01    1.6031E-01
6.5762E+00  5.4012E-01 2.4212E+02    1.7867E-04    0.0000E+00    1.9985E-01   -1.8678E+00    1.3789E+01    1.6031E-01
6.1844E+00  5.7249E-01 2.4573E+02    2.6144E-04    0.0000E+00    2.0990E-01   -1.7899E+00    1.5551E+01    1.6031E-01
5.7948E+00  6.0612E-01 2.4922E+02    3.7394E-04    0.0000E+00    2.1731E-01   -1.7450E+00    1.7406E+01    1.6031E-01
5.4076E+00  6.4098E-01 2.5257E+02    5.2286E-04    0.0000E+00    2.3187E-01   -1.7448E+00    1.9336E+01    1.6031E-01
5.0234E+00  6.7707E-01 2.5578E+02    7.1494E-04    0.0000E+00    2.5424E-01   -1.7319E+00    2.1324E+01    1.6031E-01
4.6426E+00  7.1438E-01 2.5883E+02    9.5667E-04    0.0000E+00    2.7767E-01   -1.6604E+00    2.3354E+01    1.6031E-01
4.2655E+00  7.5287E-01 2.6173E+02    1.2540E-03    0.0000E+00    2.9602E-01   -1.5339E+00    2.5409E+01    1.6031E-01
3.8927E+00  7.9254E-01 2.6448E+02    1.6120E-03    0.0000E+00    3.0688E-01   -1.3651E+00    2.7477E+01    1.6031E-01
3.5244E+00  8.3334E-01 2.6709E+02    2.0351E-03    0.0000E+00    3.1129E-01   -1.1772E+00    2.9547E+01    1.6031E-01
3.1610E+00  8.7524E-01 2.6955E+02    2.5267E-03    0.0000E+00    3.1127E-01   -9.8124E-01    3.1609E+01    1.6031E-01
2.8028E+00  9.1819E-01 2.7188E+02    3.0894E-03    0.0000E+00    3.0825E-01   -8.4055E-01    3.3656E+01    1.6031E-01
2.4502E+00  9.6214E-01 2.7419E+02    3.7436E-03    0.0000E+00    3.0463E-01   -7.8072E-01    3.5781E+01    1.6031E-01
2.1031E+00  1.0070E+00 2.7650E+02    4.4848E-03    0.0000E+00    3.3311E-01   -7.6298E-01    3.7994E+01    1.6031E-01
1.7620E+00  1.0528E+00 2.7870E+02    5.1918E-03    0.0000E+00    3.1123E-01   -7.3891E-01    4.0212E+01    1.6031E-01
1.4269E+00  1.0995E+00 2.8081E+02    6.0872E-03    0.0000E+00    3.0861E-01   -7.2798E-01    4.2418E+01    1.6031E-01
1.0983E+00  1.1468E+00 2.8282E+02    6.9680E-03    0.0000E+00    3.0628E-01   -7.3621E-01    4.4606E+01    1.6031E-01
7.7617E-01  1.1949E+00 2.8475E+02    7.9436E-03    0.0000E+00    3.1057E-01   -7.8440E-01    4.6790E+01    1.6031E-01
4.6088E-01  1.2435E+00 2.8658E+02    9.0267E-03    0.0000E+00    3.1561E-01   -9.0389E-01    4.8941E+01    1.6031E-01
1.5260E-01  1.2926E+00 2.8834E+02    1.0060E-02    0.0000E+00    3.2222E-01   -9.8701E-01    5.1070E+01    1.6031E-01
0.0000E+00  1.3175E+00 2.8922E+02    1.0656E-02    0.0000E+00    5.8072E+00   -1.0483E+00    5.2170E+01    1.6031E-01
