 
    OUTPUT FILES FOR THE Sun  
 
 Solar Constant= 0.344   F_CH4= 1.0000E-60  F_CO2= 9.5000E-01  F_O2= 1.0000E-60  F_N2= 5.0000E-02  IO3 =  0   IUP=  0
 ICONSERV= 0  FAC= 4.0  ND=101  SRFALB= 0.200  G=373.0  IMW= 0

 FNO2 = 1.000E-60
 
 NST=     1 JCONV= 63 CHG=2.29E-03 dt0=3.75E+03 DIVF(1)= 1.21E-02 DIVFrms= 1.29E-02 DT(ND)= 2.63E-01 T(ND)=2.1889E+02

 TIME= 2.500E+03  TIME IN DAYS = 2.894E-02

 PLANETARY ALBEDO:  ALBP = 0.3205

  J     P         ALT         T        CONVEC       DT          TOLD        FH20       FSAVE       TCOOL       THEAT
  1 5.4116E-05 8.1100E+01 1.8096E+02  0.00E+00   1.3197E-04  1.8096E+02  9.8835E-09  9.8854E-09 -1.9402E+02  1.9402E+02
  2 6.3355E-05 7.9659E+01 1.7553E+02  0.00E+00   1.4252E-02  1.7554E+02  9.8835E-09  9.8854E-09 -6.1685E+01  6.2177E+01
  3 7.4082E-05 7.8273E+01 1.7006E+02  0.00E+00  -6.4904E-03  1.7004E+02  9.8835E-09  9.8854E-09 -3.6554E+01  3.6330E+01
  4 8.6522E-05 7.6940E+01 1.6475E+02  0.00E+00  -3.4246E-02  1.6467E+02  9.8835E-09  9.8854E-09 -2.2427E+01  2.1244E+01
  5 1.0093E-04 7.5658E+01 1.5984E+02  0.00E+00  -2.5442E-02  1.5970E+02  9.8835E-09  9.8854E-09 -1.3880E+01  1.3000E+01
  6 1.1760E-04 7.4422E+01 1.5567E+02  0.00E+00  -9.2220E-02  1.5545E+02  9.8835E-09  9.8854E-09 -1.1972E+01  8.7847E+00
  7 1.3685E-04 7.3223E+01 1.5261E+02  0.00E+00  -8.5668E-02  1.5237E+02  9.8835E-09  9.8854E-09 -9.7181E+00  6.7574E+00
  8 1.5907E-04 7.2053E+01 1.5074E+02  0.00E+00  -5.4461E-02  1.5057E+02  9.8835E-09  9.8854E-09 -7.6979E+00  5.8158E+00
  9 1.8468E-04 7.0903E+01 1.4974E+02  0.00E+00  -2.6457E-02  1.4966E+02  9.8835E-09  9.8854E-09 -6.2678E+00  5.3534E+00
 10 2.1415E-04 6.9768E+01 1.4925E+02  0.00E+00  -1.0528E-02  1.4921E+02  9.8835E-09  9.8854E-09 -5.4331E+00  5.0693E+00
 11 2.4802E-04 6.8645E+01 1.4899E+02  0.00E+00  -4.6067E-03  1.4897E+02  9.8835E-09  9.8854E-09 -4.9918E+00  4.8326E+00
 12 2.8691E-04 6.7532E+01 1.4885E+02  0.00E+00  -4.7232E-03  1.4884E+02  9.8835E-09  9.8854E-09 -4.7590E+00  4.5957E+00
 13 3.3151E-04 6.6430E+01 1.4880E+02  0.00E+00  -6.6838E-03  1.4878E+02  9.8835E-09  9.8854E-09 -4.5758E+00  4.3448E+00
 14 3.8258E-04 6.5336E+01 1.4886E+02  0.00E+00  -7.9380E-03  1.4883E+02  9.8835E-09  9.8854E-09 -4.3520E+00  4.0777E+00
 15 4.4098E-04 6.4251E+01 1.4903E+02  0.00E+00  -7.8275E-03  1.4901E+02  9.8835E-09  9.8854E-09 -4.0663E+00  3.7958E+00
 16 5.0770E-04 6.3173E+01 1.4931E+02  0.00E+00  -5.6369E-03  1.4930E+02  9.8835E-09  9.8854E-09 -3.6970E+00  3.5022E+00
 17 5.8381E-04 6.2102E+01 1.4968E+02  0.00E+00  -2.3329E-03  1.4967E+02  9.8835E-09  9.8854E-09 -3.2816E+00  3.2010E+00
 18 6.7052E-04 6.1038E+01 1.5009E+02  0.00E+00   9.6099E-04  1.5009E+02  9.8835E-09  9.8854E-09 -2.8636E+00  2.8968E+00
 19 7.6920E-04 5.9980E+01 1.5047E+02  0.00E+00   4.6173E-03  1.5049E+02  9.8835E-09  9.8854E-09 -2.4354E+00  2.5950E+00
 20 8.8135E-04 5.8929E+01 1.5079E+02  0.00E+00   8.0194E-03  1.5082E+02  9.8835E-09  9.8854E-09 -2.0237E+00  2.3009E+00
 21 1.0086E-03 5.7885E+01 1.5100E+02  0.00E+00   9.0404E-03  1.5103E+02  9.8835E-09  9.8854E-09 -1.7266E+00  2.0391E+00
 22 1.1529E-03 5.6849E+01 1.5109E+02  0.00E+00   6.2018E-03  1.5111E+02  9.8835E-09  9.8854E-09 -1.8032E+00  2.0175E+00
 23 1.3163E-03 5.5822E+01 1.5107E+02  0.00E+00   4.8320E-03  1.5109E+02  9.8835E-09  9.8854E-09 -1.7136E+00  1.8806E+00
 24 1.5010E-03 5.4805E+01 1.5099E+02  0.00E+00   2.3778E-03  1.5099E+02  9.8835E-09  9.8854E-09 -1.5901E+00  1.6723E+00
 25 1.7096E-03 5.3798E+01 1.5088E+02  0.00E+00  -2.6116E-03  1.5087E+02  9.8835E-09  9.8854E-09 -1.5357E+00  1.4455E+00
 26 1.9448E-03 5.2801E+01 1.5080E+02  0.00E+00  -5.3607E-03  1.5079E+02  9.8835E-09  9.8854E-09 -1.4273E+00  1.2420E+00
 27 2.2098E-03 5.1813E+01 1.5080E+02  0.00E+00  -5.5011E-03  1.5078E+02  9.8835E-09  9.8854E-09 -1.2705E+00  1.0804E+00
 28 2.5079E-03 5.0834E+01 1.5087E+02  0.00E+00  -3.9224E-03  1.5086E+02  9.8835E-09  9.8854E-09 -1.0922E+00  9.5663E-01
 29 2.8428E-03 4.9864E+01 1.5101E+02  0.00E+00  -1.8599E-03  1.5100E+02  9.8835E-09  9.8854E-09 -9.2121E-01  8.5694E-01
 30 3.2185E-03 4.8902E+01 1.5119E+02  0.00E+00  -1.5155E-03  1.5119E+02  9.8835E-09  9.8854E-09 -8.2199E-01  7.6961E-01
 31 3.6396E-03 4.7948E+01 1.5140E+02  0.00E+00  -1.6749E-04  1.5139E+02  9.8835E-09  9.8854E-09 -6.9541E-01  6.8962E-01
 32 4.1108E-03 4.7002E+01 1.5161E+02  0.00E+00   4.5189E-04  1.5161E+02  9.8835E-09  9.8854E-09 -6.0095E-01  6.1657E-01
 33 4.6375E-03 4.6064E+01 1.5182E+02  0.00E+00   5.7281E-04  1.5182E+02  9.8835E-09  9.8854E-09 -5.3168E-01  5.5148E-01
 34 5.2254E-03 4.5134E+01 1.5204E+02  0.00E+00  -5.7667E-04  1.5204E+02  9.8835E-09  9.8854E-09 -5.1506E-01  4.9514E-01
 35 5.8809E-03 4.4212E+01 1.5226E+02  0.00E+00  -7.0058E-04  1.5226E+02  9.8835E-09  9.8854E-09 -4.7202E-01  4.4780E-01
 36 6.6106E-03 4.3298E+01 1.5250E+02  0.00E+00  -8.7408E-04  1.5250E+02  9.8835E-09  9.8854E-09 -4.3956E-01  4.0935E-01
 37 7.4220E-03 4.2392E+01 1.5276E+02  0.00E+00  -9.4639E-04  1.5275E+02  9.8835E-09  9.8854E-09 -4.1198E-01  3.7928E-01
 38 8.3230E-03 4.1494E+01 1.5304E+02  0.00E+00  -1.5768E-03  1.5303E+02  9.8835E-09  9.8854E-09 -4.1112E-01  3.5663E-01
 39 9.3223E-03 4.0603E+01 1.5334E+02  0.00E+00  -1.1404E-03  1.5334E+02  9.8835E-09  9.8854E-09 -3.7939E-01  3.3997E-01
 40 1.0429E-02 3.9720E+01 1.5367E+02  0.00E+00  -9.3808E-04  1.5367E+02  9.8835E-09  9.8854E-09 -3.7530E-01  3.4288E-01
 41 1.1653E-02 3.8844E+01 1.5402E+02  0.00E+00  -1.2759E-03  1.5402E+02  9.8835E-09  9.8854E-09 -4.1196E-01  3.6787E-01
 42 1.3006E-02 3.7976E+01 1.5439E+02  0.00E+00  -3.2297E-05  1.5439E+02  9.8835E-09  9.8854E-09 -3.8813E-01  3.8701E-01
 43 1.4498E-02 3.7115E+01 1.5477E+02  0.00E+00   1.3270E-03  1.5477E+02  9.8835E-09  9.8854E-09 -3.5300E-01  3.9886E-01
 44 1.6141E-02 3.6261E+01 1.5513E+02  0.00E+00   1.8272E-03  1.5514E+02  9.8835E-09  9.8854E-09 -3.3879E-01  4.0193E-01
 45 1.7950E-02 3.5415E+01 1.5548E+02  0.00E+00   2.4427E-03  1.5548E+02  9.8835E-09  9.8854E-09 -3.1115E-01  3.9557E-01
 46 1.9938E-02 3.4577E+01 1.5579E+02  0.00E+00   2.4498E-03  1.5580E+02  9.8835E-09  9.8854E-09 -2.9543E-01  3.8010E-01
 47 2.2119E-02 3.3747E+01 1.5608E+02  0.00E+00   1.6490E-03  1.5608E+02  9.8835E-09  9.8854E-09 -2.9971E-01  3.5670E-01
 48 2.4509E-02 3.2925E+01 1.5635E+02  0.00E+00   1.2482E-03  1.5635E+02  9.8835E-09  9.8854E-09 -2.8406E-01  3.2719E-01
 49 2.7125E-02 3.2111E+01 1.5660E+02  0.00E+00   7.8279E-04  1.5660E+02  9.8835E-09  9.8854E-09 -2.6678E-01  2.9383E-01
 50 2.9985E-02 3.1306E+01 1.5684E+02  0.00E+00   3.2965E-04  1.5684E+02  9.8835E-09  9.8854E-09 -2.4766E-01  2.5905E-01
 51 3.3107E-02 3.0508E+01 1.5709E+02  0.00E+00  -2.9444E-04  1.5709E+02  9.8835E-09  9.8854E-09 -2.3534E-01  2.2517E-01
 52 3.6510E-02 2.9720E+01 1.5734E+02  0.00E+00  -5.0707E-04  1.5734E+02  9.8835E-09  9.8854E-09 -2.1162E-01  1.9410E-01
 53 4.0214E-02 2.8939E+01 1.5760E+02  0.00E+00  -7.1351E-04  1.5760E+02  9.8835E-09  9.8854E-09 -1.9180E-01  1.6714E-01
 54 4.4242E-02 2.8167E+01 1.5788E+02  0.00E+00  -9.1071E-04  1.5788E+02  9.8835E-09  9.8854E-09 -1.7640E-01  1.4492E-01
 55 4.8614E-02 2.7403E+01 1.5817E+02  0.00E+00  -1.1370E-03  1.5817E+02  9.8835E-09  9.8854E-09 -1.6672E-01  1.2743E-01
 56 5.3355E-02 2.6648E+01 1.5848E+02  0.00E+00  -1.2199E-03  1.5848E+02  9.8835E-09  9.8854E-09 -1.5632E-01  1.1416E-01
 57 5.8489E-02 2.5900E+01 1.5881E+02  0.00E+00  -1.2990E-03  1.5881E+02  9.8835E-09  9.8854E-09 -1.4924E-01  1.0435E-01
 58 6.4040E-02 2.5161E+01 1.5916E+02  0.00E+00  -1.3573E-03  1.5916E+02  9.8835E-09  9.8854E-09 -1.4404E-01  9.7133E-02
 59 7.0034E-02 2.4430E+01 1.5952E+02  0.00E+00  -1.2850E-03  1.5952E+02  9.8851E-09  9.8871E-09 -1.3612E-01  9.1711E-02
 60 7.6497E-02 2.3707E+01 1.5989E+02  0.00E+00  -1.1092E-03  1.5989E+02  9.8911E-09  9.8938E-09 -1.2575E-01  8.7416E-02
 61 8.3457E-02 2.2992E+01 1.6029E+02  0.00E+00  -1.0807E-03  1.6029E+02  9.9869E-09  9.9895E-09 -1.2110E-01  8.3748E-02
 62 9.0941E-02 2.2285E+01 1.6098E+02  0.00E+00   5.9916E-04  1.6098E+02  1.0797E-08  1.0795E-08 -1.2152E-01  8.0343E-02
 63 9.8978E-02 2.1584E+01 1.6173E+02  3.00E+00  -1.2134E-03  1.6173E+02  1.1828E-08  1.1831E-08 -1.1896E-01  7.7030E-02
 64 1.0760E-01 2.0890E+01 1.6247E+02  0.00E+00  -8.6748E-04  1.6247E+02  1.2924E-08  1.2927E-08 -1.0999E-01  8.0007E-02
 65 1.1683E-01 2.0202E+01 1.6365E+02  0.00E+00   3.7345E-01  1.6328E+02  1.5643E-08  1.4358E-08 -1.1200E-01  8.2483E-02
 66 1.2670E-01 1.9518E+01 1.6503E+02  3.00E+00   3.5380E-01  1.6468E+02  1.9743E-08  1.8228E-08 -1.2271E-01  8.3571E-02
 67 1.3724E-01 1.8839E+01 1.6636E+02  3.00E+00   3.3703E-01  1.6602E+02  2.4518E-08  2.2751E-08 -1.2743E-01  8.3479E-02
 68 1.4847E-01 1.8165E+01 1.6764E+02  3.00E+00   3.2256E-01  1.6732E+02  3.0027E-08  2.7983E-08 -1.2904E-01  8.2390E-02
 69 1.6044E-01 1.7496E+01 1.6888E+02  3.00E+00   3.0997E-01  1.6857E+02  3.6329E-08  3.3983E-08 -1.3019E-01  8.0513E-02
 70 1.7316E-01 1.6833E+01 1.7008E+02  3.00E+00   2.9894E-01  1.6978E+02  4.3486E-08  4.0811E-08 -1.3046E-01  7.8062E-02
 71 1.8667E-01 1.6175E+01 1.7124E+02  3.00E+00   2.8919E-01  1.7095E+02  5.1558E-08  4.8528E-08 -1.3002E-01  7.5232E-02
 72 2.0100E-01 1.5524E+01 1.7238E+02  3.00E+00   2.8051E-01  1.7210E+02  6.0610E-08  5.7195E-08 -1.3061E-01  7.2191E-02
 73 2.1616E-01 1.4879E+01 1.7348E+02  3.00E+00   2.7275E-01  1.7321E+02  7.0702E-08  6.6874E-08 -1.2787E-01  6.9066E-02
 74 2.3219E-01 1.4240E+01 1.7456E+02  3.00E+00   2.6577E-01  1.7430E+02  8.1898E-08  7.7626E-08 -1.2470E-01  6.5948E-02
 75 2.4911E-01 1.3609E+01 1.7562E+02  3.00E+00   2.5946E-01  1.7536E+02  9.4258E-08  8.9512E-08 -1.2108E-01  6.2886E-02
 76 2.6695E-01 1.2984E+01 1.7665E+02  3.00E+00   2.5374E-01  1.7639E+02  1.0784E-07  1.0259E-07 -1.1706E-01  5.9901E-02
 77 2.8571E-01 1.2367E+01 1.7766E+02  3.00E+00   2.4854E-01  1.7741E+02  1.2271E-07  1.1692E-07 -1.1265E-01  5.6989E-02
 78 3.0544E-01 1.1757E+01 1.7864E+02  3.00E+00   2.4378E-01  1.7840E+02  1.3893E-07  1.3256E-07 -1.0782E-01  5.4138E-02
 79 3.2613E-01 1.1155E+01 1.7961E+02  3.00E+00   2.3942E-01  1.7937E+02  1.5653E-07  1.4956E-07 -1.0251E-01  5.1330E-02
 80 3.4781E-01 1.0561E+01 1.8056E+02  3.00E+00   2.3541E-01  1.8032E+02  1.7559E-07  1.6798E-07 -9.6596E-02  4.8555E-02
 81 3.7049E-01 9.9741E+00 1.8149E+02  3.00E+00   2.3171E-01  1.8126E+02  1.9615E-07  1.8785E-07 -8.9891E-02  4.5812E-02
 82 3.9418E-01 9.3959E+00 1.8240E+02  3.00E+00   2.2830E-01  1.8217E+02  2.1824E-07  2.0924E-07 -8.2041E-02  4.3107E-02
 83 4.1888E-01 8.8260E+00 1.8329E+02  3.00E+00   2.2514E-01  1.8307E+02  2.4192E-07  2.3217E-07 -7.2319E-02  4.0458E-02
 84 4.4460E-01 8.2646E+00 1.8417E+02  3.00E+00   2.2220E-01  1.8395E+02  2.6721E-07  2.5668E-07 -5.9178E-02  3.7887E-02
 85 4.7133E-01 7.7122E+00 1.8481E+02  3.00E+00  -9.4113E-05  1.8481E+02  2.8279E-07  2.8280E-07 -3.8672E-02  3.5420E-02
 86 4.9907E-01 7.1690E+00 1.8565E+02  0.00E+00   4.3421E-04  1.8565E+02  3.1058E-07  3.1056E-07 -2.0125E-02  3.3082E-02
 87 5.2781E-01 6.6338E+00 1.8712E+02  3.00E+00  -1.1629E-04  1.8712E+02  3.8042E-07  3.8042E-07 -3.4944E-02  3.0925E-02
 88 5.5754E-01 6.1044E+00 1.8962E+02  0.00E+00  -1.2085E-03  1.8962E+02  5.5470E-07  5.5481E-07 -7.0794E-02  2.9028E-02
 89 5.8824E-01 5.5798E+00 1.9209E+02  0.00E+00  -2.0575E-03  1.9209E+02  7.9681E-07  7.9708E-07 -9.8511E-02  2.7405E-02
 90 6.1989E-01 5.0603E+00 1.9452E+02  0.00E+00  -2.7744E-03  1.9453E+02  1.1281E-06  1.1286E-06 -1.2195E-01  2.6069E-02
 91 6.5246E-01 4.5463E+00 1.9693E+02  0.00E+00  -3.4698E-03  1.9693E+02  1.5746E-06  1.5755E-06 -1.4495E-01  2.5032E-02
 92 6.8592E-01 4.0381E+00 1.9929E+02  0.00E+00  -4.2234E-03  1.9930E+02  2.1681E-06  2.1695E-06 -1.7026E-01  2.4299E-02
 93 7.2024E-01 3.5362E+00 2.0162E+02  0.00E+00  -4.9762E-03  2.0163E+02  2.9457E-06  2.9479E-06 -1.9584E-01  2.3863E-02
 94 7.5537E-01 3.0410E+00 2.0393E+02  0.00E+00   1.5606E-02  2.0392E+02  3.9642E-06  3.9551E-06 -2.1946E-01  2.3714E-02
 95 7.9127E-01 2.5525E+00 2.0636E+02  1.00E+00   1.8823E-01  2.0617E+02  5.3889E-06  5.2447E-06 -2.4285E-01  2.3859E-02
 96 8.2788E-01 2.0711E+00 2.0874E+02  1.00E+00   2.5805E-01  2.0848E+02  7.2299E-06  6.9718E-06 -2.6260E-01  2.4400E-02
 97 8.6516E-01 1.5970E+00 2.1108E+02  1.00E+00   2.5935E-01  2.1082E+02  9.5777E-06  9.2415E-06 -2.8911E-01  2.5387E-02
 98 9.0303E-01 1.1308E+00 2.1337E+02  1.00E+00   2.6060E-01  2.1311E+02  1.2534E-05  1.2101E-05 -3.2338E-01  2.6813E-02
 99 9.4143E-01 6.7267E-01 2.1561E+02  1.00E+00   2.6178E-01  2.1535E+02  1.6209E-05  1.5658E-05 -3.7264E-01  2.8655E-02
100 9.8029E-01 2.2313E-01 2.1780E+02  1.00E+00   2.6290E-01  2.1754E+02  2.0725E-05  2.0031E-05 -4.0912E-01  3.0833E-02
101 1.0000E+00 0.0000E+00 2.1889E+02  1.00E+00   2.6344E-01  2.1862E+02  2.3358E-05  2.2583E-05  0.0000E+00  0.0000E+00

 FCO2
  9.50E-01 9.50E-01 9.50E-01 9.50E-01 9.50E-01 9.50E-01 9.50E-01 9.50E-01 9.50E-01 9.50E-01
  9.50E-01 9.50E-01 9.50E-01 9.50E-01 9.50E-01 9.50E-01 9.50E-01 9.50E-01 9.50E-01 9.50E-01
  9.50E-01 9.50E-01 9.50E-01 9.50E-01 9.50E-01 9.50E-01 9.50E-01 9.50E-01 9.50E-01 9.50E-01
  9.50E-01 9.50E-01 9.50E-01 9.50E-01 9.50E-01 9.50E-01 9.50E-01 9.50E-01 9.50E-01 9.50E-01
  9.50E-01 9.50E-01 9.50E-01 9.50E-01 9.50E-01 9.50E-01 9.50E-01 9.50E-01 9.50E-01 9.50E-01
  9.50E-01 9.50E-01 9.50E-01 9.50E-01 9.50E-01 9.50E-01 9.50E-01 9.50E-01 9.50E-01 9.50E-01
  9.50E-01 3.92E-01 9.50E-01 9.50E-01 4.19E-01 4.54E-01 4.88E-01 5.21E-01 5.53E-01 5.84E-01
  6.14E-01 6.43E-01 6.71E-01 6.99E-01 7.26E-01 7.51E-01 7.76E-01 8.00E-01 8.24E-01 8.46E-01
  8.68E-01 8.89E-01 9.10E-01 9.29E-01 9.50E-01 9.48E-01 9.50E-01 9.50E-01 9.50E-01 9.50E-01
  9.50E-01 9.50E-01 9.50E-01 9.50E-01 9.50E-01 9.50E-01 9.50E-01 9.50E-01 9.50E-01 9.50E-01
  9.50E-01

  J    PF         ALT       FTOTAL       FTIR       FDNIR       FUPIR       FTSOL       FDNSOL       FUPSOL       DIVF
  1 5.0000E-05 8.1100E+01  9.4619E+02 -7.8521E+04  0.0000E+00  7.8521E+04  7.9468E+04  1.1696E+05  3.7491E+04  1.2050E-02
  2 5.8571E-05 7.9659E+01  9.4618E+02 -7.8145E+04  2.9442E+02  7.8440E+04  7.9092E+04  1.1658E+05  3.7491E+04  1.2063E-02
  3 6.8529E-05 7.8273E+01  9.4508E+02 -7.8008E+04  3.5857E+02  7.8366E+04  7.8953E+04  1.1644E+05  3.7490E+04  1.2060E-02
  4 8.0085E-05 7.6940E+01  9.4566E+02 -7.7914E+04  3.8974E+02  7.8303E+04  7.8859E+04  1.1635E+05  3.7490E+04  1.2077E-02
  5 9.3477E-05 7.5658E+01  9.4916E+02 -7.7847E+04  4.0687E+02  7.8254E+04  7.8796E+04  1.1629E+05  3.7490E+04  1.2129E-02
  6 1.0898E-04 7.4422E+01  9.5215E+02 -7.7800E+04  4.1894E+02  7.8219E+04  7.8752E+04  1.1624E+05  3.7489E+04  1.2173E-02
  7 1.2690E-04 7.3223E+01  9.6460E+02 -7.7753E+04  4.3986E+02  7.8193E+04  7.8718E+04  1.1621E+05  3.7489E+04  1.2336E-02
  8 1.4759E-04 7.2053E+01  9.7789E+02 -7.7710E+04  4.6767E+02  7.8177E+04  7.8688E+04  1.1618E+05  3.7488E+04  1.2509E-02
  9 1.7145E-04 7.0903E+01  9.8761E+02 -7.7670E+04  4.9889E+02  7.8169E+04  7.8658E+04  1.1615E+05  3.7488E+04  1.2634E-02
 10 1.9893E-04 6.9768E+01  9.9304E+02 -7.7633E+04  5.3193E+02  7.8165E+04  7.8626E+04  1.1611E+05  3.7487E+04  1.2704E-02
 11 2.3053E-04 6.8645E+01  9.9552E+02 -7.7596E+04  5.6742E+02  7.8163E+04  7.8591E+04  1.1608E+05  3.7486E+04  1.2736E-02
 12 2.6684E-04 6.7532E+01  9.9677E+02 -7.7556E+04  6.0698E+02  7.8163E+04  7.8553E+04  1.1604E+05  3.7485E+04  1.2752E-02
 13 3.0850E-04 6.6430E+01  9.9824E+02 -7.7514E+04  6.5251E+02  7.8166E+04  7.8512E+04  1.1600E+05  3.7484E+04  1.2771E-02
 14 3.5623E-04 6.5336E+01  1.0006E+03 -7.7467E+04  7.0521E+02  7.8172E+04  7.8467E+04  1.1595E+05  3.7483E+04  1.2800E-02
 15 4.1086E-04 6.4251E+01  1.0039E+03 -7.7415E+04  7.6517E+02  7.8180E+04  7.8419E+04  1.1590E+05  3.7481E+04  1.2840E-02
 16 4.7331E-04 6.3173E+01  1.0075E+03 -7.7360E+04  8.3149E+02  7.8192E+04  7.8368E+04  1.1585E+05  3.7479E+04  1.2885E-02
 17 5.4459E-04 6.2102E+01  1.0105E+03 -7.7303E+04  9.0182E+02  7.8205E+04  7.8314E+04  1.1579E+05  3.7478E+04  1.2921E-02
 18 6.2585E-04 6.1038E+01  1.0119E+03 -7.7246E+04  9.7337E+02  7.8219E+04  7.8258E+04  1.1573E+05  3.7475E+04  1.2937E-02
 19 7.1838E-04 5.9980E+01  1.0113E+03 -7.7189E+04  1.0434E+03  7.8232E+04  7.8200E+04  1.1567E+05  3.7473E+04  1.2926E-02
 20 8.2361E-04 5.8929E+01  1.0076E+03 -7.7133E+04  1.1088E+03  7.8242E+04  7.8141E+04  1.1561E+05  3.7470E+04  1.2878E-02
 21 9.4313E-04 5.7885E+01  1.0004E+03 -7.7081E+04  1.1670E+03  7.8248E+04  7.8081E+04  1.1555E+05  3.7467E+04  1.2786E-02
 22 1.0787E-03 5.6849E+01  9.9128E+02 -7.7030E+04  1.2195E+03  7.8249E+04  7.8021E+04  1.1548E+05  3.7463E+04  1.2668E-02
 23 1.2323E-03 5.5822E+01  9.8415E+02 -7.6970E+04  1.2780E+03  7.8248E+04  7.7954E+04  1.1541E+05  3.7459E+04  1.2577E-02
 24 1.4060E-03 5.4805E+01  9.7786E+02 -7.6906E+04  1.3389E+03  7.8244E+04  7.7883E+04  1.1534E+05  3.7454E+04  1.2498E-02
 25 1.6024E-03 5.3798E+01  9.7437E+02 -7.6838E+04  1.4028E+03  7.8241E+04  7.7812E+04  1.1526E+05  3.7449E+04  1.2453E-02
 26 1.8240E-03 5.2801E+01  9.7870E+02 -7.6764E+04  1.4755E+03  7.8240E+04  7.7743E+04  1.1519E+05  3.7443E+04  1.2509E-02
 27 2.0737E-03 5.1813E+01  9.8871E+02 -7.6687E+04  1.5563E+03  7.8243E+04  7.7676E+04  1.1511E+05  3.7437E+04  1.2636E-02
 28 2.3548E-03 5.0834E+01  1.0003E+03 -7.6610E+04  1.6422E+03  7.8252E+04  7.7610E+04  1.1504E+05  3.7429E+04  1.2783E-02
 29 2.6709E-03 4.9864E+01  1.0096E+03 -7.6535E+04  1.7296E+03  7.8265E+04  7.7545E+04  1.1497E+05  3.7421E+04  1.2899E-02
 30 3.0257E-03 4.8902E+01  1.0145E+03 -7.6464E+04  1.8161E+03  7.8280E+04  7.7479E+04  1.1489E+05  3.7411E+04  1.2960E-02
 31 3.4236E-03 4.7948E+01  1.0190E+03 -7.6393E+04  1.9052E+03  7.8299E+04  7.7412E+04  1.1481E+05  3.7401E+04  1.3014E-02
 32 3.8692E-03 4.7002E+01  1.0196E+03 -7.6326E+04  1.9918E+03  7.8318E+04  7.7346E+04  1.1473E+05  3.7389E+04  1.3018E-02
 33 4.3675E-03 4.6064E+01  1.0179E+03 -7.6261E+04  2.0769E+03  7.8338E+04  7.7279E+04  1.1465E+05  3.7375E+04  1.2993E-02
 34 4.9242E-03 4.5134E+01  1.0155E+03 -7.6197E+04  2.1622E+03  7.8359E+04  7.7213E+04  1.1457E+05  3.7361E+04  1.2959E-02
 35 5.5451E-03 4.4212E+01  1.0182E+03 -7.6128E+04  2.2552E+03  7.8383E+04  7.7146E+04  1.1449E+05  3.7344E+04  1.2990E-02
 36 6.2369E-03 4.3298E+01  1.0218E+03 -7.6057E+04  2.3518E+03  7.8409E+04  7.7079E+04  1.1440E+05  3.7326E+04  1.3032E-02
 37 7.0066E-03 4.2392E+01  1.0269E+03 -7.5984E+04  2.4535E+03  7.8437E+04  7.7010E+04  1.1432E+05  3.7305E+04  1.3092E-02
 38 7.8619E-03 4.1494E+01  1.0329E+03 -7.5907E+04  2.5609E+03  7.8468E+04  7.6940E+04  1.1422E+05  3.7283E+04  1.3164E-02
 39 8.8111E-03 4.0603E+01  1.0442E+03 -7.5822E+04  2.6804E+03  7.8503E+04  7.6866E+04  1.1412E+05  3.7257E+04  1.3301E-02
 40 9.8631E-03 3.9720E+01  1.0532E+03 -7.5736E+04  2.8043E+03  7.8540E+04  7.6789E+04  1.1402E+05  3.7230E+04  1.3409E-02
 41 1.1027E-02 3.8844E+01  1.0614E+03 -7.5641E+04  2.9394E+03  7.8580E+04  7.6702E+04  1.1390E+05  3.7199E+04  1.3507E-02
 42 1.2315E-02 3.7976E+01  1.0737E+03 -7.5525E+04  3.1004E+03  7.8626E+04  7.6599E+04  1.1376E+05  3.7165E+04  1.3656E-02
 43 1.3735E-02 3.7115E+01  1.0741E+03 -7.5405E+04  3.2689E+03  7.8674E+04  7.6479E+04  1.1361E+05  3.7128E+04  1.3652E-02
 44 1.5302E-02 3.6261E+01  1.0584E+03 -7.5285E+04  3.4384E+03  7.8723E+04  7.6343E+04  1.1343E+05  3.7087E+04  1.3445E-02
 45 1.7027E-02 3.5415E+01  1.0347E+03 -7.5158E+04  3.6154E+03  7.8773E+04  7.6192E+04  1.1323E+05  3.7041E+04  1.3135E-02
 46 1.8923E-02 3.4577E+01  9.9980E+02 -7.5029E+04  3.7923E+03  7.8821E+04  7.6029E+04  1.1302E+05  3.6992E+04  1.2684E-02
 47 2.1006E-02 3.3747E+01  9.6135E+02 -7.4895E+04  3.9732E+03  7.8868E+04  7.5856E+04  1.1279E+05  3.6938E+04  1.2189E-02
 48 2.3290E-02 3.2925E+01  9.3296E+02 -7.4745E+04  4.1701E+03  7.8916E+04  7.5678E+04  1.1256E+05  3.6879E+04  1.1822E-02
 49 2.5792E-02 3.2111E+01  9.0941E+02 -7.4590E+04  4.3734E+03  7.8964E+04  7.5500E+04  1.1231E+05  3.6814E+04  1.1517E-02
 50 2.8528E-02 3.1306E+01  8.9325E+02 -7.4431E+04  4.5827E+03  7.9014E+04  7.5324E+04  1.1207E+05  3.6743E+04  1.1305E-02
 51 3.1517E-02 3.0508E+01  8.8581E+02 -7.4269E+04  4.7968E+03  7.9066E+04  7.5155E+04  1.1182E+05  3.6667E+04  1.1203E-02
 52 3.4777E-02 2.9720E+01  8.9306E+02 -7.4102E+04  5.0226E+03  7.9124E+04  7.4995E+04  1.1158E+05  3.6583E+04  1.1287E-02
 53 3.8329E-02 2.8939E+01  9.0666E+02 -7.3937E+04  5.2502E+03  7.9188E+04  7.4844E+04  1.1134E+05  3.6493E+04  1.1450E-02
 54 4.2192E-02 2.8167E+01  9.2749E+02 -7.3775E+04  5.4812E+03  7.9257E+04  7.4703E+04  1.1110E+05  3.6395E+04  1.1702E-02
 55 4.6390E-02 2.7403E+01  9.5639E+02 -7.3613E+04  5.7185E+03  7.9332E+04  7.4570E+04  1.1086E+05  3.6289E+04  1.2056E-02
 56 5.0945E-02 2.6648E+01  9.9555E+02 -7.3447E+04  5.9697E+03  7.9417E+04  7.4443E+04  1.1062E+05  3.6175E+04  1.2536E-02
 57 5.5880E-02 2.5900E+01  1.0411E+03 -7.3278E+04  6.2318E+03  7.9510E+04  7.4320E+04  1.1037E+05  3.6052E+04  1.3094E-02
 58 6.1220E-02 2.5161E+01  1.0936E+03 -7.3104E+04  6.5083E+03  7.9612E+04  7.4197E+04  1.1012E+05  3.5919E+04  1.3737E-02
 59 6.6990E-02 2.4430E+01  1.1529E+03 -7.2922E+04  6.8046E+03  7.9726E+04  7.4075E+04  1.0985E+05  3.5777E+04  1.4461E-02
 60 7.3216E-02 2.3707E+01  1.2135E+03 -7.2736E+04  7.1151E+03  7.9851E+04  7.3949E+04  1.0957E+05  3.5624E+04  1.5197E-02
 61 7.9925E-02 2.2992E+01  1.2699E+03 -7.2551E+04  7.4448E+03  7.9996E+04  7.3821E+04  1.0928E+05  3.5460E+04  1.5875E-02
 62 8.7145E-02 2.2285E+01  1.3291E+03 -7.2359E+04  7.8414E+03  8.0200E+04  7.3688E+04  1.0897E+05  3.5285E+04  1.6572E-02
 63 9.4903E-02 2.1584E+01  1.3993E+03 -7.2152E+04  8.2733E+03  8.0425E+04  7.3551E+04  1.0865E+05  3.5098E+04  1.7399E-02
 64 1.0323E-01 2.0890E+01  1.4761E+03 -7.1934E+04  8.7309E+03  8.0665E+04  7.3410E+04  1.0831E+05  3.4899E+04  1.8299E-02
 65 1.1215E-01 2.0202E+01  1.5350E+03 -7.1718E+04  9.2316E+03  8.0950E+04  7.3253E+04  1.0794E+05  3.4686E+04  1.8962E-02
 66 1.2170E-01 1.9518E+01  1.5971E+03 -7.1482E+04  9.8835E+03  8.1366E+04  7.3079E+04  1.0754E+05  3.4461E+04  1.9629E-02
 67 1.3190E-01 1.8839E+01  1.6853E+03 -7.1206E+04  1.0586E+04  8.1792E+04  7.2891E+04  1.0711E+05  3.4222E+04  2.0605E-02
 68 1.4279E-01 1.8165E+01  1.7912E+03 -7.0899E+04  1.1336E+04  8.2235E+04  7.2690E+04  1.0666E+05  3.3968E+04  2.1781E-02
 69 1.5439E-01 1.7496E+01  1.9112E+03 -7.0567E+04  1.2125E+04  8.2692E+04  7.2478E+04  1.0618E+05  3.3700E+04  2.3112E-02
 70 1.6673E-01 1.6833E+01  2.0474E+03 -7.0210E+04  1.2952E+04  8.3162E+04  7.2257E+04  1.0567E+05  3.3416E+04  2.4619E-02
 71 1.7985E-01 1.6175E+01  2.2003E+03 -6.9829E+04  1.3817E+04  8.3647E+04  7.2030E+04  1.0515E+05  3.3117E+04  2.6304E-02
 72 1.9376E-01 1.5524E+01  2.3702E+03 -6.9426E+04  1.4720E+04  8.4147E+04  7.1796E+04  1.0460E+05  3.2802E+04  2.8167E-02
 73 2.0850E-01 1.4879E+01  2.5624E+03 -6.8996E+04  1.5672E+04  8.4668E+04  7.1559E+04  1.0403E+05  3.2471E+04  3.0264E-02
 74 2.2410E-01 1.4240E+01  2.7675E+03 -6.8550E+04  1.6658E+04  8.5208E+04  7.1318E+04  1.0344E+05  3.2123E+04  3.2479E-02
 75 2.4057E-01 1.3609E+01  2.9843E+03 -6.8090E+04  1.7675E+04  8.5765E+04  7.1074E+04  1.0283E+05  3.1757E+04  3.4796E-02
 76 2.5795E-01 1.2984E+01  3.2111E+03 -6.7618E+04  1.8724E+04  8.6342E+04  7.0829E+04  1.0220E+05  3.1375E+04  3.7190E-02
 77 2.7625E-01 1.2367E+01  3.4461E+03 -6.7137E+04  1.9803E+04  8.6940E+04  7.0583E+04  1.0156E+05  3.0974E+04  3.9638E-02
 78 2.9550E-01 1.1757E+01  3.6871E+03 -6.6649E+04  2.0909E+04  8.7558E+04  7.0336E+04  1.0089E+05  3.0555E+04  4.2110E-02
 79 3.1571E-01 1.1155E+01  3.9315E+03 -6.6158E+04  2.2043E+04  8.8201E+04  7.0090E+04  1.0021E+05  3.0119E+04  4.4575E-02
 80 3.3690E-01 1.0561E+01  4.1762E+03 -6.5668E+04  2.3201E+04  8.8869E+04  6.9844E+04  9.9508E+04  2.9664E+04  4.6992E-02
 81 3.5908E-01 9.9741E+00  4.4169E+03 -6.5184E+04  2.4382E+04  8.9566E+04  6.9601E+04  9.8791E+04  2.9190E+04  4.9314E-02
 82 3.8227E-01 9.3959E+00  4.6481E+03 -6.4713E+04  2.5584E+04  9.0297E+04  6.9361E+04  9.8059E+04  2.8698E+04  5.1476E-02
 83 4.0646E-01 8.8260E+00  4.8615E+03 -6.4263E+04  2.6805E+04  9.1068E+04  6.9125E+04  9.7312E+04  2.8187E+04  5.3383E-02
 84 4.3168E-01 8.2646E+00  5.0436E+03 -6.3850E+04  2.8042E+04  9.1892E+04  6.8893E+04  9.6551E+04  2.7658E+04  5.4887E-02
 85 4.5790E-01 7.7122E+00  5.1704E+03 -6.3497E+04  2.9281E+04  9.2778E+04  6.8668E+04  9.5778E+04  2.7110E+04  5.5729E-02
 86 4.8514E-01 7.1690E+00  5.1906E+03 -6.3258E+04  3.0534E+04  9.3792E+04  6.8448E+04  9.4993E+04  2.6544E+04  5.5342E-02
 87 5.1339E-01 6.6338E+00  5.1073E+03 -6.3128E+04  3.2084E+04  9.5212E+04  6.8236E+04  9.4196E+04  2.5961E+04  5.3641E-02
 88 5.4263E-01 6.1044E+00  5.1341E+03 -6.2895E+04  3.4272E+04  9.7167E+04  6.8029E+04  9.3389E+04  2.5359E+04  5.2838E-02
 89 5.7285E-01 5.5798E+00  5.4230E+03 -6.2405E+04  3.6800E+04  9.9205E+04  6.7828E+04  9.2569E+04  2.4741E+04  5.4665E-02
 90 6.0404E-01 5.0603E+00  5.9324E+03 -6.1700E+04  3.9644E+04  1.0134E+05  6.7632E+04  9.1738E+04  2.4106E+04  5.8538E-02
 91 6.3616E-01 4.5463E+00  6.6424E+03 -6.0797E+04  4.2765E+04  1.0356E+05  6.7439E+04  9.0894E+04  2.3454E+04  6.4139E-02
 92 6.6918E-01 4.0381E+00  7.5585E+03 -5.9689E+04  4.6160E+04  1.0585E+05  6.7248E+04  9.0036E+04  2.2788E+04  7.1408E-02
 93 7.0308E-01 3.5362E+00  8.7069E+03 -5.8350E+04  4.9852E+04  1.0820E+05  6.7057E+04  8.9164E+04  2.2107E+04  8.0470E-02
 94 7.3782E-01 3.0410E+00  1.0098E+04 -5.6766E+04  5.3882E+04  1.1065E+05  6.6864E+04  8.8277E+04  2.1413E+04  9.1262E-02
 95 7.7334E-01 2.5525E+00  1.1723E+04 -5.4944E+04  5.8287E+04  1.1323E+05  6.6667E+04  8.7374E+04  2.0707E+04  1.0353E-01
 96 8.0961E-01 2.0711E+00  1.3584E+04 -5.2880E+04  6.3177E+04  1.1606E+05  6.6464E+04  8.6454E+04  1.9990E+04  1.1705E-01
 97 8.4657E-01 1.5970E+00  1.5654E+04 -5.0598E+04  6.8416E+04  1.1901E+05  6.6252E+04  8.5516E+04  1.9264E+04  1.3153E-01
 98 8.8415E-01 1.1308E+00  1.7992E+04 -4.8035E+04  7.3964E+04  1.2200E+05  6.6027E+04  8.4557E+04  1.8530E+04  1.4748E-01
 99 9.2230E-01 6.7267E-01  2.0669E+04 -4.5116E+04  7.9856E+04  1.2497E+05  6.5785E+04  8.3576E+04  1.7791E+04  1.6539E-01
100 9.6095E-01 2.2313E-01  2.3825E+04 -4.1697E+04  8.5942E+04  1.2764E+05  6.5522E+04  8.2571E+04  1.7049E+04  1.8666E-01
101 1.0000E+00 0.0000E+00  2.7345E+04 -3.7891E+04  9.0976E+04  1.2887E+05  6.5235E+04  8.1544E+04  1.6309E+04  2.1219E-01
 
 NST=     2 JCONV= 63 CHG=9.84E-04 dt0=1.00E+04 DIVF(1)=-1.71E-03 DIVFrms= 1.28E-03 DT(ND)=-3.74E-02 T(ND)=2.1885E+02
 NST=     3 JCONV= 63 CHG=2.78E-03 dt0=1.00E+04 DIVF(1)=-1.25E-03 DIVFrms= 9.46E-04 DT(ND)=-2.73E-02 T(ND)=2.1882E+02
 NST=     4 JCONV= 63 CHG=2.67E-03 dt0=1.00E+04 DIVF(1)=-8.74E-04 DIVFrms= 7.97E-04 DT(ND)=-1.91E-02 T(ND)=2.1880E+02
 NST=     5 JCONV= 63 CHG=2.59E-03 dt0=1.00E+04 DIVF(1)=-7.26E-04 DIVFrms= 7.82E-04 DT(ND)=-1.59E-02 T(ND)=2.1879E+02
 NST=     6 JCONV= 63 CHG=2.54E-03 dt0=1.00E+04 DIVF(1)=-5.53E-04 DIVFrms= 7.97E-04 DT(ND)=-1.21E-02 T(ND)=2.1877E+02
 NST=     7 JCONV= 63 CHG=2.51E-03 dt0=1.00E+04 DIVF(1)=-3.86E-04 DIVFrms= 8.46E-04 DT(ND)=-8.44E-03 T(ND)=2.1877E+02
 NST=     8 JCONV= 63 CHG=2.48E-03 dt0=1.00E+04 DIVF(1)=-3.21E-04 DIVFrms= 8.71E-04 DT(ND)=-7.02E-03 T(ND)=2.1876E+02
 NST=     9 JCONV= 63 CHG=2.46E-03 dt0=1.00E+04 DIVF(1)=-2.28E-04 DIVFrms= 9.16E-04 DT(ND)=-4.98E-03 T(ND)=2.1875E+02
 NST=    10 JCONV= 63 CHG=2.45E-03 dt0=1.00E+04 DIVF(1)=-1.59E-04 DIVFrms= 9.52E-04 DT(ND)=-3.48E-03 T(ND)=2.1875E+02
 NST=    11 JCONV= 63 CHG=2.43E-03 dt0=1.00E+04 DIVF(1)=-1.09E-04 DIVFrms= 9.80E-04 DT(ND)=-2.39E-03 T(ND)=2.1875E+02
 NST=    12 JCONV= 63 CHG=2.42E-03 dt0=1.00E+04 DIVF(1)=-7.80E-05 DIVFrms= 9.99E-04 DT(ND)=-1.71E-03 T(ND)=2.1875E+02
 NST=    13 JCONV= 63 CHG=2.42E-03 dt0=1.00E+04 DIVF(1)=-5.30E-05 DIVFrms= 1.01E-03 DT(ND)=-1.16E-03 T(ND)=2.1875E+02
 NST=    14 JCONV= 63 CHG=2.41E-03 dt0=1.00E+04 DIVF(1)=-3.81E-05 DIVFrms= 1.02E-03 DT(ND)=-8.34E-04 T(ND)=2.1874E+02
 NST=    15 JCONV= 63 CHG=2.41E-03 dt0=1.00E+04 DIVF(1)=-2.70E-05 DIVFrms= 1.03E-03 DT(ND)=-5.90E-04 T(ND)=2.1874E+02
 NST=    16 JCONV= 63 CHG=2.40E-03 dt0=1.00E+04 DIVF(1)=-1.88E-05 DIVFrms= 1.03E-03 DT(ND)=-4.12E-04 T(ND)=2.1874E+02
 NST=    17 JCONV= 63 CHG=2.40E-03 dt0=1.00E+04 DIVF(1)=-1.48E-05 DIVFrms= 1.04E-03 DT(ND)=-3.24E-04 T(ND)=2.1874E+02
 NST=    18 JCONV= 63 CHG=2.39E-03 dt0=1.00E+04 DIVF(1)=-1.02E-05 DIVFrms= 1.04E-03 DT(ND)=-2.22E-04 T(ND)=2.1874E+02
 NST=    19 JCONV= 63 CHG=2.39E-03 dt0=1.00E+04 DIVF(1)=-8.05E-06 DIVFrms= 1.04E-03 DT(ND)=-1.76E-04 T(ND)=2.1874E+02
 NST=    20 JCONV= 63 CHG=2.39E-03 dt0=1.00E+04 DIVF(1)=-6.63E-06 DIVFrms= 1.04E-03 DT(ND)=-1.45E-04 T(ND)=2.1874E+02
 NST=    21 JCONV= 63 CHG=2.39E-03 dt0=1.00E+04 DIVF(1)=-5.83E-06 DIVFrms= 1.04E-03 DT(ND)=-1.28E-04 T(ND)=2.1874E+02
 NST=    22 JCONV= 63 CHG=2.39E-03 dt0=1.00E+04 DIVF(1)=-4.85E-06 DIVFrms= 1.04E-03 DT(ND)=-1.06E-04 T(ND)=2.1874E+02
 NST=    23 JCONV= 63 CHG=2.39E-03 dt0=1.00E+04 DIVF(1)=-2.88E-06 DIVFrms= 1.04E-03 DT(ND)=-6.30E-05 T(ND)=2.1874E+02
 NST=    24 JCONV= 63 CHG=2.38E-03 dt0=1.00E+04 DIVF(1)=-4.28E-06 DIVFrms= 1.04E-03 DT(ND)=-9.36E-05 T(ND)=2.1874E+02
 NST=    25 JCONV= 63 CHG=2.38E-03 dt0=1.00E+04 DIVF(1)=-4.25E-06 DIVFrms= 1.04E-03 DT(ND)=-9.31E-05 T(ND)=2.1874E+02
 NST=    26 JCONV= 63 CHG=2.38E-03 dt0=1.00E+04 DIVF(1)=-4.75E-06 DIVFrms= 1.04E-03 DT(ND)=-1.04E-04 T(ND)=2.1874E+02
 NST=    27 JCONV= 63 CHG=2.38E-03 dt0=1.00E+04 DIVF(1)=-3.30E-06 DIVFrms= 1.04E-03 DT(ND)=-7.22E-05 T(ND)=2.1874E+02
 NST=    28 JCONV= 63 CHG=2.38E-03 dt0=1.00E+04 DIVF(1)=-4.81E-06 DIVFrms= 1.04E-03 DT(ND)=-1.05E-04 T(ND)=2.1874E+02
 NST=    29 JCONV= 63 CHG=2.38E-03 dt0=1.00E+04 DIVF(1)=-5.18E-06 DIVFrms= 1.04E-03 DT(ND)=-1.13E-04 T(ND)=2.1874E+02
 NST=    30 JCONV= 63 CHG=2.38E-03 dt0=1.00E+04 DIVF(1)=-2.99E-06 DIVFrms= 1.04E-03 DT(ND)=-6.53E-05 T(ND)=2.1874E+02
 NST=    31 JCONV= 63 CHG=2.38E-03 dt0=1.00E+04 DIVF(1)=-5.18E-06 DIVFrms= 1.04E-03 DT(ND)=-1.13E-04 T(ND)=2.1874E+02
 NST=    32 JCONV= 63 CHG=2.38E-03 dt0=1.00E+04 DIVF(1)=-4.09E-06 DIVFrms= 1.04E-03 DT(ND)=-8.94E-05 T(ND)=2.1874E+02
 NST=    33 JCONV= 63 CHG=2.38E-03 dt0=1.00E+04 DIVF(1)=-4.87E-06 DIVFrms= 1.04E-03 DT(ND)=-1.07E-04 T(ND)=2.1874E+02
 NST=    34 JCONV= 63 CHG=2.37E-03 dt0=1.00E+04 DIVF(1)=-4.75E-06 DIVFrms= 1.04E-03 DT(ND)=-1.04E-04 T(ND)=2.1874E+02
 NST=    35 JCONV= 63 CHG=2.38E-03 dt0=1.00E+04 DIVF(1)=-3.95E-06 DIVFrms= 1.04E-03 DT(ND)=-8.64E-05 T(ND)=2.1874E+02
 NST=    36 JCONV= 63 CHG=2.38E-03 dt0=1.00E+04 DIVF(1)=-5.39E-06 DIVFrms= 1.04E-03 DT(ND)=-1.18E-04 T(ND)=2.1874E+02
 NST=    37 JCONV= 63 CHG=2.38E-03 dt0=1.00E+04 DIVF(1)=-4.15E-06 DIVFrms= 1.04E-03 DT(ND)=-9.07E-05 T(ND)=2.1874E+02
 NST=    38 JCONV= 63 CHG=2.37E-03 dt0=1.00E+04 DIVF(1)=-6.26E-06 DIVFrms= 1.04E-03 DT(ND)=-1.37E-04 T(ND)=2.1874E+02
 NST=    39 JCONV= 63 CHG=2.38E-03 dt0=1.00E+04 DIVF(1)=-4.03E-06 DIVFrms= 1.05E-03 DT(ND)=-8.81E-05 T(ND)=2.1874E+02
 NST=    40 JCONV= 63 CHG=2.38E-03 dt0=1.00E+04 DIVF(1)=-5.50E-06 DIVFrms= 1.04E-03 DT(ND)=-1.20E-04 T(ND)=2.1874E+02
 NST=    41 JCONV= 63 CHG=2.37E-03 dt0=1.00E+04 DIVF(1)=-4.05E-06 DIVFrms= 1.05E-03 DT(ND)=-8.86E-05 T(ND)=2.1874E+02
 NST=    42 JCONV= 63 CHG=2.38E-03 dt0=1.00E+04 DIVF(1)=-6.35E-06 DIVFrms= 1.04E-03 DT(ND)=-1.39E-04 T(ND)=2.1874E+02
 NST=    43 JCONV= 63 CHG=2.37E-03 dt0=1.00E+04 DIVF(1)=-3.43E-06 DIVFrms= 1.05E-03 DT(ND)=-7.50E-05 T(ND)=2.1874E+02
 NST=    44 JCONV= 63 CHG=2.37E-03 dt0=1.00E+04 DIVF(1)=-6.14E-06 DIVFrms= 1.04E-03 DT(ND)=-1.34E-04 T(ND)=2.1874E+02
 NST=    45 JCONV= 63 CHG=2.38E-03 dt0=1.00E+04 DIVF(1)=-4.46E-06 DIVFrms= 1.05E-03 DT(ND)=-9.75E-05 T(ND)=2.1874E+02
 NST=    46 JCONV= 63 CHG=2.37E-03 dt0=1.00E+04 DIVF(1)=-5.39E-06 DIVFrms= 1.04E-03 DT(ND)=-1.18E-04 T(ND)=2.1874E+02
 NST=    47 JCONV= 63 CHG=2.37E-03 dt0=1.00E+04 DIVF(1)=-4.70E-06 DIVFrms= 1.05E-03 DT(ND)=-1.03E-04 T(ND)=2.1874E+02
 NST=    48 JCONV= 63 CHG=2.38E-03 dt0=1.00E+04 DIVF(1)=-5.53E-06 DIVFrms= 1.04E-03 DT(ND)=-1.21E-04 T(ND)=2.1874E+02
 NST=    49 JCONV= 63 CHG=2.37E-03 dt0=1.00E+04 DIVF(1)=-4.62E-06 DIVFrms= 1.05E-03 DT(ND)=-1.01E-04 T(ND)=2.1874E+02
 NST=    50 JCONV= 63 CHG=2.37E-03 dt0=1.00E+04 DIVF(1)=-5.97E-06 DIVFrms= 1.05E-03 DT(ND)=-1.31E-04 T(ND)=2.1874E+02
 NST=    51 JCONV= 63 CHG=2.37E-03 dt0=1.00E+04 DIVF(1)=-4.63E-06 DIVFrms= 1.05E-03 DT(ND)=-1.01E-04 T(ND)=2.1874E+02
 NST=    52 JCONV= 63 CHG=2.37E-03 dt0=1.00E+04 DIVF(1)=-5.10E-06 DIVFrms= 1.05E-03 DT(ND)=-1.11E-04 T(ND)=2.1874E+02
 NST=    53 JCONV= 63 CHG=2.37E-03 dt0=1.00E+04 DIVF(1)=-5.16E-06 DIVFrms= 1.05E-03 DT(ND)=-1.13E-04 T(ND)=2.1874E+02
 NST=    54 JCONV= 63 CHG=2.37E-03 dt0=1.00E+04 DIVF(1)=-4.36E-06 DIVFrms= 1.05E-03 DT(ND)=-9.55E-05 T(ND)=2.1874E+02
 NST=    55 JCONV= 63 CHG=2.37E-03 dt0=1.00E+04 DIVF(1)=-6.44E-06 DIVFrms= 1.05E-03 DT(ND)=-1.41E-04 T(ND)=2.1874E+02
 NST=    56 JCONV= 63 CHG=2.37E-03 dt0=1.00E+04 DIVF(1)=-4.57E-06 DIVFrms= 1.05E-03 DT(ND)=-9.99E-05 T(ND)=2.1874E+02
 NST=    57 JCONV= 63 CHG=2.37E-03 dt0=1.00E+04 DIVF(1)=-6.19E-06 DIVFrms= 1.05E-03 DT(ND)=-1.35E-04 T(ND)=2.1874E+02
 NST=    58 JCONV= 63 CHG=2.37E-03 dt0=1.00E+04 DIVF(1)=-3.97E-06 DIVFrms= 1.05E-03 DT(ND)=-8.69E-05 T(ND)=2.1874E+02
 NST=    59 JCONV= 63 CHG=2.37E-03 dt0=1.00E+04 DIVF(1)=-3.94E-06 DIVFrms= 1.05E-03 DT(ND)=-8.61E-05 T(ND)=2.1874E+02
 NST=    60 JCONV= 63 CHG=2.37E-03 dt0=1.00E+04 DIVF(1)=-6.67E-06 DIVFrms= 1.05E-03 DT(ND)=-1.46E-04 T(ND)=2.1874E+02
 NST=    61 JCONV= 63 CHG=2.37E-03 dt0=1.00E+04 DIVF(1)=-4.07E-06 DIVFrms= 1.05E-03 DT(ND)=-8.91E-05 T(ND)=2.1874E+02
 NST=    62 JCONV= 63 CHG=2.37E-03 dt0=1.00E+04 DIVF(1)=-5.01E-06 DIVFrms= 1.05E-03 DT(ND)=-1.09E-04 T(ND)=2.1874E+02
 NST=    63 JCONV= 63 CHG=2.37E-03 dt0=1.00E+04 DIVF(1)=-6.11E-06 DIVFrms= 1.05E-03 DT(ND)=-1.34E-04 T(ND)=2.1874E+02
 NST=    64 JCONV= 63 CHG=2.37E-03 dt0=1.00E+04 DIVF(1)=-4.49E-06 DIVFrms= 1.05E-03 DT(ND)=-9.83E-05 T(ND)=2.1874E+02
 NST=    65 JCONV= 63 CHG=2.37E-03 dt0=1.00E+04 DIVF(1)=-4.24E-06 DIVFrms= 1.05E-03 DT(ND)=-9.27E-05 T(ND)=2.1874E+02
 NST=    66 JCONV= 63 CHG=2.37E-03 dt0=1.00E+04 DIVF(1)=-5.18E-06 DIVFrms= 1.05E-03 DT(ND)=-1.13E-04 T(ND)=2.1874E+02
 NST=    67 JCONV= 63 CHG=2.37E-03 dt0=1.00E+04 DIVF(1)=-4.35E-06 DIVFrms= 1.05E-03 DT(ND)=-9.52E-05 T(ND)=2.1874E+02
 NST=    68 JCONV= 63 CHG=2.37E-03 dt0=1.00E+04 DIVF(1)=-4.24E-06 DIVFrms= 1.05E-03 DT(ND)=-9.29E-05 T(ND)=2.1874E+02
 NST=    69 JCONV= 63 CHG=2.37E-03 dt0=1.00E+04 DIVF(1)=-5.93E-06 DIVFrms= 1.05E-03 DT(ND)=-1.30E-04 T(ND)=2.1874E+02
 NST=    70 JCONV= 63 CHG=2.37E-03 dt0=1.00E+04 DIVF(1)=-3.99E-06 DIVFrms= 1.06E-03 DT(ND)=-8.73E-05 T(ND)=2.1874E+02
 NST=    71 JCONV= 63 CHG=2.37E-03 dt0=1.00E+04 DIVF(1)=-4.16E-06 DIVFrms= 1.06E-03 DT(ND)=-9.11E-05 T(ND)=2.1874E+02
 NST=    72 JCONV= 63 CHG=2.37E-03 dt0=1.00E+04 DIVF(1)=-4.76E-06 DIVFrms= 1.06E-03 DT(ND)=-1.04E-04 T(ND)=2.1874E+02
 NST=    73 JCONV= 63 CHG=2.37E-03 dt0=1.00E+04 DIVF(1)=-5.88E-06 DIVFrms= 1.05E-03 DT(ND)=-1.29E-04 T(ND)=2.1874E+02
 NST=    74 JCONV= 63 CHG=2.37E-03 dt0=1.00E+04 DIVF(1)=-4.17E-06 DIVFrms= 1.06E-03 DT(ND)=-9.12E-05 T(ND)=2.1874E+02
 NST=    75 JCONV= 63 CHG=2.37E-03 dt0=1.00E+04 DIVF(1)=-5.67E-06 DIVFrms= 1.06E-03 DT(ND)=-1.24E-04 T(ND)=2.1874E+02
 NST=    76 JCONV= 63 CHG=2.37E-03 dt0=1.00E+04 DIVF(1)=-4.02E-06 DIVFrms= 1.06E-03 DT(ND)=-8.79E-05 T(ND)=2.1874E+02
 NST=    77 JCONV= 63 CHG=2.37E-03 dt0=1.00E+04 DIVF(1)=-6.02E-06 DIVFrms= 1.05E-03 DT(ND)=-1.32E-04 T(ND)=2.1874E+02
 NST=    78 JCONV= 63 CHG=2.37E-03 dt0=1.00E+04 DIVF(1)=-4.49E-06 DIVFrms= 1.06E-03 DT(ND)=-9.81E-05 T(ND)=2.1874E+02
 NST=    79 JCONV= 63 CHG=2.37E-03 dt0=1.00E+04 DIVF(1)=-3.72E-06 DIVFrms= 1.06E-03 DT(ND)=-8.13E-05 T(ND)=2.1874E+02
 NST=    80 JCONV= 63 CHG=2.37E-03 dt0=1.00E+04 DIVF(1)=-4.75E-06 DIVFrms= 1.06E-03 DT(ND)=-1.04E-04 T(ND)=2.1874E+02
 NST=    81 JCONV= 63 CHG=2.37E-03 dt0=1.00E+04 DIVF(1)=-6.28E-06 DIVFrms= 1.06E-03 DT(ND)=-1.37E-04 T(ND)=2.1874E+02
 NST=    82 JCONV= 63 CHG=2.37E-03 dt0=1.00E+04 DIVF(1)=-4.44E-06 DIVFrms= 1.06E-03 DT(ND)=-9.71E-05 T(ND)=2.1874E+02
 NST=    83 JCONV= 63 CHG=2.37E-03 dt0=1.00E+04 DIVF(1)=-4.62E-06 DIVFrms= 1.06E-03 DT(ND)=-1.01E-04 T(ND)=2.1874E+02
 NST=    84 JCONV= 63 CHG=2.37E-03 dt0=1.00E+04 DIVF(1)=-4.45E-06 DIVFrms= 1.06E-03 DT(ND)=-9.73E-05 T(ND)=2.1874E+02
 NST=    85 JCONV= 63 CHG=2.37E-03 dt0=1.00E+04 DIVF(1)=-4.34E-06 DIVFrms= 1.06E-03 DT(ND)=-9.50E-05 T(ND)=2.1874E+02
 NST=    86 JCONV= 63 CHG=2.37E-03 dt0=1.00E+04 DIVF(1)=-6.13E-06 DIVFrms= 1.06E-03 DT(ND)=-1.34E-04 T(ND)=2.1874E+02
 NST=    87 JCONV= 63 CHG=2.37E-03 dt0=1.00E+04 DIVF(1)=-3.92E-06 DIVFrms= 1.06E-03 DT(ND)=-8.57E-05 T(ND)=2.1874E+02
 NST=    88 JCONV= 63 CHG=2.37E-03 dt0=1.00E+04 DIVF(1)=-4.70E-06 DIVFrms= 1.06E-03 DT(ND)=-1.03E-04 T(ND)=2.1874E+02
 NST=    89 JCONV= 63 CHG=2.37E-03 dt0=1.00E+04 DIVF(1)=-4.01E-06 DIVFrms= 1.06E-03 DT(ND)=-8.78E-05 T(ND)=2.1874E+02
 NST=    90 JCONV= 63 CHG=2.37E-03 dt0=1.00E+04 DIVF(1)=-3.91E-06 DIVFrms= 1.06E-03 DT(ND)=-8.56E-05 T(ND)=2.1874E+02
 NST=    91 JCONV= 63 CHG=2.37E-03 dt0=1.00E+04 DIVF(1)=-4.52E-06 DIVFrms= 1.06E-03 DT(ND)=-9.88E-05 T(ND)=2.1874E+02
 NST=    92 JCONV= 63 CHG=2.37E-03 dt0=1.00E+04 DIVF(1)=-4.81E-06 DIVFrms= 1.06E-03 DT(ND)=-1.05E-04 T(ND)=2.1873E+02
 NST=    93 JCONV= 63 CHG=2.37E-03 dt0=1.00E+04 DIVF(1)=-4.25E-06 DIVFrms= 1.06E-03 DT(ND)=-9.29E-05 T(ND)=2.1873E+02
 NST=    94 JCONV= 63 CHG=2.37E-03 dt0=1.00E+04 DIVF(1)=-5.16E-06 DIVFrms= 1.06E-03 DT(ND)=-1.13E-04 T(ND)=2.1873E+02
 NST=    95 JCONV= 63 CHG=2.37E-03 dt0=1.00E+04 DIVF(1)=-4.51E-06 DIVFrms= 1.06E-03 DT(ND)=-9.87E-05 T(ND)=2.1873E+02
 NST=    96 JCONV= 63 CHG=2.37E-03 dt0=1.00E+04 DIVF(1)=-5.06E-06 DIVFrms= 1.06E-03 DT(ND)=-1.11E-04 T(ND)=2.1873E+02
 NST=    97 JCONV= 63 CHG=2.37E-03 dt0=1.00E+04 DIVF(1)=-4.44E-06 DIVFrms= 1.06E-03 DT(ND)=-9.72E-05 T(ND)=2.1873E+02
 NST=    98 JCONV= 63 CHG=2.37E-03 dt0=1.00E+04 DIVF(1)=-4.59E-06 DIVFrms= 1.07E-03 DT(ND)=-1.00E-04 T(ND)=2.1873E+02
 NST=    99 JCONV= 63 CHG=2.37E-03 dt0=1.00E+04 DIVF(1)=-4.61E-06 DIVFrms= 1.07E-03 DT(ND)=-1.01E-04 T(ND)=2.1873E+02
 NST=   100 JCONV= 63 CHG=2.37E-03 dt0=1.00E+04 DIVF(1)=-4.36E-06 DIVFrms= 1.07E-03 DT(ND)=-9.53E-05 T(ND)=2.1873E+02
 NST=   101 JCONV= 63 CHG=2.37E-03 dt0=1.00E+04 DIVF(1)=-3.94E-06 DIVFrms= 1.07E-03 DT(ND)=-8.62E-05 T(ND)=2.1873E+02
 NST=   102 JCONV= 63 CHG=2.38E-03 dt0=1.00E+04 DIVF(1)=-4.79E-06 DIVFrms= 1.07E-03 DT(ND)=-1.05E-04 T(ND)=2.1873E+02
 NST=   103 JCONV= 63 CHG=2.37E-03 dt0=1.00E+04 DIVF(1)=-4.42E-06 DIVFrms= 1.07E-03 DT(ND)=-9.66E-05 T(ND)=2.1873E+02
 NST=   104 JCONV= 63 CHG=2.37E-03 dt0=1.00E+04 DIVF(1)=-4.67E-06 DIVFrms= 1.07E-03 DT(ND)=-1.02E-04 T(ND)=2.1873E+02
 NST=   105 JCONV= 63 CHG=2.37E-03 dt0=1.00E+04 DIVF(1)=-4.95E-06 DIVFrms= 1.07E-03 DT(ND)=-1.08E-04 T(ND)=2.1873E+02
 NST=   106 JCONV= 63 CHG=2.37E-03 dt0=1.00E+04 DIVF(1)=-4.57E-06 DIVFrms= 1.07E-03 DT(ND)=-9.99E-05 T(ND)=2.1873E+02
 NST=   107 JCONV= 63 CHG=2.37E-03 dt0=1.00E+04 DIVF(1)=-3.42E-06 DIVFrms= 1.07E-03 DT(ND)=-7.49E-05 T(ND)=2.1873E+02
 NST=   108 JCONV= 63 CHG=2.37E-03 dt0=1.00E+04 DIVF(1)=-4.42E-06 DIVFrms= 1.07E-03 DT(ND)=-9.68E-05 T(ND)=2.1873E+02
 NST=   109 JCONV= 63 CHG=2.37E-03 dt0=1.00E+04 DIVF(1)=-4.62E-06 DIVFrms= 1.07E-03 DT(ND)=-1.01E-04 T(ND)=2.1873E+02
 NST=   110 JCONV= 63 CHG=2.37E-03 dt0=1.00E+04 DIVF(1)=-4.61E-06 DIVFrms= 1.07E-03 DT(ND)=-1.01E-04 T(ND)=2.1873E+02
 NST=   111 JCONV= 63 CHG=2.37E-03 dt0=1.00E+04 DIVF(1)=-4.54E-06 DIVFrms= 1.07E-03 DT(ND)=-9.93E-05 T(ND)=2.1873E+02
 NST=   112 JCONV= 63 CHG=2.37E-03 dt0=1.00E+04 DIVF(1)=-3.99E-06 DIVFrms= 1.07E-03 DT(ND)=-8.72E-05 T(ND)=2.1873E+02
 NST=   113 JCONV= 63 CHG=2.37E-03 dt0=1.00E+04 DIVF(1)=-8.50E-06 DIVFrms= 1.07E-03 DT(ND)=-1.86E-04 T(ND)=2.1873E+02
 NST=   114 JCONV= 63 CHG=2.37E-03 dt0=1.00E+04 DIVF(1)=-7.17E-06 DIVFrms= 1.07E-03 DT(ND)=-1.57E-04 T(ND)=2.1873E+02
 NST=   115 JCONV= 63 CHG=2.37E-03 dt0=1.00E+04 DIVF(1)=-6.70E-06 DIVFrms= 1.07E-03 DT(ND)=-1.47E-04 T(ND)=2.1873E+02
 NST=   116 JCONV= 63 CHG=2.37E-03 dt0=1.00E+04 DIVF(1)=-6.42E-06 DIVFrms= 1.07E-03 DT(ND)=-1.40E-04 T(ND)=2.1873E+02
 NST=   117 JCONV= 63 CHG=2.37E-03 dt0=1.00E+04 DIVF(1)=-6.46E-06 DIVFrms= 1.07E-03 DT(ND)=-1.41E-04 T(ND)=2.1873E+02
 NST=   118 JCONV= 63 CHG=2.37E-03 dt0=1.00E+04 DIVF(1)=-5.99E-06 DIVFrms= 1.07E-03 DT(ND)=-1.31E-04 T(ND)=2.1873E+02
 NST=   119 JCONV= 63 CHG=2.37E-03 dt0=1.00E+04 DIVF(1)=-5.36E-06 DIVFrms= 1.07E-03 DT(ND)=-1.17E-04 T(ND)=2.1873E+02
 NST=   120 JCONV= 63 CHG=2.37E-03 dt0=1.00E+04 DIVF(1)=-4.67E-06 DIVFrms= 1.07E-03 DT(ND)=-1.02E-04 T(ND)=2.1873E+02
 NST=   121 JCONV= 63 CHG=2.37E-03 dt0=1.00E+04 DIVF(1)=-4.84E-06 DIVFrms= 1.07E-03 DT(ND)=-1.06E-04 T(ND)=2.1873E+02
 NST=   122 JCONV= 63 CHG=2.37E-03 dt0=1.00E+04 DIVF(1)=-5.49E-06 DIVFrms= 1.07E-03 DT(ND)=-1.20E-04 T(ND)=2.1873E+02
 NST=   123 JCONV= 63 CHG=2.37E-03 dt0=1.00E+04 DIVF(1)=-5.21E-06 DIVFrms= 1.08E-03 DT(ND)=-1.14E-04 T(ND)=2.1873E+02
 NST=   124 JCONV= 63 CHG=2.37E-03 dt0=1.00E+04 DIVF(1)=-4.82E-06 DIVFrms= 1.08E-03 DT(ND)=-1.05E-04 T(ND)=2.1873E+02
 NST=   125 JCONV= 63 CHG=2.37E-03 dt0=1.00E+04 DIVF(1)=-5.83E-06 DIVFrms= 1.08E-03 DT(ND)=-1.28E-04 T(ND)=2.1873E+02
 NST=   126 JCONV= 63 CHG=2.37E-03 dt0=1.00E+04 DIVF(1)=-5.01E-06 DIVFrms= 1.08E-03 DT(ND)=-1.10E-04 T(ND)=2.1873E+02
 NST=   127 JCONV= 63 CHG=2.37E-03 dt0=1.00E+04 DIVF(1)=-5.08E-06 DIVFrms= 1.08E-03 DT(ND)=-1.11E-04 T(ND)=2.1873E+02
 NST=   128 JCONV= 63 CHG=2.37E-03 dt0=1.00E+04 DIVF(1)=-5.56E-06 DIVFrms= 1.08E-03 DT(ND)=-1.22E-04 T(ND)=2.1873E+02
 NST=   129 JCONV= 63 CHG=2.37E-03 dt0=1.00E+04 DIVF(1)=-5.77E-06 DIVFrms= 1.08E-03 DT(ND)=-1.26E-04 T(ND)=2.1873E+02
 NST=   130 JCONV= 63 CHG=2.37E-03 dt0=1.00E+04 DIVF(1)=-5.26E-06 DIVFrms= 1.08E-03 DT(ND)=-1.15E-04 T(ND)=2.1873E+02
 NST=   131 JCONV= 63 CHG=2.37E-03 dt0=1.00E+04 DIVF(1)=-5.38E-06 DIVFrms= 1.08E-03 DT(ND)=-1.18E-04 T(ND)=2.1873E+02
 NST=   132 JCONV= 63 CHG=2.37E-03 dt0=1.00E+04 DIVF(1)=-5.75E-06 DIVFrms= 1.08E-03 DT(ND)=-1.26E-04 T(ND)=2.1873E+02
 NST=   133 JCONV= 63 CHG=2.37E-03 dt0=1.00E+04 DIVF(1)=-4.75E-06 DIVFrms= 1.08E-03 DT(ND)=-1.04E-04 T(ND)=2.1873E+02
 NST=   134 JCONV= 63 CHG=2.37E-03 dt0=1.00E+04 DIVF(1)=-4.97E-06 DIVFrms= 1.08E-03 DT(ND)=-1.09E-04 T(ND)=2.1873E+02
 NST=   135 JCONV= 63 CHG=2.37E-03 dt0=1.00E+04 DIVF(1)=-4.45E-06 DIVFrms= 1.08E-03 DT(ND)=-9.73E-05 T(ND)=2.1873E+02
 NST=   136 JCONV= 63 CHG=2.38E-03 dt0=1.00E+04 DIVF(1)=-4.20E-06 DIVFrms= 1.08E-03 DT(ND)=-9.18E-05 T(ND)=2.1873E+02
 NST=   137 JCONV= 63 CHG=2.37E-03 dt0=1.00E+04 DIVF(1)=-5.47E-06 DIVFrms= 1.08E-03 DT(ND)=-1.20E-04 T(ND)=2.1873E+02
 NST=   138 JCONV= 63 CHG=2.37E-03 dt0=1.00E+04 DIVF(1)=-5.01E-06 DIVFrms= 1.08E-03 DT(ND)=-1.10E-04 T(ND)=2.1873E+02
 NST=   139 JCONV= 63 CHG=2.37E-03 dt0=1.00E+04 DIVF(1)=-4.92E-06 DIVFrms= 1.08E-03 DT(ND)=-1.08E-04 T(ND)=2.1873E+02
 NST=   140 JCONV= 63 CHG=2.37E-03 dt0=1.00E+04 DIVF(1)=-5.23E-06 DIVFrms= 1.08E-03 DT(ND)=-1.14E-04 T(ND)=2.1873E+02
 NST=   141 JCONV= 65 CHG=2.37E-03 dt0=1.00E+04 DIVF(1)= 7.68E-06 DIVFrms= 1.27E-03 DT(ND)= 1.68E-04 T(ND)=2.1873E+02
 NST=   142 JCONV= 65 CHG=2.37E-03 dt0=1.00E+04 DIVF(1)=-1.08E-03 DIVFrms= 8.85E-04 DT(ND)=-2.37E-02 T(ND)=2.1871E+02
 NST=   143 JCONV= 65 CHG=2.37E-03 dt0=1.00E+04 DIVF(1)=-8.12E-04 DIVFrms= 8.36E-04 DT(ND)=-1.78E-02 T(ND)=2.1869E+02
 NST=   144 JCONV= 65 CHG=2.37E-03 dt0=1.00E+04 DIVF(1)=-5.73E-04 DIVFrms= 8.65E-04 DT(ND)=-1.25E-02 T(ND)=2.1868E+02
 NST=   145 JCONV= 65 CHG=2.37E-03 dt0=1.00E+04 DIVF(1)=-4.03E-04 DIVFrms= 9.25E-04 DT(ND)=-8.82E-03 T(ND)=2.1867E+02
 NST=   146 JCONV= 65 CHG=2.37E-03 dt0=1.00E+04 DIVF(1)=-2.84E-04 DIVFrms= 9.83E-04 DT(ND)=-6.20E-03 T(ND)=2.1866E+02
 NST=   147 JCONV= 65 CHG=2.37E-03 dt0=1.00E+04 DIVF(1)=-2.00E-04 DIVFrms= 1.03E-03 DT(ND)=-4.38E-03 T(ND)=2.1866E+02
 NST=   148 JCONV= 65 CHG=2.37E-03 dt0=1.00E+04 DIVF(1)=-1.41E-04 DIVFrms= 1.07E-03 DT(ND)=-3.08E-03 T(ND)=2.1865E+02
 NST=   149 JCONV= 65 CHG=2.37E-03 dt0=1.00E+04 DIVF(1)=-1.01E-04 DIVFrms= 1.09E-03 DT(ND)=-2.21E-03 T(ND)=2.1865E+02
 NST=   150 JCONV= 65 CHG=2.37E-03 dt0=1.00E+04 DIVF(1)=-6.15E-05 DIVFrms= 1.12E-03 DT(ND)=-1.35E-03 T(ND)=2.1865E+02
 NST=   151 JCONV= 65 CHG=2.37E-03 dt0=1.00E+04 DIVF(1)=-4.64E-05 DIVFrms= 1.13E-03 DT(ND)=-1.02E-03 T(ND)=2.1865E+02
 NST=   152 JCONV= 65 CHG=2.37E-03 dt0=1.00E+04 DIVF(1)=-3.50E-05 DIVFrms= 1.14E-03 DT(ND)=-7.66E-04 T(ND)=2.1865E+02
 NST=   153 JCONV= 65 CHG=2.37E-03 dt0=1.00E+04 DIVF(1)=-2.58E-05 DIVFrms= 1.14E-03 DT(ND)=-5.65E-04 T(ND)=2.1865E+02
 NST=   154 JCONV= 65 CHG=2.37E-03 dt0=1.00E+04 DIVF(1)=-1.94E-05 DIVFrms= 1.15E-03 DT(ND)=-4.24E-04 T(ND)=2.1865E+02
 NST=   155 JCONV= 65 CHG=2.37E-03 dt0=1.00E+04 DIVF(1)=-1.45E-05 DIVFrms= 1.15E-03 DT(ND)=-3.16E-04 T(ND)=2.1865E+02
 NST=   156 JCONV= 65 CHG=2.37E-03 dt0=1.00E+04 DIVF(1)=-1.17E-05 DIVFrms= 1.15E-03 DT(ND)=-2.56E-04 T(ND)=2.1865E+02
 NST=   157 JCONV= 65 CHG=2.37E-03 dt0=1.00E+04 DIVF(1)=-1.03E-05 DIVFrms= 1.16E-03 DT(ND)=-2.26E-04 T(ND)=2.1865E+02
 NST=   158 JCONV= 65 CHG=2.37E-03 dt0=1.00E+04 DIVF(1)=-8.39E-06 DIVFrms= 1.16E-03 DT(ND)=-1.84E-04 T(ND)=2.1865E+02
 NST=   159 JCONV= 65 CHG=2.37E-03 dt0=1.00E+04 DIVF(1)=-7.12E-06 DIVFrms= 1.16E-03 DT(ND)=-1.56E-04 T(ND)=2.1865E+02
 NST=   160 JCONV= 65 CHG=2.37E-03 dt0=1.00E+04 DIVF(1)=-6.52E-06 DIVFrms= 1.16E-03 DT(ND)=-1.43E-04 T(ND)=2.1865E+02
 NST=   161 JCONV= 65 CHG=2.37E-03 dt0=1.00E+04 DIVF(1)=-5.88E-06 DIVFrms= 1.16E-03 DT(ND)=-1.28E-04 T(ND)=2.1865E+02
 NST=   162 JCONV= 65 CHG=2.37E-03 dt0=1.00E+04 DIVF(1)=-5.35E-06 DIVFrms= 1.16E-03 DT(ND)=-1.17E-04 T(ND)=2.1865E+02
 NST=   163 JCONV= 65 CHG=2.37E-03 dt0=1.00E+04 DIVF(1)=-5.33E-06 DIVFrms= 1.16E-03 DT(ND)=-1.17E-04 T(ND)=2.1865E+02
 NST=   164 JCONV= 65 CHG=2.37E-03 dt0=1.00E+04 DIVF(1)=-5.11E-06 DIVFrms= 1.16E-03 DT(ND)=-1.12E-04 T(ND)=2.1865E+02
 NST=   165 JCONV= 65 CHG=2.37E-03 dt0=1.00E+04 DIVF(1)=-4.61E-06 DIVFrms= 1.16E-03 DT(ND)=-1.01E-04 T(ND)=2.1865E+02
 NST=   166 JCONV= 65 CHG=2.37E-03 dt0=1.00E+04 DIVF(1)=-4.36E-06 DIVFrms= 1.16E-03 DT(ND)=-9.53E-05 T(ND)=2.1865E+02
 NST=   167 JCONV= 65 CHG=2.37E-03 dt0=1.00E+04 DIVF(1)=-5.05E-06 DIVFrms= 1.16E-03 DT(ND)=-1.10E-04 T(ND)=2.1864E+02
 NST=   168 JCONV= 65 CHG=2.37E-03 dt0=1.00E+04 DIVF(1)=-4.01E-06 DIVFrms= 1.17E-03 DT(ND)=-8.76E-05 T(ND)=2.1864E+02
 NST=   169 JCONV= 65 CHG=2.37E-03 dt0=1.00E+04 DIVF(1)=-4.33E-06 DIVFrms= 1.17E-03 DT(ND)=-9.46E-05 T(ND)=2.1864E+02
 NST=   170 JCONV= 65 CHG=2.37E-03 dt0=1.00E+04 DIVF(1)=-4.23E-06 DIVFrms= 1.17E-03 DT(ND)=-9.24E-05 T(ND)=2.1864E+02
 NST=   171 JCONV= 65 CHG=2.37E-03 dt0=1.00E+04 DIVF(1)=-4.46E-06 DIVFrms= 1.17E-03 DT(ND)=-9.74E-05 T(ND)=2.1864E+02
 NST=   172 JCONV= 65 CHG=2.42E-03 dt0=1.00E+04 DIVF(1)= 1.26E-05 DIVFrms= 1.18E-03 DT(ND)= 2.76E-04 T(ND)=2.1864E+02
 NST=   173 JCONV= 64 CHG=3.74E-03 dt0=1.00E+04 DIVF(1)= 6.53E-05 DIVFrms= 1.13E-03 DT(ND)= 1.43E-03 T(ND)=2.1865E+02
 NST=   174 JCONV= 64 CHG=2.37E-03 dt0=1.00E+04 DIVF(1)=-4.02E-04 DIVFrms= 7.47E-04 DT(ND)=-8.79E-03 T(ND)=2.1864E+02
 NST=   175 JCONV= 64 CHG=2.37E-03 dt0=1.00E+04 DIVF(1)=-3.24E-04 DIVFrms= 7.85E-04 DT(ND)=-7.09E-03 T(ND)=2.1863E+02
 NST=   176 JCONV= 64 CHG=2.37E-03 dt0=1.00E+04 DIVF(1)=-2.29E-04 DIVFrms= 8.37E-04 DT(ND)=-5.02E-03 T(ND)=2.1863E+02
 NST=   177 JCONV= 64 CHG=2.37E-03 dt0=1.00E+04 DIVF(1)=-1.63E-04 DIVFrms= 8.79E-04 DT(ND)=-3.56E-03 T(ND)=2.1862E+02
 NST=   178 JCONV= 64 CHG=2.38E-03 dt0=1.00E+04 DIVF(1)=-1.08E-04 DIVFrms= 9.19E-04 DT(ND)=-2.36E-03 T(ND)=2.1862E+02
 NST=   179 JCONV= 64 CHG=2.37E-03 dt0=1.00E+04 DIVF(1)=-8.47E-05 DIVFrms= 9.31E-04 DT(ND)=-1.85E-03 T(ND)=2.1862E+02
 NST=   180 JCONV= 64 CHG=2.37E-03 dt0=1.00E+04 DIVF(1)=-5.28E-05 DIVFrms= 9.58E-04 DT(ND)=-1.15E-03 T(ND)=2.1862E+02
 NST=   181 JCONV= 64 CHG=2.37E-03 dt0=1.00E+04 DIVF(1)=-3.88E-05 DIVFrms= 9.69E-04 DT(ND)=-8.49E-04 T(ND)=2.1862E+02
 NST=   182 JCONV= 64 CHG=2.37E-03 dt0=1.00E+04 DIVF(1)=-2.82E-05 DIVFrms= 9.76E-04 DT(ND)=-6.17E-04 T(ND)=2.1861E+02
 NST=   183 JCONV= 64 CHG=2.37E-03 dt0=1.00E+04 DIVF(1)=-2.22E-05 DIVFrms= 9.82E-04 DT(ND)=-4.86E-04 T(ND)=2.1861E+02
 NST=   184 JCONV= 64 CHG=2.37E-03 dt0=1.00E+04 DIVF(1)=-1.65E-05 DIVFrms= 9.85E-04 DT(ND)=-3.60E-04 T(ND)=2.1861E+02
 NST=   185 JCONV= 64 CHG=2.37E-03 dt0=1.00E+04 DIVF(1)=-1.34E-05 DIVFrms= 9.88E-04 DT(ND)=-2.93E-04 T(ND)=2.1861E+02
 NST=   186 JCONV= 64 CHG=2.37E-03 dt0=1.00E+04 DIVF(1)=-1.06E-05 DIVFrms= 9.91E-04 DT(ND)=-2.31E-04 T(ND)=2.1861E+02
 NST=   187 JCONV= 64 CHG=2.37E-03 dt0=1.00E+04 DIVF(1)=-8.48E-06 DIVFrms= 9.93E-04 DT(ND)=-1.85E-04 T(ND)=2.1861E+02
 NST=   188 JCONV= 64 CHG=2.37E-03 dt0=1.00E+04 DIVF(1)=-7.88E-06 DIVFrms= 9.94E-04 DT(ND)=-1.72E-04 T(ND)=2.1861E+02
 NST=   189 JCONV= 64 CHG=2.37E-03 dt0=1.00E+04 DIVF(1)=-6.34E-06 DIVFrms= 9.95E-04 DT(ND)=-1.39E-04 T(ND)=2.1861E+02
 NST=   190 JCONV= 64 CHG=2.37E-03 dt0=1.00E+04 DIVF(1)=-6.08E-06 DIVFrms= 9.96E-04 DT(ND)=-1.33E-04 T(ND)=2.1861E+02
 NST=   191 JCONV= 64 CHG=2.37E-03 dt0=1.00E+04 DIVF(1)=-4.87E-06 DIVFrms= 9.97E-04 DT(ND)=-1.07E-04 T(ND)=2.1861E+02
 NST=   192 JCONV= 64 CHG=2.38E-03 dt0=1.00E+04 DIVF(1)=-5.25E-06 DIVFrms= 9.98E-04 DT(ND)=-1.15E-04 T(ND)=2.1861E+02
 NST=   193 JCONV= 64 CHG=2.37E-03 dt0=1.00E+04 DIVF(1)=-4.86E-06 DIVFrms= 9.98E-04 DT(ND)=-1.06E-04 T(ND)=2.1861E+02
 NST=   194 JCONV= 64 CHG=2.37E-03 dt0=1.00E+04 DIVF(1)=-4.50E-06 DIVFrms= 9.99E-04 DT(ND)=-9.83E-05 T(ND)=2.1861E+02
 NST=   195 JCONV= 64 CHG=2.37E-03 dt0=1.00E+04 DIVF(1)=-4.44E-06 DIVFrms= 9.99E-04 DT(ND)=-9.71E-05 T(ND)=2.1861E+02
 NST=   196 JCONV= 64 CHG=2.37E-03 dt0=1.00E+04 DIVF(1)=-5.12E-06 DIVFrms= 9.99E-04 DT(ND)=-1.12E-04 T(ND)=2.1861E+02
 NST=   197 JCONV= 64 CHG=2.37E-03 dt0=1.00E+04 DIVF(1)=-5.18E-06 DIVFrms= 1.00E-03 DT(ND)=-1.13E-04 T(ND)=2.1861E+02
 NST=   198 JCONV= 64 CHG=2.37E-03 dt0=1.00E+04 DIVF(1)=-4.68E-06 DIVFrms= 1.00E-03 DT(ND)=-1.02E-04 T(ND)=2.1861E+02
 NST=   199 JCONV= 64 CHG=2.37E-03 dt0=1.00E+04 DIVF(1)=-4.63E-06 DIVFrms= 1.00E-03 DT(ND)=-1.01E-04 T(ND)=2.1861E+02
 NST=   200 JCONV= 64 CHG=2.37E-03 dt0=1.00E+04 DIVF(1)=-5.25E-06 DIVFrms= 1.00E-03 DT(ND)=-1.15E-04 T(ND)=2.1861E+02
 NST=   201 JCONV= 64 CHG=2.37E-03 dt0=1.00E+04 DIVF(1)=-4.15E-06 DIVFrms= 1.00E-03 DT(ND)=-9.08E-05 T(ND)=2.1861E+02
 NST=   202 JCONV= 64 CHG=2.37E-03 dt0=1.00E+04 DIVF(1)=-4.35E-06 DIVFrms= 1.00E-03 DT(ND)=-9.51E-05 T(ND)=2.1861E+02
 NST=   203 JCONV= 64 CHG=2.37E-03 dt0=1.00E+04 DIVF(1)=-5.87E-06 DIVFrms= 1.00E-03 DT(ND)=-1.28E-04 T(ND)=2.1861E+02
 NST=   204 JCONV= 64 CHG=2.37E-03 dt0=1.00E+04 DIVF(1)=-3.97E-06 DIVFrms= 1.00E-03 DT(ND)=-8.67E-05 T(ND)=2.1861E+02
 NST=   205 JCONV= 64 CHG=2.37E-03 dt0=1.00E+04 DIVF(1)=-3.96E-06 DIVFrms= 1.00E-03 DT(ND)=-8.66E-05 T(ND)=2.1861E+02
 NST=   206 JCONV= 64 CHG=2.37E-03 dt0=1.00E+04 DIVF(1)=-4.82E-06 DIVFrms= 1.00E-03 DT(ND)=-1.05E-04 T(ND)=2.1861E+02
 NST=   207 JCONV= 64 CHG=2.37E-03 dt0=1.00E+04 DIVF(1)=-3.77E-06 DIVFrms= 1.01E-03 DT(ND)=-8.23E-05 T(ND)=2.1861E+02
 NST=   208 JCONV= 64 CHG=2.37E-03 dt0=1.00E+04 DIVF(1)=-4.00E-06 DIVFrms= 1.01E-03 DT(ND)=-8.75E-05 T(ND)=2.1861E+02
 NST=   209 JCONV= 64 CHG=2.37E-03 dt0=1.00E+04 DIVF(1)=-5.71E-06 DIVFrms= 1.01E-03 DT(ND)=-1.25E-04 T(ND)=2.1861E+02
 NST=   210 JCONV= 64 CHG=2.37E-03 dt0=1.00E+04 DIVF(1)=-4.52E-06 DIVFrms= 1.01E-03 DT(ND)=-9.88E-05 T(ND)=2.1861E+02
 NST=   211 JCONV= 64 CHG=2.37E-03 dt0=1.00E+04 DIVF(1)=-4.11E-06 DIVFrms= 1.01E-03 DT(ND)=-8.99E-05 T(ND)=2.1861E+02
 NST=   212 JCONV= 64 CHG=2.37E-03 dt0=1.00E+04 DIVF(1)=-5.00E-06 DIVFrms= 1.01E-03 DT(ND)=-1.09E-04 T(ND)=2.1861E+02
 NST=   213 JCONV= 64 CHG=2.37E-03 dt0=1.00E+04 DIVF(1)=-4.69E-06 DIVFrms= 1.01E-03 DT(ND)=-1.03E-04 T(ND)=2.1861E+02
 NST=   214 JCONV= 64 CHG=2.37E-03 dt0=1.00E+04 DIVF(1)=-4.33E-06 DIVFrms= 1.01E-03 DT(ND)=-9.47E-05 T(ND)=2.1861E+02
 NST=   215 JCONV= 64 CHG=2.37E-03 dt0=1.00E+04 DIVF(1)=-4.59E-06 DIVFrms= 1.01E-03 DT(ND)=-1.00E-04 T(ND)=2.1861E+02
 NST=   216 JCONV= 64 CHG=2.37E-03 dt0=1.00E+04 DIVF(1)=-4.29E-06 DIVFrms= 1.01E-03 DT(ND)=-9.37E-05 T(ND)=2.1861E+02
 NST=   217 JCONV= 64 CHG=2.37E-03 dt0=1.00E+04 DIVF(1)=-4.60E-06 DIVFrms= 1.01E-03 DT(ND)=-1.00E-04 T(ND)=2.1861E+02
 NST=   218 JCONV= 64 CHG=2.37E-03 dt0=1.00E+04 DIVF(1)=-3.86E-06 DIVFrms= 1.01E-03 DT(ND)=-8.45E-05 T(ND)=2.1861E+02
 NST=   219 JCONV= 64 CHG=2.37E-03 dt0=1.00E+04 DIVF(1)=-4.63E-06 DIVFrms= 1.01E-03 DT(ND)=-1.01E-04 T(ND)=2.1861E+02
 NST=   220 JCONV= 64 CHG=2.37E-03 dt0=1.00E+04 DIVF(1)=-4.29E-06 DIVFrms= 1.01E-03 DT(ND)=-9.37E-05 T(ND)=2.1861E+02
 NST=   221 JCONV= 64 CHG=2.37E-03 dt0=1.00E+04 DIVF(1)=-4.41E-06 DIVFrms= 1.01E-03 DT(ND)=-9.64E-05 T(ND)=2.1861E+02
 NST=   222 JCONV= 64 CHG=2.37E-03 dt0=1.00E+04 DIVF(1)=-4.33E-06 DIVFrms= 1.01E-03 DT(ND)=-9.47E-05 T(ND)=2.1861E+02
 NST=   223 JCONV= 64 CHG=2.37E-03 dt0=1.00E+04 DIVF(1)=-4.29E-06 DIVFrms= 1.01E-03 DT(ND)=-9.39E-05 T(ND)=2.1861E+02
 NST=   224 JCONV= 63 CHG=3.78E-03 dt0=1.00E+04 DIVF(1)= 1.30E-06 DIVFrms= 1.00E-03 DT(ND)= 2.84E-05 T(ND)=2.1861E+02
 NST=   225 JCONV= 63 CHG=4.00E-03 dt0=1.00E+04 DIVF(1)= 3.22E-04 DIVFrms= 1.23E-03 DT(ND)= 7.04E-03 T(ND)=2.1862E+02
 NST=   226 JCONV= 62 CHG=3.78E-03 dt0=1.00E+04 DIVF(1)= 7.28E-04 DIVFrms= 1.55E-03 DT(ND)= 1.59E-02 T(ND)=2.1863E+02
 NST=   227 JCONV= 62 CHG=3.89E-03 dt0=1.00E+04 DIVF(1)= 2.83E-04 DIVFrms= 1.10E-03 DT(ND)= 6.18E-03 T(ND)=2.1864E+02
 NST=   228 JCONV= 61 CHG=3.68E-03 dt0=1.00E+04 DIVF(1)= 3.87E-04 DIVFrms= 1.16E-03 DT(ND)= 8.45E-03 T(ND)=2.1865E+02
 NST=   229 JCONV= 61 CHG=2.37E-03 dt0=1.00E+04 DIVF(1)=-7.29E-05 DIVFrms= 7.59E-04 DT(ND)=-1.59E-03 T(ND)=2.1865E+02
 NST=   230 JCONV= 61 CHG=2.37E-03 dt0=1.00E+04 DIVF(1)=-6.44E-05 DIVFrms= 7.57E-04 DT(ND)=-1.41E-03 T(ND)=2.1864E+02
 NST=   231 JCONV= 61 CHG=2.37E-03 dt0=1.00E+04 DIVF(1)=-4.40E-05 DIVFrms= 7.80E-04 DT(ND)=-9.62E-04 T(ND)=2.1864E+02
 NST=   232 JCONV= 61 CHG=2.37E-03 dt0=1.00E+04 DIVF(1)=-3.69E-05 DIVFrms= 7.78E-04 DT(ND)=-8.08E-04 T(ND)=2.1864E+02
 NST=   233 JCONV= 61 CHG=2.37E-03 dt0=1.00E+04 DIVF(1)=-2.41E-05 DIVFrms= 7.95E-04 DT(ND)=-5.27E-04 T(ND)=2.1864E+02
 NST=   234 JCONV= 61 CHG=2.37E-03 dt0=1.00E+04 DIVF(1)=-1.76E-05 DIVFrms= 8.00E-04 DT(ND)=-3.86E-04 T(ND)=2.1864E+02
 NST=   235 JCONV= 61 CHG=2.37E-03 dt0=1.00E+04 DIVF(1)=-2.06E-05 DIVFrms= 7.91E-04 DT(ND)=-4.50E-04 T(ND)=2.1864E+02
 NST=   236 JCONV= 61 CHG=2.37E-03 dt0=1.00E+04 DIVF(1)=-1.13E-05 DIVFrms= 8.06E-04 DT(ND)=-2.47E-04 T(ND)=2.1864E+02
 NST=   237 JCONV= 61 CHG=2.37E-03 dt0=1.00E+04 DIVF(1)=-9.05E-06 DIVFrms= 8.07E-04 DT(ND)=-1.98E-04 T(ND)=2.1864E+02
 NST=   238 JCONV= 61 CHG=2.37E-03 dt0=1.00E+04 DIVF(1)=-1.39E-05 DIVFrms= 7.97E-04 DT(ND)=-3.04E-04 T(ND)=2.1864E+02
 NST=   239 JCONV= 60 CHG=3.76E-03 dt0=1.00E+04 DIVF(1)= 1.65E-05 DIVFrms= 8.31E-04 DT(ND)= 3.61E-04 T(ND)=2.1864E+02
 NST=   240 JCONV= 60 CHG=2.37E-03 dt0=1.00E+04 DIVF(1)=-2.95E-04 DIVFrms= 6.32E-04 DT(ND)=-6.45E-03 T(ND)=2.1863E+02
 NST=   241 JCONV= 60 CHG=2.37E-03 dt0=1.00E+04 DIVF(1)=-2.09E-04 DIVFrms= 6.73E-04 DT(ND)=-4.57E-03 T(ND)=2.1863E+02
 NST=   242 JCONV= 60 CHG=2.37E-03 dt0=1.00E+04 DIVF(1)=-1.47E-04 DIVFrms= 7.07E-04 DT(ND)=-3.22E-03 T(ND)=2.1863E+02
 NST=   243 JCONV= 60 CHG=2.37E-03 dt0=1.00E+04 DIVF(1)=-1.05E-04 DIVFrms= 7.33E-04 DT(ND)=-2.30E-03 T(ND)=2.1862E+02
 NST=   244 JCONV= 60 CHG=2.37E-03 dt0=1.00E+04 DIVF(1)=-1.19E-04 DIVFrms= 7.25E-04 DT(ND)=-2.60E-03 T(ND)=2.1862E+02
 NST=   245 JCONV= 60 CHG=2.37E-03 dt0=1.00E+04 DIVF(1)=-8.50E-05 DIVFrms= 7.46E-04 DT(ND)=-1.86E-03 T(ND)=2.1862E+02
 NST=   246 JCONV= 60 CHG=2.37E-03 dt0=1.00E+04 DIVF(1)=-5.57E-05 DIVFrms= 7.65E-04 DT(ND)=-1.22E-03 T(ND)=2.1862E+02
 NST=   247 JCONV= 60 CHG=2.37E-03 dt0=1.00E+04 DIVF(1)=-4.42E-05 DIVFrms= 7.73E-04 DT(ND)=-9.65E-04 T(ND)=2.1862E+02
 NST=   248 JCONV= 60 CHG=2.37E-03 dt0=1.00E+04 DIVF(1)=-3.26E-05 DIVFrms= 7.81E-04 DT(ND)=-7.12E-04 T(ND)=2.1862E+02
 NST=   249 JCONV= 60 CHG=2.37E-03 dt0=1.00E+04 DIVF(1)=-2.50E-05 DIVFrms= 7.87E-04 DT(ND)=-5.46E-04 T(ND)=2.1862E+02
 NST=   250 JCONV= 60 CHG=2.37E-03 dt0=1.00E+04 DIVF(1)=-1.93E-05 DIVFrms= 7.91E-04 DT(ND)=-4.22E-04 T(ND)=2.1862E+02

 TIME= 2.486E+06  TIME IN DAYS = 2.878E+01

 PLANETARY ALBEDO:  ALBP = 0.3208

  J     P         ALT         T        CONVEC       DT          TOLD        FH20       FSAVE       TCOOL       THEAT
  1 5.4116E-05 8.1269E+01 1.8096E+02  0.00E+00  -1.0142E-03  1.8096E+02  1.0633E-08  9.8854E-09 -1.9403E+02  1.9402E+02
  2 6.3355E-05 7.9828E+01 1.7554E+02  0.00E+00   5.6363E-02  1.7554E+02  1.0633E-08  9.8854E-09 -6.1690E+01  6.2177E+01
  3 7.4082E-05 7.8442E+01 1.7004E+02  0.00E+00  -2.6465E-02  1.7004E+02  1.0633E-08  9.8854E-09 -3.6559E+01  3.6330E+01
  4 8.6522E-05 7.7110E+01 1.6467E+02  0.00E+00  -1.3799E-01  1.6467E+02  1.0633E-08  9.8854E-09 -2.2436E+01  2.1244E+01
  5 1.0093E-04 7.5829E+01 1.5971E+02  0.00E+00  -1.0193E-01  1.5971E+02  1.0633E-08  9.8854E-09 -1.3881E+01  1.3000E+01
  6 1.1760E-04 7.4594E+01 1.5545E+02  0.00E+00  -3.6853E-01  1.5545E+02  1.0633E-08  9.8854E-09 -1.1969E+01  8.7846E+00
  7 1.3685E-04 7.3397E+01 1.5238E+02  0.00E+00  -3.4281E-01  1.5238E+02  1.0633E-08  9.8854E-09 -9.7192E+00  6.7573E+00
  8 1.5907E-04 7.2228E+01 1.5058E+02  0.00E+00  -2.1789E-01  1.5058E+02  1.0633E-08  9.8854E-09 -7.6983E+00  5.8157E+00
  9 1.8468E-04 7.1079E+01 1.4967E+02  0.00E+00  -1.0594E-01  1.4967E+02  1.0633E-08  9.8854E-09 -6.2687E+00  5.3534E+00
 10 2.1415E-04 6.9944E+01 1.4922E+02  0.00E+00  -4.2209E-02  1.4922E+02  1.0633E-08  9.8854E-09 -5.4339E+00  5.0692E+00
 11 2.4802E-04 6.8821E+01 1.4899E+02  0.00E+00  -1.8521E-02  1.4899E+02  1.0633E-08  9.8854E-09 -4.9926E+00  4.8325E+00
 12 2.8691E-04 6.7709E+01 1.4885E+02  0.00E+00  -1.8980E-02  1.4885E+02  1.0633E-08  9.8854E-09 -4.7596E+00  4.5957E+00
 13 3.3151E-04 6.6606E+01 1.4880E+02  0.00E+00  -2.6827E-02  1.4880E+02  1.0633E-08  9.8854E-09 -4.5765E+00  4.3447E+00
 14 3.8258E-04 6.5513E+01 1.4885E+02  0.00E+00  -3.1856E-02  1.4885E+02  1.0633E-08  9.8854E-09 -4.3528E+00  4.0776E+00
 15 4.4098E-04 6.4428E+01 1.4903E+02  0.00E+00  -3.1429E-02  1.4903E+02  1.0633E-08  9.8854E-09 -4.0672E+00  3.7957E+00
 16 5.0770E-04 6.3350E+01 1.4932E+02  0.00E+00  -2.2682E-02  1.4932E+02  1.0633E-08  9.8854E-09 -3.6981E+00  3.5021E+00
 17 5.8381E-04 6.2279E+01 1.4970E+02  0.00E+00  -9.4802E-03  1.4970E+02  1.0633E-08  9.8854E-09 -3.2828E+00  3.2009E+00
 18 6.7052E-04 6.1214E+01 1.5011E+02  0.00E+00   3.6881E-03  1.5011E+02  1.0633E-08  9.8854E-09 -2.8649E+00  2.8967E+00
 19 7.6920E-04 6.0156E+01 1.5052E+02  0.00E+00   1.8311E-02  1.5052E+02  1.0633E-08  9.8854E-09 -2.4367E+00  2.5949E+00
 20 8.8135E-04 5.9104E+01 1.5085E+02  0.00E+00   3.1920E-02  1.5085E+02  1.0633E-08  9.8854E-09 -2.0250E+00  2.3008E+00
 21 1.0086E-03 5.8060E+01 1.5106E+02  0.00E+00   3.6046E-02  1.5106E+02  1.0633E-08  9.8854E-09 -1.7275E+00  2.0390E+00
 22 1.1529E-03 5.7024E+01 1.5114E+02  0.00E+00   2.5038E-02  1.5114E+02  1.0633E-08  9.8854E-09 -1.8011E+00  2.0174E+00
 23 1.3163E-03 5.5997E+01 1.5112E+02  0.00E+00   2.0158E-02  1.5112E+02  1.0633E-08  9.8854E-09 -1.7064E+00  1.8805E+00
 24 1.5010E-03 5.4980E+01 1.5103E+02  0.00E+00   2.2003E-03  1.5103E+02  1.0633E-08  9.8854E-09 -1.6532E+00  1.6722E+00
 25 1.7096E-03 5.3972E+01 1.5093E+02  0.00E+00  -9.4432E-03  1.5093E+02  1.0633E-08  9.8854E-09 -1.5270E+00  1.4454E+00
 26 1.9448E-03 5.2974E+01 1.5086E+02  0.00E+00  -2.0851E-02  1.5086E+02  1.0633E-08  9.8854E-09 -1.4220E+00  1.2419E+00
 27 2.2098E-03 5.1986E+01 1.5087E+02  0.00E+00  -2.1573E-02  1.5087E+02  1.0633E-08  9.8854E-09 -1.2666E+00  1.0802E+00
 28 2.5079E-03 5.1007E+01 1.5096E+02  0.00E+00  -1.5430E-02  1.5096E+02  1.0633E-08  9.8854E-09 -1.0898E+00  9.5650E-01
 29 2.8428E-03 5.0036E+01 1.5111E+02  0.00E+00  -1.3185E-02  1.5111E+02  1.0633E-08  9.8854E-09 -9.7072E-01  8.5681E-01
 30 3.2185E-03 4.9073E+01 1.5132E+02  0.00E+00  -5.0942E-03  1.5132E+02  1.0633E-08  9.8854E-09 -8.1350E-01  7.6948E-01
 31 3.6396E-03 4.8119E+01 1.5154E+02  0.00E+00  -1.6984E-04  1.5154E+02  1.0633E-08  9.8854E-09 -6.9095E-01  6.8949E-01
 32 4.1108E-03 4.7172E+01 1.5177E+02  0.00E+00   2.0373E-03  1.5177E+02  1.0633E-08  9.8854E-09 -5.9883E-01  6.1643E-01
 33 4.6375E-03 4.6233E+01 1.5200E+02  0.00E+00  -1.7950E-03  1.5200E+02  1.0633E-08  9.8854E-09 -5.6686E-01  5.5135E-01
 34 5.2254E-03 4.5302E+01 1.5223E+02  0.00E+00  -1.8096E-03  1.5223E+02  1.0633E-08  9.8854E-09 -5.1064E-01  4.9501E-01
 35 5.8809E-03 4.4378E+01 1.5248E+02  0.00E+00  -2.6472E-03  1.5248E+02  1.0633E-08  9.8854E-09 -4.7055E-01  4.4768E-01
 36 6.6106E-03 4.3463E+01 1.5273E+02  0.00E+00  -3.4742E-03  1.5273E+02  1.0633E-08  9.8854E-09 -4.3924E-01  4.0923E-01
 37 7.4220E-03 4.2555E+01 1.5300E+02  0.00E+00  -3.8250E-03  1.5300E+02  1.0633E-08  9.8854E-09 -4.1220E-01  3.7915E-01
 38 8.3230E-03 4.1656E+01 1.5329E+02  0.00E+00  -6.3812E-03  1.5329E+02  1.0633E-08  9.8854E-09 -4.1164E-01  3.5651E-01
 39 9.3223E-03 4.0763E+01 1.5360E+02  0.00E+00  -4.6538E-03  1.5360E+02  1.0633E-08  9.8854E-09 -3.8007E-01  3.3986E-01
 40 1.0429E-02 3.9879E+01 1.5394E+02  0.00E+00  -3.8728E-03  1.5394E+02  1.0633E-08  9.8854E-09 -3.7622E-01  3.4276E-01
 41 1.1653E-02 3.9001E+01 1.5430E+02  0.00E+00  -5.2642E-03  1.5429E+02  1.0633E-08  9.8854E-09 -4.1322E-01  3.6774E-01
 42 1.3006E-02 3.8132E+01 1.5467E+02  0.00E+00  -3.1503E-04  1.5467E+02  1.0633E-08  9.8854E-09 -3.8959E-01  3.8687E-01
 43 1.4498E-02 3.7269E+01 1.5505E+02  0.00E+00   2.9154E-03  1.5505E+02  1.0633E-08  9.8854E-09 -3.7352E-01  3.9871E-01
 44 1.6141E-02 3.6414E+01 1.5542E+02  0.00E+00   7.8089E-03  1.5542E+02  1.0633E-08  9.8854E-09 -3.3431E-01  4.0178E-01
 45 1.7950E-02 3.5567E+01 1.5577E+02  0.00E+00   1.0044E-02  1.5577E+02  1.0633E-08  9.8854E-09 -3.0864E-01  3.9542E-01
 46 1.9938E-02 3.4727E+01 1.5609E+02  0.00E+00   8.1933E-03  1.5609E+02  1.0633E-08  9.8854E-09 -3.0916E-01  3.7995E-01
 47 2.2119E-02 3.3895E+01 1.5637E+02  0.00E+00   7.3060E-03  1.5637E+02  1.0633E-08  9.8854E-09 -2.9345E-01  3.5657E-01
 48 2.4509E-02 3.3072E+01 1.5663E+02  0.00E+00   5.6605E-03  1.5663E+02  1.0633E-08  9.8854E-09 -2.7817E-01  3.2708E-01
 49 2.7125E-02 3.2256E+01 1.5688E+02  0.00E+00   3.8321E-03  1.5688E+02  1.0633E-08  9.8854E-09 -2.6062E-01  2.9373E-01
 50 2.9985E-02 3.1449E+01 1.5711E+02  0.00E+00   1.0411E-03  1.5711E+02  1.0633E-08  9.8854E-09 -2.4997E-01  2.5897E-01
 51 3.3107E-02 3.0651E+01 1.5735E+02  0.00E+00   1.3138E-04  1.5735E+02  1.0633E-08  9.8854E-09 -2.2397E-01  2.2510E-01
 52 3.6510E-02 2.9861E+01 1.5759E+02  0.00E+00  -7.0724E-04  1.5759E+02  1.0633E-08  9.8854E-09 -2.0016E-01  1.9405E-01
 53 4.0214E-02 2.9079E+01 1.5784E+02  0.00E+00  -1.4618E-03  1.5784E+02  1.0633E-08  9.8854E-09 -1.7973E-01  1.6710E-01
 54 4.4242E-02 2.8306E+01 1.5811E+02  0.00E+00  -2.3185E-03  1.5811E+02  1.0633E-08  9.8854E-09 -1.6493E-01  1.4490E-01
 55 4.8614E-02 2.7541E+01 1.5840E+02  0.00E+00  -2.4117E-03  1.5840E+02  1.0633E-08  9.8854E-09 -1.4824E-01  1.2741E-01
 56 5.3355E-02 2.6784E+01 1.5873E+02  0.00E+00  -2.3341E-03  1.5872E+02  1.0633E-08  9.8854E-09 -1.3431E-01  1.1414E-01
 57 5.8489E-02 2.6035E+01 1.5908E+02  0.00E+00  -4.2159E-04  1.5908E+02  1.0636E-08  9.8854E-09 -1.1553E-01  1.0433E-01
 58 6.4040E-02 2.5295E+01 1.5946E+02  0.00E+00  -4.2159E-04  1.5946E+02  1.0648E-08  9.8854E-09 -7.7640E-02  9.2163E-02
 59 7.0034E-02 2.4562E+01 1.6002E+02  0.00E+00  -4.2159E-04  1.6002E+02  1.1137E-08  9.8871E-09 -2.5630E-02  4.7171E-02
 60 7.6497E-02 2.3835E+01 1.6117E+02  3.00E+00  -4.2159E-04  1.6117E+02  1.3421E-08  9.8938E-09 -5.5578E-02  4.6626E-02
 61 8.3457E-02 2.3112E+01 1.6253E+02  3.00E+00  -4.2159E-04  1.6253E+02  1.6916E-08  9.9895E-09 -8.3489E-02  4.9498E-02
 62 9.0941E-02 2.2393E+01 1.6384E+02  3.00E+00  -4.2159E-04  1.6384E+02  2.1002E-08  1.0795E-08 -1.0707E-01  5.1961E-02
 63 9.8978E-02 2.1679E+01 1.6511E+02  3.00E+00  -4.2159E-04  1.6511E+02  2.5733E-08  1.1831E-08 -1.1381E-01  5.3759E-02
 64 1.0760E-01 2.0971E+01 1.6587E+02  3.00E+00  -4.2159E-04  1.6587E+02  2.8009E-08  1.2927E-08 -1.0351E-01  5.7322E-02
 65 1.1683E-01 2.0268E+01 1.6683E+02  0.00E+00  -4.2159E-04  1.6683E+02  3.1974E-08  1.4358E-08 -1.1781E-01  6.1672E-02
 66 1.2670E-01 1.9572E+01 1.6804E+02  3.00E+00  -4.2159E-04  1.6804E+02  3.8340E-08  1.8228E-08 -1.2716E-01  6.6553E-02
 67 1.3724E-01 1.8882E+01 1.6878E+02  3.00E+00  -4.2159E-04  1.6878E+02  4.1547E-08  2.2751E-08 -1.2674E-01  6.8318E-02
 68 1.4847E-01 1.8198E+01 1.6993E+02  0.00E+00  -4.2159E-04  1.6993E+02  4.9195E-08  2.7983E-08 -1.3582E-01  7.1089E-02
 69 1.6044E-01 1.7521E+01 1.7067E+02  3.00E+00  -4.2159E-04  1.7067E+02  5.3161E-08  3.3983E-08 -1.3664E-01  7.1039E-02
 70 1.7316E-01 1.6851E+01 1.7178E+02  0.00E+00  -4.2159E-04  1.7178E+02  6.2149E-08  4.0811E-08 -1.4244E-01  7.1848E-02
 71 1.8667E-01 1.6188E+01 1.7250E+02  3.00E+00  -4.2159E-04  1.7250E+02  6.6977E-08  4.8528E-08 -1.4091E-01  7.0290E-02
 72 2.0100E-01 1.5532E+01 1.7358E+02  0.00E+00  -4.2159E-04  1.7358E+02  7.7530E-08  5.7195E-08 -1.4273E-01  6.9662E-02
 73 2.1616E-01 1.4883E+01 1.7429E+02  3.00E+00  -4.2159E-04  1.7429E+02  8.3331E-08  6.6874E-08 -1.3702E-01  6.7172E-02
 74 2.3219E-01 1.4242E+01 1.7534E+02  0.00E+00  -4.2159E-04  1.7534E+02  9.5756E-08  7.7626E-08 -1.4101E-01  6.5886E-02
 75 2.4911E-01 1.3608E+01 1.7637E+02  3.00E+00  -4.2159E-04  1.7637E+02  1.0943E-07  8.9512E-08 -1.4334E-01  6.4494E-02
 76 2.6695E-01 1.2980E+01 1.7738E+02  3.00E+00  -4.2159E-04  1.7738E+02  1.2441E-07  1.0259E-07 -1.3744E-01  6.2678E-02
 77 2.8571E-01 1.2361E+01 1.7807E+02  3.00E+00  -4.2159E-04  1.7807E+02  1.3300E-07  1.1692E-07 -1.2668E-01  5.9626E-02
 78 3.0544E-01 1.1750E+01 1.7903E+02  0.00E+00  -4.2159E-04  1.7903E+02  1.4966E-07  1.3256E-07 -1.2481E-01  5.7390E-02
 79 3.2613E-01 1.1146E+01 1.7999E+02  3.00E+00  -4.2159E-04  1.7999E+02  1.6815E-07  1.4956E-07 -1.2139E-01  5.5426E-02
 80 3.4781E-01 1.0551E+01 1.8093E+02  3.00E+00  -4.2159E-04  1.8093E+02  1.8813E-07  1.6798E-07 -1.2002E-01  5.3359E-02
 81 3.7049E-01 9.9631E+00 1.8185E+02  3.00E+00  -4.2159E-04  1.8185E+02  2.0964E-07  1.8785E-07 -1.1202E-01  5.1085E-02
 82 3.9418E-01 9.3842E+00 1.8251E+02  3.00E+00  -4.2159E-04  1.8251E+02  2.2268E-07  2.0924E-07 -9.4967E-02  4.7968E-02
 83 4.1888E-01 8.8142E+00 1.8319E+02  0.00E+00  -4.2159E-04  1.8320E+02  2.3762E-07  2.3217E-07 -8.3027E-02  4.4841E-02
 84 4.4460E-01 8.2532E+00 1.8407E+02  3.00E+00  -4.2159E-04  1.8407E+02  2.6258E-07  2.5668E-07 -7.5442E-02  4.2551E-02
 85 4.7133E-01 7.7007E+00 1.8493E+02  3.00E+00  -4.2159E-04  1.8493E+02  2.8918E-07  2.8280E-07 -5.2713E-02  4.0248E-02
 86 4.9907E-01 7.1575E+00 1.8556E+02  3.00E+00  -4.2159E-04  1.8556E+02  3.0568E-07  3.1056E-07 -2.4692E-02  3.7639E-02
 87 5.2781E-01 6.6228E+00 1.8681E+02  0.00E+00  -4.2159E-04  1.8681E+02  3.6015E-07  3.8042E-07 -3.4411E-02  3.4793E-02
 88 5.5754E-01 6.0944E+00 1.8926E+02  0.00E+00  -4.2159E-04  1.8927E+02  5.2232E-07  5.5481E-07 -7.0033E-02  3.2320E-02
 89 5.8824E-01 5.5708E+00 1.9171E+02  0.00E+00  -4.2159E-04  1.9171E+02  7.4782E-07  7.9708E-07 -9.5518E-02  3.0195E-02
 90 6.1989E-01 5.0523E+00 1.9412E+02  0.00E+00  -4.2159E-04  1.9412E+02  1.0558E-06  1.1286E-06 -1.1885E-01  2.8414E-02
 91 6.5246E-01 4.5394E+00 1.9650E+02  0.00E+00  -4.2159E-04  1.9650E+02  1.4707E-06  1.5755E-06 -1.3829E-01  2.6985E-02
 92 6.8592E-01 4.0324E+00 1.9884E+02  0.00E+00  -4.2159E-04  1.9884E+02  2.0210E-06  2.1695E-06 -1.5934E-01  2.5908E-02
 93 7.2024E-01 3.5316E+00 2.0121E+02  0.00E+00  -4.2159E-04  2.0121E+02  2.7669E-06  2.9479E-06 -1.9117E-01  2.5203E-02
 94 7.5537E-01 3.0372E+00 2.0367E+02  1.00E+00  -4.2159E-04  2.0367E+02  3.8154E-06  3.9551E-06 -2.2451E-01  2.4909E-02
 95 7.9127E-01 2.5494E+00 2.0610E+02  1.00E+00  -4.2159E-04  2.0610E+02  5.1898E-06  5.2447E-06 -2.5391E-01  2.4982E-02
 96 8.2788E-01 2.0685E+00 2.0848E+02  1.00E+00  -4.2159E-04  2.0848E+02  6.9669E-06  6.9718E-06 -2.7198E-01  2.5428E-02
 97 8.6516E-01 1.5950E+00 2.1081E+02  1.00E+00  -4.2159E-04  2.1081E+02  9.2346E-06  9.2415E-06 -2.9512E-01  2.6293E-02
 98 9.0303E-01 1.1294E+00 2.1310E+02  1.00E+00  -4.2159E-04  2.1310E+02  1.2091E-05  1.2101E-05 -3.2785E-01  2.7615E-02
 99 9.4143E-01 6.7184E-01 2.1534E+02  1.00E+00  -4.2159E-04  2.1534E+02  1.5645E-05  1.5658E-05 -3.7607E-01  2.9377E-02
100 9.8029E-01 2.2285E-01 2.1753E+02  1.00E+00  -4.2159E-04  2.1753E+02  2.0014E-05  2.0031E-05 -4.1179E-01  3.1496E-02
101 1.0000E+00 0.0000E+00 2.1862E+02  1.00E+00  -4.2159E-04  2.1862E+02  2.2563E-05  2.2583E-05  0.0000E+00  0.0000E+00

 FCO2
  9.50E-01 9.50E-01 9.50E-01 9.50E-01 9.50E-01 9.50E-01 9.50E-01 9.50E-01 9.50E-01 9.50E-01
  9.50E-01 9.50E-01 9.50E-01 9.50E-01 9.50E-01 9.50E-01 9.50E-01 9.50E-01 9.50E-01 9.50E-01
  9.50E-01 9.50E-01 9.50E-01 9.50E-01 9.50E-01 9.50E-01 9.50E-01 9.50E-01 9.50E-01 9.50E-01
  9.50E-01 9.50E-01 9.50E-01 9.50E-01 9.50E-01 9.50E-01 9.50E-01 9.50E-01 9.50E-01 9.50E-01
  9.50E-01 9.50E-01 9.50E-01 9.50E-01 9.50E-01 9.50E-01 9.50E-01 9.50E-01 9.50E-01 9.50E-01
  9.50E-01 9.50E-01 9.50E-01 9.50E-01 9.50E-01 9.50E-01 9.50E-01 9.50E-01 4.39E-01 4.78E-01
  5.15E-01 5.52E-01 5.88E-01 5.90E-01 6.06E-01 6.39E-01 6.42E-01 6.72E-01 6.75E-01 7.02E-01
  7.05E-01 7.31E-01 7.34E-01 7.59E-01 7.85E-01 8.10E-01 8.15E-01 8.33E-01 8.56E-01 8.79E-01
  9.00E-01 9.03E-01 9.03E-01 9.23E-01 9.42E-01 9.53E-01 9.50E-01 9.50E-01 9.50E-01 9.50E-01
  9.50E-01 9.50E-01 9.50E-01 9.50E-01 9.50E-01 9.50E-01 9.50E-01 9.50E-01 9.50E-01 9.50E-01
  9.50E-01

  J    PF         ALT       FTOTAL       FTIR       FDNIR       FUPIR       FTSOL       FDNSOL       FUPSOL       DIVF
  1 5.0000E-05 8.1269E+01 -1.5321E+00 -7.9445E+04  0.0000E+00  7.9445E+04  7.9444E+04  1.1696E+05  3.7515E+04 -1.9284E-05
  2 5.8571E-05 7.9828E+01 -1.5151E+00 -7.9069E+04  2.9445E+02  7.9364E+04  7.9068E+04  1.1658E+05  3.7514E+04 -1.9090E-05
  3 6.8529E-05 7.8442E+01 -2.6031E+00 -7.8931E+04  3.5861E+02  7.9290E+04  7.8929E+04  1.1644E+05  3.7514E+04 -3.2830E-05
  4 8.0085E-05 7.7110E+01 -2.0150E+00 -7.8837E+04  3.8981E+02  7.9227E+04  7.8835E+04  1.1635E+05  3.7514E+04 -2.5433E-05
  5 9.3477E-05 7.5829E+01  1.5117E+00 -7.8771E+04  4.0698E+02  7.9178E+04  7.8773E+04  1.1629E+05  3.7513E+04  1.9092E-05
  6 1.0898E-04 7.4594E+01  4.5054E+00 -7.8724E+04  4.1906E+02  7.9143E+04  7.8728E+04  1.1624E+05  3.7513E+04  5.6927E-05
  7 1.2690E-04 7.3397E+01  1.6942E+01 -7.8677E+04  4.4001E+02  7.9117E+04  7.8694E+04  1.1621E+05  3.7513E+04  2.1413E-04
  8 1.4759E-04 7.2228E+01  3.0239E+01 -7.8633E+04  4.6784E+02  7.9101E+04  7.8664E+04  1.1618E+05  3.7512E+04  3.8229E-04
  9 1.7145E-04 7.1079E+01  3.9960E+01 -7.8594E+04  4.9909E+02  7.9093E+04  7.8634E+04  1.1615E+05  3.7511E+04  5.0523E-04
 10 1.9893E-04 6.9944E+01  4.5396E+01 -7.8557E+04  5.3218E+02  7.9089E+04  7.8602E+04  1.1611E+05  3.7511E+04  5.7399E-04
 11 2.3053E-04 6.8821E+01  4.7886E+01 -7.8519E+04  5.6773E+02  7.9087E+04  7.8567E+04  1.1608E+05  3.7510E+04  6.0548E-04
 12 2.6684E-04 6.7709E+01  4.9141E+01 -7.8480E+04  6.0735E+02  7.9088E+04  7.8529E+04  1.1604E+05  3.7509E+04  6.2134E-04
 13 3.0850E-04 6.6606E+01  5.0615E+01 -7.8437E+04  6.5295E+02  7.9090E+04  7.8488E+04  1.1600E+05  3.7508E+04  6.3997E-04
 14 3.5623E-04 6.5513E+01  5.3004E+01 -7.8390E+04  7.0574E+02  7.9096E+04  7.8443E+04  1.1595E+05  3.7506E+04  6.7012E-04
 15 4.1086E-04 6.4428E+01  5.6250E+01 -7.8339E+04  7.6580E+02  7.9105E+04  7.8395E+04  1.1590E+05  3.7505E+04  7.1108E-04
 16 4.7331E-04 6.3350E+01  5.9911E+01 -7.8284E+04  8.3223E+02  7.9116E+04  7.8344E+04  1.1585E+05  3.7503E+04  7.5725E-04
 17 5.4459E-04 6.2279E+01  6.2929E+01 -7.8227E+04  9.0269E+02  7.9130E+04  7.8290E+04  1.1579E+05  3.7501E+04  7.9526E-04
 18 6.2585E-04 6.1214E+01  6.4368E+01 -7.8170E+04  9.7439E+02  7.9144E+04  7.8234E+04  1.1573E+05  3.7499E+04  8.1330E-04
 19 7.1838E-04 6.0156E+01  6.3730E+01 -7.8112E+04  1.0446E+03  7.9157E+04  7.8176E+04  1.1567E+05  3.7497E+04  8.0511E-04
 20 8.2361E-04 5.9104E+01  6.0127E+01 -7.8057E+04  1.1101E+03  7.9167E+04  7.8117E+04  1.1561E+05  3.7494E+04  7.5950E-04
 21 9.4313E-04 5.8060E+01  5.2991E+01 -7.8004E+04  1.1685E+03  7.9173E+04  7.8057E+04  1.1555E+05  3.7491E+04  6.6931E-04
 22 1.0787E-03 5.7024E+01  4.3847E+01 -7.7954E+04  1.2212E+03  7.9175E+04  7.7997E+04  1.1548E+05  3.7487E+04  5.5380E-04
 23 1.2323E-03 5.5997E+01  3.6651E+01 -7.7894E+04  1.2798E+03  7.9173E+04  7.7930E+04  1.1541E+05  3.7483E+04  4.6292E-04
 24 1.4060E-03 5.4980E+01  3.0096E+01 -7.7829E+04  1.3409E+03  7.9170E+04  7.7860E+04  1.1534E+05  3.7478E+04  3.8015E-04
 25 1.6024E-03 5.3972E+01  2.9288E+01 -7.7759E+04  1.4086E+03  7.9168E+04  7.7788E+04  1.1526E+05  3.7473E+04  3.6995E-04
 26 1.8240E-03 5.2974E+01  3.3203E+01 -7.7686E+04  1.4820E+03  7.9168E+04  7.7719E+04  1.1519E+05  3.7467E+04  4.1940E-04
 27 2.0737E-03 5.1986E+01  4.2944E+01 -7.7609E+04  1.5635E+03  7.9172E+04  7.7652E+04  1.1511E+05  3.7460E+04  5.4241E-04
 28 2.3548E-03 5.1007E+01  5.4289E+01 -7.7532E+04  1.6501E+03  7.9182E+04  7.7586E+04  1.1504E+05  3.7453E+04  6.8563E-04
 29 2.6709E-03 5.0036E+01  6.3413E+01 -7.7457E+04  1.7385E+03  7.9196E+04  7.7521E+04  1.1497E+05  3.7445E+04  8.0071E-04
 30 3.0257E-03 4.9073E+01  7.2168E+01 -7.7383E+04  1.8307E+03  7.9213E+04  7.7455E+04  1.1489E+05  3.7435E+04  9.1106E-04
 31 3.4236E-03 4.8119E+01  7.5962E+01 -7.7313E+04  1.9206E+03  7.9233E+04  7.7389E+04  1.1481E+05  3.7424E+04  9.5872E-04
 32 3.8692E-03 4.7172E+01  7.6104E+01 -7.7246E+04  2.0081E+03  7.9254E+04  7.7322E+04  1.1473E+05  3.7413E+04  9.6025E-04
 33 4.3675E-03 4.6233E+01  7.4202E+01 -7.7181E+04  2.0944E+03  7.9276E+04  7.7255E+04  1.1465E+05  3.7399E+04  9.3600E-04
 34 4.9242E-03 4.5302E+01  7.6074E+01 -7.7113E+04  2.1865E+03  7.9299E+04  7.7189E+04  1.1457E+05  3.7384E+04  9.5933E-04
 35 5.5451E-03 4.4378E+01  7.8180E+01 -7.7044E+04  2.2807E+03  7.9325E+04  7.7122E+04  1.1449E+05  3.7368E+04  9.8558E-04
 36 6.2369E-03 4.3463E+01  8.1614E+01 -7.6973E+04  2.3788E+03  7.9352E+04  7.7055E+04  1.1440E+05  3.7350E+04  1.0285E-03
 37 7.0066E-03 4.2555E+01  8.6630E+01 -7.6900E+04  2.4819E+03  7.9382E+04  7.6987E+04  1.1432E+05  3.7329E+04  1.0913E-03
 38 7.8619E-03 4.1656E+01  9.2769E+01 -7.6823E+04  2.5908E+03  7.9414E+04  7.6916E+04  1.1422E+05  3.7306E+04  1.1682E-03
 39 8.8111E-03 4.0763E+01  1.0414E+02 -7.6738E+04  2.7117E+03  7.9450E+04  7.6843E+04  1.1412E+05  3.7281E+04  1.3107E-03
 40 9.8631E-03 3.9879E+01  1.1333E+02 -7.6652E+04  2.8370E+03  7.9489E+04  7.6765E+04  1.1402E+05  3.7254E+04  1.4258E-03
 41 1.1027E-02 3.9001E+01  1.2181E+02 -7.6556E+04  2.9736E+03  7.9530E+04  7.6678E+04  1.1390E+05  3.7223E+04  1.5316E-03
 42 1.2315E-02 3.8132E+01  1.3454E+02 -7.6441E+04  3.1361E+03  7.9577E+04  7.6575E+04  1.1376E+05  3.7189E+04  1.6907E-03
 43 1.3735E-02 3.7269E+01  1.3539E+02 -7.6320E+04  3.3062E+03  7.9626E+04  7.6455E+04  1.1361E+05  3.7152E+04  1.7003E-03
 44 1.5302E-02 3.6414E+01  1.2679E+02 -7.6193E+04  3.4856E+03  7.9678E+04  7.6319E+04  1.1343E+05  3.7110E+04  1.5913E-03
 45 1.7027E-02 3.5567E+01  1.0143E+02 -7.6067E+04  3.6627E+03  7.9730E+04  7.6168E+04  1.1323E+05  3.7065E+04  1.2722E-03
 46 1.8923E-02 3.4727E+01  6.5540E+01 -7.5939E+04  3.8400E+03  7.9779E+04  7.6005E+04  1.1302E+05  3.7016E+04  8.2152E-04
 47 2.1006E-02 3.3895E+01  3.3377E+01 -7.5799E+04  4.0303E+03  7.9829E+04  7.5832E+04  1.1279E+05  3.6962E+04  4.1810E-04
 48 2.3290E-02 3.3072E+01  1.9105E+00 -7.5653E+04  4.2261E+03  7.9879E+04  7.5654E+04  1.1256E+05  3.6903E+04  2.3918E-05
 49 2.5792E-02 3.2256E+01 -2.4800E+01 -7.5501E+04  4.4282E+03  7.9929E+04  7.5476E+04  1.1231E+05  3.6838E+04 -3.1028E-04
 50 2.8528E-02 3.1449E+01 -4.4586E+01 -7.5345E+04  4.6360E+03  7.9981E+04  7.5300E+04  1.1207E+05  3.6767E+04 -5.5745E-04
 51 3.1517E-02 3.0651E+01 -5.0459E+01 -7.5182E+04  4.8565E+03  8.0038E+04  7.5131E+04  1.1182E+05  3.6691E+04 -6.3044E-04
 52 3.4777E-02 2.9861E+01 -5.1268E+01 -7.5022E+04  5.0787E+03  8.0101E+04  7.4971E+04  1.1158E+05  3.6607E+04 -6.4004E-04
 53 3.8329E-02 2.9079E+01 -4.6523E+01 -7.4867E+04  5.3033E+03  8.0170E+04  7.4820E+04  1.1134E+05  3.6517E+04 -5.8030E-04
 54 4.2192E-02 2.8306E+01 -3.5850E+01 -7.4715E+04  5.5323E+03  8.0247E+04  7.4679E+04  1.1110E+05  3.6419E+04 -4.4674E-04
 55 4.6390E-02 2.7541E+01 -1.7451E+01 -7.4563E+04  5.7737E+03  8.0337E+04  7.4546E+04  1.1086E+05  3.6313E+04 -2.1722E-04
 56 5.0945E-02 2.6784E+01  3.3215E+00 -7.4415E+04  6.0249E+03  8.0440E+04  7.4419E+04  1.1062E+05  3.6199E+04  4.1291E-05
 57 5.5880E-02 2.6035E+01  2.5115E+01 -7.4270E+04  6.2910E+03  8.0561E+04  7.4295E+04  1.1037E+05  3.6076E+04  3.1175E-04
 58 6.1220E-02 2.5295E+01  3.8214E+01 -7.4135E+04  6.5777E+03  8.0713E+04  7.4173E+04  1.1012E+05  3.5943E+04  4.7346E-04
 59 6.6990E-02 2.4562E+01  1.9844E+01 -7.4037E+04  6.8935E+03  8.0930E+04  7.4057E+04  1.0986E+05  3.5801E+04  2.4520E-04
 60 7.3216E-02 2.3835E+01 -9.5809E+00 -7.4002E+04  7.1808E+03  8.1183E+04  7.3992E+04  1.0964E+05  3.5648E+04 -1.1802E-04
 61 7.9925E-02 2.3112E+01  3.6175E+00 -7.3920E+04  7.5540E+03  8.1474E+04  7.3924E+04  1.0941E+05  3.5484E+04  4.4401E-05
 62 8.7145E-02 2.2393E+01  5.7653E+01 -7.3787E+04  7.9850E+03  8.1772E+04  7.3845E+04  1.0915E+05  3.5308E+04  7.0504E-04
 63 9.4903E-02 2.1679E+01  1.5197E+02 -7.3604E+04  8.4650E+03  8.2069E+04  7.3756E+04  1.0888E+05  3.5121E+04  1.8517E-03
 64 1.0323E-01 2.0971E+01  2.6247E+02 -7.3395E+04  8.9043E+03  8.2299E+04  7.3657E+04  1.0858E+05  3.4921E+04  3.1892E-03
 65 1.1215E-01 2.0268E+01  3.5364E+02 -7.3190E+04  9.3936E+03  8.2584E+04  7.3544E+04  1.0825E+05  3.4709E+04  4.2821E-03
 66 1.2170E-01 1.9572E+01  4.7239E+02 -7.2941E+04  9.9798E+03  8.2921E+04  7.3413E+04  1.0790E+05  3.4483E+04  5.6968E-03
 67 1.3190E-01 1.8882E+01  6.0962E+02 -7.2653E+04  1.0543E+04  8.3197E+04  7.3263E+04  1.0751E+05  3.4243E+04  7.3275E-03
 68 1.4279E-01 1.8198E+01  7.5095E+02 -7.2347E+04  1.1220E+04  8.3566E+04  7.3098E+04  1.0709E+05  3.3989E+04  8.9862E-03
 69 1.5439E-01 1.7521E+01  9.1805E+02 -7.1996E+04  1.1874E+04  8.3870E+04  7.2914E+04  1.0663E+05  3.3721E+04  1.0946E-02
 70 1.6673E-01 1.6851E+01  1.0985E+03 -7.1620E+04  1.2651E+04  8.4271E+04  7.2719E+04  1.0616E+05  3.3437E+04  1.3035E-02
 71 1.7985E-01 1.6188E+01  1.3051E+03 -7.1203E+04  1.3406E+04  8.4609E+04  7.2508E+04  1.0565E+05  3.3137E+04  1.5425E-02
 72 1.9376E-01 1.5532E+01  1.5246E+03 -7.0765E+04  1.4283E+04  8.5048E+04  7.2290E+04  1.0511E+05  3.2822E+04  1.7926E-02
 73 2.0850E-01 1.4883E+01  1.7656E+03 -7.0295E+04  1.5132E+04  8.5426E+04  7.2060E+04  1.0455E+05  3.2490E+04  2.0668E-02
 74 2.2410E-01 1.4242E+01  2.0095E+03 -6.9816E+04  1.6098E+04  8.5914E+04  7.1826E+04  1.0397E+05  3.2141E+04  2.3390E-02
 75 2.4057E-01 1.3608E+01  2.2871E+03 -6.9295E+04  1.7124E+04  8.6419E+04  7.1582E+04  1.0336E+05  3.1775E+04  2.6466E-02
 76 2.5795E-01 1.2980E+01  2.5949E+03 -6.8735E+04  1.8204E+04  8.6940E+04  7.1330E+04  1.0272E+05  3.1391E+04  2.9847E-02
 77 2.7625E-01 1.2361E+01  2.9027E+03 -6.8170E+04  1.9238E+04  8.7407E+04  7.1072E+04  1.0206E+05  3.0990E+04  3.3209E-02
 78 2.9550E-01 1.1750E+01  3.1933E+03 -6.7621E+04  2.0362E+04  8.7983E+04  7.0814E+04  1.0139E+05  3.0571E+04  3.6294E-02
 79 3.1571E-01 1.1146E+01  3.5005E+03 -6.7052E+04  2.1535E+04  8.8586E+04  7.0552E+04  1.0069E+05  3.0134E+04  3.9515E-02
 80 3.3690E-01 1.0551E+01  3.8161E+03 -6.6471E+04  2.2737E+04  8.9208E+04  7.0287E+04  9.9966E+04  2.9679E+04  4.2777E-02
 81 3.5908E-01 9.9631E+00  4.1504E+03 -6.5869E+04  2.3982E+04  8.9851E+04  7.0020E+04  9.9224E+04  2.9205E+04  4.6192E-02
 82 3.8227E-01 9.3842E+00  4.4703E+03 -6.5281E+04  2.5170E+04  9.0452E+04  6.9751E+04  9.8464E+04  2.8712E+04  4.9422E-02
 83 4.0646E-01 8.8142E+00  4.7280E+03 -6.4760E+04  2.6357E+04  9.1117E+04  6.9488E+04  9.7690E+04  2.8201E+04  5.1889E-02
 84 4.3168E-01 8.2532E+00  4.9463E+03 -6.4286E+04  2.7618E+04  9.1904E+04  6.9232E+04  9.6904E+04  2.7672E+04  5.3821E-02
 85 4.5790E-01 7.7007E+00  5.1423E+03 -6.3836E+04  2.8918E+04  9.2754E+04  6.8978E+04  9.6103E+04  2.7124E+04  5.5440E-02
 86 4.8514E-01 7.1575E+00  5.2195E+03 -6.3510E+04  3.0140E+04  9.3649E+04  6.8729E+04  9.5287E+04  2.6558E+04  5.5734E-02
 87 5.1339E-01 6.6228E+00  5.1362E+03 -6.3351E+04  3.1619E+04  9.4970E+04  6.8487E+04  9.4462E+04  2.5975E+04  5.4083E-02
 88 5.4263E-01 6.0944E+00  5.1337E+03 -6.3122E+04  3.3760E+04  9.6881E+04  6.8255E+04  9.3629E+04  2.5373E+04  5.2990E-02
 89 5.7285E-01 5.5708E+00  5.3945E+03 -6.2637E+04  3.6260E+04  9.8897E+04  6.8032E+04  9.2787E+04  2.4755E+04  5.4547E-02
 90 6.0404E-01 5.0523E+00  5.8622E+03 -6.1953E+04  3.9044E+04  1.0100E+05  6.7816E+04  9.1935E+04  2.4120E+04  5.8043E-02
 91 6.3616E-01 4.5394E+00  6.5314E+03 -6.1074E+04  4.2124E+04  1.0320E+05  6.7605E+04  9.1074E+04  2.3469E+04  6.3290E-02
 92 6.6918E-01 4.0324E+00  7.3812E+03 -6.0018E+04  4.5465E+04  1.0548E+05  6.7399E+04  9.0202E+04  2.2803E+04  6.9975E-02
 93 7.0308E-01 3.5316E+00  8.4304E+03 -5.8765E+04  4.9105E+04  1.0787E+05  6.7195E+04  8.9318E+04  2.2122E+04  7.8153E-02
 94 7.3782E-01 3.0372E+00  9.7721E+03 -5.7220E+04  5.3236E+04  1.1046E+05  6.6992E+04  8.8420E+04  2.1428E+04  8.8471E-02
 95 7.7334E-01 2.5494E+00  1.1428E+04 -5.5357E+04  5.7811E+04  1.1317E+05  6.6785E+04  8.7507E+04  2.0722E+04  1.0098E-01
 96 8.0961E-01 2.0685E+00  1.3374E+04 -5.3199E+04  6.2847E+04  1.1605E+05  6.6573E+04  8.6578E+04  2.0005E+04  1.1525E-01
 97 8.4657E-01 1.5950E+00  1.5516E+04 -5.0836E+04  6.8166E+04  1.1900E+05  6.6352E+04  8.5631E+04  1.9279E+04  1.3038E-01
 98 8.8415E-01 1.1294E+00  1.7899E+04 -4.8219E+04  7.3767E+04  1.2199E+05  6.6119E+04  8.4665E+04  1.8546E+04  1.4673E-01
 99 9.2230E-01 6.7184E-01  2.0610E+04 -4.5259E+04  7.9698E+04  1.2496E+05  6.5869E+04  8.3677E+04  1.7807E+04  1.6494E-01
100 9.6095E-01 2.2285E-01  2.3791E+04 -4.1809E+04  8.5815E+04  1.2762E+05  6.5600E+04  8.2666E+04  1.7067E+04  1.8641E-01
101 1.0000E+00 0.0000E+00  2.7329E+04 -3.7978E+04  9.0873E+04  1.2885E+05  6.5307E+04  8.1634E+04  1.6327E+04  2.1209E-01
 
