 
    OUTPUT FILES FOR THE Sun  
 
 Solar Constant= 0.344   F_CH4= 1.0000E-60  F_CO2= 9.5000E-01  F_O2= 1.0000E-60  F_N2= 5.0000E-02  IO3 =  0   IUP=  0
 ICONSERV= 1  FAC= 4.0  ND=101  SRFALB= 0.200  G=373.0  IMW= 0

 FNO2 = 1.000E-60
 
 NST=     1 JCONV= 83 CHG=1.32E-03 dt0=3.75E+03 DIVF(1)=-1.76E-03 DIVFrms= 1.74E-03 DT(ND)=-7.89E-03 T(ND)=2.0804E+02

 TIME= 2.500E+03  TIME IN DAYS = 2.894E-02

 PLANETARY ALBEDO:  ALBP = 0.1979

  J     P         ALT         T        CONVEC       DT          TOLD        FH20       FSAVE       TCOOL       THEAT
  1 5.2162E-05 4.3612E+01 1.8161E+02  0.00E+00  -9.2243E-02  1.8170E+02  2.3829E-07  1.5976E-07 -2.8876E+02  2.9122E+02
  2 5.6752E-05 4.2834E+01 1.7800E+02  0.00E+00   1.3085E-01  1.7787E+02  2.3829E-07  1.5976E-07 -9.3530E+01  8.9259E+01
  3 6.1706E-05 4.2076E+01 1.7502E+02  0.00E+00   3.2164E-02  1.7499E+02  2.3829E-07  1.5976E-07 -6.6433E+01  6.7898E+01
  4 6.7050E-05 4.1337E+01 1.7219E+02  0.00E+00  -3.8628E-02  1.7223E+02  2.3829E-07  1.5976E-07 -5.0527E+01  5.1254E+01
  5 7.2810E-05 4.0616E+01 1.6924E+02  0.00E+00  -3.9586E-02  1.6928E+02  2.3829E-07  1.5976E-07 -3.8164E+01  3.8535E+01
  6 7.9014E-05 3.9912E+01 1.6621E+02  0.00E+00  -8.1027E-04  1.6621E+02  2.3829E-07  1.5976E-07 -2.8967E+01  2.8978E+01
  7 8.5692E-05 3.9227E+01 1.6331E+02  0.00E+00   3.2873E-02  1.6328E+02  2.3829E-07  1.5976E-07 -2.2364E+01  2.1912E+01
  8 9.2875E-05 3.8558E+01 1.6056E+02  0.00E+00  -1.1541E-02  1.6058E+02  2.3829E-07  1.5976E-07 -1.7041E+01  1.6776E+01
  9 1.0060E-04 3.7906E+01 1.5785E+02  0.00E+00  -2.7430E-02  1.5788E+02  2.3829E-07  1.5976E-07 -1.2363E+01  1.3110E+01
 10 1.0889E-04 3.7270E+01 1.5526E+02  0.00E+00  -2.9337E-03  1.5527E+02  2.3829E-07  1.5976E-07 -1.0585E+01  1.0538E+01
 11 1.1779E-04 3.6649E+01 1.5303E+02  0.00E+00   1.5736E-02  1.5302E+02  2.3829E-07  1.5976E-07 -9.0268E+00  8.7588E+00
 12 1.2734E-04 3.6041E+01 1.5131E+02  0.00E+00   1.8235E-02  1.5129E+02  2.3829E-07  1.5976E-07 -7.7729E+00  7.5453E+00
 13 1.3757E-04 3.5443E+01 1.5013E+02  0.00E+00   1.1139E-02  1.5012E+02  2.3829E-07  1.5976E-07 -6.8611E+00  6.7262E+00
 14 1.4853E-04 3.4855E+01 1.4942E+02  0.00E+00   2.8587E-03  1.4941E+02  2.3829E-07  1.5976E-07 -6.2051E+00  6.1756E+00
 15 1.6026E-04 3.4273E+01 1.4905E+02  0.00E+00  -2.5968E-03  1.4905E+02  2.3829E-07  1.5976E-07 -5.7764E+00  5.8024E+00
 16 1.7281E-04 3.3697E+01 1.4890E+02  0.00E+00  -4.6406E-03  1.4890E+02  2.3829E-07  1.5976E-07 -5.4935E+00  5.5424E+00
 17 1.8622E-04 3.3126E+01 1.4888E+02  0.00E+00  -4.5153E-03  1.4889E+02  2.3829E-07  1.5976E-07 -5.3071E+00  5.3517E+00
 18 2.0054E-04 3.2560E+01 1.4893E+02  0.00E+00  -3.2620E-03  1.4894E+02  2.3829E-07  1.5976E-07 -5.1677E+00  5.2010E+00
 19 2.1583E-04 3.1999E+01 1.4902E+02  0.00E+00  -2.0327E-03  1.4902E+02  2.3829E-07  1.5976E-07 -5.0541E+00  5.0717E+00
 20 2.3213E-04 3.1442E+01 1.4912E+02  0.00E+00  -1.1910E-03  1.4912E+02  2.3829E-07  1.5976E-07 -4.9419E+00  4.9525E+00
 21 2.4951E-04 3.0890E+01 1.4922E+02  0.00E+00  -7.1889E-04  1.4922E+02  2.3829E-07  1.5976E-07 -4.8303E+00  4.8368E+00
 22 2.6801E-04 3.0343E+01 1.4933E+02  0.00E+00  -5.9368E-04  1.4933E+02  2.3829E-07  1.5976E-07 -4.7162E+00  4.7209E+00
 23 2.8770E-04 2.9799E+01 1.4945E+02  0.00E+00   1.0741E-04  1.4945E+02  2.3829E-07  1.5976E-07 -4.6016E+00  4.6030E+00
 24 3.0864E-04 2.9261E+01 1.4957E+02  0.00E+00  -6.2427E-04  1.4957E+02  2.3829E-07  1.5976E-07 -4.4821E+00  4.4823E+00
 25 3.3090E-04 2.8727E+01 1.4971E+02  0.00E+00   4.9864E-04  1.4971E+02  2.3829E-07  1.5976E-07 -4.3571E+00  4.3584E+00
 26 3.5453E-04 2.8197E+01 1.4986E+02  0.00E+00  -1.3354E-03  1.4987E+02  2.3829E-07  1.5976E-07 -4.2267E+00  4.2315E+00
 27 3.7960E-04 2.7671E+01 1.5005E+02  0.00E+00   3.9386E-03  1.5005E+02  2.3829E-07  1.5976E-07 -4.1227E+00  4.1016E+00
 28 4.0619E-04 2.7150E+01 1.5027E+02  0.00E+00  -4.4527E-03  1.5027E+02  2.3829E-07  1.5984E-07 -3.9892E+00  3.9690E+00
 29 4.3437E-04 2.6633E+01 1.5052E+02  0.00E+00   2.4370E-03  1.5051E+02  2.3829E-07  1.6013E-07 -3.8298E+00  3.8342E+00
 30 4.6420E-04 2.6119E+01 1.5079E+02  0.00E+00  -1.0961E-03  1.5079E+02  2.3829E-07  1.6129E-07 -3.6767E+00  3.6975E+00
 31 4.9576E-04 2.5610E+01 1.5110E+02  0.00E+00   2.3009E-03  1.5110E+02  2.3829E-07  1.6406E-07 -3.5609E+00  3.5593E+00
 32 5.2913E-04 2.5105E+01 1.5145E+02  0.00E+00   2.2535E-03  1.5145E+02  2.3829E-07  1.6871E-07 -3.4311E+00  3.4200E+00
 33 5.6439E-04 2.4603E+01 1.5182E+02  0.00E+00  -4.9206E-03  1.5182E+02  2.3829E-07  1.7467E-07 -3.2698E+00  3.2801E+00
 34 6.0161E-04 2.4105E+01 1.5220E+02  0.00E+00   3.2423E-03  1.5220E+02  2.3829E-07  1.8097E-07 -3.1434E+00  3.1403E+00
 35 6.4087E-04 2.3611E+01 1.5260E+02  0.00E+00   1.3793E-03  1.5260E+02  2.3829E-07  1.8887E-07 -3.0099E+00  3.0010E+00
 36 6.8226E-04 2.3121E+01 1.5300E+02  0.00E+00  -4.3051E-03  1.5300E+02  2.3829E-07  1.9722E-07 -2.8503E+00  2.8627E+00
 37 7.2586E-04 2.2634E+01 1.5339E+02  0.00E+00   4.3994E-03  1.5339E+02  2.3829E-07  2.0517E-07 -2.7381E+00  2.7259E+00
 38 7.7175E-04 2.2151E+01 1.5378E+02  0.00E+00  -4.5691E-03  1.5378E+02  2.3829E-07  2.1370E-07 -2.5834E+00  2.5911E+00
 39 8.2002E-04 2.1672E+01 1.5414E+02  0.00E+00   1.6081E-03  1.5414E+02  2.3829E-07  2.2086E-07 -2.4600E+00  2.4590E+00
 40 8.7075E-04 2.1197E+01 1.5450E+02  0.00E+00   2.9430E-03  1.5450E+02  2.3829E-07  2.2796E-07 -2.3349E+00  2.3297E+00
 41 9.2403E-04 2.0726E+01 1.5484E+02  0.00E+00   6.2288E-04  1.5484E+02  2.3829E-07  2.3426E-07 -2.2121E+00  2.2038E+00
 42 9.7994E-04 2.0259E+01 1.5512E+02  0.00E+00  -9.7130E-03  1.5513E+02  2.3829E-07  2.3814E-07 -2.0658E+00  2.0817E+00
 43 1.0386E-03 1.9797E+01 1.5536E+02  0.00E+00   2.1155E-04  1.5536E+02  2.3829E-07  2.3828E-07 -2.0365E+00  2.0449E+00
 44 1.1000E-03 1.9339E+01 1.5559E+02  0.00E+00   5.8629E-03  1.5559E+02  2.3849E-07  2.3833E-07 -2.0593E+00  2.0400E+00
 45 1.1643E-03 1.8885E+01 1.5583E+02  0.00E+00  -4.6826E-04  1.5583E+02  2.3929E-07  2.3928E-07 -2.0065E+00  2.0118E+00
 46 1.2316E-03 1.8435E+01 1.5606E+02  0.00E+00  -2.6251E-04  1.5606E+02  2.3973E-07  2.3974E-07 -1.9722E+00  1.9632E+00
 47 1.3020E-03 1.7991E+01 1.5631E+02  0.00E+00   5.9718E-05  1.5631E+02  2.4129E-07  2.4128E-07 -1.8956E+00  1.8976E+00
 48 1.3754E-03 1.7550E+01 1.5654E+02  0.00E+00  -1.8209E-05  1.5654E+02  2.4215E-07  2.4215E-07 -1.8199E+00  1.8193E+00
 49 1.4521E-03 1.7114E+01 1.5678E+02  0.00E+00  -9.9881E-05  1.5678E+02  2.4340E-07  2.4340E-07 -1.7358E+00  1.7323E+00
 50 1.5321E-03 1.6683E+01 1.5700E+02  0.00E+00   1.7575E-05  1.5700E+02  2.4381E-07  2.4381E-07 -1.6402E+00  1.6408E+00
 51 1.6155E-03 1.6256E+01 1.5724E+02  0.00E+00  -2.8707E-05  1.5724E+02  2.4539E-07  2.4539E-07 -1.5494E+00  1.5485E+00
 52 1.7023E-03 1.5833E+01 1.5748E+02  0.00E+00  -7.8433E-05  1.5748E+02  2.4711E-07  2.4711E-07 -1.4611E+00  1.4584E+00
 53 1.7927E-03 1.5415E+01 1.5781E+02  0.00E+00  -8.9067E-05  1.5781E+02  2.5469E-07  2.5469E-07 -1.3760E+00  1.3729E+00
 54 1.8866E-03 1.5001E+01 1.5814E+02  0.00E+00  -1.0679E-04  1.5814E+02  2.6224E-07  2.6224E-07 -1.2975E+00  1.2938E+00
 55 1.9842E-03 1.4592E+01 1.5856E+02  0.00E+00  -1.2627E-04  1.5856E+02  2.7662E-07  2.7663E-07 -1.2261E+00  1.2217E+00
 56 2.0855E-03 1.4186E+01 1.5903E+02  0.00E+00  -1.0399E-04  1.5903E+02  2.9461E-07  2.9461E-07 -1.1607E+00  1.1571E+00
 57 2.1906E-03 1.3785E+01 1.5956E+02  0.00E+00  -1.5627E-04  1.5956E+02  3.1898E-07  3.1899E-07 -1.1048E+00  1.0994E+00
 58 2.2994E-03 1.3387E+01 1.6015E+02  0.00E+00  -8.3771E-05  1.6015E+02  3.5058E-07  3.5058E-07 -1.0510E+00  1.0481E+00
 59 2.4122E-03 1.2993E+01 1.6077E+02  0.00E+00  -1.8196E-04  1.6077E+02  3.8727E-07  3.8728E-07 -1.0085E+00  1.0022E+00
 60 2.5289E-03 1.2603E+01 1.6147E+02  0.00E+00  -6.0387E-05  1.6147E+02  4.3567E-07  4.3567E-07 -9.6276E-01  9.6068E-01
 61 2.6495E-03 1.2217E+01 1.6214E+02  0.00E+00  -1.9874E-04  1.6214E+02  4.8640E-07  4.8641E-07 -9.2967E-01  9.2280E-01
 62 2.7741E-03 1.1834E+01 1.6291E+02  0.00E+00  -4.7078E-05  1.6291E+02  5.5534E-07  5.5534E-07 -8.8922E-01  8.8759E-01
 63 2.9027E-03 1.1454E+01 1.6363E+02  0.00E+00  -2.0233E-04  1.6363E+02  6.2623E-07  6.2625E-07 -8.6163E-01  8.5464E-01
 64 3.0353E-03 1.1078E+01 1.6442E+02  0.00E+00  -5.2385E-05  1.6442E+02  7.1764E-07  7.1764E-07 -8.2513E-01  8.2332E-01
 65 3.1719E-03 1.0706E+01 1.6516E+02  0.00E+00  -1.8727E-04  1.6516E+02  8.1221E-07  8.1223E-07 -7.9997E-01  7.9349E-01
 66 3.3126E-03 1.0338E+01 1.6600E+02  0.00E+00  -1.0635E-04  1.6600E+02  9.3695E-07  9.3696E-07 -7.6850E-01  7.6482E-01
 67 3.4573E-03 9.9730E+00 1.6676E+02  0.00E+00  -1.3478E-04  1.6676E+02  1.0632E-06  1.0632E-06 -7.4205E-01  7.3739E-01
 68 3.6060E-03 9.6119E+00 1.6760E+02  0.00E+00  -1.9859E-04  1.6760E+02  1.2244E-06  1.2245E-06 -7.1788E-01  7.1102E-01
 69 3.7587E-03 9.2546E+00 1.6838E+02  0.00E+00  -1.8547E-04  1.6838E+02  1.3928E-06  1.3928E-06 -6.9224E-01  6.8583E-01
 70 3.9153E-03 8.9011E+00 1.6924E+02  0.00E+00  -2.1612E-04  1.6924E+02  1.6098E-06  1.6098E-06 -6.6918E-01  6.6171E-01
 71 4.0759E-03 8.5514E+00 1.7006E+02  0.00E+00  -1.9426E-04  1.7006E+02  1.8390E-06  1.8391E-06 -6.4552E-01  6.3881E-01
 72 4.2404E-03 8.2056E+00 1.7095E+02  0.00E+00  -2.1211E-04  1.7095E+02  2.1360E-06  2.1361E-06 -6.2434E-01  6.1701E-01
 73 4.4086E-03 7.8636E+00 1.7180E+02  0.00E+00  -1.9909E-04  1.7180E+02  2.4507E-06  2.4507E-06 -6.0333E-01  5.9644E-01
 74 4.5806E-03 7.5254E+00 1.7271E+02  0.00E+00  -2.0392E-04  1.7272E+02  2.8507E-06  2.8507E-06 -5.8405E-01  5.7700E-01
 75 4.7563E-03 7.1912E+00 1.7360E+02  0.00E+00  -2.0084E-04  1.7360E+02  3.2932E-06  3.2933E-06 -5.6570E-01  5.5876E-01
 76 4.9356E-03 6.8609E+00 1.7458E+02  0.00E+00  -1.9642E-04  1.7458E+02  3.8651E-06  3.8652E-06 -5.4840E-01  5.4161E-01
 77 5.1183E-03 6.5345E+00 1.7553E+02  0.00E+00  -1.9971E-04  1.7553E+02  4.5102E-06  4.5104E-06 -5.3251E-01  5.2561E-01
 78 5.3044E-03 6.2121E+00 1.7658E+02  0.00E+00  -1.8899E-04  1.7658E+02  5.3568E-06  5.3569E-06 -5.1720E-01  5.1066E-01
 79 5.4938E-03 5.8935E+00 1.7762E+02  0.00E+00  -1.9698E-04  1.7762E+02  6.3357E-06  6.3358E-06 -5.0363E-01  4.9682E-01
 80 5.6863E-03 5.5788E+00 1.7877E+02  0.00E+00  -1.8038E-04  1.7877E+02  7.6497E-06  7.6498E-06 -4.9022E-01  4.8399E-01
 81 5.8818E-03 5.2679E+00 1.7994E+02  0.00E+00  -1.9146E-04  1.7994E+02  9.2309E-06  9.2311E-06 -4.7883E-01  4.7221E-01
 82 6.0801E-03 4.9607E+00 1.8145E+02  0.00E+00   1.7710E-01  1.8127E+02  1.1856E-05  1.1471E-05 -7.9563E-01  4.6144E-01
 83 6.2810E-03 4.6568E+00 1.8300E+02  1.00E+00   1.7807E-01  1.8282E+02  1.5295E-05  1.4804E-05 -1.2398E+00  4.5173E-01
 84 6.4845E-03 4.3564E+00 1.8455E+02  1.00E+00   1.8227E-01  1.8436E+02  1.9612E-05  1.8978E-05 -1.5871E+00  4.4314E-01
 85 6.6902E-03 4.0595E+00 1.8608E+02  1.00E+00   1.8969E-01  1.8589E+02  2.4998E-05  2.4171E-05 -1.8860E+00  4.3567E-01
 86 6.8981E-03 3.7663E+00 1.8760E+02  1.00E+00   1.9987E-01  1.8740E+02  3.1675E-05  3.0589E-05 -2.2102E+00  4.2934E-01
 87 7.1079E-03 3.4769E+00 1.8911E+02  1.00E+00   2.1196E-01  1.8890E+02  3.9903E-05  3.8476E-05 -2.5132E+00  4.2418E-01
 88 7.3194E-03 3.1914E+00 1.9061E+02  1.00E+00   2.2477E-01  1.9038E+02  4.9983E-05  4.8119E-05 -2.8673E+00  4.2023E-01
 89 7.5323E-03 2.9100E+00 1.9209E+02  1.00E+00   2.3703E-01  1.9185E+02  6.2261E-05  5.9852E-05 -3.2090E+00  4.1755E-01
 90 7.7465E-03 2.6327E+00 1.9356E+02  1.00E+00   2.4761E-01  1.9331E+02  7.7133E-05  7.4065E-05 -3.6273E+00  4.1621E-01
 91 7.9617E-03 2.3597E+00 1.9501E+02  1.00E+00   2.5545E-01  1.9476E+02  9.5050E-05  9.1208E-05 -4.0440E+00  4.1631E-01
 92 8.1777E-03 2.0910E+00 1.9645E+02  1.00E+00   2.5947E-01  1.9619E+02  1.1652E-04  1.1180E-04 -4.5626E+00  4.1796E-01
 93 8.3941E-03 1.8269E+00 1.9788E+02  1.00E+00   2.5848E-01  1.9762E+02  1.4209E-04  1.3645E-04 -5.0889E+00  4.2129E-01
 94 8.6107E-03 1.5674E+00 1.9928E+02  1.00E+00   2.5141E-01  1.9903E+02  1.7240E-04  1.6583E-04 -5.7525E+00  4.2648E-01
 95 8.8273E-03 1.3126E+00 2.0067E+02  1.00E+00   2.3728E-01  2.0043E+02  2.0810E-04  2.0070E-04 -6.4480E+00  4.3370E-01
 96 9.0436E-03 1.0626E+00 2.0204E+02  1.00E+00   2.1537E-01  2.0183E+02  2.4990E-04  2.4193E-04 -7.3532E+00  4.4316E-01
 97 9.2592E-03 8.1766E-01 2.0339E+02  1.00E+00   1.8530E-01  2.0321E+02  2.9851E-04  2.9041E-04 -8.5191E+00  4.5506E-01
 98 9.4739E-03 5.7774E-01 2.0472E+02  1.00E+00   1.4712E-01  2.0457E+02  3.5466E-04  3.4710E-04 -9.7108E+00  4.6961E-01
 99 9.6874E-03 3.4301E-01 2.0602E+02  1.00E+00   1.0143E-01  2.0592E+02  4.1903E-04  4.1292E-04 -1.1557E+01  4.8701E-01
100 9.8993E-03 1.1358E-01 2.0729E+02  1.00E+00   4.9368E-02  2.0724E+02  4.9221E-04  4.8874E-04 -1.3644E+01  5.0799E-01
101 1.0005E-02 0.0000E+00 2.0804E+02  1.00E+00  -7.8937E-03  2.0804E+02  5.4161E-04  5.4221E-04 -3.5873E+00  3.7619E+00

 FCO2
  9.50E-01 9.50E-01 9.50E-01 9.50E-01 9.50E-01 9.50E-01 9.50E-01 9.50E-01 9.50E-01 9.50E-01
  9.50E-01 9.50E-01 9.50E-01 9.50E-01 9.50E-01 9.50E-01 9.50E-01 9.50E-01 9.50E-01 9.50E-01
  9.50E-01 9.50E-01 9.50E-01 9.50E-01 9.50E-01 9.50E-01 9.50E-01 9.50E-01 9.50E-01 9.50E-01
  9.50E-01 9.50E-01 9.50E-01 9.50E-01 9.50E-01 9.50E-01 9.50E-01 9.50E-01 9.50E-01 9.50E-01
  9.50E-01 9.50E-01 9.50E-01 9.50E-01 9.50E-01 9.50E-01 9.50E-01 9.50E-01 9.50E-01 9.50E-01
  9.50E-01 9.50E-01 9.50E-01 9.50E-01 9.50E-01 9.50E-01 9.50E-01 9.50E-01 9.50E-01 9.50E-01
  9.50E-01 9.50E-01 9.50E-01 9.50E-01 9.50E-01 9.50E-01 9.50E-01 9.50E-01 9.50E-01 9.50E-01
  9.50E-01 9.50E-01 9.50E-01 9.50E-01 9.50E-01 9.50E-01 9.50E-01 9.50E-01 9.50E-01 9.50E-01
  9.50E-01 9.50E-01 9.50E-01 9.50E-01 9.50E-01 9.50E-01 9.50E-01 9.50E-01 9.50E-01 9.50E-01
  9.50E-01 9.50E-01 9.50E-01 9.50E-01 9.50E-01 9.50E-01 9.50E-01 9.50E-01 9.50E-01 9.50E-01
  9.50E-01

  J    PF         ALT       FTOTAL       FTIR       FDNIR       FUPIR       FTSOL       FDNSOL       FUPSOL       DIVF
  1 5.0000E-05 4.3612E+01 -1.6511E+02 -9.3973E+04  0.0000E+00  9.3973E+04  9.3808E+04  1.1696E+05  2.3150E+04 -1.7570E-03
  2 5.4417E-05 4.2834E+01 -1.6757E+02 -9.3685E+04  2.3925E+02  9.3924E+04  9.3517E+04  1.1667E+05  2.3150E+04 -1.7841E-03
  3 5.9186E-05 4.2076E+01 -1.6299E+02 -9.3584E+04  2.9793E+02  9.3882E+04  9.3421E+04  1.1657E+05  2.3150E+04 -1.7361E-03
  4 6.4333E-05 4.1337E+01 -1.6468E+02 -9.3508E+04  3.3540E+02  9.3843E+04  9.3343E+04  1.1649E+05  2.3149E+04 -1.7548E-03
  5 6.9881E-05 4.0616E+01 -1.6558E+02 -9.3445E+04  3.6022E+02  9.3805E+04  9.3279E+04  1.1643E+05  2.3149E+04 -1.7651E-03
  6 7.5860E-05 3.9912E+01 -1.6607E+02 -9.3394E+04  3.7621E+02  9.3771E+04  9.3228E+04  1.1638E+05  2.3149E+04 -1.7710E-03
  7 8.2298E-05 3.9227E+01 -1.6609E+02 -9.3353E+04  3.8696E+02  9.3740E+04  9.3187E+04  1.1634E+05  2.3149E+04 -1.7718E-03
  8 8.9225E-05 3.8558E+01 -1.6540E+02 -9.3319E+04  3.9477E+02  9.3714E+04  9.3153E+04  1.1630E+05  2.3148E+04 -1.7649E-03
  9 9.6674E-05 3.7906E+01 -1.6496E+02 -9.3291E+04  4.0000E+02  9.3691E+04  9.3126E+04  1.1627E+05  2.3148E+04 -1.7607E-03
 10 1.0468E-04 3.7270E+01 -1.6627E+02 -9.3269E+04  4.0339E+02  9.3673E+04  9.3103E+04  1.1625E+05  2.3148E+04 -1.7750E-03
 11 1.1327E-04 3.6649E+01 -1.6619E+02 -9.3250E+04  4.0846E+02  9.3658E+04  9.3083E+04  1.1623E+05  2.3147E+04 -1.7744E-03
 12 1.2249E-04 3.6041E+01 -1.6565E+02 -9.3231E+04  4.1606E+02  9.3648E+04  9.3066E+04  1.1621E+05  2.3147E+04 -1.7689E-03
 13 1.3238E-04 3.5443E+01 -1.6516E+02 -9.3215E+04  4.2631E+02  9.3641E+04  9.3050E+04  1.1620E+05  2.3146E+04 -1.7638E-03
 14 1.4297E-04 3.4855E+01 -1.6485E+02 -9.3199E+04  4.3897E+02  9.3638E+04  9.3034E+04  1.1618E+05  2.3146E+04 -1.7605E-03
 15 1.5431E-04 3.4273E+01 -1.6478E+02 -9.3184E+04  4.5364E+02  9.3638E+04  9.3019E+04  1.1616E+05  2.3145E+04 -1.7598E-03
 16 1.6644E-04 3.3697E+01 -1.6485E+02 -9.3169E+04  4.7002E+02  9.3639E+04  9.3004E+04  1.1615E+05  2.3145E+04 -1.7605E-03
 17 1.7942E-04 3.3126E+01 -1.6499E+02 -9.3153E+04  4.8785E+02  9.3641E+04  9.2988E+04  1.1613E+05  2.3144E+04 -1.7619E-03
 18 1.9328E-04 3.2560E+01 -1.6512E+02 -9.3137E+04  5.0699E+02  9.3644E+04  9.2972E+04  1.1612E+05  2.3144E+04 -1.7632E-03
 19 2.0808E-04 3.1999E+01 -1.6522E+02 -9.3121E+04  5.2737E+02  9.3648E+04  9.2956E+04  1.1610E+05  2.3143E+04 -1.7643E-03
 20 2.2387E-04 3.1442E+01 -1.6528E+02 -9.3104E+04  5.4900E+02  9.3653E+04  9.2938E+04  1.1608E+05  2.3142E+04 -1.7649E-03
 21 2.4070E-04 3.0890E+01 -1.6532E+02 -9.3086E+04  5.7187E+02  9.3658E+04  9.2920E+04  1.1606E+05  2.3141E+04 -1.7652E-03
 22 2.5863E-04 3.0343E+01 -1.6535E+02 -9.3067E+04  5.9602E+02  9.3663E+04  9.2902E+04  1.1604E+05  2.3141E+04 -1.7654E-03
 23 2.7773E-04 2.9799E+01 -1.6537E+02 -9.3048E+04  6.2155E+02  9.3669E+04  9.2882E+04  1.1602E+05  2.3140E+04 -1.7654E-03
 24 2.9804E-04 2.9261E+01 -1.6537E+02 -9.3027E+04  6.4856E+02  9.3676E+04  9.2862E+04  1.1600E+05  2.3139E+04 -1.7654E-03
 25 3.1963E-04 2.8727E+01 -1.6537E+02 -9.3007E+04  6.7716E+02  9.3684E+04  9.2841E+04  1.1598E+05  2.3138E+04 -1.7652E-03
 26 3.4256E-04 2.8197E+01 -1.6538E+02 -9.2985E+04  7.0745E+02  9.3692E+04  9.2820E+04  1.1596E+05  2.3137E+04 -1.7652E-03
 27 3.6691E-04 2.7671E+01 -1.6541E+02 -9.2963E+04  7.3950E+02  9.3702E+04  9.2797E+04  1.1593E+05  2.3136E+04 -1.7652E-03
 28 3.9274E-04 2.7150E+01 -1.6529E+02 -9.2940E+04  7.7355E+02  9.3713E+04  9.2774E+04  1.1591E+05  2.3134E+04 -1.7638E-03
 29 4.2011E-04 2.6633E+01 -1.6517E+02 -9.2916E+04  8.0928E+02  9.3725E+04  9.2751E+04  1.1588E+05  2.3133E+04 -1.7623E-03
 30 4.4911E-04 2.6119E+01 -1.6520E+02 -9.2892E+04  8.4670E+02  9.3739E+04  9.2727E+04  1.1586E+05  2.3132E+04 -1.7623E-03
 31 4.7980E-04 2.5610E+01 -1.6534E+02 -9.2868E+04  8.8568E+02  9.3753E+04  9.2702E+04  1.1583E+05  2.3130E+04 -1.7635E-03
 32 5.1226E-04 2.5105E+01 -1.6532E+02 -9.2843E+04  9.2665E+02  9.3769E+04  9.2677E+04  1.1581E+05  2.3129E+04 -1.7631E-03
 33 5.4656E-04 2.4603E+01 -1.6524E+02 -9.2817E+04  9.6892E+02  9.3786E+04  9.2652E+04  1.1578E+05  2.3127E+04 -1.7619E-03
 34 5.8280E-04 2.4105E+01 -1.6532E+02 -9.2791E+04  1.0120E+03  9.3803E+04  9.2626E+04  1.1575E+05  2.3126E+04 -1.7624E-03
 35 6.2103E-04 2.3611E+01 -1.6530E+02 -9.2765E+04  1.0564E+03  9.3822E+04  9.2600E+04  1.1572E+05  2.3124E+04 -1.7618E-03
 36 6.6135E-04 2.3121E+01 -1.6522E+02 -9.2739E+04  1.1012E+03  9.3840E+04  9.2574E+04  1.1570E+05  2.3122E+04 -1.7606E-03
 37 7.0384E-04 2.2634E+01 -1.6533E+02 -9.2713E+04  1.1460E+03  9.3859E+04  9.2547E+04  1.1567E+05  2.3120E+04 -1.7615E-03
 38 7.4858E-04 2.2151E+01 -1.6521E+02 -9.2686E+04  1.1913E+03  9.3877E+04  9.2521E+04  1.1564E+05  2.3118E+04 -1.7599E-03
 39 7.9565E-04 2.1672E+01 -1.6529E+02 -9.2660E+04  1.2359E+03  9.3895E+04  9.2494E+04  1.1561E+05  2.3116E+04 -1.7604E-03
 40 8.4514E-04 2.1197E+01 -1.6528E+02 -9.2633E+04  1.2805E+03  9.3914E+04  9.2468E+04  1.1558E+05  2.3114E+04 -1.7599E-03
 41 8.9714E-04 2.0726E+01 -1.6522E+02 -9.2607E+04  1.3243E+03  9.3931E+04  9.2441E+04  1.1555E+05  2.3111E+04 -1.7590E-03
 42 9.5172E-04 2.0259E+01 -1.6513E+02 -9.2580E+04  1.3665E+03  9.3947E+04  9.2415E+04  1.1552E+05  2.3109E+04 -1.7576E-03
 43 1.0090E-03 1.9797E+01 -1.6532E+02 -9.2555E+04  1.4073E+03  9.3962E+04  9.2389E+04  1.1550E+05  2.3106E+04 -1.7595E-03
 44 1.0690E-03 1.9339E+01 -1.6543E+02 -9.2528E+04  1.4501E+03  9.3978E+04  9.2363E+04  1.1547E+05  2.3103E+04 -1.7603E-03
 45 1.1319E-03 1.8885E+01 -1.6517E+02 -9.2500E+04  1.4964E+03  9.3996E+04  9.2335E+04  1.1543E+05  2.3100E+04 -1.7572E-03
 46 1.1977E-03 1.8435E+01 -1.6525E+02 -9.2471E+04  1.5449E+03  9.4016E+04  9.2306E+04  1.1540E+05  2.3097E+04 -1.7576E-03
 47 1.2665E-03 1.7991E+01 -1.6511E+02 -9.2441E+04  1.5967E+03  9.4038E+04  9.2276E+04  1.1537E+05  2.3094E+04 -1.7558E-03
 48 1.3384E-03 1.7550E+01 -1.6514E+02 -9.2412E+04  1.6501E+03  9.4062E+04  9.2246E+04  1.1534E+05  2.3091E+04 -1.7557E-03
 49 1.4135E-03 1.7114E+01 -1.6513E+02 -9.2382E+04  1.7056E+03  9.4087E+04  9.2217E+04  1.1530E+05  2.3088E+04 -1.7551E-03
 50 1.4918E-03 1.6683E+01 -1.6507E+02 -9.2352E+04  1.7627E+03  9.4115E+04  9.2187E+04  1.1527E+05  2.3084E+04 -1.7539E-03
 51 1.5735E-03 1.6256E+01 -1.6508E+02 -9.2323E+04  1.8224E+03  9.4145E+04  9.2158E+04  1.1524E+05  2.3080E+04 -1.7535E-03
 52 1.6586E-03 1.5833E+01 -1.6506E+02 -9.2294E+04  1.8861E+03  9.4180E+04  9.2129E+04  1.1521E+05  2.3077E+04 -1.7526E-03
 53 1.7472E-03 1.5415E+01 -1.6501E+02 -9.2266E+04  1.9554E+03  9.4221E+04  9.2101E+04  1.1517E+05  2.3073E+04 -1.7513E-03
 54 1.8393E-03 1.5001E+01 -1.6495E+02 -9.2238E+04  2.0279E+03  9.4266E+04  9.2073E+04  1.1514E+05  2.3069E+04 -1.7498E-03
 55 1.9351E-03 1.4592E+01 -1.6487E+02 -9.2211E+04  2.1083E+03  9.4319E+04  9.2046E+04  1.1511E+05  2.3064E+04 -1.7480E-03
 56 2.0345E-03 1.4186E+01 -1.6478E+02 -9.2184E+04  2.1937E+03  9.4378E+04  9.2019E+04  1.1508E+05  2.3060E+04 -1.7459E-03
 57 2.1377E-03 1.3785E+01 -1.6470E+02 -9.2158E+04  2.2868E+03  9.4445E+04  9.1993E+04  1.1505E+05  2.3056E+04 -1.7438E-03
 58 2.2447E-03 1.3387E+01 -1.6457E+02 -9.2132E+04  2.3857E+03  9.4518E+04  9.1967E+04  1.1502E+05  2.3051E+04 -1.7412E-03
 59 2.3555E-03 1.2993E+01 -1.6450E+02 -9.2106E+04  2.4910E+03  9.4597E+04  9.1942E+04  1.1499E+05  2.3046E+04 -1.7389E-03
 60 2.4702E-03 1.2603E+01 -1.6434E+02 -9.2081E+04  2.6028E+03  9.4684E+04  9.1917E+04  1.1496E+05  2.3041E+04 -1.7357E-03
 61 2.5889E-03 1.2217E+01 -1.6429E+02 -9.2056E+04  2.7189E+03  9.4775E+04  9.1892E+04  1.1493E+05  2.3036E+04 -1.7334E-03
 62 2.7115E-03 1.1834E+01 -1.6410E+02 -9.2031E+04  2.8447E+03  9.4875E+04  9.1867E+04  1.1490E+05  2.3031E+04 -1.7296E-03
 63 2.8381E-03 1.1454E+01 -1.6406E+02 -9.2006E+04  2.9717E+03  9.4978E+04  9.1842E+04  1.1487E+05  2.3025E+04 -1.7273E-03
 64 2.9687E-03 1.1078E+01 -1.6385E+02 -9.1981E+04  3.1075E+03  9.5089E+04  9.1817E+04  1.1484E+05  2.3020E+04 -1.7232E-03
 65 3.1033E-03 1.0706E+01 -1.6380E+02 -9.1957E+04  3.2468E+03  9.5203E+04  9.1793E+04  1.1481E+05  2.3014E+04 -1.7205E-03
 66 3.2420E-03 1.0338E+01 -1.6360E+02 -9.1932E+04  3.3963E+03  9.5328E+04  9.1768E+04  1.1478E+05  2.3008E+04 -1.7162E-03
 67 3.3847E-03 9.9730E+00 -1.6349E+02 -9.1908E+04  3.5459E+03  9.5454E+04  9.1744E+04  1.1475E+05  2.3002E+04 -1.7127E-03
 68 3.5314E-03 9.6119E+00 -1.6333E+02 -9.1884E+04  3.7052E+03  9.5589E+04  9.1720E+04  1.1472E+05  2.2996E+04 -1.7087E-03
 69 3.6821E-03 9.2546E+00 -1.6311E+02 -9.1860E+04  3.8684E+03  9.5728E+04  9.1697E+04  1.1469E+05  2.2990E+04 -1.7038E-03
 70 3.8368E-03 8.9011E+00 -1.6289E+02 -9.1836E+04  4.0427E+03  9.5879E+04  9.1673E+04  1.1466E+05  2.2983E+04 -1.6989E-03
 71 3.9954E-03 8.5514E+00 -1.6262E+02 -9.1812E+04  4.2216E+03  9.6034E+04  9.1650E+04  1.1463E+05  2.2977E+04 -1.6934E-03
 72 4.1580E-03 8.2056E+00 -1.6238E+02 -9.1789E+04  4.4129E+03  9.6202E+04  9.1627E+04  1.1460E+05  2.2970E+04 -1.6879E-03
 73 4.3244E-03 7.8636E+00 -1.6211E+02 -9.1766E+04  4.6060E+03  9.6372E+04  9.1604E+04  1.1457E+05  2.2963E+04 -1.6821E-03
 74 4.4945E-03 7.5254E+00 -1.6185E+02 -9.1743E+04  4.8119E+03  9.6555E+04  9.1581E+04  1.1454E+05  2.2956E+04 -1.6762E-03
 75 4.6684E-03 7.1912E+00 -1.6157E+02 -9.1720E+04  5.0252E+03  9.6745E+04  9.1559E+04  1.1451E+05  2.2949E+04 -1.6701E-03
 76 4.8459E-03 6.8609E+00 -1.6130E+02 -9.1698E+04  5.2537E+03  9.6951E+04  9.1536E+04  1.1448E+05  2.2942E+04 -1.6637E-03
 77 5.0269E-03 6.5345E+00 -1.6102E+02 -9.1676E+04  5.4912E+03  9.7167E+04  9.1514E+04  1.1445E+05  2.2935E+04 -1.6572E-03
 78 5.2114E-03 6.2121E+00 -1.6074E+02 -9.1653E+04  5.7469E+03  9.7400E+04  9.1493E+04  1.1442E+05  2.2927E+04 -1.6503E-03
 79 5.3992E-03 5.8935E+00 -1.6046E+02 -9.1632E+04  6.0141E+03  9.7646E+04  9.1471E+04  1.1439E+05  2.2920E+04 -1.6433E-03
 80 5.5901E-03 5.5788E+00 -1.6017E+02 -9.1610E+04  6.3039E+03  9.7914E+04  9.1450E+04  1.1436E+05  2.2912E+04 -1.6358E-03
 81 5.7841E-03 5.2679E+00 -1.5989E+02 -9.1589E+04  6.6100E+03  9.8199E+04  9.1429E+04  1.1433E+05  2.2904E+04 -1.6283E-03
 82 5.9810E-03 4.9607E+00 -1.5960E+02 -9.1567E+04  6.9485E+03  9.8516E+04  9.1408E+04  1.1430E+05  2.2896E+04 -1.6200E-03
 83 6.1807E-03 4.6568E+00 -1.4451E+02 -9.1531E+04  7.3378E+03  9.8869E+04  9.1387E+04  1.1428E+05  2.2888E+04 -1.4616E-03
 84 6.3830E-03 4.3564E+00 -1.0837E+02 -9.1475E+04  7.7548E+03  9.9229E+04  9.1366E+04  1.1425E+05  2.2881E+04 -1.0921E-03
 85 6.5876E-03 4.0595E+00 -5.5178E+01 -9.1401E+04  8.1993E+03  9.9600E+04  9.1346E+04  1.1422E+05  2.2873E+04 -5.5400E-04
 86 6.7945E-03 3.7663E+00  1.3137E+01 -9.1312E+04  8.6647E+03  9.9977E+04  9.1325E+04  1.1419E+05  2.2865E+04  1.3140E-04
 87 7.0033E-03 3.4769E+00  9.8025E+01 -9.1207E+04  9.1560E+03  1.0036E+05  9.1305E+04  1.1416E+05  2.2856E+04  9.7671E-04
 88 7.2140E-03 3.1914E+00  1.9868E+02 -9.1085E+04  9.6681E+03  1.0075E+05  9.1284E+04  1.1413E+05  2.2848E+04  1.9719E-03
 89 7.4263E-03 2.9100E+00  3.1772E+02 -9.0946E+04  1.0207E+04  1.0115E+05  9.1264E+04  1.1410E+05  2.2840E+04  3.1409E-03
 90 7.6399E-03 2.6327E+00  4.5466E+02 -9.0789E+04  1.0768E+04  1.0156E+05  9.1243E+04  1.1408E+05  2.2832E+04  4.4770E-03
 91 7.8547E-03 2.3597E+00  6.1335E+02 -9.0609E+04  1.1357E+04  1.0197E+05  9.1223E+04  1.1405E+05  2.2824E+04  6.0153E-03
 92 8.0703E-03 2.0910E+00  7.9373E+02 -9.0408E+04  1.1970E+04  1.0238E+05  9.1202E+04  1.1402E+05  2.2816E+04  7.7529E-03
 93 8.2865E-03 1.8269E+00  1.0008E+03 -9.0180E+04  1.2614E+04  1.0279E+05  9.1181E+04  1.1399E+05  2.2808E+04  9.7362E-03
 94 8.5031E-03 1.5674E+00  1.2349E+03 -8.9925E+04  1.3285E+04  1.0321E+05  9.1160E+04  1.1396E+05  2.2800E+04  1.1965E-02
 95 8.7198E-03 1.3126E+00  1.5026E+03 -8.9636E+04  1.3989E+04  1.0363E+05  9.1138E+04  1.1393E+05  2.2793E+04  1.4501E-02
 96 8.9362E-03 1.0626E+00  1.8053E+03 -8.9311E+04  1.4724E+04  1.0403E+05  9.1117E+04  1.1390E+05  2.2785E+04  1.7353E-02
 97 9.1522E-03 8.1766E-01  2.1529E+03 -8.8941E+04  1.5496E+04  1.0444E+05  9.1094E+04  1.1387E+05  2.2777E+04  2.0614E-02
 98 9.3674E-03 5.7774E-01  2.5579E+03 -8.8514E+04  1.6318E+04  1.0483E+05  9.1071E+04  1.1384E+05  2.2770E+04  2.4400E-02
 99 9.5816E-03 3.4301E-01  3.0207E+03 -8.8027E+04  1.7176E+04  1.0520E+05  9.1048E+04  1.1381E+05  2.2763E+04  2.8713E-02
100 9.7943E-03 1.1358E-01  3.5725E+03 -8.7451E+04  1.8068E+04  1.0552E+05  9.1024E+04  1.1378E+05  2.2756E+04  3.3856E-02
101 1.0005E-02 0.0000E+00  4.2233E+03 -8.6775E+04  1.8907E+04  1.0568E+05  9.0999E+04  1.1375E+05  2.2750E+04  3.9962E-02
 
 NST=     2 JCONV= 82 CHG=8.46E-04 dt0=1.00E+04 DIVF(1)=-1.68E-03 DIVFrms= 1.67E-03 DT(ND)=-4.88E-03 T(ND)=2.0803E+02
 NST=     3 JCONV= 82 CHG=8.75E-04 dt0=1.00E+04 DIVF(1)=-1.64E-03 DIVFrms= 1.64E-03 DT(ND)= 2.18E-03 T(ND)=2.0803E+02
 NST=     4 JCONV= 83 CHG=3.36E-04 dt0=1.00E+04 DIVF(1)=-1.63E-03 DIVFrms= 1.63E-03 DT(ND)= 1.13E-03 T(ND)=2.0804E+02
 NST=     5 JCONV= 83 CHG=2.54E-04 dt0=1.00E+04 DIVF(1)=-1.65E-03 DIVFrms= 1.65E-03 DT(ND)= 6.21E-04 T(ND)=2.0804E+02
 NST=     6 JCONV= 83 CHG=2.23E-04 dt0=1.00E+04 DIVF(1)=-1.65E-03 DIVFrms= 1.64E-03 DT(ND)= 3.51E-04 T(ND)=2.0804E+02
 NST=     7 JCONV= 83 CHG=1.88E-04 dt0=1.00E+04 DIVF(1)=-1.64E-03 DIVFrms= 1.63E-03 DT(ND)= 1.58E-04 T(ND)=2.0804E+02
 NST=     8 JCONV= 83 CHG=1.52E-04 dt0=1.00E+04 DIVF(1)=-1.65E-03 DIVFrms= 1.64E-03 DT(ND)=-7.48E-06 T(ND)=2.0804E+02
 NST=     9 JCONV= 83 CHG=1.26E-04 dt0=1.00E+04 DIVF(1)=-1.64E-03 DIVFrms= 1.63E-03 DT(ND)=-1.27E-04 T(ND)=2.0804E+02
 NST=    10 JCONV= 83 CHG=1.71E-04 dt0=1.00E+04 DIVF(1)=-1.65E-03 DIVFrms= 1.64E-03 DT(ND)=-2.38E-04 T(ND)=2.0804E+02
 NST=    11 JCONV= 83 CHG=1.30E-04 dt0=1.00E+04 DIVF(1)=-1.64E-03 DIVFrms= 1.63E-03 DT(ND)=-3.16E-04 T(ND)=2.0804E+02
 NST=    12 JCONV= 83 CHG=1.57E-04 dt0=1.00E+04 DIVF(1)=-1.63E-03 DIVFrms= 1.61E-03 DT(ND)=-3.77E-04 T(ND)=2.0804E+02
 NST=    13 JCONV= 83 CHG=1.38E-04 dt0=1.00E+04 DIVF(1)=-1.62E-03 DIVFrms= 1.60E-03 DT(ND)=-4.25E-04 T(ND)=2.0803E+02
 NST=    14 JCONV= 83 CHG=6.06E-05 dt0=1.00E+04 DIVF(1)=-1.61E-03 DIVFrms= 1.59E-03 DT(ND)=-4.63E-04 T(ND)=2.0803E+02
 NST=    15 JCONV= 83 CHG=1.89E-04 dt0=1.00E+04 DIVF(1)=-1.59E-03 DIVFrms= 1.58E-03 DT(ND)=-4.93E-04 T(ND)=2.0803E+02
 NST=    16 JCONV= 83 CHG=1.46E-04 dt0=1.00E+04 DIVF(1)=-1.59E-03 DIVFrms= 1.57E-03 DT(ND)=-5.17E-04 T(ND)=2.0803E+02
 NST=    17 JCONV= 83 CHG=6.32E-05 dt0=1.00E+04 DIVF(1)=-1.57E-03 DIVFrms= 1.55E-03 DT(ND)=-5.35E-04 T(ND)=2.0803E+02
 NST=    18 JCONV= 83 CHG=1.82E-04 dt0=1.00E+04 DIVF(1)=-1.56E-03 DIVFrms= 1.54E-03 DT(ND)=-5.49E-04 T(ND)=2.0803E+02
 NST=    19 JCONV= 83 CHG=1.48E-04 dt0=1.00E+04 DIVF(1)=-1.55E-03 DIVFrms= 1.53E-03 DT(ND)=-5.60E-04 T(ND)=2.0803E+02
 NST=    20 JCONV= 83 CHG=1.53E-04 dt0=1.00E+04 DIVF(1)=-1.53E-03 DIVFrms= 1.52E-03 DT(ND)=-5.68E-04 T(ND)=2.0803E+02
 NST=    21 JCONV= 83 CHG=1.39E-04 dt0=1.00E+04 DIVF(1)=-1.53E-03 DIVFrms= 1.51E-03 DT(ND)=-5.74E-04 T(ND)=2.0803E+02
 NST=    22 JCONV= 83 CHG=7.39E-05 dt0=1.00E+04 DIVF(1)=-1.51E-03 DIVFrms= 1.50E-03 DT(ND)=-5.78E-04 T(ND)=2.0803E+02
 NST=    23 JCONV= 83 CHG=1.83E-04 dt0=1.00E+04 DIVF(1)=-1.50E-03 DIVFrms= 1.49E-03 DT(ND)=-5.81E-04 T(ND)=2.0803E+02
 NST=    24 JCONV= 83 CHG=1.33E-04 dt0=1.00E+04 DIVF(1)=-1.49E-03 DIVFrms= 1.47E-03 DT(ND)=-5.82E-04 T(ND)=2.0803E+02
 NST=    25 JCONV= 83 CHG=1.51E-04 dt0=1.00E+04 DIVF(1)=-1.48E-03 DIVFrms= 1.46E-03 DT(ND)=-5.82E-04 T(ND)=2.0803E+02
 NST=    26 JCONV= 83 CHG=1.45E-04 dt0=1.00E+04 DIVF(1)=-1.47E-03 DIVFrms= 1.45E-03 DT(ND)=-5.82E-04 T(ND)=2.0803E+02
 NST=    27 JCONV= 83 CHG=7.44E-05 dt0=1.00E+04 DIVF(1)=-1.46E-03 DIVFrms= 1.44E-03 DT(ND)=-5.81E-04 T(ND)=2.0803E+02
 NST=    28 JCONV= 83 CHG=1.76E-04 dt0=1.00E+04 DIVF(1)=-1.44E-03 DIVFrms= 1.43E-03 DT(ND)=-5.79E-04 T(ND)=2.0803E+02
 NST=    29 JCONV= 83 CHG=1.29E-04 dt0=1.00E+04 DIVF(1)=-1.44E-03 DIVFrms= 1.42E-03 DT(ND)=-5.77E-04 T(ND)=2.0803E+02
 NST=    30 JCONV= 83 CHG=7.30E-05 dt0=1.00E+04 DIVF(1)=-1.43E-03 DIVFrms= 1.41E-03 DT(ND)=-5.74E-04 T(ND)=2.0803E+02
 NST=    31 JCONV= 83 CHG=1.82E-04 dt0=1.00E+04 DIVF(1)=-1.41E-03 DIVFrms= 1.40E-03 DT(ND)=-5.72E-04 T(ND)=2.0802E+02
 NST=    32 JCONV= 83 CHG=1.18E-04 dt0=1.00E+04 DIVF(1)=-1.40E-03 DIVFrms= 1.38E-03 DT(ND)=-5.69E-04 T(ND)=2.0802E+02
 NST=    33 JCONV= 83 CHG=1.58E-04 dt0=1.00E+04 DIVF(1)=-1.39E-03 DIVFrms= 1.38E-03 DT(ND)=-5.66E-04 T(ND)=2.0802E+02
 NST=    34 JCONV= 83 CHG=1.37E-04 dt0=1.00E+04 DIVF(1)=-1.38E-03 DIVFrms= 1.36E-03 DT(ND)=-5.63E-04 T(ND)=2.0802E+02
 NST=    35 JCONV= 83 CHG=7.55E-05 dt0=1.00E+04 DIVF(1)=-1.37E-03 DIVFrms= 1.35E-03 DT(ND)=-5.59E-04 T(ND)=2.0802E+02
 NST=    36 JCONV= 83 CHG=1.93E-04 dt0=1.00E+04 DIVF(1)=-1.36E-03 DIVFrms= 1.34E-03 DT(ND)=-5.56E-04 T(ND)=2.0802E+02
 NST=    37 JCONV= 83 CHG=1.40E-04 dt0=1.00E+04 DIVF(1)=-1.35E-03 DIVFrms= 1.33E-03 DT(ND)=-5.53E-04 T(ND)=2.0802E+02
 NST=    38 JCONV= 83 CHG=7.65E-05 dt0=1.00E+04 DIVF(1)=-1.34E-03 DIVFrms= 1.32E-03 DT(ND)=-5.49E-04 T(ND)=2.0802E+02
 NST=    39 JCONV= 83 CHG=1.94E-04 dt0=1.00E+04 DIVF(1)=-1.33E-03 DIVFrms= 1.31E-03 DT(ND)=-5.45E-04 T(ND)=2.0802E+02
 NST=    40 JCONV= 83 CHG=1.13E-04 dt0=1.00E+04 DIVF(1)=-1.32E-03 DIVFrms= 1.30E-03 DT(ND)=-5.42E-04 T(ND)=2.0802E+02
 NST=    41 JCONV= 83 CHG=7.48E-05 dt0=1.00E+04 DIVF(1)=-1.31E-03 DIVFrms= 1.29E-03 DT(ND)=-5.38E-04 T(ND)=2.0802E+02
 NST=    42 JCONV= 83 CHG=1.82E-04 dt0=1.00E+04 DIVF(1)=-1.30E-03 DIVFrms= 1.28E-03 DT(ND)=-5.34E-04 T(ND)=2.0802E+02
 NST=    43 JCONV= 83 CHG=1.33E-04 dt0=1.00E+04 DIVF(1)=-1.29E-03 DIVFrms= 1.27E-03 DT(ND)=-5.30E-04 T(ND)=2.0802E+02
 NST=    44 JCONV= 83 CHG=1.56E-04 dt0=1.00E+04 DIVF(1)=-1.28E-03 DIVFrms= 1.26E-03 DT(ND)=-5.27E-04 T(ND)=2.0802E+02
 NST=    45 JCONV= 83 CHG=1.47E-04 dt0=1.00E+04 DIVF(1)=-1.27E-03 DIVFrms= 1.25E-03 DT(ND)=-5.23E-04 T(ND)=2.0802E+02
 NST=    46 JCONV= 83 CHG=7.54E-05 dt0=1.00E+04 DIVF(1)=-1.26E-03 DIVFrms= 1.24E-03 DT(ND)=-5.19E-04 T(ND)=2.0802E+02
 NST=    47 JCONV= 83 CHG=1.83E-04 dt0=1.00E+04 DIVF(1)=-1.25E-03 DIVFrms= 1.24E-03 DT(ND)=-5.16E-04 T(ND)=2.0802E+02
 NST=    48 JCONV= 83 CHG=1.25E-04 dt0=1.00E+04 DIVF(1)=-1.24E-03 DIVFrms= 1.22E-03 DT(ND)=-5.12E-04 T(ND)=2.0802E+02
 NST=    49 JCONV= 83 CHG=1.53E-04 dt0=1.00E+04 DIVF(1)=-1.23E-03 DIVFrms= 1.22E-03 DT(ND)=-5.08E-04 T(ND)=2.0802E+02
 NST=    50 JCONV= 83 CHG=1.35E-04 dt0=1.00E+04 DIVF(1)=-1.22E-03 DIVFrms= 1.21E-03 DT(ND)=-5.05E-04 T(ND)=2.0801E+02
 NST=    51 JCONV= 83 CHG=6.88E-05 dt0=1.00E+04 DIVF(1)=-1.21E-03 DIVFrms= 1.20E-03 DT(ND)=-5.01E-04 T(ND)=2.0801E+02
 NST=    52 JCONV= 83 CHG=1.89E-04 dt0=1.00E+04 DIVF(1)=-1.20E-03 DIVFrms= 1.19E-03 DT(ND)=-4.97E-04 T(ND)=2.0801E+02
 NST=    53 JCONV= 83 CHG=1.41E-04 dt0=1.00E+04 DIVF(1)=-1.19E-03 DIVFrms= 1.18E-03 DT(ND)=-4.93E-04 T(ND)=2.0801E+02
 NST=    54 JCONV= 83 CHG=1.40E-04 dt0=1.00E+04 DIVF(1)=-1.18E-03 DIVFrms= 1.17E-03 DT(ND)=-4.90E-04 T(ND)=2.0801E+02
 NST=    55 JCONV= 83 CHG=1.34E-04 dt0=1.00E+04 DIVF(1)=-1.18E-03 DIVFrms= 1.16E-03 DT(ND)=-4.86E-04 T(ND)=2.0801E+02
 NST=    56 JCONV= 83 CHG=6.11E-05 dt0=1.00E+04 DIVF(1)=-1.17E-03 DIVFrms= 1.15E-03 DT(ND)=-4.83E-04 T(ND)=2.0801E+02
 NST=    57 JCONV= 83 CHG=1.87E-04 dt0=1.00E+04 DIVF(1)=-1.16E-03 DIVFrms= 1.14E-03 DT(ND)=-4.79E-04 T(ND)=2.0801E+02
 NST=    58 JCONV= 83 CHG=1.35E-04 dt0=1.00E+04 DIVF(1)=-1.16E-03 DIVFrms= 1.14E-03 DT(ND)=-4.91E-04 T(ND)=2.0801E+02
 NST=    59 JCONV= 83 CHG=6.86E-05 dt0=1.00E+04 DIVF(1)=-1.15E-03 DIVFrms= 1.13E-03 DT(ND)=-4.84E-04 T(ND)=2.0801E+02
 NST=    60 JCONV= 83 CHG=1.90E-04 dt0=1.00E+04 DIVF(1)=-1.13E-03 DIVFrms= 1.12E-03 DT(ND)=-4.79E-04 T(ND)=2.0801E+02
 NST=    61 JCONV= 83 CHG=1.32E-04 dt0=1.00E+04 DIVF(1)=-1.13E-03 DIVFrms= 1.11E-03 DT(ND)=-4.74E-04 T(ND)=2.0801E+02
 NST=    62 JCONV= 83 CHG=1.63E-04 dt0=1.00E+04 DIVF(1)=-1.12E-03 DIVFrms= 1.11E-03 DT(ND)=-4.69E-04 T(ND)=2.0801E+02
 NST=    63 JCONV= 83 CHG=1.49E-04 dt0=1.00E+04 DIVF(1)=-1.11E-03 DIVFrms= 1.10E-03 DT(ND)=-4.65E-04 T(ND)=2.0801E+02
 NST=    64 JCONV= 83 CHG=7.46E-05 dt0=1.00E+04 DIVF(1)=-1.10E-03 DIVFrms= 1.09E-03 DT(ND)=-4.61E-04 T(ND)=2.0801E+02
 NST=    65 JCONV= 83 CHG=1.84E-04 dt0=1.00E+04 DIVF(1)=-1.09E-03 DIVFrms= 1.08E-03 DT(ND)=-4.57E-04 T(ND)=2.0801E+02
 NST=    66 JCONV= 83 CHG=1.25E-04 dt0=1.00E+04 DIVF(1)=-1.09E-03 DIVFrms= 1.07E-03 DT(ND)=-4.53E-04 T(ND)=2.0801E+02
 NST=    67 JCONV= 83 CHG=7.19E-05 dt0=1.00E+04 DIVF(1)=-1.08E-03 DIVFrms= 1.06E-03 DT(ND)=-4.49E-04 T(ND)=2.0801E+02
 NST=    68 JCONV= 83 CHG=1.95E-04 dt0=1.00E+04 DIVF(1)=-1.07E-03 DIVFrms= 1.06E-03 DT(ND)=-4.46E-04 T(ND)=2.0801E+02
 NST=    69 JCONV= 83 CHG=1.36E-04 dt0=1.00E+04 DIVF(1)=-1.06E-03 DIVFrms= 1.04E-03 DT(ND)=-4.42E-04 T(ND)=2.0801E+02
 NST=    70 JCONV= 83 CHG=1.52E-04 dt0=1.00E+04 DIVF(1)=-1.05E-03 DIVFrms= 1.04E-03 DT(ND)=-4.38E-04 T(ND)=2.0801E+02
 NST=    71 JCONV= 83 CHG=1.34E-04 dt0=1.00E+04 DIVF(1)=-1.04E-03 DIVFrms= 1.03E-03 DT(ND)=-4.35E-04 T(ND)=2.0800E+02
 NST=    72 JCONV= 83 CHG=7.42E-05 dt0=1.00E+04 DIVF(1)=-1.04E-03 DIVFrms= 1.02E-03 DT(ND)=-4.32E-04 T(ND)=2.0800E+02
 NST=    73 JCONV= 83 CHG=1.86E-04 dt0=1.00E+04 DIVF(1)=-1.03E-03 DIVFrms= 1.02E-03 DT(ND)=-4.28E-04 T(ND)=2.0800E+02
 NST=    74 JCONV= 83 CHG=1.35E-04 dt0=1.00E+04 DIVF(1)=-1.02E-03 DIVFrms= 1.01E-03 DT(ND)=-4.25E-04 T(ND)=2.0800E+02
 NST=    75 JCONV= 83 CHG=7.40E-05 dt0=1.00E+04 DIVF(1)=-1.01E-03 DIVFrms= 9.97E-04 DT(ND)=-4.22E-04 T(ND)=2.0800E+02
 NST=    76 JCONV= 83 CHG=1.89E-04 dt0=1.00E+04 DIVF(1)=-1.00E-03 DIVFrms= 9.92E-04 DT(ND)=-4.18E-04 T(ND)=2.0800E+02
 NST=    77 JCONV= 83 CHG=1.27E-04 dt0=1.00E+04 DIVF(1)=-9.98E-04 DIVFrms= 9.84E-04 DT(ND)=-4.15E-04 T(ND)=2.0800E+02
 NST=    78 JCONV= 83 CHG=1.58E-04 dt0=1.00E+04 DIVF(1)=-9.86E-04 DIVFrms= 9.75E-04 DT(ND)=-4.12E-04 T(ND)=2.0800E+02
 NST=    79 JCONV= 83 CHG=1.42E-04 dt0=1.00E+04 DIVF(1)=-9.82E-04 DIVFrms= 9.68E-04 DT(ND)=-4.09E-04 T(ND)=2.0800E+02
 NST=    80 JCONV= 83 CHG=7.30E-05 dt0=1.00E+04 DIVF(1)=-9.73E-04 DIVFrms= 9.59E-04 DT(ND)=-4.05E-04 T(ND)=2.0800E+02
 NST=    81 JCONV= 83 CHG=1.79E-04 dt0=1.00E+04 DIVF(1)=-9.64E-04 DIVFrms= 9.54E-04 DT(ND)=-4.02E-04 T(ND)=2.0800E+02
 NST=    82 JCONV= 83 CHG=1.32E-04 dt0=1.00E+04 DIVF(1)=-9.60E-04 DIVFrms= 9.46E-04 DT(ND)=-3.99E-04 T(ND)=2.0800E+02
 NST=    83 JCONV= 83 CHG=1.54E-04 dt0=1.00E+04 DIVF(1)=-9.49E-04 DIVFrms= 9.38E-04 DT(ND)=-3.96E-04 T(ND)=2.0800E+02
 NST=    84 JCONV= 83 CHG=1.36E-04 dt0=1.00E+04 DIVF(1)=-9.45E-04 DIVFrms= 9.31E-04 DT(ND)=-3.93E-04 T(ND)=2.0800E+02
 NST=    85 JCONV= 83 CHG=7.88E-05 dt0=1.00E+04 DIVF(1)=-9.38E-04 DIVFrms= 9.25E-04 DT(ND)=-3.90E-04 T(ND)=2.0800E+02
 NST=    86 JCONV= 83 CHG=1.87E-04 dt0=1.00E+04 DIVF(1)=-9.27E-04 DIVFrms= 9.17E-04 DT(ND)=-3.87E-04 T(ND)=2.0800E+02
 NST=    87 JCONV= 83 CHG=1.29E-04 dt0=1.00E+04 DIVF(1)=-9.23E-04 DIVFrms= 9.10E-04 DT(ND)=-3.84E-04 T(ND)=2.0800E+02
 NST=    88 JCONV= 83 CHG=1.55E-04 dt0=1.00E+04 DIVF(1)=-9.14E-04 DIVFrms= 9.04E-04 DT(ND)=-3.81E-04 T(ND)=2.0800E+02
 NST=    89 JCONV= 83 CHG=1.55E-04 dt0=1.00E+04 DIVF(1)=-9.09E-04 DIVFrms= 8.95E-04 DT(ND)=-3.78E-04 T(ND)=2.0800E+02
 NST=    90 JCONV= 83 CHG=7.69E-05 dt0=1.00E+04 DIVF(1)=-9.03E-04 DIVFrms= 8.90E-04 DT(ND)=-3.76E-04 T(ND)=2.0800E+02
 NST=    91 JCONV= 83 CHG=1.87E-04 dt0=1.00E+04 DIVF(1)=-8.91E-04 DIVFrms= 8.82E-04 DT(ND)=-3.72E-04 T(ND)=2.0800E+02
 NST=    92 JCONV= 83 CHG=1.35E-04 dt0=1.00E+04 DIVF(1)=-8.89E-04 DIVFrms= 8.76E-04 DT(ND)=-3.70E-04 T(ND)=2.0800E+02
 NST=    93 JCONV= 83 CHG=1.55E-04 dt0=1.00E+04 DIVF(1)=-8.79E-04 DIVFrms= 8.70E-04 DT(ND)=-3.67E-04 T(ND)=2.0800E+02
 NST=    94 JCONV= 83 CHG=1.51E-04 dt0=1.00E+04 DIVF(1)=-8.75E-04 DIVFrms= 8.61E-04 DT(ND)=-3.64E-04 T(ND)=2.0800E+02
 NST=    95 JCONV= 83 CHG=7.26E-05 dt0=1.00E+04 DIVF(1)=-8.67E-04 DIVFrms= 8.56E-04 DT(ND)=-3.61E-04 T(ND)=2.0800E+02
 NST=    96 JCONV= 83 CHG=1.92E-04 dt0=1.00E+04 DIVF(1)=-8.58E-04 DIVFrms= 8.50E-04 DT(ND)=-3.58E-04 T(ND)=2.0800E+02
 NST=    97 JCONV= 83 CHG=1.36E-04 dt0=1.00E+04 DIVF(1)=-8.55E-04 DIVFrms= 8.41E-04 DT(ND)=-3.56E-04 T(ND)=2.0799E+02
 NST=    98 JCONV= 83 CHG=7.03E-05 dt0=1.00E+04 DIVF(1)=-8.48E-04 DIVFrms= 8.36E-04 DT(ND)=-3.53E-04 T(ND)=2.0799E+02
 NST=    99 JCONV= 83 CHG=1.89E-04 dt0=1.00E+04 DIVF(1)=-8.38E-04 DIVFrms= 8.30E-04 DT(ND)=-3.50E-04 T(ND)=2.0799E+02
 NST=   100 JCONV= 83 CHG=1.31E-04 dt0=1.00E+04 DIVF(1)=-8.35E-04 DIVFrms= 8.22E-04 DT(ND)=-3.47E-04 T(ND)=2.0799E+02
 NST=   101 JCONV= 83 CHG=1.52E-04 dt0=1.00E+04 DIVF(1)=-8.27E-04 DIVFrms= 8.18E-04 DT(ND)=-3.45E-04 T(ND)=2.0799E+02
 NST=   102 JCONV= 83 CHG=1.35E-04 dt0=1.00E+04 DIVF(1)=-8.22E-04 DIVFrms= 8.09E-04 DT(ND)=-3.42E-04 T(ND)=2.0799E+02
 NST=   103 JCONV= 83 CHG=7.54E-05 dt0=1.00E+04 DIVF(1)=-8.16E-04 DIVFrms= 8.05E-04 DT(ND)=-3.40E-04 T(ND)=2.0799E+02
 NST=   104 JCONV= 83 CHG=1.83E-04 dt0=1.00E+04 DIVF(1)=-8.07E-04 DIVFrms= 7.99E-04 DT(ND)=-3.37E-04 T(ND)=2.0799E+02
 NST=   105 JCONV= 83 CHG=1.30E-04 dt0=1.00E+04 DIVF(1)=-8.04E-04 DIVFrms= 7.91E-04 DT(ND)=-3.34E-04 T(ND)=2.0799E+02
 NST=   106 JCONV= 83 CHG=1.54E-04 dt0=1.00E+04 DIVF(1)=-7.95E-04 DIVFrms= 7.87E-04 DT(ND)=-3.32E-04 T(ND)=2.0799E+02
 NST=   107 JCONV= 83 CHG=1.54E-04 dt0=1.00E+04 DIVF(1)=-7.93E-04 DIVFrms= 7.80E-04 DT(ND)=-3.29E-04 T(ND)=2.0799E+02
 NST=   108 JCONV= 83 CHG=1.53E-04 dt0=1.00E+04 DIVF(1)=-7.82E-04 DIVFrms= 7.73E-04 DT(ND)=-3.27E-04 T(ND)=2.0799E+02
 NST=   109 JCONV= 83 CHG=1.48E-04 dt0=1.00E+04 DIVF(1)=-7.80E-04 DIVFrms= 7.68E-04 DT(ND)=-3.24E-04 T(ND)=2.0799E+02
 NST=   110 JCONV= 83 CHG=6.96E-05 dt0=1.00E+04 DIVF(1)=-7.72E-04 DIVFrms= 7.61E-04 DT(ND)=-3.22E-04 T(ND)=2.0799E+02
 NST=   111 JCONV= 83 CHG=1.78E-04 dt0=1.00E+04 DIVF(1)=-7.65E-04 DIVFrms= 7.57E-04 DT(ND)=-3.19E-04 T(ND)=2.0799E+02
 NST=   112 JCONV= 83 CHG=1.22E-04 dt0=1.00E+04 DIVF(1)=-7.62E-04 DIVFrms= 7.51E-04 DT(ND)=-3.17E-04 T(ND)=2.0799E+02
 NST=   113 JCONV= 83 CHG=1.60E-04 dt0=1.00E+04 DIVF(1)=-7.52E-04 DIVFrms= 7.44E-04 DT(ND)=-3.14E-04 T(ND)=2.0799E+02
 NST=   114 JCONV= 83 CHG=1.55E-04 dt0=1.00E+04 DIVF(1)=-7.50E-04 DIVFrms= 7.39E-04 DT(ND)=-3.12E-04 T(ND)=2.0799E+02
 NST=   115 JCONV= 83 CHG=6.25E-05 dt0=1.00E+04 DIVF(1)=-7.44E-04 DIVFrms= 7.34E-04 DT(ND)=-3.10E-04 T(ND)=2.0799E+02
 NST=   116 JCONV= 83 CHG=1.82E-04 dt0=1.00E+04 DIVF(1)=-7.35E-04 DIVFrms= 7.27E-04 DT(ND)=-3.07E-04 T(ND)=2.0799E+02
 NST=   117 JCONV= 83 CHG=1.41E-04 dt0=1.00E+04 DIVF(1)=-7.34E-04 DIVFrms= 7.22E-04 DT(ND)=-3.05E-04 T(ND)=2.0799E+02
 NST=   118 JCONV= 83 CHG=1.56E-04 dt0=1.00E+04 DIVF(1)=-7.24E-04 DIVFrms= 7.16E-04 DT(ND)=-3.02E-04 T(ND)=2.0799E+02
 NST=   119 JCONV= 83 CHG=1.35E-04 dt0=1.00E+04 DIVF(1)=-7.22E-04 DIVFrms= 7.11E-04 DT(ND)=-3.00E-04 T(ND)=2.0799E+02
 NST=   120 JCONV= 83 CHG=6.95E-05 dt0=1.00E+04 DIVF(1)=-7.15E-04 DIVFrms= 7.06E-04 DT(ND)=-2.98E-04 T(ND)=2.0799E+02
 NST=   121 JCONV= 83 CHG=1.80E-04 dt0=1.00E+04 DIVF(1)=-7.07E-04 DIVFrms= 6.99E-04 DT(ND)=-2.96E-04 T(ND)=2.0799E+02
 NST=   122 JCONV= 83 CHG=1.19E-04 dt0=1.00E+04 DIVF(1)=-7.05E-04 DIVFrms= 6.95E-04 DT(ND)=-2.93E-04 T(ND)=2.0799E+02
 NST=   123 JCONV= 83 CHG=1.67E-04 dt0=1.00E+04 DIVF(1)=-6.97E-04 DIVFrms= 6.90E-04 DT(ND)=-2.91E-04 T(ND)=2.0799E+02
 NST=   124 JCONV= 83 CHG=1.71E-04 dt0=1.00E+04 DIVF(1)=-6.95E-04 DIVFrms= 6.82E-04 DT(ND)=-2.89E-04 T(ND)=2.0799E+02
 NST=   125 JCONV= 83 CHG=8.64E-05 dt0=1.00E+04 DIVF(1)=-7.00E-04 DIVFrms= 6.89E-04 DT(ND)=-2.87E-04 T(ND)=2.0799E+02
 NST=   126 JCONV= 83 CHG=1.93E-04 dt0=1.00E+04 DIVF(1)=-6.80E-04 DIVFrms= 6.72E-04 DT(ND)=-2.84E-04 T(ND)=2.0799E+02
 NST=   127 JCONV= 83 CHG=1.32E-04 dt0=1.00E+04 DIVF(1)=-6.79E-04 DIVFrms= 6.68E-04 DT(ND)=-2.82E-04 T(ND)=2.0799E+02
 NST=   128 JCONV= 83 CHG=1.62E-04 dt0=1.00E+04 DIVF(1)=-6.70E-04 DIVFrms= 6.64E-04 DT(ND)=-2.80E-04 T(ND)=2.0798E+02
 NST=   129 JCONV= 83 CHG=1.52E-04 dt0=1.00E+04 DIVF(1)=-6.67E-04 DIVFrms= 6.56E-04 DT(ND)=-2.78E-04 T(ND)=2.0798E+02
 NST=   130 JCONV= 83 CHG=7.11E-05 dt0=1.00E+04 DIVF(1)=-6.62E-04 DIVFrms= 6.53E-04 DT(ND)=-2.76E-04 T(ND)=2.0798E+02
 NST=   131 JCONV= 83 CHG=1.89E-04 dt0=1.00E+04 DIVF(1)=-6.55E-04 DIVFrms= 6.48E-04 DT(ND)=-2.73E-04 T(ND)=2.0798E+02
 NST=   132 JCONV= 83 CHG=1.36E-04 dt0=1.00E+04 DIVF(1)=-6.64E-04 DIVFrms= 6.52E-04 DT(ND)=-2.72E-04 T(ND)=2.0798E+02
 NST=   133 JCONV= 83 CHG=1.63E-04 dt0=1.00E+04 DIVF(1)=-6.44E-04 DIVFrms= 6.39E-04 DT(ND)=-2.70E-04 T(ND)=2.0798E+02
 NST=   134 JCONV= 83 CHG=1.42E-04 dt0=1.00E+04 DIVF(1)=-6.43E-04 DIVFrms= 6.31E-04 DT(ND)=-2.67E-04 T(ND)=2.0798E+02
 NST=   135 JCONV= 83 CHG=7.97E-05 dt0=1.00E+04 DIVF(1)=-6.37E-04 DIVFrms= 6.28E-04 DT(ND)=-2.65E-04 T(ND)=2.0798E+02
 NST=   136 JCONV= 83 CHG=1.86E-04 dt0=1.00E+04 DIVF(1)=-6.30E-04 DIVFrms= 6.24E-04 DT(ND)=-2.63E-04 T(ND)=2.0798E+02
 NST=   137 JCONV= 83 CHG=1.24E-04 dt0=1.00E+04 DIVF(1)=-6.38E-04 DIVFrms= 6.28E-04 DT(ND)=-2.62E-04 T(ND)=2.0798E+02
 NST=   138 JCONV= 83 CHG=1.58E-04 dt0=1.00E+04 DIVF(1)=-6.20E-04 DIVFrms= 6.14E-04 DT(ND)=-2.59E-04 T(ND)=2.0798E+02
 NST=   139 JCONV= 83 CHG=1.38E-04 dt0=1.00E+04 DIVF(1)=-6.18E-04 DIVFrms= 6.09E-04 DT(ND)=-2.57E-04 T(ND)=2.0798E+02
 NST=   140 JCONV= 83 CHG=7.25E-05 dt0=1.00E+04 DIVF(1)=-6.27E-04 DIVFrms= 6.19E-04 DT(ND)=-2.57E-04 T(ND)=2.0798E+02
 NST=   141 JCONV= 83 CHG=1.85E-04 dt0=1.00E+04 DIVF(1)=-6.17E-04 DIVFrms= 6.11E-04 DT(ND)=-2.54E-04 T(ND)=2.0798E+02
 NST=   142 JCONV= 83 CHG=1.34E-04 dt0=1.00E+04 DIVF(1)=-6.03E-04 DIVFrms= 5.93E-04 DT(ND)=-2.52E-04 T(ND)=2.0798E+02
 NST=   143 JCONV= 83 CHG=1.60E-04 dt0=1.00E+04 DIVF(1)=-5.97E-04 DIVFrms= 5.91E-04 DT(ND)=-2.50E-04 T(ND)=2.0798E+02
 NST=   144 JCONV= 83 CHG=1.41E-04 dt0=1.00E+04 DIVF(1)=-6.21E-04 DIVFrms= 6.13E-04 DT(ND)=-2.51E-04 T(ND)=2.0798E+02
 NST=   145 JCONV= 83 CHG=7.32E-05 dt0=1.00E+04 DIVF(1)=-5.89E-04 DIVFrms= 5.79E-04 DT(ND)=-2.46E-04 T(ND)=2.0798E+02
 NST=   146 JCONV= 83 CHG=1.89E-04 dt0=1.00E+04 DIVF(1)=-5.82E-04 DIVFrms= 5.77E-04 DT(ND)=-2.45E-04 T(ND)=2.0798E+02
 NST=   147 JCONV= 83 CHG=1.32E-04 dt0=1.00E+04 DIVF(1)=-5.92E-04 DIVFrms= 5.82E-04 DT(ND)=-2.43E-04 T(ND)=2.0798E+02
 NST=   148 JCONV= 83 CHG=1.55E-04 dt0=1.00E+04 DIVF(1)=-5.89E-04 DIVFrms= 5.84E-04 DT(ND)=-2.43E-04 T(ND)=2.0798E+02
 NST=   149 JCONV= 83 CHG=1.39E-04 dt0=1.00E+04 DIVF(1)=-5.72E-04 DIVFrms= 5.63E-04 DT(ND)=-2.39E-04 T(ND)=2.0798E+02
 NST=   150 JCONV= 83 CHG=7.98E-05 dt0=1.00E+04 DIVF(1)=-5.78E-04 DIVFrms= 5.68E-04 DT(ND)=-2.38E-04 T(ND)=2.0798E+02
 NST=   151 JCONV= 83 CHG=1.85E-04 dt0=1.00E+04 DIVF(1)=-5.75E-04 DIVFrms= 5.71E-04 DT(ND)=-2.38E-04 T(ND)=2.0798E+02
 NST=   152 JCONV= 83 CHG=1.24E-04 dt0=1.00E+04 DIVF(1)=-5.59E-04 DIVFrms= 5.48E-04 DT(ND)=-2.34E-04 T(ND)=2.0798E+02
 NST=   153 JCONV= 83 CHG=1.51E-04 dt0=1.00E+04 DIVF(1)=-5.78E-04 DIVFrms= 5.74E-04 DT(ND)=-2.35E-04 T(ND)=2.0798E+02
 NST=   154 JCONV= 83 CHG=1.43E-04 dt0=1.00E+04 DIVF(1)=-5.50E-04 DIVFrms= 5.41E-04 DT(ND)=-2.31E-04 T(ND)=2.0798E+02
 NST=   155 JCONV= 83 CHG=7.01E-05 dt0=1.00E+04 DIVF(1)=-5.45E-04 DIVFrms= 5.36E-04 DT(ND)=-2.29E-04 T(ND)=2.0798E+02
 NST=   156 JCONV= 83 CHG=1.97E-04 dt0=1.00E+04 DIVF(1)=-5.65E-04 DIVFrms= 5.61E-04 DT(ND)=-2.29E-04 T(ND)=2.0798E+02
 NST=   157 JCONV= 83 CHG=1.36E-04 dt0=1.00E+04 DIVF(1)=-5.37E-04 DIVFrms= 5.27E-04 DT(ND)=-2.25E-04 T(ND)=2.0798E+02
 NST=   158 JCONV= 83 CHG=1.52E-04 dt0=1.00E+04 DIVF(1)=-5.56E-04 DIVFrms= 5.52E-04 DT(ND)=-2.26E-04 T(ND)=2.0798E+02
 NST=   159 JCONV= 83 CHG=1.57E-04 dt0=1.00E+04 DIVF(1)=-5.30E-04 DIVFrms= 5.20E-04 DT(ND)=-2.22E-04 T(ND)=2.0798E+02
 NST=   160 JCONV= 83 CHG=8.36E-05 dt0=1.00E+04 DIVF(1)=-5.39E-04 DIVFrms= 5.31E-04 DT(ND)=-2.22E-04 T(ND)=2.0798E+02
 NST=   161 JCONV= 83 CHG=1.85E-04 dt0=1.00E+04 DIVF(1)=-5.29E-04 DIVFrms= 5.24E-04 DT(ND)=-2.19E-04 T(ND)=2.0798E+02
 NST=   162 JCONV= 83 CHG=1.16E-04 dt0=1.00E+04 DIVF(1)=-5.31E-04 DIVFrms= 5.23E-04 DT(ND)=-2.19E-04 T(ND)=2.0798E+02
 NST=   163 JCONV= 83 CHG=1.51E-04 dt0=1.00E+04 DIVF(1)=-5.20E-04 DIVFrms= 5.16E-04 DT(ND)=-2.16E-04 T(ND)=2.0798E+02
 NST=   164 JCONV= 83 CHG=1.34E-04 dt0=1.00E+04 DIVF(1)=-5.24E-04 DIVFrms= 5.17E-04 DT(ND)=-2.16E-04 T(ND)=2.0798E+02
 NST=   165 JCONV= 83 CHG=7.26E-05 dt0=1.00E+04 DIVF(1)=-5.04E-04 DIVFrms= 4.95E-04 DT(ND)=-2.13E-04 T(ND)=2.0798E+02
 NST=   166 JCONV= 83 CHG=1.76E-04 dt0=1.00E+04 DIVF(1)=-5.24E-04 DIVFrms= 5.20E-04 DT(ND)=-2.13E-04 T(ND)=2.0798E+02
 NST=   167 JCONV= 83 CHG=1.27E-04 dt0=1.00E+04 DIVF(1)=-5.11E-04 DIVFrms= 5.03E-04 DT(ND)=-2.11E-04 T(ND)=2.0798E+02
 NST=   168 JCONV= 83 CHG=1.57E-04 dt0=1.00E+04 DIVF(1)=-5.01E-04 DIVFrms= 4.96E-04 DT(ND)=-2.09E-04 T(ND)=2.0798E+02
 NST=   169 JCONV= 83 CHG=1.34E-04 dt0=1.00E+04 DIVF(1)=-5.04E-04 DIVFrms= 4.97E-04 DT(ND)=-2.08E-04 T(ND)=2.0798E+02
 NST=   170 JCONV= 83 CHG=8.03E-05 dt0=1.00E+04 DIVF(1)=-4.95E-04 DIVFrms= 4.86E-04 DT(ND)=-2.05E-04 T(ND)=2.0797E+02
 NST=   171 JCONV= 83 CHG=1.83E-04 dt0=1.00E+04 DIVF(1)=-4.92E-04 DIVFrms= 4.88E-04 DT(ND)=-2.05E-04 T(ND)=2.0797E+02
 NST=   172 JCONV= 83 CHG=1.26E-04 dt0=1.00E+04 DIVF(1)=-5.04E-04 DIVFrms= 4.97E-04 DT(ND)=-2.04E-04 T(ND)=2.0797E+02
 NST=   173 JCONV= 83 CHG=1.56E-04 dt0=1.00E+04 DIVF(1)=-4.71E-04 DIVFrms= 4.66E-04 DT(ND)=-2.00E-04 T(ND)=2.0797E+02
 NST=   174 JCONV= 83 CHG=1.36E-04 dt0=1.00E+04 DIVF(1)=-4.85E-04 DIVFrms= 4.78E-04 DT(ND)=-2.01E-04 T(ND)=2.0797E+02
 NST=   175 JCONV= 83 CHG=7.58E-05 dt0=1.00E+04 DIVF(1)=-4.91E-04 DIVFrms= 4.84E-04 DT(ND)=-2.00E-04 T(ND)=2.0797E+02
 NST=   176 JCONV= 83 CHG=1.86E-04 dt0=1.00E+04 DIVF(1)=-4.74E-04 DIVFrms= 4.72E-04 DT(ND)=-1.98E-04 T(ND)=2.0797E+02
 NST=   177 JCONV= 83 CHG=1.40E-04 dt0=1.00E+04 DIVF(1)=-4.69E-04 DIVFrms= 4.60E-04 DT(ND)=-1.95E-04 T(ND)=2.0797E+02
 NST=   178 JCONV= 83 CHG=1.49E-04 dt0=1.00E+04 DIVF(1)=-4.67E-04 DIVFrms= 4.64E-04 DT(ND)=-1.95E-04 T(ND)=2.0797E+02
 NST=   179 JCONV= 83 CHG=1.45E-04 dt0=1.00E+04 DIVF(1)=-4.78E-04 DIVFrms= 4.71E-04 DT(ND)=-1.94E-04 T(ND)=2.0797E+02
 NST=   180 JCONV= 83 CHG=1.57E-04 dt0=1.00E+04 DIVF(1)=-4.59E-04 DIVFrms= 4.56E-04 DT(ND)=-1.92E-04 T(ND)=2.0797E+02
 NST=   181 JCONV= 83 CHG=1.51E-04 dt0=1.00E+04 DIVF(1)=-4.57E-04 DIVFrms= 4.47E-04 DT(ND)=-1.89E-04 T(ND)=2.0797E+02
 NST=   182 JCONV= 83 CHG=7.07E-05 dt0=1.00E+04 DIVF(1)=-4.56E-04 DIVFrms= 4.50E-04 DT(ND)=-1.89E-04 T(ND)=2.0797E+02
 NST=   183 JCONV= 83 CHG=1.83E-04 dt0=1.00E+04 DIVF(1)=-4.60E-04 DIVFrms= 4.56E-04 DT(ND)=-1.89E-04 T(ND)=2.0797E+02
 NST=   184 JCONV= 83 CHG=1.20E-04 dt0=1.00E+04 DIVF(1)=-4.49E-04 DIVFrms= 4.43E-04 DT(ND)=-1.87E-04 T(ND)=2.0797E+02
 NST=   185 JCONV= 83 CHG=1.52E-04 dt0=1.00E+04 DIVF(1)=-4.53E-04 DIVFrms= 4.49E-04 DT(ND)=-1.86E-04 T(ND)=2.0797E+02
 NST=   186 JCONV= 83 CHG=1.38E-04 dt0=1.00E+04 DIVF(1)=-4.27E-04 DIVFrms= 4.20E-04 DT(ND)=-1.82E-04 T(ND)=2.0797E+02
 NST=   187 JCONV= 83 CHG=8.53E-05 dt0=1.00E+04 DIVF(1)=-4.50E-04 DIVFrms= 4.44E-04 DT(ND)=-1.83E-04 T(ND)=2.0797E+02
 NST=   188 JCONV= 83 CHG=1.81E-04 dt0=1.00E+04 DIVF(1)=-4.32E-04 DIVFrms= 4.28E-04 DT(ND)=-1.81E-04 T(ND)=2.0797E+02
 NST=   189 JCONV= 83 CHG=1.28E-04 dt0=1.00E+04 DIVF(1)=-4.43E-04 DIVFrms= 4.37E-04 DT(ND)=-1.81E-04 T(ND)=2.0797E+02
 NST=   190 JCONV= 83 CHG=1.61E-04 dt0=1.00E+04 DIVF(1)=-4.26E-04 DIVFrms= 4.23E-04 DT(ND)=-1.79E-04 T(ND)=2.0797E+02
 NST=   191 JCONV= 83 CHG=1.48E-04 dt0=1.00E+04 DIVF(1)=-4.36E-04 DIVFrms= 4.28E-04 DT(ND)=-1.78E-04 T(ND)=2.0797E+02
 NST=   192 JCONV= 83 CHG=8.19E-05 dt0=1.00E+04 DIVF(1)=-4.22E-04 DIVFrms= 4.16E-04 DT(ND)=-1.76E-04 T(ND)=2.0797E+02
 NST=   193 JCONV= 83 CHG=2.02E-04 dt0=1.00E+04 DIVF(1)=-4.26E-04 DIVFrms= 4.23E-04 DT(ND)=-1.76E-04 T(ND)=2.0797E+02
 NST=   194 JCONV= 83 CHG=1.28E-04 dt0=1.00E+04 DIVF(1)=-4.16E-04 DIVFrms= 4.10E-04 DT(ND)=-1.74E-04 T(ND)=2.0797E+02
 NST=   195 JCONV= 83 CHG=7.50E-05 dt0=1.00E+04 DIVF(1)=-4.23E-04 DIVFrms= 4.17E-04 DT(ND)=-1.73E-04 T(ND)=2.0797E+02
 NST=   196 JCONV= 83 CHG=1.87E-04 dt0=1.00E+04 DIVF(1)=-4.05E-04 DIVFrms= 4.02E-04 DT(ND)=-1.71E-04 T(ND)=2.0797E+02
 NST=   197 JCONV= 83 CHG=1.25E-04 dt0=1.00E+04 DIVF(1)=-4.17E-04 DIVFrms= 4.11E-04 DT(ND)=-1.71E-04 T(ND)=2.0797E+02
 NST=   198 JCONV= 83 CHG=7.11E-05 dt0=1.00E+04 DIVF(1)=-4.03E-04 DIVFrms= 3.97E-04 DT(ND)=-1.69E-04 T(ND)=2.0797E+02
 NST=   199 JCONV= 83 CHG=1.86E-04 dt0=1.00E+04 DIVF(1)=-4.07E-04 DIVFrms= 4.04E-04 DT(ND)=-1.68E-04 T(ND)=2.0797E+02
 NST=   200 JCONV= 83 CHG=1.30E-04 dt0=1.00E+04 DIVF(1)=-3.97E-04 DIVFrms= 3.91E-04 DT(ND)=-1.67E-04 T(ND)=2.0797E+02
 NST=   201 JCONV= 83 CHG=1.51E-04 dt0=1.00E+04 DIVF(1)=-4.01E-04 DIVFrms= 3.97E-04 DT(ND)=-1.65E-04 T(ND)=2.0797E+02
 NST=   202 JCONV= 83 CHG=1.36E-04 dt0=1.00E+04 DIVF(1)=-3.91E-04 DIVFrms= 3.85E-04 DT(ND)=-1.64E-04 T(ND)=2.0797E+02
 NST=   203 JCONV= 83 CHG=7.33E-05 dt0=1.00E+04 DIVF(1)=-3.98E-04 DIVFrms= 3.93E-04 DT(ND)=-1.63E-04 T(ND)=2.0797E+02
 NST=   204 JCONV= 83 CHG=1.78E-04 dt0=1.00E+04 DIVF(1)=-3.81E-04 DIVFrms= 3.78E-04 DT(ND)=-1.62E-04 T(ND)=2.0797E+02
 NST=   205 JCONV= 83 CHG=1.25E-04 dt0=1.00E+04 DIVF(1)=-3.93E-04 DIVFrms= 3.87E-04 DT(ND)=-1.61E-04 T(ND)=2.0797E+02
 NST=   206 JCONV= 83 CHG=7.35E-05 dt0=1.00E+04 DIVF(1)=-3.78E-04 DIVFrms= 3.72E-04 DT(ND)=-1.59E-04 T(ND)=2.0797E+02
 NST=   207 JCONV= 83 CHG=1.91E-04 dt0=1.00E+04 DIVF(1)=-3.83E-04 DIVFrms= 3.82E-04 DT(ND)=-1.58E-04 T(ND)=2.0797E+02
 NST=   208 JCONV= 83 CHG=1.29E-04 dt0=1.00E+04 DIVF(1)=-3.72E-04 DIVFrms= 3.66E-04 DT(ND)=-1.57E-04 T(ND)=2.0797E+02
 NST=   209 JCONV= 83 CHG=1.66E-04 dt0=1.00E+04 DIVF(1)=-3.78E-04 DIVFrms= 3.76E-04 DT(ND)=-1.56E-04 T(ND)=2.0797E+02
 NST=   210 JCONV= 83 CHG=1.54E-04 dt0=1.00E+04 DIVF(1)=-3.78E-04 DIVFrms= 3.72E-04 DT(ND)=-1.55E-04 T(ND)=2.0797E+02
 NST=   211 JCONV= 83 CHG=7.42E-05 dt0=1.00E+04 DIVF(1)=-3.64E-04 DIVFrms= 3.58E-04 DT(ND)=-1.53E-04 T(ND)=2.0797E+02
 NST=   212 JCONV= 83 CHG=1.79E-04 dt0=1.00E+04 DIVF(1)=-3.69E-04 DIVFrms= 3.66E-04 DT(ND)=-1.53E-04 T(ND)=2.0797E+02
 NST=   213 JCONV= 83 CHG=1.23E-04 dt0=1.00E+04 DIVF(1)=-3.58E-04 DIVFrms= 3.53E-04 DT(ND)=-1.51E-04 T(ND)=2.0797E+02
 NST=   214 JCONV= 83 CHG=1.47E-04 dt0=1.00E+04 DIVF(1)=-3.63E-04 DIVFrms= 3.60E-04 DT(ND)=-1.50E-04 T(ND)=2.0797E+02
 NST=   215 JCONV= 83 CHG=1.39E-04 dt0=1.00E+04 DIVF(1)=-3.53E-04 DIVFrms= 3.48E-04 DT(ND)=-1.49E-04 T(ND)=2.0797E+02
 NST=   216 JCONV= 83 CHG=1.58E-04 dt0=1.00E+04 DIVF(1)=-3.57E-04 DIVFrms= 3.55E-04 DT(ND)=-1.48E-04 T(ND)=2.0797E+02
 NST=   217 JCONV= 83 CHG=1.54E-04 dt0=1.00E+04 DIVF(1)=-3.58E-04 DIVFrms= 3.51E-04 DT(ND)=-1.47E-04 T(ND)=2.0797E+02
 NST=   218 JCONV= 83 CHG=7.77E-05 dt0=1.00E+04 DIVF(1)=-3.44E-04 DIVFrms= 3.39E-04 DT(ND)=-1.45E-04 T(ND)=2.0797E+02
 NST=   219 JCONV= 83 CHG=1.89E-04 dt0=1.00E+04 DIVF(1)=-3.50E-04 DIVFrms= 3.48E-04 DT(ND)=-1.45E-04 T(ND)=2.0797E+02
 NST=   220 JCONV= 83 CHG=1.40E-04 dt0=1.00E+04 DIVF(1)=-3.40E-04 DIVFrms= 3.34E-04 DT(ND)=-1.43E-04 T(ND)=2.0797E+02
 NST=   221 JCONV= 83 CHG=1.51E-04 dt0=1.00E+04 DIVF(1)=-3.44E-04 DIVFrms= 3.42E-04 DT(ND)=-1.43E-04 T(ND)=2.0797E+02
 NST=   222 JCONV= 83 CHG=1.38E-04 dt0=1.00E+04 DIVF(1)=-3.45E-04 DIVFrms= 3.40E-04 DT(ND)=-1.41E-04 T(ND)=2.0797E+02
 NST=   223 JCONV= 83 CHG=7.62E-05 dt0=1.00E+04 DIVF(1)=-3.30E-04 DIVFrms= 3.25E-04 DT(ND)=-1.40E-04 T(ND)=2.0797E+02
 NST=   224 JCONV= 83 CHG=1.85E-04 dt0=1.00E+04 DIVF(1)=-3.36E-04 DIVFrms= 3.34E-04 DT(ND)=-1.39E-04 T(ND)=2.0797E+02
 NST=   225 JCONV= 83 CHG=1.27E-04 dt0=1.00E+04 DIVF(1)=-3.27E-04 DIVFrms= 3.22E-04 DT(ND)=-1.38E-04 T(ND)=2.0797E+02
 NST=   226 JCONV= 83 CHG=1.50E-04 dt0=1.00E+04 DIVF(1)=-3.32E-04 DIVFrms= 3.30E-04 DT(ND)=-1.37E-04 T(ND)=2.0797E+02
 NST=   227 JCONV= 83 CHG=1.32E-04 dt0=1.00E+04 DIVF(1)=-3.32E-04 DIVFrms= 3.27E-04 DT(ND)=-1.36E-04 T(ND)=2.0797E+02
 NST=   228 JCONV= 83 CHG=7.56E-05 dt0=1.00E+04 DIVF(1)=-3.18E-04 DIVFrms= 3.12E-04 DT(ND)=-1.35E-04 T(ND)=2.0797E+02
 NST=   229 JCONV= 83 CHG=1.90E-04 dt0=1.00E+04 DIVF(1)=-3.24E-04 DIVFrms= 3.23E-04 DT(ND)=-1.34E-04 T(ND)=2.0796E+02
 NST=   230 JCONV= 83 CHG=1.40E-04 dt0=1.00E+04 DIVF(1)=-3.24E-04 DIVFrms= 3.18E-04 DT(ND)=-1.33E-04 T(ND)=2.0796E+02
 NST=   231 JCONV= 83 CHG=1.59E-04 dt0=1.00E+04 DIVF(1)=-3.08E-04 DIVFrms= 3.07E-04 DT(ND)=-1.32E-04 T(ND)=2.0796E+02
 NST=   232 JCONV= 83 CHG=1.55E-04 dt0=1.00E+04 DIVF(1)=-3.20E-04 DIVFrms= 3.13E-04 DT(ND)=-1.31E-04 T(ND)=2.0796E+02
 NST=   233 JCONV= 83 CHG=7.79E-05 dt0=1.00E+04 DIVF(1)=-3.17E-04 DIVFrms= 3.12E-04 DT(ND)=-1.30E-04 T(ND)=2.0796E+02
 NST=   234 JCONV= 83 CHG=1.91E-04 dt0=1.00E+04 DIVF(1)=-3.00E-04 DIVFrms= 3.00E-04 DT(ND)=-1.29E-04 T(ND)=2.0796E+02
 NST=   235 JCONV= 83 CHG=1.34E-04 dt0=1.00E+04 DIVF(1)=-3.12E-04 DIVFrms= 3.06E-04 DT(ND)=-1.28E-04 T(ND)=2.0796E+02
 NST=   236 JCONV= 83 CHG=6.71E-05 dt0=1.00E+04 DIVF(1)=-3.10E-04 DIVFrms= 3.05E-04 DT(ND)=-1.27E-04 T(ND)=2.0796E+02
 NST=   237 JCONV= 83 CHG=1.88E-04 dt0=1.00E+04 DIVF(1)=-2.93E-04 DIVFrms= 2.91E-04 DT(ND)=-1.26E-04 T(ND)=2.0796E+02
 NST=   238 JCONV= 83 CHG=1.36E-04 dt0=1.00E+04 DIVF(1)=-3.06E-04 DIVFrms= 3.01E-04 DT(ND)=-1.25E-04 T(ND)=2.0796E+02
 NST=   239 JCONV= 83 CHG=1.51E-04 dt0=1.00E+04 DIVF(1)=-3.00E-04 DIVFrms= 2.97E-04 DT(ND)=-1.24E-04 T(ND)=2.0796E+02
 NST=   240 JCONV= 83 CHG=1.36E-04 dt0=1.00E+04 DIVF(1)=-2.90E-04 DIVFrms= 2.85E-04 DT(ND)=-1.23E-04 T(ND)=2.0796E+02
 NST=   241 JCONV= 83 CHG=7.45E-05 dt0=1.00E+04 DIVF(1)=-2.99E-04 DIVFrms= 2.94E-04 DT(ND)=-1.23E-04 T(ND)=2.0796E+02
 NST=   242 JCONV= 83 CHG=1.82E-04 dt0=1.00E+04 DIVF(1)=-2.94E-04 DIVFrms= 2.92E-04 DT(ND)=-1.21E-04 T(ND)=2.0796E+02
 NST=   243 JCONV= 83 CHG=1.25E-04 dt0=1.00E+04 DIVF(1)=-2.94E-04 DIVFrms= 2.88E-04 DT(ND)=-1.21E-04 T(ND)=2.0796E+02
 NST=   244 JCONV= 83 CHG=1.52E-04 dt0=1.00E+04 DIVF(1)=-2.79E-04 DIVFrms= 2.77E-04 DT(ND)=-1.19E-04 T(ND)=2.0796E+02
 NST=   245 JCONV= 83 CHG=1.52E-04 dt0=1.00E+04 DIVF(1)=-2.89E-04 DIVFrms= 2.83E-04 DT(ND)=-1.19E-04 T(ND)=2.0796E+02
 NST=   246 JCONV= 83 CHG=1.57E-04 dt0=1.00E+04 DIVF(1)=-2.84E-04 DIVFrms= 2.81E-04 DT(ND)=-1.18E-04 T(ND)=2.0796E+02
 NST=   247 JCONV= 83 CHG=1.32E-04 dt0=1.00E+04 DIVF(1)=-2.75E-04 DIVFrms= 2.71E-04 DT(ND)=-1.17E-04 T(ND)=2.0796E+02
 NST=   248 JCONV= 83 CHG=7.97E-05 dt0=1.00E+04 DIVF(1)=-2.83E-04 DIVFrms= 2.79E-04 DT(ND)=-1.16E-04 T(ND)=2.0796E+02
 NST=   249 JCONV= 83 CHG=1.84E-04 dt0=1.00E+04 DIVF(1)=-2.78E-04 DIVFrms= 2.77E-04 DT(ND)=-1.15E-04 T(ND)=2.0796E+02
 NST=   250 JCONV= 83 CHG=1.25E-04 dt0=1.00E+04 DIVF(1)=-2.78E-04 DIVFrms= 2.73E-04 DT(ND)=-1.14E-04 T(ND)=2.0796E+02

 TIME= 2.486E+06  TIME IN DAYS = 2.878E+01

 PLANETARY ALBEDO:  ALBP = 0.1979

  J     P         ALT         T        CONVEC       DT          TOLD        FH20       FSAVE       TCOOL       THEAT
  1 5.2162E-05 4.3598E+01 1.8170E+02  0.00E+00   1.1157E-02  1.8168E+02  1.5927E-07  1.5976E-07 -2.8866E+02  2.9122E+02
  2 5.6752E-05 4.2820E+01 1.7788E+02  0.00E+00  -1.9814E-02  1.7790E+02  1.5927E-07  1.5976E-07 -9.3641E+01  8.9255E+01
  3 6.1706E-05 4.2063E+01 1.7500E+02  0.00E+00  -2.1796E-02  1.7502E+02  1.5927E-07  1.5976E-07 -6.7287E+01  6.7894E+01
  4 6.7050E-05 4.1323E+01 1.7223E+02  0.00E+00  -2.3218E-03  1.7223E+02  1.5927E-07  1.5976E-07 -5.0441E+01  5.1254E+01
  5 7.2810E-05 4.0602E+01 1.6927E+02  0.00E+00   3.6878E-03  1.6927E+02  1.5927E-07  1.5976E-07 -3.8084E+01  3.8535E+01
  6 7.9014E-05 3.9898E+01 1.6621E+02  0.00E+00   1.8907E-03  1.6620E+02  1.5927E-07  1.5976E-07 -2.8921E+01  2.8978E+01
  7 8.5692E-05 3.9213E+01 1.6328E+02  0.00E+00   7.4940E-04  1.6328E+02  1.5927E-07  1.5976E-07 -2.2337E+01  2.1912E+01
  8 9.2875E-05 3.8544E+01 1.6057E+02  0.00E+00   6.0408E-04  1.6057E+02  1.5927E-07  1.5976E-07 -1.7017E+01  1.6776E+01
  9 1.0060E-04 3.7892E+01 1.5787E+02  0.00E+00   4.1300E-04  1.5787E+02  1.5927E-07  1.5976E-07 -1.2353E+01  1.3111E+01
 10 1.0889E-04 3.7256E+01 1.5526E+02  0.00E+00   6.5466E-04  1.5526E+02  1.5927E-07  1.5976E-07 -1.0570E+01  1.0538E+01
 11 1.1779E-04 3.6635E+01 1.5301E+02  0.00E+00   6.5942E-04  1.5301E+02  1.5927E-07  1.5976E-07 -9.0105E+00  8.7589E+00
 12 1.2734E-04 3.6027E+01 1.5129E+02  0.00E+00   6.0631E-04  1.5129E+02  1.5927E-07  1.5976E-07 -7.7645E+00  7.5454E+00
 13 1.3757E-04 3.5430E+01 1.5011E+02  0.00E+00   5.6303E-04  1.5011E+02  1.5927E-07  1.5976E-07 -6.8481E+00  6.7263E+00
 14 1.4853E-04 3.4841E+01 1.4941E+02  0.00E+00   4.8580E-04  1.4941E+02  1.5927E-07  1.5976E-07 -6.1946E+00  6.1757E+00
 15 1.6026E-04 3.4259E+01 1.4904E+02  0.00E+00   4.1130E-04  1.4904E+02  1.5927E-07  1.5976E-07 -5.7666E+00  5.8025E+00
 16 1.7281E-04 3.3683E+01 1.4890E+02  0.00E+00   3.3540E-04  1.4890E+02  1.5927E-07  1.5976E-07 -5.4853E+00  5.5425E+00
 17 1.8622E-04 3.3113E+01 1.4888E+02  0.00E+00   2.6614E-04  1.4888E+02  1.5927E-07  1.5976E-07 -5.3005E+00  5.3517E+00
 18 2.0054E-04 3.2547E+01 1.4893E+02  0.00E+00   2.0150E-04  1.4893E+02  1.5927E-07  1.5976E-07 -5.1626E+00  5.2010E+00
 19 2.1583E-04 3.1986E+01 1.4901E+02  0.00E+00   1.0503E-04  1.4901E+02  1.5927E-07  1.5976E-07 -5.0503E+00  5.0718E+00
 20 2.3213E-04 3.1429E+01 1.4911E+02  0.00E+00   1.1747E-04  1.4911E+02  1.5927E-07  1.5976E-07 -4.9394E+00  4.9526E+00
 21 2.4951E-04 3.0877E+01 1.4921E+02  0.00E+00  -6.8192E-05  1.4921E+02  1.5927E-07  1.5976E-07 -4.8285E+00  4.8369E+00
 22 2.6801E-04 3.0329E+01 1.4932E+02  0.00E+00   1.5066E-04  1.4932E+02  1.5927E-07  1.5976E-07 -4.7159E+00  4.7210E+00
 23 2.8770E-04 2.9786E+01 1.4944E+02  0.00E+00  -3.5275E-04  1.4944E+02  1.5927E-07  1.5976E-07 -4.6007E+00  4.6031E+00
 24 3.0864E-04 2.9247E+01 1.4956E+02  0.00E+00   4.4406E-04  1.4956E+02  1.5927E-07  1.5976E-07 -4.4834E+00  4.4823E+00
 25 3.3090E-04 2.8713E+01 1.4970E+02  0.00E+00  -8.8677E-04  1.4970E+02  1.5927E-07  1.5976E-07 -4.3563E+00  4.3585E+00
 26 3.5453E-04 2.8183E+01 1.4985E+02  0.00E+00   1.0121E-03  1.4985E+02  1.5927E-07  1.5976E-07 -4.2304E+00  4.2316E+00
 27 3.7960E-04 2.7658E+01 1.5004E+02  0.00E+00  -1.3176E-03  1.5004E+02  1.5927E-07  1.5976E-07 -4.1175E+00  4.1017E+00
 28 4.0619E-04 2.7137E+01 1.5026E+02  0.00E+00   5.1580E-03  1.5026E+02  1.5928E-07  1.5984E-07 -3.9832E+00  3.9691E+00
 29 4.3437E-04 2.6619E+01 1.5050E+02  0.00E+00  -6.3958E-03  1.5050E+02  1.5932E-07  1.6013E-07 -3.8346E+00  3.8343E+00
 30 4.6420E-04 2.6106E+01 1.5078E+02  0.00E+00   2.1388E-03  1.5078E+02  1.6074E-07  1.6129E-07 -3.6791E+00  3.6976E+00
 31 4.9576E-04 2.5597E+01 1.5109E+02  0.00E+00  -1.3708E-03  1.5109E+02  1.6346E-07  1.6406E-07 -3.5712E+00  3.5593E+00
 32 5.2913E-04 2.5092E+01 1.5144E+02  0.00E+00  -6.4128E-04  1.5144E+02  1.6809E-07  1.6871E-07 -3.4256E+00  3.4200E+00
 33 5.6439E-04 2.4590E+01 1.5180E+02  0.00E+00   1.6688E-03  1.5180E+02  1.7379E-07  1.7467E-07 -3.2658E+00  3.2802E+00
 34 6.0161E-04 2.4092E+01 1.5218E+02  0.00E+00  -1.6207E-03  1.5218E+02  1.8023E-07  1.8097E-07 -3.1544E+00  3.1404E+00
 35 6.4087E-04 2.3598E+01 1.5258E+02  0.00E+00  -2.5590E-04  1.5258E+02  1.8806E-07  1.8887E-07 -3.0033E+00  3.0011E+00
 36 6.8226E-04 2.3108E+01 1.5298E+02  0.00E+00   1.2603E-03  1.5298E+02  1.9612E-07  1.9722E-07 -2.8519E+00  2.8628E+00
 37 7.2586E-04 2.2621E+01 1.5337E+02  0.00E+00  -1.5252E-03  1.5337E+02  2.0431E-07  2.0517E-07 -2.7392E+00  2.7260E+00
 38 7.7175E-04 2.2139E+01 1.5376E+02  0.00E+00   1.8111E-03  1.5376E+02  2.1243E-07  2.1370E-07 -2.5756E+00  2.5912E+00
 39 8.2002E-04 2.1660E+01 1.5412E+02  0.00E+00  -1.0052E-03  1.5412E+02  2.1972E-07  2.2086E-07 -2.4677E+00  2.4590E+00
 40 8.7075E-04 2.1185E+01 1.5448E+02  0.00E+00  -1.4227E-03  1.5448E+02  2.2681E-07  2.2796E-07 -2.3420E+00  2.3297E+00
 41 9.2403E-04 2.0714E+01 1.5481E+02  0.00E+00   5.3316E-04  1.5481E+02  2.3296E-07  2.3426E-07 -2.1992E+00  2.2039E+00
 42 9.7994E-04 2.0247E+01 1.5510E+02  0.00E+00   3.5635E-03  1.5510E+02  2.3635E-07  2.3814E-07 -2.0510E+00  2.0818E+00
 43 1.0386E-03 1.9784E+01 1.5534E+02  0.00E+00   1.0180E-04  1.5534E+02  2.3680E-07  2.3828E-07 -2.0441E+00  2.0450E+00
 44 1.1000E-03 1.9326E+01 1.5557E+02  0.00E+00  -3.0821E-03  1.5557E+02  2.3698E-07  2.3833E-07 -2.0667E+00  2.0401E+00
 45 1.1643E-03 1.8873E+01 1.5581E+02  0.00E+00   1.1157E-03  1.5580E+02  2.3783E-07  2.3928E-07 -2.0022E+00  2.0119E+00
 46 1.2316E-03 1.8423E+01 1.5603E+02  0.00E+00  -6.7328E-04  1.5603E+02  2.3798E-07  2.3974E-07 -1.9691E+00  1.9632E+00
 47 1.3020E-03 1.7978E+01 1.5628E+02  0.00E+00  -3.1659E-06  1.5628E+02  2.3962E-07  2.4128E-07 -1.8977E+00  1.8977E+00
 48 1.3754E-03 1.7538E+01 1.5651E+02  0.00E+00   3.9896E-04  1.5651E+02  2.4045E-07  2.4215E-07 -1.8159E+00  1.8194E+00
 49 1.4521E-03 1.7102E+01 1.5674E+02  0.00E+00  -5.0023E-04  1.5674E+02  2.4134E-07  2.4340E-07 -1.7367E+00  1.7324E+00
 50 1.5321E-03 1.6671E+01 1.5697E+02  0.00E+00   1.0500E-03  1.5697E+02  2.4210E-07  2.4381E-07 -1.6318E+00  1.6409E+00
 51 1.6155E-03 1.6244E+01 1.5720E+02  0.00E+00  -1.2091E-03  1.5720E+02  2.4284E-07  2.4539E-07 -1.5590E+00  1.5485E+00
 52 1.7023E-03 1.5822E+01 1.5746E+02  0.00E+00   5.0464E-04  1.5745E+02  2.4573E-07  2.4711E-07 -1.4541E+00  1.4584E+00
 53 1.7927E-03 1.5404E+01 1.5776E+02  0.00E+00   7.0209E-05  1.5776E+02  2.5136E-07  2.5469E-07 -1.3724E+00  1.3730E+00
 54 1.8866E-03 1.4990E+01 1.5811E+02  0.00E+00   5.9057E-05  1.5811E+02  2.6063E-07  2.6224E-07 -1.2933E+00  1.2938E+00
 55 1.9842E-03 1.4581E+01 1.5850E+02  0.00E+00   3.2709E-05  1.5850E+02  2.7280E-07  2.7663E-07 -1.2215E+00  1.2218E+00
 56 2.0855E-03 1.4175E+01 1.5900E+02  0.00E+00   8.2924E-04  1.5900E+02  2.9284E-07  2.9461E-07 -1.1500E+00  1.1571E+00
 57 2.1906E-03 1.3774E+01 1.5950E+02  0.00E+00  -2.2430E-04  1.5950E+02  3.1475E-07  3.1899E-07 -1.1015E+00  1.0995E+00
 58 2.2994E-03 1.3376E+01 1.6010E+02  0.00E+00  -3.6374E-04  1.6010E+02  3.4622E-07  3.5058E-07 -1.0513E+00  1.0482E+00
 59 2.4122E-03 1.2983E+01 1.6071E+02  0.00E+00  -2.4540E-04  1.6071E+02  3.8142E-07  3.8728E-07 -1.0044E+00  1.0023E+00
 60 2.5289E-03 1.2592E+01 1.6141E+02  0.00E+00  -3.2156E-04  1.6141E+02  4.2959E-07  4.3567E-07 -9.6354E-01  9.6076E-01
 61 2.6495E-03 1.2206E+01 1.6207E+02  0.00E+00  -2.3276E-04  1.6208E+02  4.7911E-07  4.8641E-07 -9.2489E-01  9.2288E-01
 62 2.7741E-03 1.1823E+01 1.6284E+02  0.00E+00  -2.6300E-04  1.6284E+02  5.4716E-07  5.5534E-07 -8.8995E-01  8.8768E-01
 63 2.9027E-03 1.1444E+01 1.6356E+02  0.00E+00  -2.1668E-04  1.6357E+02  6.1727E-07  6.2625E-07 -8.5658E-01  8.5471E-01
 64 3.0353E-03 1.1068E+01 1.6435E+02  0.00E+00  -2.0607E-04  1.6435E+02  7.0663E-07  7.1764E-07 -8.2518E-01  8.2340E-01
 65 3.1719E-03 1.0696E+01 1.6510E+02  0.00E+00  -2.0596E-04  1.6510E+02  8.0120E-07  8.1223E-07 -7.9534E-01  7.9356E-01
 66 3.3126E-03 1.0328E+01 1.6593E+02  0.00E+00  -1.5924E-04  1.6593E+02  9.2209E-07  9.3696E-07 -7.6628E-01  7.6490E-01
 67 3.4573E-03 9.9633E+00 1.6670E+02  0.00E+00  -1.8957E-04  1.6670E+02  1.0492E-06  1.0632E-06 -7.3909E-01  7.3745E-01
 68 3.6060E-03 9.6024E+00 1.6752E+02  0.00E+00  -1.3331E-04  1.6752E+02  1.2049E-06  1.2245E-06 -7.1224E-01  7.1109E-01
 69 3.7587E-03 9.2453E+00 1.6832E+02  0.00E+00  -1.7335E-04  1.6832E+02  1.3740E-06  1.3928E-06 -6.8738E-01  6.8588E-01
 70 3.9153E-03 8.8919E+00 1.6917E+02  0.00E+00  -1.2010E-04  1.6917E+02  1.5842E-06  1.6098E-06 -6.6281E-01  6.6178E-01
 71 4.0759E-03 8.5424E+00 1.6999E+02  0.00E+00  -1.6087E-04  1.6999E+02  1.8139E-06  1.8391E-06 -6.4025E-01  6.3886E-01
 72 4.2404E-03 8.1967E+00 1.7087E+02  0.00E+00  -1.1402E-04  1.7087E+02  2.0997E-06  2.1361E-06 -6.1806E-01  6.1708E-01
 73 4.4086E-03 7.8548E+00 1.7171E+02  0.00E+00  -1.5429E-04  1.7171E+02  2.4047E-06  2.4507E-06 -5.9784E-01  5.9651E-01
 74 4.5806E-03 7.5169E+00 1.7263E+02  0.00E+00  -1.1581E-04  1.7263E+02  2.8011E-06  2.8507E-06 -5.7806E-01  5.7706E-01
 75 4.7563E-03 7.1828E+00 1.7351E+02  0.00E+00  -1.4962E-04  1.7351E+02  3.2321E-06  3.2933E-06 -5.6011E-01  5.5881E-01
 76 4.9356E-03 6.8527E+00 1.7449E+02  0.00E+00  -1.2049E-04  1.7449E+02  3.8001E-06  3.8652E-06 -5.4270E-01  5.4166E-01
 77 5.1183E-03 6.5265E+00 1.7544E+02  0.00E+00  -1.4564E-04  1.7544E+02  4.4293E-06  4.5104E-06 -5.2691E-01  5.2565E-01
 78 5.3044E-03 6.2042E+00 1.7650E+02  0.00E+00  -1.2324E-04  1.7650E+02  5.2709E-06  5.3569E-06 -5.1177E-01  5.1070E-01
 79 5.4938E-03 5.8857E+00 1.7753E+02  0.00E+00  -1.4065E-04  1.7753E+02  6.2276E-06  6.3358E-06 -4.9807E-01  4.9685E-01
 80 5.6863E-03 5.5712E+00 1.7869E+02  0.00E+00  -1.2151E-04  1.7870E+02  7.5346E-06  7.6498E-06 -4.8506E-01  4.8401E-01
 81 5.8818E-03 5.2605E+00 1.7985E+02  0.00E+00  -1.3359E-04  1.7985E+02  9.0839E-06  9.2311E-06 -4.7338E-01  4.7223E-01
 82 6.0801E-03 4.9535E+00 1.8119E+02  0.00E+00  -1.1114E-04  1.8119E+02  1.1314E-05  1.1471E-05 -8.0010E-01  4.6145E-01
 83 6.2810E-03 4.6500E+00 1.8275E+02  1.00E+00  -1.1174E-04  1.8275E+02  1.4603E-05  1.4804E-05 -1.2379E+00  4.5172E-01
 84 6.4845E-03 4.3500E+00 1.8429E+02  1.00E+00  -1.1227E-04  1.8429E+02  1.8724E-05  1.8978E-05 -1.5821E+00  4.4311E-01
 85 6.6902E-03 4.0536E+00 1.8581E+02  1.00E+00  -1.1274E-04  1.8581E+02  2.3850E-05  2.4171E-05 -1.8787E+00  4.3562E-01
 86 6.8981E-03 3.7608E+00 1.8733E+02  1.00E+00  -1.1315E-04  1.8733E+02  3.0188E-05  3.0589E-05 -2.2011E+00  4.2927E-01
 87 7.1079E-03 3.4718E+00 1.8882E+02  1.00E+00  -1.1349E-04  1.8882E+02  3.7979E-05  3.8476E-05 -2.5024E+00  4.2408E-01
 88 7.3194E-03 3.1868E+00 1.9031E+02  1.00E+00  -1.1379E-04  1.9031E+02  4.7503E-05  4.8119E-05 -2.8546E+00  4.2010E-01
 89 7.5323E-03 2.9058E+00 1.9178E+02  1.00E+00  -1.1405E-04  1.9178E+02  5.9095E-05  5.9852E-05 -3.1942E+00  4.1737E-01
 90 7.7465E-03 2.6290E+00 1.9323E+02  1.00E+00  -1.1427E-04  1.9323E+02  7.3137E-05  7.4065E-05 -3.6098E+00  4.1599E-01
 91 7.9617E-03 2.3564E+00 1.9468E+02  1.00E+00  -1.1443E-04  1.9468E+02  9.0077E-05  9.1208E-05 -4.0232E+00  4.1602E-01
 92 8.1777E-03 2.0883E+00 1.9612E+02  1.00E+00  -1.1454E-04  1.9612E+02  1.1043E-04  1.1180E-04 -4.5365E+00  4.1760E-01
 93 8.3941E-03 1.8246E+00 1.9754E+02  1.00E+00  -1.1462E-04  1.9754E+02  1.3479E-04  1.3645E-04 -5.0506E+00  4.2085E-01
 94 8.6107E-03 1.5655E+00 1.9895E+02  1.00E+00  -1.1465E-04  1.9895E+02  1.6382E-04  1.6583E-04 -5.6650E+00  4.2594E-01
 95 8.8273E-03 1.3111E+00 2.0036E+02  1.00E+00  -1.1465E-04  2.0036E+02  1.9830E-04  2.0070E-04 -6.4417E+00  4.3305E-01
 96 9.0436E-03 1.0615E+00 2.0175E+02  1.00E+00  -1.1461E-04  2.0175E+02  2.3905E-04  2.4193E-04 -7.3322E+00  4.4237E-01
 97 9.2592E-03 8.1690E-01 2.0313E+02  1.00E+00  -1.1453E-04  2.0313E+02  2.8698E-04  2.9041E-04 -8.4905E+00  4.5411E-01
 98 9.4739E-03 5.7727E-01 2.0449E+02  1.00E+00  -1.1441E-04  2.0449E+02  3.4303E-04  3.4710E-04 -9.6759E+00  4.6849E-01
 99 9.6874E-03 3.4277E-01 2.0584E+02  1.00E+00  -1.1423E-04  2.0584E+02  4.0811E-04  4.1292E-04 -1.1516E+01  4.8569E-01
100 9.8993E-03 1.1352E-01 2.0716E+02  1.00E+00  -1.1399E-04  2.0716E+02  4.8309E-04  4.8874E-04 -1.3595E+01  5.0644E-01
101 1.0005E-02 0.0000E+00 2.0796E+02  1.00E+00  -1.1421E-04  2.0796E+02  5.3591E-04  5.4221E-04 -3.5826E+00  3.7619E+00

 FCO2
  9.50E-01 9.50E-01 9.50E-01 9.50E-01 9.50E-01 9.50E-01 9.50E-01 9.50E-01 9.50E-01 9.50E-01
  9.50E-01 9.50E-01 9.50E-01 9.50E-01 9.50E-01 9.50E-01 9.50E-01 9.50E-01 9.50E-01 9.50E-01
  9.50E-01 9.50E-01 9.50E-01 9.50E-01 9.50E-01 9.50E-01 9.50E-01 9.50E-01 9.50E-01 9.50E-01
  9.50E-01 9.50E-01 9.50E-01 9.50E-01 9.50E-01 9.50E-01 9.50E-01 9.50E-01 9.50E-01 9.50E-01
  9.50E-01 9.50E-01 9.50E-01 9.50E-01 9.50E-01 9.50E-01 9.50E-01 9.50E-01 9.50E-01 9.50E-01
  9.50E-01 9.50E-01 9.50E-01 9.50E-01 9.50E-01 9.50E-01 9.50E-01 9.50E-01 9.50E-01 9.50E-01
  9.50E-01 9.50E-01 9.50E-01 9.50E-01 9.50E-01 9.50E-01 9.50E-01 9.50E-01 9.50E-01 9.50E-01
  9.50E-01 9.50E-01 9.50E-01 9.50E-01 9.50E-01 9.50E-01 9.50E-01 9.50E-01 9.50E-01 9.50E-01
  9.50E-01 9.50E-01 9.50E-01 9.50E-01 9.50E-01 9.50E-01 9.50E-01 9.50E-01 9.50E-01 9.50E-01
  9.50E-01 9.50E-01 9.50E-01 9.50E-01 9.50E-01 9.50E-01 9.50E-01 9.50E-01 9.50E-01 9.50E-01
  9.50E-01

  J    PF         ALT       FTOTAL       FTIR       FDNIR       FUPIR       FTSOL       FDNSOL       FUPSOL       DIVF
  1 5.0000E-05 4.3598E+01 -2.6090E+01 -9.3834E+04  0.0000E+00  9.3834E+04  9.3808E+04  1.1696E+05  2.3150E+04 -2.7804E-04
  2 5.4417E-05 4.2820E+01 -2.8652E+01 -9.3546E+04  2.3935E+02  9.3785E+04  9.3517E+04  1.1667E+05  2.3150E+04 -3.0551E-04
  3 5.9186E-05 4.2063E+01 -2.3943E+01 -9.3445E+04  2.9813E+02  9.3743E+04  9.3421E+04  1.1657E+05  2.3150E+04 -2.5541E-04
  4 6.4333E-05 4.1323E+01 -2.4644E+01 -9.3367E+04  3.3608E+02  9.3704E+04  9.3343E+04  1.1649E+05  2.3150E+04 -2.6300E-04
  5 6.9881E-05 4.0602E+01 -2.5651E+01 -9.3305E+04  3.6075E+02  9.3666E+04  9.3279E+04  1.1643E+05  2.3149E+04 -2.7385E-04
  6 7.5860E-05 3.9898E+01 -2.6250E+01 -9.3254E+04  3.7664E+02  9.3631E+04  9.3228E+04  1.1638E+05  2.3149E+04 -2.8036E-04
  7 8.2298E-05 3.9213E+01 -2.6332E+01 -9.3213E+04  3.8733E+02  9.3600E+04  9.3187E+04  1.1634E+05  2.3149E+04 -2.8132E-04
  8 8.9225E-05 3.8544E+01 -2.5683E+01 -9.3179E+04  3.9510E+02  9.3574E+04  9.3153E+04  1.1630E+05  2.3148E+04 -2.7447E-04
  9 9.6674E-05 3.7892E+01 -2.5290E+01 -9.3151E+04  4.0029E+02  9.3551E+04  9.3126E+04  1.1627E+05  2.3148E+04 -2.7033E-04
 10 1.0468E-04 3.7256E+01 -2.6616E+01 -9.3130E+04  4.0365E+02  9.3533E+04  9.3103E+04  1.1625E+05  2.3148E+04 -2.8456E-04
 11 1.1327E-04 3.6635E+01 -2.6556E+01 -9.3110E+04  4.0869E+02  9.3518E+04  9.3083E+04  1.1623E+05  2.3147E+04 -2.8396E-04
 12 1.2249E-04 3.6027E+01 -2.6052E+01 -9.3092E+04  4.1625E+02  9.3508E+04  9.3066E+04  1.1621E+05  2.3147E+04 -2.7861E-04
 13 1.3238E-04 3.5430E+01 -2.5583E+01 -9.3075E+04  4.2647E+02  9.3502E+04  9.3050E+04  1.1620E+05  2.3147E+04 -2.7361E-04
 14 1.4297E-04 3.4841E+01 -2.5304E+01 -9.3059E+04  4.3910E+02  9.3499E+04  9.3034E+04  1.1618E+05  2.3146E+04 -2.7063E-04
 15 1.5431E-04 3.4259E+01 -2.5257E+01 -9.3044E+04  4.5373E+02  9.3498E+04  9.3019E+04  1.1616E+05  2.3146E+04 -2.7014E-04
 16 1.6644E-04 3.3683E+01 -2.5351E+01 -9.3029E+04  4.7008E+02  9.3499E+04  9.3004E+04  1.1615E+05  2.3145E+04 -2.7114E-04
 17 1.7942E-04 3.3113E+01 -2.5511E+01 -9.3014E+04  4.8787E+02  9.3502E+04  9.2988E+04  1.1613E+05  2.3144E+04 -2.7284E-04
 18 1.9328E-04 3.2547E+01 -2.5665E+01 -9.2998E+04  5.0698E+02  9.3505E+04  9.2972E+04  1.1612E+05  2.3144E+04 -2.7448E-04
 19 2.0808E-04 3.1986E+01 -2.5788E+01 -9.2981E+04  5.2733E+02  9.3509E+04  9.2956E+04  1.1610E+05  2.3143E+04 -2.7578E-04
 20 2.2387E-04 3.1429E+01 -2.5861E+01 -9.2964E+04  5.4893E+02  9.3513E+04  9.2938E+04  1.1608E+05  2.3142E+04 -2.7655E-04
 21 2.4070E-04 3.0877E+01 -2.5909E+01 -9.2946E+04  5.7177E+02  9.3518E+04  9.2920E+04  1.1606E+05  2.3142E+04 -2.7705E-04
 22 2.5863E-04 3.0329E+01 -2.5941E+01 -9.2928E+04  5.9590E+02  9.3523E+04  9.2902E+04  1.1604E+05  2.3141E+04 -2.7737E-04
 23 2.7773E-04 2.9786E+01 -2.5962E+01 -9.2908E+04  6.2141E+02  9.3529E+04  9.2882E+04  1.1602E+05  2.3140E+04 -2.7758E-04
 24 2.9804E-04 2.9247E+01 -2.5972E+01 -9.2888E+04  6.4839E+02  9.3536E+04  9.2862E+04  1.1600E+05  2.3139E+04 -2.7767E-04
 25 3.1963E-04 2.8713E+01 -2.5968E+01 -9.2867E+04  6.7697E+02  9.3544E+04  9.2841E+04  1.1598E+05  2.3138E+04 -2.7760E-04
 26 3.4256E-04 2.8183E+01 -2.5978E+01 -9.2845E+04  7.0722E+02  9.3553E+04  9.2819E+04  1.1596E+05  2.3137E+04 -2.7769E-04
 27 3.6691E-04 2.7658E+01 -2.5984E+01 -9.2823E+04  7.3927E+02  9.3562E+04  9.2797E+04  1.1593E+05  2.3136E+04 -2.7772E-04
 28 3.9274E-04 2.7137E+01 -2.5896E+01 -9.2800E+04  7.7324E+02  9.3573E+04  9.2774E+04  1.1591E+05  2.3135E+04 -2.7675E-04
 29 4.2011E-04 2.6619E+01 -2.5813E+01 -9.2777E+04  8.0898E+02  9.3585E+04  9.2751E+04  1.1588E+05  2.3133E+04 -2.7582E-04
 30 4.4911E-04 2.6106E+01 -2.5811E+01 -9.2752E+04  8.4639E+02  9.3599E+04  9.2727E+04  1.1586E+05  2.3132E+04 -2.7576E-04
 31 4.7980E-04 2.5597E+01 -2.5934E+01 -9.2728E+04  8.8536E+02  9.3613E+04  9.2702E+04  1.1583E+05  2.3131E+04 -2.7703E-04
 32 5.1226E-04 2.5092E+01 -2.5850E+01 -9.2703E+04  9.2633E+02  9.3629E+04  9.2677E+04  1.1581E+05  2.3129E+04 -2.7609E-04
 33 5.4656E-04 2.4590E+01 -2.5809E+01 -9.2677E+04  9.6848E+02  9.3646E+04  9.2652E+04  1.1578E+05  2.3127E+04 -2.7561E-04
 34 5.8280E-04 2.4092E+01 -2.5923E+01 -9.2652E+04  1.0115E+03  9.3663E+04  9.2626E+04  1.1575E+05  2.3126E+04 -2.7676E-04
 35 6.2103E-04 2.3598E+01 -2.5806E+01 -9.2626E+04  1.0559E+03  9.3682E+04  9.2600E+04  1.1572E+05  2.3124E+04 -2.7547E-04
 36 6.6135E-04 2.3108E+01 -2.5787E+01 -9.2599E+04  1.1007E+03  9.3700E+04  9.2574E+04  1.1570E+05  2.3122E+04 -2.7521E-04
 37 7.0384E-04 2.2621E+01 -2.5888E+01 -9.2573E+04  1.1455E+03  9.3718E+04  9.2547E+04  1.1567E+05  2.3120E+04 -2.7623E-04
 38 7.4858E-04 2.2139E+01 -2.5759E+01 -9.2546E+04  1.1906E+03  9.3737E+04  9.2521E+04  1.1564E+05  2.3118E+04 -2.7481E-04
 39 7.9565E-04 2.1660E+01 -2.5920E+01 -9.2520E+04  1.2352E+03  9.3755E+04  9.2494E+04  1.1561E+05  2.3116E+04 -2.7646E-04
 40 8.4514E-04 2.1185E+01 -2.5826E+01 -9.2493E+04  1.2798E+03  9.3773E+04  9.2468E+04  1.1558E+05  2.3114E+04 -2.7541E-04
 41 8.9714E-04 2.0714E+01 -2.5687E+01 -9.2467E+04  1.3235E+03  9.3790E+04  9.2441E+04  1.1555E+05  2.3111E+04 -2.7388E-04
 42 9.5172E-04 2.0247E+01 -2.5742E+01 -9.2441E+04  1.3655E+03  9.3806E+04  9.2415E+04  1.1552E+05  2.3109E+04 -2.7441E-04
 43 1.0090E-03 1.9784E+01 -2.6126E+01 -9.2415E+04  1.4062E+03  9.3821E+04  9.2389E+04  1.1550E+05  2.3106E+04 -2.7846E-04
 44 1.0690E-03 1.9326E+01 -2.6137E+01 -9.2388E+04  1.4491E+03  9.3838E+04  9.2362E+04  1.1547E+05  2.3103E+04 -2.7854E-04
 45 1.1319E-03 1.8873E+01 -2.5772E+01 -9.2360E+04  1.4953E+03  9.3855E+04  9.2334E+04  1.1543E+05  2.3101E+04 -2.7460E-04
 46 1.1977E-03 1.8423E+01 -2.5911E+01 -9.2331E+04  1.5436E+03  9.3875E+04  9.2306E+04  1.1540E+05  2.3098E+04 -2.7601E-04
 47 1.2665E-03 1.7978E+01 -2.5823E+01 -9.2302E+04  1.5953E+03  9.3897E+04  9.2276E+04  1.1537E+05  2.3094E+04 -2.7502E-04
 48 1.3384E-03 1.7538E+01 -2.5823E+01 -9.2272E+04  1.6486E+03  9.3921E+04  9.2246E+04  1.1534E+05  2.3091E+04 -2.7494E-04
 49 1.4135E-03 1.7102E+01 -2.5879E+01 -9.2242E+04  1.7038E+03  9.3946E+04  9.2216E+04  1.1530E+05  2.3088E+04 -2.7547E-04
 50 1.4918E-03 1.6671E+01 -2.5805E+01 -9.2213E+04  1.7609E+03  9.3974E+04  9.2187E+04  1.1527E+05  2.3084E+04 -2.7460E-04
 51 1.5735E-03 1.6244E+01 -2.5967E+01 -9.2184E+04  1.8201E+03  9.4004E+04  9.2158E+04  1.1524E+05  2.3081E+04 -2.7624E-04
 52 1.6586E-03 1.5822E+01 -2.5773E+01 -9.2155E+04  1.8843E+03  9.4039E+04  9.2129E+04  1.1521E+05  2.3077E+04 -2.7407E-04
 53 1.7472E-03 1.5404E+01 -2.5857E+01 -9.2126E+04  1.9525E+03  9.4079E+04  9.2101E+04  1.1517E+05  2.3073E+04 -2.7485E-04
 54 1.8393E-03 1.4990E+01 -2.5870E+01 -9.2099E+04  2.0256E+03  9.4124E+04  9.2073E+04  1.1514E+05  2.3069E+04 -2.7485E-04
 55 1.9351E-03 1.4581E+01 -2.5880E+01 -9.2072E+04  2.1049E+03  9.4177E+04  9.2046E+04  1.1511E+05  2.3065E+04 -2.7481E-04
 56 2.0345E-03 1.4175E+01 -2.5887E+01 -9.2045E+04  2.1910E+03  9.4236E+04  9.2019E+04  1.1508E+05  2.3060E+04 -2.7470E-04
 57 2.1377E-03 1.3774E+01 -2.6049E+01 -9.2019E+04  2.2810E+03  9.4300E+04  9.1993E+04  1.1505E+05  2.3056E+04 -2.7623E-04
 58 2.2447E-03 1.3376E+01 -2.6003E+01 -9.1993E+04  2.3797E+03  9.4373E+04  9.1967E+04  1.1502E+05  2.3051E+04 -2.7554E-04
 59 2.3555E-03 1.2983E+01 -2.5927E+01 -9.1968E+04  2.4844E+03  9.4452E+04  9.1942E+04  1.1499E+05  2.3046E+04 -2.7450E-04
 60 2.4702E-03 1.2592E+01 -2.5873E+01 -9.1942E+04  2.5960E+03  9.4538E+04  9.1916E+04  1.1496E+05  2.3041E+04 -2.7368E-04
 61 2.5889E-03 1.2206E+01 -2.5801E+01 -9.1917E+04  2.7118E+03  9.4629E+04  9.1891E+04  1.1493E+05  2.3036E+04 -2.7265E-04
 62 2.7115E-03 1.1823E+01 -2.5746E+01 -9.1892E+04  2.8373E+03  9.4730E+04  9.1867E+04  1.1490E+05  2.3031E+04 -2.7179E-04
 63 2.8381E-03 1.1444E+01 -2.5683E+01 -9.1867E+04  2.9642E+03  9.4832E+04  9.1842E+04  1.1487E+05  2.3026E+04 -2.7083E-04
 64 2.9687E-03 1.1068E+01 -2.5629E+01 -9.1843E+04  3.0995E+03  9.4942E+04  9.1817E+04  1.1484E+05  2.3020E+04 -2.6995E-04
 65 3.1033E-03 1.0696E+01 -2.5576E+01 -9.1818E+04  3.2389E+03  9.5057E+04  9.1793E+04  1.1481E+05  2.3014E+04 -2.6906E-04
 66 3.2420E-03 1.0328E+01 -2.5522E+01 -9.1794E+04  3.3875E+03  9.5181E+04  9.1768E+04  1.1478E+05  2.3008E+04 -2.6814E-04
 67 3.3847E-03 9.9633E+00 -2.5478E+01 -9.1770E+04  3.5374E+03  9.5307E+04  9.1744E+04  1.1475E+05  2.3002E+04 -2.6733E-04
 68 3.5314E-03 9.6024E+00 -2.5425E+01 -9.1746E+04  3.6956E+03  9.5441E+04  9.1720E+04  1.1472E+05  2.2996E+04 -2.6640E-04
 69 3.6821E-03 9.2453E+00 -2.5387E+01 -9.1722E+04  3.8590E+03  9.5581E+04  9.1696E+04  1.1469E+05  2.2990E+04 -2.6560E-04
 70 3.8368E-03 8.8919E+00 -2.5335E+01 -9.1698E+04  4.0323E+03  9.5731E+04  9.1673E+04  1.1466E+05  2.2983E+04 -2.6465E-04
 71 3.9954E-03 8.5424E+00 -2.5299E+01 -9.1675E+04  4.2113E+03  9.5886E+04  9.1650E+04  1.1463E+05  2.2977E+04 -2.6384E-04
 72 4.1580E-03 8.1967E+00 -2.5248E+01 -9.1652E+04  4.3980E+03  9.6050E+04  9.1626E+04  1.1460E+05  2.2970E+04 -2.6287E-04
 73 4.3244E-03 7.8548E+00 -2.5212E+01 -9.1629E+04  4.5900E+03  9.6219E+04  9.1604E+04  1.1457E+05  2.2963E+04 -2.6203E-04
 74 4.4945E-03 7.5169E+00 -2.5161E+01 -9.1606E+04  4.7958E+03  9.6402E+04  9.1581E+04  1.1454E+05  2.2956E+04 -2.6100E-04
 75 4.6684E-03 7.1828E+00 -2.5122E+01 -9.1584E+04  5.0081E+03  9.6592E+04  9.1558E+04  1.1451E+05  2.2949E+04 -2.6009E-04
 76 4.8459E-03 6.8527E+00 -2.5071E+01 -9.1561E+04  5.2367E+03  9.6798E+04  9.1536E+04  1.1448E+05  2.2942E+04 -2.5900E-04
 77 5.0269E-03 6.5265E+00 -2.5029E+01 -9.1539E+04  5.4733E+03  9.7013E+04  9.1514E+04  1.1445E+05  2.2935E+04 -2.5799E-04
 78 5.2114E-03 6.2042E+00 -2.4977E+01 -9.1518E+04  5.7291E+03  9.7247E+04  9.1493E+04  1.1442E+05  2.2927E+04 -2.5684E-04
 79 5.3992E-03 5.8857E+00 -2.4932E+01 -9.1496E+04  5.9954E+03  9.7491E+04  9.1471E+04  1.1439E+05  2.2920E+04 -2.5573E-04
 80 5.5901E-03 5.5712E+00 -2.4880E+01 -9.1475E+04  6.2854E+03  9.7760E+04  9.1450E+04  1.1436E+05  2.2912E+04 -2.5450E-04
 81 5.7841E-03 5.2605E+00 -2.4834E+01 -9.1453E+04  6.5907E+03  9.8044E+04  9.1429E+04  1.1433E+05  2.2904E+04 -2.5329E-04
 82 5.9810E-03 4.9535E+00 -2.4782E+01 -9.1432E+04  6.9296E+03  9.8362E+04  9.1408E+04  1.1430E+05  2.2897E+04 -2.5195E-04
 83 6.1807E-03 4.6500E+00 -9.4886E+00 -9.1396E+04  7.3185E+03  9.8715E+04  9.1387E+04  1.1428E+05  2.2889E+04 -9.6122E-05
 84 6.3830E-03 4.3500E+00  2.6553E+01 -9.1339E+04  7.7348E+03  9.9074E+04  9.1366E+04  1.1425E+05  2.2881E+04  2.6801E-04
 85 6.5876E-03 4.0536E+00  7.9509E+01 -9.1266E+04  8.1785E+03  9.9444E+04  9.1345E+04  1.1422E+05  2.2873E+04  7.9953E-04
 86 6.7945E-03 3.7608E+00  1.4748E+02 -9.1177E+04  8.6429E+03  9.9820E+04  9.1325E+04  1.1419E+05  2.2865E+04  1.4774E-03
 87 7.0033E-03 3.4718E+00  2.3192E+02 -9.1072E+04  9.1333E+03  1.0021E+05  9.1304E+04  1.1416E+05  2.2857E+04  2.3145E-03
 88 7.2140E-03 3.1868E+00  3.3205E+02 -9.0952E+04  9.6442E+03  1.0060E+05  9.1284E+04  1.1413E+05  2.2849E+04  3.3008E-03
 89 7.4263E-03 2.9058E+00  4.5047E+02 -9.0813E+04  1.0182E+04  1.0099E+05  9.1264E+04  1.1410E+05  2.2840E+04  4.4603E-03
 90 7.6399E-03 2.6290E+00  5.8668E+02 -9.0656E+04  1.0741E+04  1.0140E+05  9.1243E+04  1.1408E+05  2.2832E+04  5.7860E-03
 91 7.8547E-03 2.3564E+00  7.4450E+02 -9.0478E+04  1.1329E+04  1.0181E+05  9.1223E+04  1.1405E+05  2.2824E+04  7.3129E-03
 92 8.0703E-03 2.0883E+00  9.2384E+02 -9.0278E+04  1.1940E+04  1.0222E+05  9.1202E+04  1.1402E+05  2.2816E+04  9.0379E-03
 93 8.2865E-03 1.8246E+00  1.1296E+03 -9.0051E+04  1.2583E+04  1.0263E+05  9.1181E+04  1.1399E+05  2.2808E+04  1.1006E-02
 94 8.5031E-03 1.5655E+00  1.3618E+03 -8.9798E+04  1.3252E+04  1.0305E+05  9.1160E+04  1.1396E+05  2.2800E+04  1.3215E-02
 95 8.7198E-03 1.3111E+00  1.6251E+03 -8.9513E+04  1.3949E+04  1.0346E+05  9.1138E+04  1.1393E+05  2.2793E+04  1.5707E-02
 96 8.9362E-03 1.0615E+00  1.9274E+03 -8.9189E+04  1.4682E+04  1.0387E+05  9.1117E+04  1.1390E+05  2.2785E+04  1.8556E-02
 97 9.1522E-03 8.1690E-01  2.2740E+03 -8.8820E+04  1.5452E+04  1.0427E+05  9.1094E+04  1.1387E+05  2.2778E+04  2.1808E-02
 98 9.3674E-03 5.7727E-01  2.6776E+03 -8.8394E+04  1.6272E+04  1.0467E+05  9.1072E+04  1.1384E+05  2.2770E+04  2.5582E-02
 99 9.5816E-03 3.4277E-01  3.1386E+03 -8.7910E+04  1.7127E+04  1.0504E+05  9.1048E+04  1.1381E+05  2.2763E+04  2.9881E-02
100 9.7943E-03 1.1352E-01  3.6883E+03 -8.7336E+04  1.8017E+04  1.0535E+05  9.1024E+04  1.1378E+05  2.2756E+04  3.5010E-02
101 1.0005E-02 0.0000E+00  4.3368E+03 -8.6662E+04  1.8852E+04  1.0551E+05  9.0999E+04  1.1375E+05  2.2750E+04  4.1101E-02
 
