   4755.14984276168        47257.6000000000     
   6837.52787113269        16015.1000000000     
   12723.4439776825        39223.2000000000     
   20463.2739592813        43801.4000000000     
   25435.6385588313        25363.4000000000     
   50183.3593875891        108863.000000000     
   87247.9056883943        136544.000000000     
   145309.188575891        187162.000000000     
   151199.953034710        18071.0000000000     
   161540.114131156        31399.9000000000     
   183543.228162416        65707.3000000000     
   194368.367191523        31825.1000000000     
   215299.090164863        60824.7000000000     
   226560.194422579        32361.8000000000     
   251883.433307008        72247.0000000000     
   263664.028972712        33234.7000000000     
   282507.929025007        52971.2000000000     
   296279.910123482        38471.4000000000     
   312354.071480172        47115.4000000000     
   326883.611278882        40357.0000000000     
   332444.792107424        16065.7000000000     
   340989.813948385        25079.6000000000     
   349750.409896692        25789.7000000000     
   358559.322288702        29634.2000000000     
   364197.603769333        27125.7000000000     
   369437.419826154        22090.1000000000     
   371768.827994689        15524.0000000000     
   376396.638239524        16510.7000000000     
   377755.626573892        11080.6000000000     
   378887.734560823        9619.92000000000     
   382492.210306994        10234.7000000000     
   382814.342696169        4714.58000000000     
   382829.148441468        5119.67000000000     
   383794.129971086        4400.51000000000     
   384790.145289102        3216.20000000000     
   385402.639698892        2779.34000000000     
   385402.639698892        778.845000000000     
   385402.639698892        1419.83000000000     
