     ALT          P          T          FH2O           O3           THEAT        TCOOL        PSATCO2        FCO2
4.7161E+01  1.0765E-04 1.2561E+02    1.0102E-08    0.0000E+00    4.0475E-01   -1.0164E+00    1.3898E-04    6.3234E-03
4.6597E+01  1.2467E-04 1.3039E+02    1.0102E-08    0.0000E+00    4.6069E-01   -1.2871E+00    3.5244E-04    6.3234E-03
4.6017E+01  1.4422E-04 1.3479E+02    1.0102E-08    0.0000E+00    5.2358E-01   -3.3741E-02    7.8279E-04    6.3234E-03
4.5424E+01  1.6666E-04 1.3862E+02    1.0102E-08    0.0000E+00    5.9407E-01   -4.0920E-01    1.4998E-03    6.3234E-03
4.4820E+01  1.9236E-04 1.4186E+02    1.0102E-08    0.0000E+00    6.7278E-01   -5.4017E-01    2.5298E-03    6.3234E-03
4.4209E+01  2.2179E-04 1.4462E+02    1.0102E-08    0.0000E+00    7.6027E-01   -7.8881E-01    3.8768E-03    6.3234E-03
4.3591E+01  2.5544E-04 1.4705E+02    1.0102E-08    0.0000E+00    8.5698E-01   -9.3494E-01    5.5639E-03    6.3234E-03
4.2968E+01  2.9386E-04 1.4926E+02    1.0102E-08    0.0000E+00    9.6312E-01   -1.0415E+00    7.6501E-03    6.3234E-03
4.2341E+01  3.3769E-04 1.5134E+02    1.0102E-08    0.0000E+00    1.0885E+00   -1.1665E+00    1.0237E-02    6.3234E-03
4.1710E+01  3.8762E-04 1.5335E+02    1.0102E-08    0.0000E+00    1.2295E+00   -1.2723E+00    1.3448E-02    6.3234E-03
4.1077E+01  4.4443E-04 1.5530E+02    1.0102E-08    0.0000E+00    1.3794E+00   -1.4317E+00    1.7406E-02    6.3234E-03
4.0441E+01  5.0901E-04 1.5718E+02    1.0102E-08    0.0000E+00    1.5354E+00   -1.5911E+00    2.2179E-02    6.3234E-03
3.9803E+01  5.8232E-04 1.5894E+02    1.0102E-08    0.0000E+00    1.6927E+00   -1.7484E+00    2.7687E-02    6.3234E-03
3.9163E+01  6.6545E-04 1.6050E+02    1.0102E-08    0.0000E+00    1.8441E+00   -1.8936E+00    3.3563E-02    6.3234E-03
3.8523E+01  7.5960E-04 1.6174E+02    1.0102E-08    0.0000E+00    1.9800E+00   -1.9763E+00    3.9001E-02    6.3234E-03
3.7885E+01  8.6611E-04 1.6251E+02    1.0102E-08    0.0000E+00    2.0886E+00   -1.9627E+00    4.2758E-02    6.3234E-03
3.7250E+01  9.8645E-04 1.6267E+02    1.0102E-08    0.0000E+00    2.1569E+00   -1.8246E+00    4.3597E-02    6.3234E-03
3.6622E+01  1.1223E-03 1.6225E+02    1.0102E-08    0.0000E+00    2.1877E+00   -2.0554E+00    4.1490E-02    6.3234E-03
3.6001E+01  1.2754E-03 1.6141E+02    1.0102E-08    0.0000E+00    2.1590E+00   -2.1452E+00    3.7515E-02    6.3234E-03
3.5389E+01  1.4477E-03 1.6035E+02    1.0102E-08    0.0000E+00    2.0647E+00   -2.1018E+00    3.2948E-02    6.3234E-03
3.4786E+01  1.6415E-03 1.5923E+02    1.0102E-08    0.0000E+00    1.9081E+00   -1.9667E+00    2.8725E-02    6.3234E-03
3.4193E+01  1.8592E-03 1.5823E+02    1.0102E-08    0.0000E+00    1.7023E+00   -1.7728E+00    2.5345E-02    6.3234E-03
3.3609E+01  2.1035E-03 1.5746E+02    1.0102E-08    0.0000E+00    1.4713E+00   -1.5501E+00    2.2998E-02    6.3234E-03
3.3031E+01  2.3771E-03 1.5701E+02    1.0102E-08    0.0000E+00    1.2472E+00   -1.3353E+00    2.1705E-02    6.3234E-03
3.2461E+01  2.6834E-03 1.5690E+02    1.0102E-08    0.0000E+00    1.0631E+00   -1.1422E+00    2.1421E-02    6.3234E-03
3.1895E+01  3.0258E-03 1.5715E+02    1.0102E-08    0.0000E+00    9.4215E-01   -1.0102E+00    2.2088E-02    6.3234E-03
3.1333E+01  3.4080E-03 1.5768E+02    1.0102E-08    0.0000E+00    8.8932E-01   -9.2898E-01    2.3642E-02    6.3234E-03
3.0774E+01  3.8343E-03 1.5843E+02    1.0102E-08    0.0000E+00    8.9041E-01   -9.0412E-01    2.5993E-02    6.3234E-03
3.0218E+01  4.3091E-03 1.5931E+02    1.0102E-08    0.0000E+00    9.2062E-01   -9.1357E-01    2.9009E-02    6.3234E-03
2.9663E+01  4.8373E-03 1.6023E+02    1.0102E-08    0.0000E+00    9.5611E-01   -9.3727E-01    3.2487E-02    6.3234E-03
2.9111E+01  5.4242E-03 1.6111E+02    1.0102E-08    0.0000E+00    9.8040E-01   -9.5630E-01    3.6153E-02    6.3234E-03
2.8562E+01  6.0755E-03 1.6188E+02    1.0102E-08    0.0000E+00    9.8407E-01   -9.5199E-01    3.9666E-02    6.3234E-03
2.8015E+01  6.7975E-03 1.6249E+02    1.0102E-08    0.0000E+00    9.6215E-01   -9.2663E-01    4.2672E-02    6.3234E-03
2.7472E+01  7.5968E-03 1.6291E+02    1.0102E-08    0.0000E+00    9.1306E-01   -8.6594E-01    4.4863E-02    6.3234E-03
2.6934E+01  8.4806E-03 1.6313E+02    1.0102E-08    0.0000E+00    8.3889E-01   -7.8178E-01    4.6071E-02    6.3234E-03
2.6401E+01  9.4567E-03 1.6318E+02    1.0102E-08    0.0000E+00    7.4569E-01   -6.7238E-01    4.6339E-02    6.3234E-03
2.5873E+01  1.0533E-02 1.6313E+02    1.0102E-08    0.0000E+00    6.4132E-01   -6.2946E-01    4.6022E-02    6.3234E-03
2.5351E+01  1.1720E-02 1.6306E+02    1.0102E-08    0.0000E+00    5.3789E-01   -6.0664E-01    4.5669E-02    6.3234E-03
2.4834E+01  1.3025E-02 1.6307E+02    1.0102E-08    0.0000E+00    4.4686E-01   -5.2540E-01    4.5720E-02    6.3234E-03
2.4322E+01  1.4460E-02 1.6319E+02    1.0102E-08    0.0000E+00    3.7376E-01   -4.2696E-01    4.6385E-02    6.3234E-03
2.3816E+01  1.6034E-02 1.6343E+02    1.0102E-08    0.0000E+00    3.2014E-01   -3.4574E-01    4.7692E-02    6.3234E-03
2.3314E+01  1.7761E-02 1.6376E+02    1.0102E-08    0.0000E+00    2.8409E-01   -2.9523E-01    4.9581E-02    6.3234E-03
2.2816E+01  1.9651E-02 1.6416E+02    1.0125E-08    0.0000E+00    2.6174E-01   -2.7178E-01    5.1948E-02    6.3234E-03
2.2323E+01  2.1719E-02 1.6459E+02    1.0218E-08    0.0000E+00    2.4908E-01   -2.3204E-01    5.4628E-02    6.3234E-03
2.1834E+01  2.3977E-02 1.6503E+02    1.0636E-08    0.0000E+00    2.4295E-01   -2.3099E-01    5.7475E-02    6.3234E-03
2.1348E+01  2.6441E-02 1.6589E+02    1.1771E-08    0.0000E+00    2.4179E-01   -2.4957E-01    6.3422E-02    6.3234E-03
2.0865E+01  2.9126E-02 1.6676E+02    1.3178E-08    0.0000E+00    2.4298E-01   -2.5080E-01    7.0019E-02    6.3234E-03
2.0386E+01  3.2047E-02 1.6773E+02    1.5014E-08    0.0000E+00    2.4476E-01   -2.5348E-01    7.8095E-02    6.3234E-03
1.9909E+01  3.5222E-02 1.6878E+02    1.7358E-08    0.0000E+00    2.4527E-01   -2.5413E-01    8.7673E-02    6.3234E-03
1.9434E+01  3.8668E-02 1.6985E+02    2.0139E-08    0.0000E+00    2.4301E-01   -2.5170E-01    9.8598E-02    6.3234E-03
1.8963E+01  4.2405E-02 1.7091E+02    2.3231E-08    0.0000E+00    2.3703E-01   -2.4583E-01    1.1057E-01    6.3234E-03
1.8494E+01  4.6450E-02 1.7192E+02    2.6429E-08    0.0000E+00    2.2696E-01   -2.3642E-01    1.2316E-01    6.3234E-03
1.8029E+01  5.0826E-02 1.7285E+02    2.9500E-08    0.0000E+00    2.1297E-01   -2.2338E-01    1.3586E-01    6.3234E-03
1.7566E+01  5.5551E-02 1.7368E+02    3.2224E-08    0.0000E+00    1.9574E-01   -2.0722E-01    1.4810E-01    6.3234E-03
1.7108E+01  6.0648E-02 1.7440E+02    3.4353E-08    0.0000E+00    1.7634E-01   -1.8894E-01    1.5952E-01    6.3234E-03
1.6654E+01  6.6139E-02 1.7501E+02    3.6010E-08    0.0000E+00    1.5613E-01   -1.7074E-01    1.6988E-01    6.3234E-03
1.6204E+01  7.2047E-02 1.7555E+02    3.6966E-08    0.0000E+00    1.3656E-01   -1.5013E-01    1.7945E-01    6.3234E-03
1.5758E+01  7.8395E-02 1.7601E+02    3.7500E-08    0.0000E+00    1.1889E-01   -1.3508E-01    1.8801E-01    6.3234E-03
1.5318E+01  8.5208E-02 1.7644E+02    3.7794E-08    0.0000E+00    1.0406E-01   -1.2050E-01    1.9649E-01    6.3234E-03
1.4882E+01  9.2510E-02 1.7687E+02    3.8090E-08    0.0000E+00    9.2479E-02   -1.0856E-01    2.0497E-01    6.3234E-03
1.4451E+01  1.0033E-01 1.7728E+02    3.8355E-08    0.0000E+00    8.4081E-02   -9.9980E-02    2.1367E-01    6.3234E-03
1.4025E+01  1.0868E-01 1.7769E+02    3.8394E-08    0.0000E+00    7.7811E-02   -9.4761E-02    2.2259E-01    6.3234E-03
1.3604E+01  1.1760E-01 1.7812E+02    3.8661E-08    0.0000E+00    7.3628E-02   -8.9420E-02    2.3225E-01    6.3234E-03
1.3187E+01  1.2711E-01 1.7873E+02    4.2966E-08    0.0000E+00    7.0818E-02   -8.6904E-02    2.4662E-01    6.3234E-03
1.2775E+01  1.3724E-01 1.7950E+02    4.9746E-08    0.0000E+00    6.8729E-02   -8.3940E-02    2.6585E-01    6.3234E-03
1.2368E+01  1.4800E-01 1.8037E+02    5.8688E-08    0.0000E+00    6.6870E-02   -8.3119E-02    2.8897E-01    6.3234E-03
1.1964E+01  1.5944E-01 1.8143E+02    7.0027E-08    0.0000E+00    6.4971E-02   -7.8322E-02    3.1978E-01    6.3234E-03
1.1563E+01  1.7157E-01 1.8242E+02    8.4173E-08    0.0000E+00    6.2837E-02   -7.7410E-02    3.5104E-01    6.3234E-03
1.1167E+01  1.8441E-01 1.8366E+02    1.0069E-07    0.0000E+00    6.0531E-02   -7.1312E-02    3.9409E-01    6.3234E-03
1.0774E+01  1.9800E-01 1.8459E+02    1.2052E-07    0.0000E+00    5.7967E-02   -6.9092E-02    4.2939E-01    6.3234E-03
1.0385E+01  2.1235E-01 1.8593E+02    1.4249E-07    0.0000E+00    5.5413E-02   -6.4250E-02    4.8529E-01    6.3234E-03
1.0000E+01  2.2748E-01 1.8678E+02    1.6862E-07    0.0000E+00    5.2714E-02   -5.9388E-02    5.2357E-01    6.3234E-03
9.6190E+00  2.4343E-01 1.8823E+02    2.0125E-07    0.0000E+00    5.0264E-02   -5.8436E-02    5.9591E-01    6.3234E-03
9.2417E+00  2.6020E-01 1.8920E+02    2.3457E-07    0.0000E+00    4.7812E-02   -4.8767E-02    6.4877E-01    6.3234E-03
8.8680E+00  2.7782E-01 1.9094E+02    3.0766E-07    0.0000E+00    4.5825E-02   -5.0685E-02    7.5399E-01    6.3234E-03
8.4974E+00  2.9630E-01 1.9264E+02    3.5539E-07    0.0000E+00    4.4160E-02   -1.0168E-01    8.7066E-01    6.3234E-03
8.1282E+00  3.1566E-01 1.9619E+02    6.2456E-07    0.0000E+00    4.3938E-02   -2.6719E-01    1.1665E+00    6.3234E-03
7.7589E+00  3.3591E-01 1.9974E+02    1.0943E-06    0.0000E+00    4.4987E-02   -4.4688E-01    1.5466E+00    6.3234E-03
7.3896E+00  3.5706E-01 2.0329E+02    1.8798E-06    0.0000E+00    4.7924E-02   -6.2828E-01    2.0298E+00    6.3234E-03
7.0208E+00  3.7911E-01 2.0683E+02    3.1674E-06    0.0000E+00    5.3609E-02   -7.9214E-01    2.6378E+00    6.3234E-03
6.6525E+00  4.0209E-01 2.1036E+02    5.2380E-06    0.0000E+00    6.2947E-02   -9.4161E-01    3.3954E+00    6.3234E-03
6.2851E+00  4.2598E-01 2.1389E+02    8.5055E-06    0.0000E+00    7.6455E-02   -1.0806E+00    4.3302E+00    6.3234E-03
5.9189E+00  4.5079E-01 2.1739E+02    1.3567E-05    0.0000E+00    9.3744E-02   -1.1978E+00    5.3700E+00    6.3234E-03
5.5540E+00  4.7651E-01 2.2088E+02    2.1265E-05    0.0000E+00    1.1391E-01   -1.2665E+00    6.2220E+00    6.3234E-03
5.1907E+00  5.0314E-01 2.2434E+02    3.2759E-05    0.0000E+00    1.3794E-01   -1.3101E+00    7.1646E+00    6.3234E-03
4.8294E+00  5.3067E-01 2.2776E+02    4.9608E-05    0.0000E+00    1.7005E-01   -1.3559E+00    8.1998E+00    6.3234E-03
4.4703E+00  5.5908E-01 2.3115E+02    7.3850E-05    0.0000E+00    2.1184E-01   -1.4021E+00    9.3280E+00    6.3234E-03
4.1138E+00  5.8835E-01 2.3448E+02    1.0807E-04    0.0000E+00    2.5596E-01   -1.4115E+00    1.0548E+01    6.3234E-03
3.7601E+00  6.1847E-01 2.3775E+02    1.5545E-04    0.0000E+00    2.9199E-01   -1.3914E+00    1.1857E+01    6.3234E-03
3.4095E+00  6.4941E-01 2.4094E+02    2.1975E-04    0.0000E+00    3.1609E-01   -1.3661E+00    1.3248E+01    6.3234E-03
3.0624E+00  6.8114E-01 2.4406E+02    3.0527E-04    0.0000E+00    3.3526E-01   -1.3646E+00    1.4716E+01    6.3234E-03
2.7191E+00  7.1362E-01 2.4708E+02    4.1673E-04    0.0000E+00    3.6108E-01   -1.3698E+00    1.6251E+01    6.3234E-03
2.3799E+00  7.4682E-01 2.5000E+02    5.5903E-04    0.0000E+00    3.9689E-01   -1.3760E+00    1.7842E+01    6.3234E-03
2.0452E+00  7.8069E-01 2.5280E+02    7.3707E-04    0.0000E+00    4.3580E-01   -1.4172E+00    1.9477E+01    6.3234E-03
1.7153E+00  8.1519E-01 2.5550E+02    9.5546E-04    0.0000E+00    4.6928E-01   -1.4428E+00    2.1145E+01    6.3234E-03
1.3906E+00  8.5027E-01 2.5807E+02    1.2183E-03    0.0000E+00    4.9263E-01   -1.4364E+00    2.2833E+01    6.3234E-03
1.0713E+00  8.8587E-01 2.6051E+02    1.5289E-03    0.0000E+00    5.0631E-01   -1.3911E+00    2.4530E+01    6.3234E-03
7.5776E-01  9.2193E-01 2.6284E+02    1.8896E-03    0.0000E+00    5.1477E-01   -1.3604E+00    2.6226E+01    6.3234E-03
4.5031E-01  9.5839E-01 2.6504E+02    2.3020E-03    0.0000E+00    5.2362E-01   -1.4206E+00    2.7912E+01    6.3234E-03
1.4921E-01  9.9519E-01 2.6713E+02    2.7662E-03    0.0000E+00    5.3851E-01   -1.4311E+00    2.9577E+01    6.3234E-03
0.0000E+00  1.0138E+00 2.6816E+02    3.0266E-03    0.0000E+00    6.7466E+00   -3.3421E+00    3.0429E+01    6.3234E-03
