#    Mass          Teff(K)        Moist        Maximum       Recent       Early         First CO2
#                               Greenhouse    Greenhouse      Venus        Mars        Condensation
   1.00000E-01   2.82800E+03   3.27531E-02   6.33465E-02   2.47536E-02   6.62399E-02   4.53351E-02
   2.00000E-01   3.29000E+03   7.44364E-02   1.41469E-01   5.62564E-02   1.47932E-01   1.02778E-01
   3.00000E-01   3.43700E+03   1.08520E-01   2.05085E-01   8.20154E-02   2.14455E-01   1.49724E-01
   4.00000E-01   3.52600E+03   1.44440E-01   2.72023E-01   1.09163E-01   2.84450E-01   1.99193E-01
   5.00000E-01   3.65300E+03   1.94289E-01   3.64062E-01   1.46837E-01   3.80695E-01   2.67771E-01
   6.00000E-01   3.94400E+03   2.72456E-01   5.04437E-01   2.05913E-01   5.27485E-01   3.74992E-01
   7.00000E-01   4.37100E+03   3.80069E-01   6.90566E-01   2.87244E-01   7.22125E-01   5.22199E-01
   8.00000E-01   4.82400E+03   5.10656E-01   9.08414E-01   3.85937E-01   9.49936E-01   7.00606E-01
   9.00000E-01   5.24000E+03   6.70288E-01   1.16897E+00   5.06582E-01   1.22241E+00   9.18746E-01
   1.00000E+00   5.63400E+03   8.49992E-01   1.45532E+00   6.42397E-01   1.52186E+00   1.16440E+00
   1.05000E+00   5.82200E+03   9.57452E-01   1.62550E+00   7.23613E-01   1.69983E+00   1.31139E+00
   1.10000E+00   5.99100E+03   1.06703E+00   1.79828E+00   8.06429E-01   1.88052E+00   1.46134E+00
   1.15000E+00   6.14800E+03   1.18985E+00   1.99216E+00   8.99249E-01   2.08327E+00   1.62946E+00
