#  Teff(K)        Recent        Runaway       Moist         Maximum       Early         2AU
#                 Venus         Greenhouse    Greenhouse    Greenhouse    Mars         CLoud limit
   2.60000E+03   1.47472E+00   8.55516E-01   8.42301E-01   2.15545E-01   1.99282E-01   1.55731E-01
   2.80000E+03   1.48379E+00   8.60400E-01   8.47484E-01   2.20584E-01   2.03942E-01   1.59371E-01
   3.00000E+03   1.49356E+00   8.64413E-01   8.53062E-01   2.25644E-01   2.08621E-01   1.63027E-01
   3.20000E+03   1.50429E+00   8.68185E-01   8.59193E-01   2.30874E-01   2.13458E-01   1.66806E-01
   3.40000E+03   1.51623E+00   8.72277E-01   8.66013E-01   2.36402E-01   2.18571E-01   1.70800E-01
   3.60000E+03   1.52956E+00   8.77176E-01   8.73630E-01   2.42336E-01   2.24060E-01   1.75088E-01
   3.80000E+03   1.54444E+00   8.83302E-01   8.82127E-01   2.48765E-01   2.30006E-01   1.79733E-01
   4.00000E+03   1.56095E+00   8.91003E-01   8.91563E-01   2.55755E-01   2.36471E-01   1.84784E-01
   4.20000E+03   1.57917E+00   9.00557E-01   9.01970E-01   2.63354E-01   2.43498E-01   1.90274E-01
   4.40000E+03   1.59910E+00   9.12172E-01   9.13355E-01   2.71588E-01   2.51114E-01   1.96224E-01
   4.60000E+03   1.62071E+00   9.25986E-01   9.25699E-01   2.80463E-01   2.59322E-01   2.02637E-01
   4.80000E+03   1.64392E+00   9.42065E-01   9.38957E-01   2.89966E-01   2.68111E-01   2.09503E-01
   5.00000E+03   1.66861E+00   9.60406E-01   9.53060E-01   3.00062E-01   2.77449E-01   2.16798E-01
   5.20000E+03   1.69462E+00   9.80934E-01   9.67914E-01   3.10697E-01   2.87284E-01   2.24482E-01
   5.40000E+03   1.72172E+00   1.00351E+00   9.83396E-01   3.21795E-01   2.97548E-01   2.32500E-01
   5.60000E+03   1.74967E+00   1.02791E+00   9.99361E-01   3.33261E-01   3.08153E-01   2.40785E-01
   5.80000E+03   1.77816E+00   1.05385E+00   1.01564E+00   3.44979E-01   3.18991E-01   2.49252E-01
   6.00000E+03   1.80686E+00   1.08099E+00   1.03203E+00   3.56814E-01   3.29936E-01   2.57803E-01
   6.20000E+03   1.83536E+00   1.10889E+00   1.04831E+00   3.68609E-01   3.40844E-01   2.66325E-01
   6.40000E+03   1.86323E+00   1.13705E+00   1.06423E+00   3.80186E-01   3.51552E-01   2.74690E-01
   6.60000E+03   1.89000E+00   1.16492E+00   1.07952E+00   3.91350E-01   3.61877E-01   2.82757E-01
   6.80000E+03   1.91514E+00   1.19185E+00   1.09388E+00   4.01882E-01   3.71617E-01   2.90366E-01
   7.00000E+03   1.93808E+00   1.21713E+00   1.10698E+00   4.11544E-01   3.80554E-01   2.97348E-01
   7.20000E+03   1.95820E+00   1.24000E+00   1.11848E+00   4.20079E-01   3.88448E-01   3.03515E-01
   7.40000e+03   1.9854E+00    1.27329E+00   1.13405E+00   4.30740E-01   3.98370E-01   3.11230E-01
   7.60000e+03   2.0076E+00    1.29780E+00   1.14671E+00   4.40230E-01   4.07150E-01   3.18090E-01
   7.80000e+03   2.0257E+00    1.31863E+00   1.15707E+00   4.47920E-01   4.14260E-01   3.23640E-01
   8.00000e+03   2.0481E+00    1.34440E+00   1.16987E+00   4.57400E-01   4.23030E-01   3.30490E-01
   
