 
    OUTPUT FILES FOR THE Sun  
 
 Solar Constant= 0.473   F_CH4= 1.0000E-60  F_CO2= 9.5000E-01  F_O2= 1.0000E-60  F_N2= 5.0000E-02  IO3 =  0   IUP=  0
 ICONSERV= 0  FAC= 4.0  ND=101  SRFALB= 0.200  G=373.0  IMW= 0

 FNO2 = 1.000E-60
 
 NST=     1 JCONV= 92 CHG=1.23E-02 dt0=2.50E+03 DIVF(1)= 1.29E-01 DIVFrms= 1.41E-01 DT(ND)= 3.10E+00 T(ND)=2.4333E+02

 TIME= 2.500E+03  TIME IN DAYS = 2.894E-02

 PLANETARY ALBEDO:  ALBP = 0.2649

  J     P         ALT         T        CONVEC       DT          TOLD        FH20       FSAVE       TCOOL       THEAT
  1 5.3818E-05 7.9619E+01 1.9087E+02  0.00E+00   4.9988E-03  1.9087E+02  6.6400E-08  1.1722E-07 -2.7525E+02  2.7543E+02
  2 6.2315E-05 7.8203E+01 1.8585E+02  0.00E+00  -3.4771E-02  1.8589E+02  6.6400E-08  1.1722E-07 -9.0270E+01  8.9068E+01
  3 7.2073E-05 7.6835E+01 1.8079E+02  0.00E+00  -7.3516E-02  1.8091E+02  6.6400E-08  1.1722E-07 -5.6697E+01  5.4156E+01
  4 8.3267E-05 7.5516E+01 1.7570E+02  0.00E+00  -1.4300E-01  1.7580E+02  6.6400E-08  1.1722E-07 -3.7737E+01  3.2794E+01
  5 9.6093E-05 7.4243E+01 1.7075E+02  0.00E+00  -1.2521E-01  1.7080E+02  6.6400E-08  1.1722E-07 -2.4765E+01  2.0438E+01
  6 1.1077E-04 7.3015E+01 1.6618E+02  0.00E+00  -1.8476E-01  1.6620E+02  6.6400E-08  1.1722E-07 -2.0070E+01  1.3685E+01
  7 1.2755E-04 7.1827E+01 1.6230E+02  0.00E+00  -1.6478E-01  1.6220E+02  6.6400E-08  1.1722E-07 -1.5891E+01  1.0196E+01
  8 1.4670E-04 7.0673E+01 1.5941E+02  0.00E+00  -9.3281E-02  1.5923E+02  6.6400E-08  1.1722E-07 -1.1696E+01  8.4722E+00
  9 1.6855E-04 6.9544E+01 1.5755E+02  0.00E+00  -3.1242E-02  1.5738E+02  6.6400E-08  1.1722E-07 -8.7006E+00  7.6209E+00
 10 1.9343E-04 6.8436E+01 1.5648E+02  0.00E+00   7.9692E-04  1.5636E+02  6.6400E-08  1.1722E-07 -7.1254E+00  7.1529E+00
 11 2.2174E-04 6.7342E+01 1.5589E+02  0.00E+00   7.5619E-03  1.5583E+02  6.6400E-08  1.1722E-07 -6.5640E+00  6.8253E+00
 12 2.5391E-04 6.6260E+01 1.5555E+02  0.00E+00   6.8853E-04  1.5553E+02  6.6400E-08  1.1722E-07 -6.5080E+00  6.5318E+00
 13 2.9043E-04 6.5189E+01 1.5533E+02  0.00E+00  -7.3698E-03  1.5532E+02  6.6400E-08  1.1722E-07 -6.4878E+00  6.2331E+00
 14 3.3183E-04 6.4128E+01 1.5518E+02  0.00E+00  -1.1016E-02  1.5517E+02  6.6400E-08  1.1722E-07 -6.2985E+00  5.9178E+00
 15 3.7870E-04 6.3077E+01 1.5509E+02  0.00E+00  -9.5219E-03  1.5508E+02  6.6400E-08  1.1722E-07 -5.9130E+00  5.5840E+00
 16 4.3172E-04 6.2035E+01 1.5507E+02  0.00E+00  -4.3391E-03  1.5505E+02  6.6400E-08  1.1722E-07 -5.3832E+00  5.2332E+00
 17 4.9162E-04 6.1001E+01 1.5514E+02  0.00E+00   2.6634E-03  1.5512E+02  6.6400E-08  1.1722E-07 -4.7765E+00  4.8685E+00
 18 5.5920E-04 5.9976E+01 1.5532E+02  0.00E+00   9.7868E-03  1.5528E+02  6.6400E-08  1.1722E-07 -4.1555E+00  4.4937E+00
 19 6.3536E-04 5.8958E+01 1.5558E+02  0.00E+00   1.5752E-02  1.5555E+02  6.6400E-08  1.1722E-07 -3.5692E+00  4.1136E+00
 20 7.2110E-04 5.7947E+01 1.5591E+02  0.00E+00   1.9685E-02  1.5588E+02  6.6400E-08  1.1722E-07 -3.0532E+00  3.7335E+00
 21 8.1749E-04 5.6942E+01 1.5628E+02  0.00E+00   1.9598E-02  1.5626E+02  6.6400E-08  1.1722E-07 -2.6819E+00  3.3592E+00
 22 9.2575E-04 5.5945E+01 1.5665E+02  0.00E+00   1.8585E-02  1.5664E+02  6.6400E-08  1.1722E-07 -2.3544E+00  2.9967E+00
 23 1.0472E-03 5.4953E+01 1.5700E+02  0.00E+00   1.1079E-02  1.5700E+02  6.6400E-08  1.1722E-07 -2.4017E+00  2.7845E+00
 24 1.1832E-03 5.3969E+01 1.5728E+02  0.00E+00   2.8271E-03  1.5730E+02  6.6400E-08  1.1722E-07 -2.6216E+00  2.7193E+00
 25 1.3354E-03 5.2992E+01 1.5748E+02  0.00E+00  -3.0920E-03  1.5751E+02  6.6400E-08  1.1722E-07 -2.6374E+00  2.5306E+00
 26 1.5055E-03 5.2024E+01 1.5756E+02  0.00E+00  -9.5634E-03  1.5760E+02  6.6400E-08  1.1722E-07 -2.5981E+00  2.2676E+00
 27 1.6954E-03 5.1064E+01 1.5754E+02  0.00E+00  -1.4547E-02  1.5757E+02  6.6400E-08  1.1722E-07 -2.4882E+00  1.9855E+00
 28 1.9072E-03 5.0114E+01 1.5744E+02  0.00E+00  -1.5625E-02  1.5747E+02  6.6400E-08  1.1722E-07 -2.2686E+00  1.7286E+00
 29 2.1430E-03 4.9173E+01 1.5728E+02  0.00E+00  -1.2802E-02  1.5730E+02  6.6400E-08  1.1722E-07 -1.9608E+00  1.5184E+00
 30 2.4053E-03 4.8242E+01 1.5713E+02  0.00E+00  -7.9154E-03  1.5713E+02  6.6400E-08  1.1722E-07 -1.6277E+00  1.3541E+00
 31 2.6967E-03 4.7321E+01 1.5702E+02  0.00E+00  -2.9829E-03  1.5700E+02  6.6400E-08  1.1722E-07 -1.3254E+00  1.2223E+00
 32 3.0200E-03 4.6409E+01 1.5698E+02  0.00E+00   1.9469E-03  1.5696E+02  6.6400E-08  1.1722E-07 -1.0416E+00  1.1089E+00
 33 3.3783E-03 4.5506E+01 1.5703E+02  0.00E+00   2.2520E-03  1.5700E+02  6.6400E-08  1.1722E-07 -9.2771E-01  1.0055E+00
 34 3.7750E-03 4.4612E+01 1.5716E+02  0.00E+00   2.5612E-03  1.5713E+02  6.6400E-08  1.1722E-07 -8.2117E-01  9.0968E-01
 35 4.2135E-03 4.3726E+01 1.5736E+02  0.00E+00   1.8833E-03  1.5734E+02  6.6400E-08  1.1722E-07 -7.5678E-01  8.2187E-01
 36 4.6977E-03 4.2847E+01 1.5760E+02  0.00E+00   8.8674E-04  1.5759E+02  6.6400E-08  1.1722E-07 -7.1257E-01  7.4322E-01
 37 5.2318E-03 4.1976E+01 1.5787E+02  0.00E+00  -8.7457E-06  1.5786E+02  6.6400E-08  1.1722E-07 -6.7475E-01  6.7445E-01
 38 5.8201E-03 4.1113E+01 1.5814E+02  0.00E+00  -1.4828E-03  1.5814E+02  6.6400E-08  1.1722E-07 -6.6703E-01  6.1578E-01
 39 6.4674E-03 4.0257E+01 1.5841E+02  0.00E+00  -1.5405E-03  1.5841E+02  6.6400E-08  1.1722E-07 -6.2030E-01  5.6706E-01
 40 7.1787E-03 3.9408E+01 1.5869E+02  0.00E+00  -1.2752E-03  1.5869E+02  6.6400E-08  1.1722E-07 -5.7188E-01  5.2781E-01
 41 7.9593E-03 3.8568E+01 1.5897E+02  0.00E+00  -7.2009E-04  1.5897E+02  6.6400E-08  1.1722E-07 -5.2206E-01  4.9717E-01
 42 8.8150E-03 3.7734E+01 1.5925E+02  0.00E+00  -5.7531E-04  1.5924E+02  6.6400E-08  1.1722E-07 -4.9373E-01  4.7385E-01
 43 9.7519E-03 3.6909E+01 1.5954E+02  0.00E+00   3.3352E-04  1.5954E+02  6.6400E-08  1.1722E-07 -4.4464E-01  4.5617E-01
 44 1.0776E-02 3.6091E+01 1.5986E+02  0.00E+00   7.7380E-04  1.5985E+02  6.6400E-08  1.1722E-07 -4.5152E-01  4.7827E-01
 45 1.1895E-02 3.5280E+01 1.6019E+02  0.00E+00   1.2595E-03  1.6019E+02  6.6400E-08  1.1722E-07 -4.6355E-01  5.0708E-01
 46 1.3116E-02 3.4477E+01 1.6055E+02  0.00E+00   2.8474E-03  1.6054E+02  6.6400E-08  1.1724E-07 -4.3092E-01  5.2932E-01
 47 1.4445E-02 3.3681E+01 1.6091E+02  0.00E+00   4.4092E-03  1.6091E+02  6.6400E-08  1.1734E-07 -3.9114E-01  5.4352E-01
 48 1.5892E-02 3.2892E+01 1.6132E+02  0.00E+00   4.8001E-03  1.6128E+02  6.6697E-08  1.1764E-07 -3.8238E-01  5.4827E-01
 49 1.7464E-02 3.2111E+01 1.6178E+02  0.00E+00   5.4519E-03  1.6178E+02  6.7885E-08  1.2138E-07 -3.5437E-01  5.4279E-01
 50 1.9170E-02 3.1336E+01 1.6219E+02  0.00E+00   5.2363E-03  1.6218E+02  6.7990E-08  1.2271E-07 -3.4649E-01  5.2746E-01
 51 2.1020E-02 3.0569E+01 1.6282E+02  0.00E+00   4.9273E-03  1.6282E+02  7.1886E-08  1.3095E-07 -3.3268E-01  5.0297E-01
 52 2.3022E-02 2.9808E+01 1.6343E+02  0.00E+00   4.2021E-03  1.6342E+02  7.5427E-08  1.3867E-07 -3.2583E-01  4.7106E-01
 53 2.5188E-02 2.9052E+01 1.6421E+02  0.00E+00   3.3191E-03  1.6421E+02  8.2452E-08  1.5298E-07 -3.1885E-01  4.3356E-01
 54 2.7526E-02 2.8303E+01 1.6498E+02  0.00E+00   2.9861E-03  1.6498E+02  8.9834E-08  1.6817E-07 -2.8964E-01  3.9284E-01
 55 3.0048E-02 2.7560E+01 1.6575E+02  0.00E+00   2.4402E-03  1.6575E+02  9.7744E-08  1.8460E-07 -2.6681E-01  3.5115E-01
 56 3.2764E-02 2.6822E+01 1.6651E+02  0.00E+00   1.9960E-03  1.6651E+02  1.0612E-07  2.0217E-07 -2.4163E-01  3.1061E-01
 57 3.5687E-02 2.6091E+01 1.6729E+02  0.00E+00   1.6057E-03  1.6729E+02  1.1567E-07  2.2226E-07 -2.1746E-01  2.7295E-01
 58 3.8826E-02 2.5366E+01 1.6807E+02  0.00E+00   1.1906E-03  1.6807E+02  1.2604E-07  2.4426E-07 -1.9829E-01  2.3943E-01
 59 4.2195E-02 2.4647E+01 1.6892E+02  0.00E+00   6.0921E-04  1.6892E+02  1.3925E-07  2.7214E-07 -1.8968E-01  2.1074E-01
 60 4.5806E-02 2.3934E+01 1.6981E+02  0.00E+00  -5.1252E-05  1.6981E+02  1.5530E-07  3.0603E-07 -1.8881E-01  1.8704E-01
 61 4.9670E-02 2.3227E+01 1.7072E+02  0.00E+00  -7.2635E-04  1.7072E+02  1.7358E-07  3.4486E-07 -1.9319E-01  1.6809E-01
 62 5.3800E-02 2.2525E+01 1.7170E+02  0.00E+00  -1.2520E-03  1.7170E+02  1.9689E-07  3.9434E-07 -1.9656E-01  1.5329E-01
 63 5.8209E-02 2.1830E+01 1.7262E+02  0.00E+00  -1.7364E-03  1.7263E+02  2.2020E-07  4.4453E-07 -2.0196E-01  1.4195E-01
 64 6.2910E-02 2.1140E+01 1.7365E+02  0.00E+00  -2.0622E-03  1.7365E+02  2.5142E-07  5.1153E-07 -2.0454E-01  1.3327E-01
 65 6.7914E-02 2.0457E+01 1.7455E+02  0.00E+00  -2.3335E-03  1.7455E+02  2.7900E-07  5.7202E-07 -2.0720E-01  1.2655E-01
 66 7.3235E-02 1.9780E+01 1.7560E+02  0.00E+00  -2.5379E-03  1.7560E+02  3.1924E-07  6.5946E-07 -2.0887E-01  1.2116E-01
 67 7.8885E-02 1.9109E+01 1.7647E+02  0.00E+00  -2.6608E-03  1.7648E+02  3.5253E-07  7.3365E-07 -2.0861E-01  1.1665E-01
 68 8.4876E-02 1.8444E+01 1.7754E+02  0.00E+00  -2.8254E-03  1.7754E+02  4.0392E-07  8.4676E-07 -2.1027E-01  1.1263E-01
 69 9.1221E-02 1.7786E+01 1.7845E+02  0.00E+00  -2.8953E-03  1.7845E+02  4.4783E-07  9.4558E-07 -2.0894E-01  1.0888E-01
 70 9.7931E-02 1.7135E+01 1.7954E+02  0.00E+00  -3.0847E-03  1.7955E+02  5.1447E-07  1.0940E-06 -2.1186E-01  1.0525E-01
 71 1.0502E-01 1.6490E+01 1.8051E+02  0.00E+00  -3.1357E-03  1.8051E+02  5.7619E-07  1.2338E-06 -2.1589E-01  1.0752E-01
 72 1.1249E-01 1.5851E+01 1.8162E+02  0.00E+00  -3.2987E-03  1.8162E+02  6.6183E-07  1.4269E-06 -2.2514E-01  1.1113E-01
 73 1.2037E-01 1.5219E+01 1.8266E+02  0.00E+00  -3.3568E-03  1.8267E+02  7.5010E-07  1.6282E-06 -2.2954E-01  1.1353E-01
 74 1.2865E-01 1.4594E+01 1.8379E+02  0.00E+00  -3.4652E-03  1.8379E+02  8.6186E-07  1.8832E-06 -2.3456E-01  1.1480E-01
 75 1.3734E-01 1.3976E+01 1.8492E+02  0.00E+00  -3.3926E-03  1.8493E+02  9.9062E-07  2.1786E-06 -2.3235E-01  1.1510E-01
 76 1.4647E-01 1.3364E+01 1.8609E+02  0.00E+00  -3.5858E-03  1.8609E+02  1.1439E-06  2.5319E-06 -2.3853E-01  1.1460E-01
 77 1.5602E-01 1.2758E+01 1.8758E+02  0.00E+00  -3.3688E-03  1.8759E+02  1.3958E-06  3.1088E-06 -2.3002E-01  1.1359E-01
 78 1.6602E-01 1.2159E+01 1.8883E+02  0.00E+00  -4.0606E-03  1.8883E+02  1.6273E-06  3.6474E-06 -2.5250E-01  1.1217E-01
 79 1.7645E-01 1.1565E+01 1.9154E+02  0.00E+00  -7.7666E-03  1.9155E+02  2.4250E-06  5.4717E-06 -3.8011E-01  1.1169E-01
 80 1.8734E-01 1.0972E+01 1.9423E+02  0.00E+00  -1.1261E-02  1.9424E+02  3.5583E-06  8.0808E-06 -5.0122E-01  1.1204E-01
 81 1.9868E-01 1.0383E+01 1.9689E+02  0.00E+00  -1.4404E-02  1.9691E+02  5.1437E-06  1.1755E-05 -6.1113E-01  1.1332E-01
 82 2.1046E-01 9.7974E+00 1.9953E+02  0.00E+00  -1.7553E-02  1.9955E+02  7.3284E-06  1.6851E-05 -7.2225E-01  1.1562E-01
 83 2.2270E-01 9.2152E+00 2.0214E+02  0.00E+00  -2.0417E-02  2.0216E+02  1.0296E-05  2.3817E-05 -8.2447E-01  1.1886E-01
 84 2.3539E-01 8.6371E+00 2.0472E+02  0.00E+00  -2.1874E-02  2.0474E+02  1.4273E-05  3.3203E-05 -8.7893E-01  1.2297E-01
 85 2.4853E-01 8.0634E+00 2.0726E+02  0.00E+00  -2.3042E-02  2.0728E+02  1.9525E-05  4.5673E-05 -9.2460E-01  1.2826E-01
 86 2.6210E-01 7.4947E+00 2.0977E+02  0.00E+00  -2.3486E-02  2.0979E+02  2.6371E-05  6.2012E-05 -9.4694E-01  1.3528E-01
 87 2.7611E-01 6.9311E+00 2.1224E+02  0.00E+00  -2.4256E-02  2.1226E+02  3.5168E-05  8.3130E-05 -9.8239E-01  1.4411E-01
 88 2.9055E-01 6.3732E+00 2.1466E+02  0.00E+00  -2.4179E-02  2.1469E+02  4.6329E-05  1.1006E-04 -9.8921E-01  1.5357E-01
 89 3.0540E-01 5.8214E+00 2.1704E+02  0.00E+00  -2.4056E-02  2.1707E+02  6.0298E-05  1.4395E-04 -9.9297E-01  1.6159E-01
 90 3.2066E-01 5.2759E+00 2.1938E+02  0.00E+00  -2.2936E-02  2.1940E+02  7.7562E-05  1.8602E-04 -9.5916E-01  1.6650E-01
 91 3.3630E-01 4.7372E+00 2.2170E+02  0.00E+00   1.8744E-02  2.2168E+02  9.9108E-05  2.3757E-04 -9.1477E-01  1.6797E-01
 92 3.5232E-01 4.2053E+00 2.2423E+02  1.00E+00   3.2594E-01  2.2391E+02  1.2929E-04  2.9991E-04 -8.6981E-01  1.6730E-01
 93 3.6868E-01 3.6802E+00 2.2671E+02  1.00E+00   6.3848E-01  2.2607E+02  1.6663E-04  3.7431E-04 -8.3905E-01  1.6681E-01
 94 3.8538E-01 3.1624E+00 2.2913E+02  1.00E+00   9.5624E-01  2.2818E+02  2.1220E-04  4.6197E-04 -8.0233E-01  1.6850E-01
 95 4.0238E-01 2.6523E+00 2.3150E+02  1.00E+00   1.2789E+00  2.3022E+02  2.6712E-04  5.6395E-04 -7.7786E-01  1.7289E-01
 96 4.1967E-01 2.1503E+00 2.3380E+02  1.00E+00   1.6058E+00  2.3220E+02  3.3244E-04  6.8108E-04 -7.6271E-01  1.7918E-01
 97 4.3722E-01 1.6568E+00 2.3604E+02  1.00E+00   1.9361E+00  2.3410E+02  4.0916E-04  8.1398E-04 -7.5602E-01  1.8615E-01
 98 4.5499E-01 1.1721E+00 2.3821E+02  1.00E+00   2.2689E+00  2.3594E+02  4.9816E-04  9.6297E-04 -7.5735E-01  1.9283E-01
 99 4.7296E-01 6.9667E-01 2.4031E+02  1.00E+00   2.6027E+00  2.3771E+02  6.0015E-04  1.1281E-03 -8.3225E-01  1.9872E-01
100 4.9110E-01 2.3090E-01 2.4234E+02  1.00E+00   2.9361E+00  2.3940E+02  7.1563E-04  1.3090E-03 -8.7014E-01  2.0401E-01
101 5.0028E-01 0.0000E+00 2.4333E+02  1.00E+00   3.1035E+00  2.4023E+02  7.7904E-04  1.4061E-03  0.0000E+00  0.0000E+00

 FCO2
  9.50E-01 9.50E-01 9.50E-01 9.50E-01 9.50E-01 9.50E-01 9.50E-01 9.50E-01 9.50E-01 9.50E-01
  9.50E-01 9.50E-01 9.50E-01 9.50E-01 9.50E-01 9.50E-01 9.50E-01 9.50E-01 9.50E-01 9.50E-01
  9.50E-01 9.50E-01 9.50E-01 9.50E-01 9.50E-01 9.50E-01 9.50E-01 9.50E-01 9.50E-01 9.50E-01
  9.50E-01 9.50E-01 9.50E-01 9.50E-01 9.50E-01 9.50E-01 9.50E-01 9.50E-01 9.50E-01 9.50E-01
  9.50E-01 9.50E-01 9.50E-01 9.50E-01 9.50E-01 9.50E-01 9.50E-01 9.50E-01 9.50E-01 9.50E-01
  9.50E-01 9.50E-01 9.50E-01 9.50E-01 9.50E-01 9.50E-01 9.50E-01 9.50E-01 9.50E-01 9.50E-01
  9.50E-01 9.50E-01 9.50E-01 9.50E-01 9.50E-01 9.50E-01 9.50E-01 9.50E-01 9.50E-01 9.50E-01
  9.50E-01 9.50E-01 9.50E-01 9.50E-01 9.50E-01 9.50E-01 9.50E-01 9.50E-01 9.50E-01 9.50E-01
  9.50E-01 9.50E-01 9.50E-01 9.50E-01 9.50E-01 9.50E-01 9.50E-01 9.50E-01 9.50E-01 9.50E-01
  9.50E-01 9.50E-01 9.50E-01 9.50E-01 9.50E-01 9.50E-01 9.50E-01 9.50E-01 9.50E-01 9.50E-01
  9.50E-01

  J    PF         ALT       FTOTAL       FTIR       FDNIR       FUPIR       FTSOL       FDNSOL       FUPSOL       DIVF
  1 5.0000E-05 7.9619E+01  1.3526E+04 -1.0470E+05  0.0000E+00  1.0470E+05  1.1822E+05  1.6082E+05  4.2595E+04  1.2919E-01
  2 5.7927E-05 7.8203E+01  1.3525E+04 -1.0420E+05  4.0237E+02  1.0460E+05  1.1772E+05  1.6032E+05  4.2594E+04  1.2931E-01
  3 6.7035E-05 7.6835E+01  1.3528E+04 -1.0401E+05  4.9804E+02  1.0451E+05  1.1754E+05  1.6013E+05  4.2594E+04  1.2944E-01
  4 7.7490E-05 7.5516E+01  1.3534E+04 -1.0388E+05  5.4851E+02  1.0442E+05  1.1741E+05  1.6000E+05  4.2593E+04  1.2960E-01
  5 8.9475E-05 7.4243E+01  1.3547E+04 -1.0377E+05  5.7836E+02  1.0435E+05  1.1732E+05  1.5991E+05  4.2593E+04  1.2982E-01
  6 1.0320E-04 7.3015E+01  1.3560E+04 -1.0370E+05  5.9738E+02  1.0430E+05  1.1726E+05  1.5985E+05  4.2592E+04  1.3002E-01
  7 1.1890E-04 7.1827E+01  1.3583E+04 -1.0363E+05  6.1996E+02  1.0425E+05  1.1721E+05  1.5980E+05  4.2591E+04  1.3029E-01
  8 1.3683E-04 7.0673E+01  1.3605E+04 -1.0357E+05  6.4762E+02  1.0421E+05  1.1717E+05  1.5976E+05  4.2591E+04  1.3055E-01
  9 1.5729E-04 6.9544E+01  1.3620E+04 -1.0351E+05  6.7745E+02  1.0419E+05  1.1713E+05  1.5972E+05  4.2590E+04  1.3072E-01
 10 1.8061E-04 6.8436E+01  1.3625E+04 -1.0347E+05  7.0841E+02  1.0418E+05  1.1709E+05  1.5968E+05  4.2589E+04  1.3079E-01
 11 2.0716E-04 6.7342E+01  1.3625E+04 -1.0343E+05  7.4202E+02  1.0417E+05  1.1705E+05  1.5964E+05  4.2588E+04  1.3079E-01
 12 2.3735E-04 6.6260E+01  1.3623E+04 -1.0338E+05  7.8077E+02  1.0417E+05  1.1701E+05  1.5959E+05  4.2586E+04  1.3078E-01
 13 2.7163E-04 6.5189E+01  1.3623E+04 -1.0334E+05  8.2688E+02  1.0416E+05  1.1696E+05  1.5954E+05  4.2585E+04  1.3079E-01
 14 3.1053E-04 6.4128E+01  1.3625E+04 -1.0328E+05  8.8107E+02  1.0416E+05  1.1691E+05  1.5949E+05  4.2583E+04  1.3081E-01
 15 3.5459E-04 6.3077E+01  1.3629E+04 -1.0322E+05  9.4290E+02  1.0416E+05  1.1685E+05  1.5943E+05  4.2581E+04  1.3084E-01
 16 4.0446E-04 6.2035E+01  1.3632E+04 -1.0316E+05  1.0113E+03  1.0417E+05  1.1679E+05  1.5937E+05  4.2579E+04  1.3087E-01
 17 4.6082E-04 6.1001E+01  1.3634E+04 -1.0309E+05  1.0850E+03  1.0418E+05  1.1672E+05  1.5930E+05  4.2576E+04  1.3088E-01
 18 5.2446E-04 5.9976E+01  1.3633E+04 -1.0302E+05  1.1623E+03  1.0419E+05  1.1666E+05  1.5923E+05  4.2573E+04  1.3085E-01
 19 5.9623E-04 5.8958E+01  1.3628E+04 -1.0296E+05  1.2415E+03  1.0420E+05  1.1659E+05  1.5916E+05  4.2570E+04  1.3078E-01
 20 6.7706E-04 5.7947E+01  1.3618E+04 -1.0290E+05  1.3209E+03  1.0422E+05  1.1651E+05  1.5908E+05  4.2567E+04  1.3067E-01
 21 7.6800E-04 5.6942E+01  1.3605E+04 -1.0284E+05  1.3991E+03  1.0424E+05  1.1644E+05  1.5900E+05  4.2563E+04  1.3052E-01
 22 8.7018E-04 5.5945E+01  1.3589E+04 -1.0278E+05  1.4763E+03  1.0425E+05  1.1637E+05  1.5892E+05  4.2558E+04  1.3035E-01
 23 9.8486E-04 5.4953E+01  1.3573E+04 -1.0272E+05  1.5505E+03  1.0427E+05  1.1629E+05  1.5884E+05  4.2553E+04  1.3018E-01
 24 1.1134E-03 5.3969E+01  1.3563E+04 -1.0265E+05  1.6305E+03  1.0428E+05  1.1621E+05  1.5876E+05  4.2547E+04  1.3006E-01
 25 1.2574E-03 5.2992E+01  1.3560E+04 -1.0257E+05  1.7216E+03  1.0429E+05  1.1613E+05  1.5867E+05  4.2541E+04  1.3002E-01
 26 1.4183E-03 5.2024E+01  1.3563E+04 -1.0247E+05  1.8173E+03  1.0429E+05  1.1604E+05  1.5857E+05  4.2534E+04  1.3005E-01
 27 1.5981E-03 5.1064E+01  1.3576E+04 -1.0237E+05  1.9167E+03  1.0429E+05  1.1595E+05  1.5847E+05  4.2526E+04  1.3018E-01
 28 1.7987E-03 5.0114E+01  1.3598E+04 -1.0226E+05  2.0188E+03  1.0428E+05  1.1586E+05  1.5838E+05  4.2517E+04  1.3040E-01
 29 2.0222E-03 4.9173E+01  1.3625E+04 -1.0215E+05  2.1205E+03  1.0427E+05  1.1578E+05  1.5828E+05  4.2507E+04  1.3066E-01
 30 2.2710E-03 4.8242E+01  1.3649E+04 -1.0205E+05  2.2194E+03  1.0427E+05  1.1569E+05  1.5819E+05  4.2496E+04  1.3090E-01
 31 2.5475E-03 4.7321E+01  1.3665E+04 -1.0195E+05  2.3150E+03  1.0426E+05  1.1561E+05  1.5810E+05  4.2484E+04  1.3107E-01
 32 2.8545E-03 4.6409E+01  1.3672E+04 -1.0186E+05  2.4082E+03  1.0427E+05  1.1553E+05  1.5800E+05  4.2470E+04  1.3113E-01
 33 3.1950E-03 4.5506E+01  1.3667E+04 -1.0178E+05  2.4975E+03  1.0428E+05  1.1545E+05  1.5790E+05  4.2455E+04  1.3106E-01
 34 3.5721E-03 4.4612E+01  1.3661E+04 -1.0170E+05  2.5937E+03  1.0430E+05  1.1537E+05  1.5780E+05  4.2438E+04  1.3098E-01
 35 3.9893E-03 4.3726E+01  1.3653E+04 -1.0163E+05  2.6949E+03  1.0432E+05  1.1528E+05  1.5770E+05  4.2420E+04  1.3087E-01
 36 4.4503E-03 4.2847E+01  1.3646E+04 -1.0155E+05  2.8020E+03  1.0436E+05  1.1520E+05  1.5760E+05  4.2399E+04  1.3077E-01
 37 4.9590E-03 4.1976E+01  1.3643E+04 -1.0147E+05  2.9146E+03  1.0439E+05  1.1512E+05  1.5749E+05  4.2377E+04  1.3069E-01
 38 5.5197E-03 4.1113E+01  1.3643E+04 -1.0139E+05  3.0321E+03  1.0442E+05  1.1503E+05  1.5739E+05  4.2352E+04  1.3065E-01
 39 6.1369E-03 4.0257E+01  1.3650E+04 -1.0130E+05  3.1592E+03  1.0446E+05  1.1495E+05  1.5728E+05  4.2325E+04  1.3067E-01
 40 6.8156E-03 3.9408E+01  1.3658E+04 -1.0121E+05  3.2898E+03  1.0450E+05  1.1487E+05  1.5716E+05  4.2295E+04  1.3070E-01
 41 7.5610E-03 3.8568E+01  1.3665E+04 -1.0112E+05  3.4231E+03  1.0454E+05  1.1478E+05  1.5704E+05  4.2262E+04  1.3072E-01
 42 8.3786E-03 3.7734E+01  1.3669E+04 -1.0102E+05  3.5586E+03  1.0458E+05  1.1469E+05  1.5692E+05  4.2226E+04  1.3071E-01
 43 9.2742E-03 3.6909E+01  1.3673E+04 -1.0093E+05  3.7013E+03  1.0463E+05  1.1460E+05  1.5679E+05  4.2187E+04  1.3069E-01
 44 1.0254E-02 3.6091E+01  1.3671E+04 -1.0083E+05  3.8455E+03  1.0468E+05  1.1450E+05  1.5664E+05  4.2144E+04  1.3060E-01
 45 1.1325E-02 3.5280E+01  1.3664E+04 -1.0072E+05  4.0062E+03  1.0473E+05  1.1439E+05  1.5649E+05  4.2097E+04  1.3047E-01
 46 1.2494E-02 3.4477E+01  1.3653E+04 -1.0061E+05  4.1882E+03  1.0479E+05  1.1426E+05  1.5630E+05  4.2045E+04  1.3029E-01
 47 1.3768E-02 3.3681E+01  1.3626E+04 -1.0048E+05  4.3788E+03  1.0486E+05  1.1411E+05  1.5610E+05  4.1990E+04  1.2994E-01
 48 1.5156E-02 3.2892E+01  1.3579E+04 -1.0037E+05  4.5758E+03  1.0494E+05  1.1394E+05  1.5587E+05  4.1929E+04  1.2940E-01
 49 1.6664E-02 3.2111E+01  1.3524E+04 -1.0024E+05  4.8004E+03  1.0504E+05  1.1376E+05  1.5563E+05  4.1863E+04  1.2876E-01
 50 1.8302E-02 3.1336E+01  1.3456E+04 -1.0011E+05  5.0259E+03  1.0514E+05  1.1357E+05  1.5536E+05  4.1792E+04  1.2799E-01
 51 2.0079E-02 3.0569E+01  1.3386E+04 -9.9975E+04  5.2959E+03  1.0527E+05  1.1336E+05  1.5508E+05  4.1715E+04  1.2715E-01
 52 2.2005E-02 2.9808E+01  1.3313E+04 -9.9834E+04  5.5773E+03  1.0541E+05  1.1315E+05  1.5478E+05  4.1632E+04  1.2630E-01
 53 2.4087E-02 2.9052E+01  1.3247E+04 -9.9685E+04  5.9001E+03  1.0558E+05  1.1293E+05  1.5447E+05  4.1542E+04  1.2546E-01
 54 2.6338E-02 2.8303E+01  1.3190E+04 -9.9526E+04  6.2405E+03  1.0577E+05  1.1272E+05  1.5416E+05  4.1445E+04  1.2471E-01
 55 2.8767E-02 2.7560E+01  1.3134E+04 -9.9371E+04  6.5846E+03  1.0596E+05  1.1251E+05  1.5385E+05  4.1340E+04  1.2396E-01
 56 3.1385E-02 2.6822E+01  1.3086E+04 -9.9216E+04  6.9379E+03  1.0615E+05  1.1230E+05  1.5353E+05  4.1228E+04  1.2327E-01
 57 3.4204E-02 2.6091E+01  1.3042E+04 -9.9065E+04  7.3027E+03  1.0637E+05  1.1211E+05  1.5322E+05  4.1108E+04  1.2262E-01
 58 3.7234E-02 2.5366E+01  1.3005E+04 -9.8919E+04  7.6773E+03  1.0660E+05  1.1192E+05  1.5290E+05  4.0979E+04  1.2200E-01
 59 4.0487E-02 2.4647E+01  1.2975E+04 -9.8776E+04  8.0759E+03  1.0685E+05  1.1175E+05  1.5259E+05  4.0841E+04  1.2143E-01
 60 4.3976E-02 2.3934E+01  1.2959E+04 -9.8629E+04  8.4980E+03  1.0713E+05  1.1159E+05  1.5228E+05  4.0693E+04  1.2097E-01
 61 4.7712E-02 2.3227E+01  1.2961E+04 -9.8472E+04  8.9493E+03  1.0742E+05  1.1143E+05  1.5197E+05  4.0535E+04  1.2065E-01
 62 5.1708E-02 2.2525E+01  1.2983E+04 -9.8300E+04  9.4447E+03  1.0774E+05  1.1128E+05  1.5165E+05  4.0367E+04  1.2050E-01
 63 5.5977E-02 2.1830E+01  1.3024E+04 -9.8113E+04  9.9618E+03  1.0807E+05  1.1114E+05  1.5133E+05  4.0189E+04  1.2051E-01
 64 6.0531E-02 2.1140E+01  1.3085E+04 -9.7907E+04  1.0534E+04  1.0844E+05  1.1099E+05  1.5099E+05  3.9999E+04  1.2067E-01
 65 6.5382E-02 2.0457E+01  1.3163E+04 -9.7685E+04  1.1115E+04  1.0880E+05  1.1085E+05  1.5065E+05  3.9797E+04  1.2098E-01
 66 7.0544E-02 1.9780E+01  1.3256E+04 -9.7446E+04  1.1765E+04  1.0921E+05  1.1070E+05  1.5029E+05  3.9584E+04  1.2138E-01
 67 7.6028E-02 1.9109E+01  1.3364E+04 -9.7189E+04  1.2419E+04  1.0961E+05  1.1055E+05  1.4991E+05  3.9358E+04  1.2192E-01
 68 8.1848E-02 1.8444E+01  1.3484E+04 -9.6916E+04  1.3152E+04  1.1007E+05  1.1040E+05  1.4952E+05  3.9119E+04  1.2251E-01
 69 8.8016E-02 1.7786E+01  1.3620E+04 -9.6624E+04  1.3893E+04  1.1052E+05  1.1024E+05  1.4911E+05  3.8867E+04  1.2323E-01
 70 9.4543E-02 1.7135E+01  1.3767E+04 -9.6317E+04  1.4720E+04  1.1104E+05  1.1008E+05  1.4869E+05  3.8602E+04  1.2398E-01
 71 1.0144E-01 1.6490E+01  1.3933E+04 -9.5987E+04  1.5567E+04  1.1155E+05  1.0992E+05  1.4824E+05  3.8322E+04  1.2490E-01
 72 1.0872E-01 1.5851E+01  1.4111E+04 -9.5632E+04  1.6515E+04  1.1215E+05  1.0974E+05  1.4777E+05  3.8029E+04  1.2583E-01
 73 1.1640E-01 1.5219E+01  1.4309E+04 -9.5241E+04  1.7531E+04  1.1277E+05  1.0955E+05  1.4727E+05  3.7722E+04  1.2688E-01
 74 1.2447E-01 1.4594E+01  1.4521E+04 -9.4821E+04  1.8655E+04  1.1348E+05  1.0934E+05  1.4674E+05  3.7399E+04  1.2797E-01
 75 1.3296E-01 1.3976E+01  1.4752E+04 -9.4369E+04  1.9878E+04  1.1425E+05  1.0912E+05  1.4618E+05  3.7062E+04  1.2912E-01
 76 1.4187E-01 1.3364E+01  1.4990E+04 -9.3898E+04  2.1210E+04  1.1511E+05  1.0889E+05  1.4560E+05  3.6711E+04  1.3022E-01
 77 1.5121E-01 1.2758E+01  1.5253E+04 -9.3391E+04  2.2776E+04  1.1617E+05  1.0864E+05  1.4499E+05  3.6344E+04  1.3131E-01
 78 1.6099E-01 1.2159E+01  1.5513E+04 -9.2877E+04  2.4402E+04  1.1728E+05  1.0839E+05  1.4435E+05  3.5962E+04  1.3227E-01
 79 1.7120E-01 1.1565E+01  1.5841E+04 -9.2287E+04  2.6716E+04  1.1900E+05  1.0813E+05  1.4369E+05  3.5564E+04  1.3311E-01
 80 1.8187E-01 1.0972E+01  1.6498E+04 -9.1357E+04  2.9497E+04  1.2085E+05  1.0785E+05  1.4301E+05  3.5152E+04  1.3651E-01
 81 1.9298E-01 1.0383E+01  1.7494E+04 -9.0074E+04  3.2764E+04  1.2284E+05  1.0757E+05  1.4229E+05  3.4724E+04  1.4242E-01
 82 2.0454E-01 9.7974E+00  1.8826E+04 -8.8439E+04  3.6498E+04  1.2494E+05  1.0727E+05  1.4155E+05  3.4281E+04  1.5068E-01
 83 2.1656E-01 9.2152E+00  2.0518E+04 -8.6424E+04  4.0734E+04  1.2716E+05  1.0694E+05  1.4077E+05  3.3823E+04  1.6136E-01
 84 2.2902E-01 8.6371E+00  2.2568E+04 -8.4029E+04  4.5571E+04  1.2960E+05  1.0660E+05  1.3995E+05  3.3350E+04  1.7414E-01
 85 2.4194E-01 8.0634E+00  2.4851E+04 -8.1374E+04  5.0861E+04  1.3224E+05  1.0623E+05  1.3909E+05  3.2863E+04  1.8793E-01
 86 2.5530E-01 7.4947E+00  2.7349E+04 -7.8475E+04  5.6637E+04  1.3511E+05  1.0582E+05  1.3819E+05  3.2362E+04  2.0241E-01
 87 2.6909E-01 6.9311E+00  2.9986E+04 -7.5398E+04  6.2764E+04  1.3816E+05  1.0538E+05  1.3723E+05  3.1848E+04  2.1704E-01
 88 2.8332E-01 6.3732E+00  3.2805E+04 -7.2094E+04  6.9329E+04  1.4142E+05  1.0490E+05  1.3622E+05  3.1320E+04  2.3197E-01
 89 2.9797E-01 5.8214E+00  3.5709E+04 -6.8657E+04  7.6177E+04  1.4483E+05  1.0437E+05  1.3515E+05  3.0780E+04  2.4655E-01
 90 3.1303E-01 5.2759E+00  3.8687E+04 -6.5099E+04  8.3324E+04  1.4842E+05  1.0379E+05  1.3402E+05  3.0229E+04  2.6066E-01
 91 3.2848E-01 4.7372E+00  4.1612E+04 -6.1561E+04  9.0574E+04  1.5214E+05  1.0317E+05  1.3284E+05  2.9668E+04  2.7352E-01
 92 3.4431E-01 4.2053E+00  4.4443E+04 -5.8092E+04  9.7856E+04  1.5595E+05  1.0254E+05  1.3163E+05  2.9097E+04  2.8499E-01
 93 3.6051E-01 3.6802E+00  4.7176E+04 -5.4709E+04  1.0513E+05  1.5984E+05  1.0188E+05  1.3040E+05  2.8519E+04  2.9516E-01
 94 3.7704E-01 3.1624E+00  4.9855E+04 -5.1365E+04  1.1244E+05  1.6381E+05  1.0122E+05  1.2916E+05  2.7935E+04  3.0435E-01
 95 3.9390E-01 2.6523E+00  5.2437E+04 -4.8097E+04  1.1971E+05  1.6780E+05  1.0053E+05  1.2788E+05  2.7347E+04  3.1249E-01
 96 4.1105E-01 2.1503E+00  5.4951E+04 -4.4864E+04  1.2693E+05  1.7180E+05  9.9815E+04  1.2657E+05  2.6757E+04  3.1986E-01
 97 4.2848E-01 1.6568E+00  5.7422E+04 -4.1635E+04  1.3411E+05  1.7575E+05  9.9057E+04  1.2522E+05  2.6168E+04  3.2672E-01
 98 4.4614E-01 1.1721E+00  5.9874E+04 -3.8382E+04  1.4123E+05  1.7961E+05  9.8256E+04  1.2384E+05  2.5584E+04  3.3335E-01
 99 4.6402E-01 6.9667E-01  6.2339E+04 -3.5075E+04  1.4820E+05  1.8327E+05  9.7414E+04  1.2242E+05  2.5008E+04  3.4015E-01
100 4.8208E-01 2.3090E-01  6.5139E+04 -3.1396E+04  1.5505E+05  1.8644E+05  9.6535E+04  1.2098E+05  2.4446E+04  3.4938E-01
101 5.0028E-01 0.0000E+00  6.8115E+04 -2.7509E+04  1.6035E+05  1.8786E+05  9.5624E+04  1.1953E+05  2.3906E+04  3.6258E-01
 
 NST=     2 JCONV= 86 CHG=7.96E-03 dt0=3.75E+03 DIVF(1)= 6.97E-02 DIVFrms= 7.07E-02 DT(ND)= 1.69E+00 T(ND)=2.4503E+02
 NST=     3 JCONV= 82 CHG=6.72E-03 dt0=5.62E+03 DIVF(1)= 5.56E-02 DIVFrms= 5.51E-02 DT(ND)= 1.36E+00 T(ND)=2.4639E+02
 NST=     4 JCONV= 79 CHG=5.56E-03 dt0=8.44E+03 DIVF(1)= 4.44E-02 DIVFrms= 4.38E-02 DT(ND)= 1.09E+00 T(ND)=2.4748E+02
 NST=     5 JCONV= 79 CHG=4.68E-03 dt0=1.00E+04 DIVF(1)= 3.64E-02 DIVFrms= 3.58E-02 DT(ND)= 9.01E-01 T(ND)=2.4838E+02
 NST=     6 JCONV= 78 CHG=4.01E-03 dt0=1.00E+04 DIVF(1)= 2.94E-02 DIVFrms= 2.87E-02 DT(ND)= 7.31E-01 T(ND)=2.4912E+02
 NST=     7 JCONV= 78 CHG=3.69E-03 dt0=1.00E+04 DIVF(1)= 2.36E-02 DIVFrms= 2.28E-02 DT(ND)= 5.87E-01 T(ND)=2.4970E+02
 NST=     8 JCONV= 78 CHG=3.42E-03 dt0=1.00E+04 DIVF(1)= 1.94E-02 DIVFrms= 1.87E-02 DT(ND)= 4.85E-01 T(ND)=2.5019E+02
 NST=     9 JCONV= 77 CHG=3.20E-03 dt0=1.00E+04 DIVF(1)= 1.54E-02 DIVFrms= 1.47E-02 DT(ND)= 3.86E-01 T(ND)=2.5057E+02
 NST=    10 JCONV= 77 CHG=3.06E-03 dt0=1.00E+04 DIVF(1)= 1.31E-02 DIVFrms= 1.23E-02 DT(ND)= 3.27E-01 T(ND)=2.5090E+02
 NST=    11 JCONV= 77 CHG=2.87E-03 dt0=1.00E+04 DIVF(1)= 1.03E-02 DIVFrms= 9.64E-03 DT(ND)= 2.59E-01 T(ND)=2.5116E+02
 NST=    12 JCONV= 77 CHG=2.77E-03 dt0=1.00E+04 DIVF(1)= 8.07E-03 DIVFrms= 7.43E-03 DT(ND)= 2.03E-01 T(ND)=2.5136E+02
 NST=    13 JCONV= 77 CHG=2.70E-03 dt0=1.00E+04 DIVF(1)= 7.27E-03 DIVFrms= 6.67E-03 DT(ND)= 1.83E-01 T(ND)=2.5155E+02
 NST=    14 JCONV= 77 CHG=2.64E-03 dt0=1.00E+04 DIVF(1)= 5.95E-03 DIVFrms= 5.43E-03 DT(ND)= 1.50E-01 T(ND)=2.5170E+02
 NST=    15 JCONV= 77 CHG=2.59E-03 dt0=1.00E+04 DIVF(1)= 4.61E-03 DIVFrms= 4.24E-03 DT(ND)= 1.16E-01 T(ND)=2.5181E+02
 NST=    16 JCONV= 77 CHG=2.54E-03 dt0=1.00E+04 DIVF(1)= 3.58E-03 DIVFrms= 3.41E-03 DT(ND)= 9.02E-02 T(ND)=2.5190E+02
 NST=    17 JCONV= 77 CHG=2.51E-03 dt0=1.00E+04 DIVF(1)= 2.72E-03 DIVFrms= 2.82E-03 DT(ND)= 6.86E-02 T(ND)=2.5197E+02
 NST=    18 JCONV= 77 CHG=2.48E-03 dt0=1.00E+04 DIVF(1)= 2.30E-03 DIVFrms= 2.59E-03 DT(ND)= 5.81E-02 T(ND)=2.5203E+02
 NST=    19 JCONV= 77 CHG=2.46E-03 dt0=1.00E+04 DIVF(1)= 1.73E-03 DIVFrms= 2.37E-03 DT(ND)= 4.35E-02 T(ND)=2.5207E+02
 NST=    20 JCONV= 77 CHG=2.44E-03 dt0=1.00E+04 DIVF(1)= 1.32E-03 DIVFrms= 2.28E-03 DT(ND)= 3.33E-02 T(ND)=2.5210E+02
 NST=    21 JCONV= 77 CHG=2.42E-03 dt0=1.00E+04 DIVF(1)= 1.49E-03 DIVFrms= 2.30E-03 DT(ND)= 3.75E-02 T(ND)=2.5214E+02
 NST=    22 JCONV= 77 CHG=2.41E-03 dt0=1.00E+04 DIVF(1)= 1.37E-03 DIVFrms= 2.28E-03 DT(ND)= 3.46E-02 T(ND)=2.5218E+02
 NST=    23 JCONV= 77 CHG=2.40E-03 dt0=1.00E+04 DIVF(1)= 1.18E-03 DIVFrms= 2.26E-03 DT(ND)= 2.97E-02 T(ND)=2.5221E+02
 NST=    24 JCONV= 77 CHG=2.39E-03 dt0=1.00E+04 DIVF(1)= 1.06E-03 DIVFrms= 2.25E-03 DT(ND)= 2.68E-02 T(ND)=2.5223E+02
 NST=    25 JCONV= 77 CHG=2.38E-03 dt0=1.00E+04 DIVF(1)= 8.03E-04 DIVFrms= 2.26E-03 DT(ND)= 2.03E-02 T(ND)=2.5225E+02
 NST=    26 JCONV= 77 CHG=2.38E-03 dt0=1.00E+04 DIVF(1)= 6.89E-04 DIVFrms= 2.27E-03 DT(ND)= 1.74E-02 T(ND)=2.5227E+02
 NST=    27 JCONV= 77 CHG=2.37E-03 dt0=1.00E+04 DIVF(1)= 5.11E-04 DIVFrms= 2.30E-03 DT(ND)= 1.29E-02 T(ND)=2.5228E+02
 NST=    28 JCONV= 77 CHG=2.36E-03 dt0=1.00E+04 DIVF(1)= 3.79E-04 DIVFrms= 2.34E-03 DT(ND)= 9.57E-03 T(ND)=2.5229E+02
 NST=    29 JCONV= 77 CHG=2.37E-03 dt0=1.00E+04 DIVF(1)= 4.44E-04 DIVFrms= 2.31E-03 DT(ND)= 1.12E-02 T(ND)=2.5230E+02
 NST=    30 JCONV= 77 CHG=2.37E-03 dt0=1.00E+04 DIVF(1)= 3.26E-04 DIVFrms= 2.34E-03 DT(ND)= 8.23E-03 T(ND)=2.5231E+02
 NST=    31 JCONV= 77 CHG=2.36E-03 dt0=1.00E+04 DIVF(1)= 2.38E-04 DIVFrms= 2.37E-03 DT(ND)= 5.99E-03 T(ND)=2.5232E+02
 NST=    32 JCONV= 77 CHG=2.36E-03 dt0=1.00E+04 DIVF(1)= 1.72E-04 DIVFrms= 2.39E-03 DT(ND)= 4.33E-03 T(ND)=2.5232E+02
 NST=    33 JCONV= 77 CHG=2.36E-03 dt0=1.00E+04 DIVF(1)= 1.21E-04 DIVFrms= 2.40E-03 DT(ND)= 3.06E-03 T(ND)=2.5233E+02
 NST=    34 JCONV= 77 CHG=2.36E-03 dt0=1.00E+04 DIVF(1)= 8.46E-05 DIVFrms= 2.41E-03 DT(ND)= 2.13E-03 T(ND)=2.5233E+02
 NST=    35 JCONV= 77 CHG=2.36E-03 dt0=1.00E+04 DIVF(1)= 5.62E-05 DIVFrms= 2.41E-03 DT(ND)= 1.42E-03 T(ND)=2.5233E+02
 NST=    36 JCONV= 77 CHG=2.36E-03 dt0=1.00E+04 DIVF(1)= 4.74E-05 DIVFrms= 2.41E-03 DT(ND)= 1.20E-03 T(ND)=2.5233E+02
 NST=    37 JCONV= 77 CHG=2.35E-03 dt0=1.00E+04 DIVF(1)= 3.63E-05 DIVFrms= 2.41E-03 DT(ND)= 9.15E-04 T(ND)=2.5233E+02
 NST=    38 JCONV= 77 CHG=2.35E-03 dt0=1.00E+04 DIVF(1)= 2.95E-05 DIVFrms= 2.41E-03 DT(ND)= 7.45E-04 T(ND)=2.5233E+02
 NST=    39 JCONV= 77 CHG=2.35E-03 dt0=1.00E+04 DIVF(1)= 1.58E-05 DIVFrms= 2.41E-03 DT(ND)= 3.99E-04 T(ND)=2.5233E+02
 NST=    40 JCONV= 77 CHG=2.35E-03 dt0=1.00E+04 DIVF(1)= 4.99E-06 DIVFrms= 2.41E-03 DT(ND)= 1.26E-04 T(ND)=2.5233E+02
 NST=    41 JCONV= 77 CHG=2.35E-03 dt0=1.00E+04 DIVF(1)= 6.87E-06 DIVFrms= 2.41E-03 DT(ND)= 1.73E-04 T(ND)=2.5233E+02
 NST=    42 JCONV= 77 CHG=2.35E-03 dt0=1.00E+04 DIVF(1)=-1.18E-06 DIVFrms= 2.40E-03 DT(ND)=-2.97E-05 T(ND)=2.5233E+02
 NST=    43 JCONV= 77 CHG=2.35E-03 dt0=1.00E+04 DIVF(1)=-2.69E-06 DIVFrms= 2.40E-03 DT(ND)=-6.78E-05 T(ND)=2.5233E+02
 NST=    44 JCONV= 77 CHG=2.35E-03 dt0=1.00E+04 DIVF(1)=-2.55E-06 DIVFrms= 2.40E-03 DT(ND)=-6.43E-05 T(ND)=2.5233E+02
 NST=    45 JCONV= 77 CHG=2.35E-03 dt0=1.00E+04 DIVF(1)=-2.97E-06 DIVFrms= 2.40E-03 DT(ND)=-7.51E-05 T(ND)=2.5233E+02
 NST=    46 JCONV= 77 CHG=2.35E-03 dt0=1.00E+04 DIVF(1)=-2.80E-06 DIVFrms= 2.40E-03 DT(ND)=-7.06E-05 T(ND)=2.5233E+02
 NST=    47 JCONV= 77 CHG=2.33E-03 dt0=1.00E+04 DIVF(1)=-2.55E-06 DIVFrms= 2.40E-03 DT(ND)=-6.44E-05 T(ND)=2.5233E+02
 NST=    48 JCONV= 77 CHG=2.35E-03 dt0=1.00E+04 DIVF(1)=-3.48E-06 DIVFrms= 2.40E-03 DT(ND)=-8.78E-05 T(ND)=2.5233E+02
 NST=    49 JCONV= 77 CHG=2.35E-03 dt0=1.00E+04 DIVF(1)=-4.59E-06 DIVFrms= 2.40E-03 DT(ND)=-1.16E-04 T(ND)=2.5233E+02
 NST=    50 JCONV= 77 CHG=2.35E-03 dt0=1.00E+04 DIVF(1)=-4.35E-06 DIVFrms= 2.40E-03 DT(ND)=-1.10E-04 T(ND)=2.5233E+02
 NST=    51 JCONV= 77 CHG=2.33E-03 dt0=1.00E+04 DIVF(1)=-3.27E-06 DIVFrms= 2.40E-03 DT(ND)=-8.26E-05 T(ND)=2.5233E+02
 NST=    52 JCONV= 77 CHG=2.35E-03 dt0=1.00E+04 DIVF(1)=-4.39E-06 DIVFrms= 2.40E-03 DT(ND)=-1.11E-04 T(ND)=2.5233E+02
 NST=    53 JCONV= 77 CHG=2.35E-03 dt0=1.00E+04 DIVF(1)=-4.79E-06 DIVFrms= 2.40E-03 DT(ND)=-1.21E-04 T(ND)=2.5233E+02
 NST=    54 JCONV= 77 CHG=2.35E-03 dt0=1.00E+04 DIVF(1)=-4.79E-06 DIVFrms= 2.40E-03 DT(ND)=-1.21E-04 T(ND)=2.5233E+02
 NST=    55 JCONV= 77 CHG=2.34E-03 dt0=1.00E+04 DIVF(1)=-3.61E-06 DIVFrms= 2.40E-03 DT(ND)=-9.11E-05 T(ND)=2.5233E+02
 NST=    56 JCONV= 77 CHG=2.35E-03 dt0=1.00E+04 DIVF(1)=-4.63E-06 DIVFrms= 2.40E-03 DT(ND)=-1.17E-04 T(ND)=2.5233E+02
 NST=    57 JCONV= 77 CHG=2.35E-03 dt0=1.00E+04 DIVF(1)=-4.58E-06 DIVFrms= 2.40E-03 DT(ND)=-1.15E-04 T(ND)=2.5233E+02
 NST=    58 JCONV= 77 CHG=2.35E-03 dt0=1.00E+04 DIVF(1)=-4.97E-06 DIVFrms= 2.39E-03 DT(ND)=-1.25E-04 T(ND)=2.5233E+02
 NST=    59 JCONV= 77 CHG=2.33E-03 dt0=1.00E+04 DIVF(1)=-3.81E-06 DIVFrms= 2.39E-03 DT(ND)=-9.61E-05 T(ND)=2.5233E+02
 NST=    60 JCONV= 77 CHG=2.35E-03 dt0=1.00E+04 DIVF(1)=-5.04E-06 DIVFrms= 2.39E-03 DT(ND)=-1.27E-04 T(ND)=2.5233E+02
 NST=    61 JCONV= 77 CHG=2.35E-03 dt0=1.00E+04 DIVF(1)=-5.80E-06 DIVFrms= 2.39E-03 DT(ND)=-1.46E-04 T(ND)=2.5233E+02
 NST=    62 JCONV= 77 CHG=2.35E-03 dt0=1.00E+04 DIVF(1)=-4.91E-06 DIVFrms= 2.39E-03 DT(ND)=-1.24E-04 T(ND)=2.5233E+02
 NST=    63 JCONV= 77 CHG=2.33E-03 dt0=1.00E+04 DIVF(1)=-4.56E-06 DIVFrms= 2.39E-03 DT(ND)=-1.15E-04 T(ND)=2.5233E+02
 NST=    64 JCONV= 77 CHG=2.35E-03 dt0=1.00E+04 DIVF(1)=-4.72E-06 DIVFrms= 2.39E-03 DT(ND)=-1.19E-04 T(ND)=2.5233E+02
 NST=    65 JCONV= 77 CHG=2.35E-03 dt0=1.00E+04 DIVF(1)=-4.98E-06 DIVFrms= 2.39E-03 DT(ND)=-1.26E-04 T(ND)=2.5233E+02
 NST=    66 JCONV= 77 CHG=2.35E-03 dt0=1.00E+04 DIVF(1)=-5.92E-06 DIVFrms= 2.39E-03 DT(ND)=-1.49E-04 T(ND)=2.5233E+02
 NST=    67 JCONV= 77 CHG=2.33E-03 dt0=1.00E+04 DIVF(1)=-4.85E-06 DIVFrms= 2.39E-03 DT(ND)=-1.22E-04 T(ND)=2.5233E+02
 NST=    68 JCONV= 77 CHG=2.35E-03 dt0=1.00E+04 DIVF(1)=-6.77E-06 DIVFrms= 2.39E-03 DT(ND)=-1.71E-04 T(ND)=2.5233E+02
 NST=    69 JCONV= 77 CHG=2.35E-03 dt0=1.00E+04 DIVF(1)=-5.27E-06 DIVFrms= 2.39E-03 DT(ND)=-1.33E-04 T(ND)=2.5233E+02
 NST=    70 JCONV= 77 CHG=2.35E-03 dt0=1.00E+04 DIVF(1)=-4.69E-06 DIVFrms= 2.39E-03 DT(ND)=-1.18E-04 T(ND)=2.5233E+02
 NST=    71 JCONV= 77 CHG=2.33E-03 dt0=1.00E+04 DIVF(1)=-4.27E-06 DIVFrms= 2.39E-03 DT(ND)=-1.08E-04 T(ND)=2.5233E+02
 NST=    72 JCONV= 77 CHG=2.35E-03 dt0=1.00E+04 DIVF(1)=-6.64E-06 DIVFrms= 2.38E-03 DT(ND)=-1.68E-04 T(ND)=2.5233E+02
 NST=    73 JCONV= 77 CHG=2.35E-03 dt0=1.00E+04 DIVF(1)=-5.70E-06 DIVFrms= 2.38E-03 DT(ND)=-1.44E-04 T(ND)=2.5233E+02
 NST=    74 JCONV= 77 CHG=2.34E-03 dt0=1.00E+04 DIVF(1)=-5.03E-06 DIVFrms= 2.38E-03 DT(ND)=-1.27E-04 T(ND)=2.5233E+02
 NST=    75 JCONV= 77 CHG=2.35E-03 dt0=1.00E+04 DIVF(1)=-5.29E-06 DIVFrms= 2.38E-03 DT(ND)=-1.33E-04 T(ND)=2.5233E+02
 NST=    76 JCONV= 77 CHG=2.35E-03 dt0=1.00E+04 DIVF(1)=-5.45E-06 DIVFrms= 2.38E-03 DT(ND)=-1.37E-04 T(ND)=2.5233E+02
 NST=    77 JCONV= 77 CHG=2.34E-03 dt0=1.00E+04 DIVF(1)=-4.69E-06 DIVFrms= 2.38E-03 DT(ND)=-1.18E-04 T(ND)=2.5233E+02
 NST=    78 JCONV= 77 CHG=2.35E-03 dt0=1.00E+04 DIVF(1)=-5.67E-06 DIVFrms= 2.38E-03 DT(ND)=-1.43E-04 T(ND)=2.5233E+02
 NST=    79 JCONV= 77 CHG=2.35E-03 dt0=1.00E+04 DIVF(1)=-5.69E-06 DIVFrms= 2.38E-03 DT(ND)=-1.44E-04 T(ND)=2.5233E+02
 NST=    80 JCONV= 77 CHG=2.35E-03 dt0=1.00E+04 DIVF(1)=-5.53E-06 DIVFrms= 2.38E-03 DT(ND)=-1.39E-04 T(ND)=2.5233E+02
 NST=    81 JCONV= 77 CHG=2.34E-03 dt0=1.00E+04 DIVF(1)= 8.02E-07 DIVFrms= 2.38E-03 DT(ND)= 2.02E-05 T(ND)=2.5233E+02
 NST=    82 JCONV= 77 CHG=2.35E-03 dt0=1.00E+04 DIVF(1)=-5.56E-06 DIVFrms= 2.37E-03 DT(ND)=-1.40E-04 T(ND)=2.5233E+02
 NST=    83 JCONV= 77 CHG=2.35E-03 dt0=1.00E+04 DIVF(1)=-4.95E-06 DIVFrms= 2.37E-03 DT(ND)=-1.25E-04 T(ND)=2.5233E+02
 NST=    84 JCONV= 77 CHG=2.35E-03 dt0=1.00E+04 DIVF(1)=-5.37E-06 DIVFrms= 2.37E-03 DT(ND)=-1.36E-04 T(ND)=2.5233E+02
 NST=    85 JCONV= 77 CHG=2.33E-03 dt0=1.00E+04 DIVF(1)=-4.14E-06 DIVFrms= 2.37E-03 DT(ND)=-1.04E-04 T(ND)=2.5233E+02
 NST=    86 JCONV= 77 CHG=2.35E-03 dt0=1.00E+04 DIVF(1)=-4.62E-06 DIVFrms= 2.37E-03 DT(ND)=-1.17E-04 T(ND)=2.5233E+02
 NST=    87 JCONV= 77 CHG=2.35E-03 dt0=1.00E+04 DIVF(1)=-4.98E-06 DIVFrms= 2.37E-03 DT(ND)=-1.26E-04 T(ND)=2.5233E+02
 NST=    88 JCONV= 77 CHG=2.35E-03 dt0=1.00E+04 DIVF(1)=-5.80E-06 DIVFrms= 2.37E-03 DT(ND)=-1.46E-04 T(ND)=2.5233E+02
 NST=    89 JCONV= 77 CHG=2.33E-03 dt0=1.00E+04 DIVF(1)=-4.26E-06 DIVFrms= 2.37E-03 DT(ND)=-1.07E-04 T(ND)=2.5233E+02
 NST=    90 JCONV= 77 CHG=2.35E-03 dt0=1.00E+04 DIVF(1)=-5.69E-06 DIVFrms= 2.37E-03 DT(ND)=-1.44E-04 T(ND)=2.5233E+02
 NST=    91 JCONV= 77 CHG=2.35E-03 dt0=1.00E+04 DIVF(1)=-5.57E-06 DIVFrms= 2.37E-03 DT(ND)=-1.40E-04 T(ND)=2.5233E+02
 NST=    92 JCONV= 77 CHG=2.35E-03 dt0=1.00E+04 DIVF(1)=-5.42E-06 DIVFrms= 2.37E-03 DT(ND)=-1.37E-04 T(ND)=2.5233E+02
 NST=    93 JCONV= 77 CHG=2.33E-03 dt0=1.00E+04 DIVF(1)=-5.36E-06 DIVFrms= 2.37E-03 DT(ND)=-1.35E-04 T(ND)=2.5233E+02
 NST=    94 JCONV= 77 CHG=2.35E-03 dt0=1.00E+04 DIVF(1)=-5.33E-06 DIVFrms= 2.37E-03 DT(ND)=-1.34E-04 T(ND)=2.5233E+02
 NST=    95 JCONV= 77 CHG=2.35E-03 dt0=1.00E+04 DIVF(1)=-6.42E-06 DIVFrms= 2.36E-03 DT(ND)=-1.62E-04 T(ND)=2.5233E+02
 NST=    96 JCONV= 77 CHG=2.35E-03 dt0=1.00E+04 DIVF(1)=-1.69E-06 DIVFrms= 2.36E-03 DT(ND)=-4.25E-05 T(ND)=2.5233E+02
 NST=    97 JCONV= 77 CHG=2.34E-03 dt0=1.00E+04 DIVF(1)=-1.33E-06 DIVFrms= 2.36E-03 DT(ND)=-3.36E-05 T(ND)=2.5233E+02
 NST=    98 JCONV= 77 CHG=2.35E-03 dt0=1.00E+04 DIVF(1)=-4.44E-06 DIVFrms= 2.36E-03 DT(ND)=-1.12E-04 T(ND)=2.5233E+02
 NST=    99 JCONV= 77 CHG=2.35E-03 dt0=1.00E+04 DIVF(1)=-4.60E-06 DIVFrms= 2.36E-03 DT(ND)=-1.16E-04 T(ND)=2.5233E+02
 NST=   100 JCONV= 77 CHG=2.35E-03 dt0=1.00E+04 DIVF(1)=-7.08E-06 DIVFrms= 2.36E-03 DT(ND)=-1.79E-04 T(ND)=2.5233E+02
 NST=   101 JCONV= 77 CHG=2.33E-03 dt0=1.00E+04 DIVF(1)=-5.29E-06 DIVFrms= 2.36E-03 DT(ND)=-1.33E-04 T(ND)=2.5233E+02
 NST=   102 JCONV= 77 CHG=2.35E-03 dt0=1.00E+04 DIVF(1)=-6.41E-06 DIVFrms= 2.36E-03 DT(ND)=-1.62E-04 T(ND)=2.5233E+02
 NST=   103 JCONV= 77 CHG=2.35E-03 dt0=1.00E+04 DIVF(1)=-7.19E-06 DIVFrms= 2.36E-03 DT(ND)=-1.81E-04 T(ND)=2.5233E+02
 NST=   104 JCONV= 77 CHG=2.35E-03 dt0=1.00E+04 DIVF(1)=-6.60E-06 DIVFrms= 2.36E-03 DT(ND)=-1.67E-04 T(ND)=2.5233E+02
 NST=   105 JCONV= 77 CHG=2.33E-03 dt0=1.00E+04 DIVF(1)=-5.63E-06 DIVFrms= 2.36E-03 DT(ND)=-1.42E-04 T(ND)=2.5233E+02
 NST=   106 JCONV= 77 CHG=2.35E-03 dt0=1.00E+04 DIVF(1)=-7.00E-06 DIVFrms= 2.36E-03 DT(ND)=-1.77E-04 T(ND)=2.5233E+02
 NST=   107 JCONV= 77 CHG=2.35E-03 dt0=1.00E+04 DIVF(1)=-8.79E-06 DIVFrms= 2.35E-03 DT(ND)=-2.22E-04 T(ND)=2.5233E+02
 NST=   108 JCONV= 77 CHG=2.35E-03 dt0=1.00E+04 DIVF(1)=-9.37E-06 DIVFrms= 2.35E-03 DT(ND)=-2.36E-04 T(ND)=2.5233E+02
 NST=   109 JCONV= 77 CHG=2.34E-03 dt0=1.00E+04 DIVF(1)=-8.11E-06 DIVFrms= 2.35E-03 DT(ND)=-2.05E-04 T(ND)=2.5233E+02
 NST=   110 JCONV= 77 CHG=2.35E-03 dt0=1.00E+04 DIVF(1)=-9.75E-06 DIVFrms= 2.35E-03 DT(ND)=-2.46E-04 T(ND)=2.5232E+02
 NST=   111 JCONV= 77 CHG=2.35E-03 dt0=1.00E+04 DIVF(1)=-9.18E-06 DIVFrms= 2.35E-03 DT(ND)=-2.32E-04 T(ND)=2.5232E+02
 NST=   112 JCONV= 77 CHG=2.35E-03 dt0=1.00E+04 DIVF(1)=-9.18E-06 DIVFrms= 2.35E-03 DT(ND)=-2.32E-04 T(ND)=2.5232E+02
 NST=   113 JCONV= 77 CHG=2.33E-03 dt0=1.00E+04 DIVF(1)=-8.28E-06 DIVFrms= 2.35E-03 DT(ND)=-2.09E-04 T(ND)=2.5232E+02
 NST=   114 JCONV= 77 CHG=2.35E-03 dt0=1.00E+04 DIVF(1)=-1.02E-05 DIVFrms= 2.34E-03 DT(ND)=-2.57E-04 T(ND)=2.5232E+02
 NST=   115 JCONV= 77 CHG=2.35E-03 dt0=1.00E+04 DIVF(1)=-1.08E-05 DIVFrms= 2.34E-03 DT(ND)=-2.72E-04 T(ND)=2.5232E+02
 NST=   116 JCONV= 77 CHG=2.35E-03 dt0=1.00E+04 DIVF(1)=-1.04E-05 DIVFrms= 2.34E-03 DT(ND)=-2.62E-04 T(ND)=2.5232E+02
 NST=   117 JCONV= 77 CHG=2.33E-03 dt0=1.00E+04 DIVF(1)=-9.01E-06 DIVFrms= 2.34E-03 DT(ND)=-2.27E-04 T(ND)=2.5232E+02
 NST=   118 JCONV= 77 CHG=2.35E-03 dt0=1.00E+04 DIVF(1)=-1.06E-05 DIVFrms= 2.34E-03 DT(ND)=-2.68E-04 T(ND)=2.5232E+02
 NST=   119 JCONV= 77 CHG=2.35E-03 dt0=1.00E+04 DIVF(1)=-1.10E-05 DIVFrms= 2.34E-03 DT(ND)=-2.78E-04 T(ND)=2.5232E+02
 NST=   120 JCONV= 77 CHG=2.35E-03 dt0=1.00E+04 DIVF(1)=-1.16E-05 DIVFrms= 2.33E-03 DT(ND)=-2.93E-04 T(ND)=2.5232E+02
 NST=   121 JCONV= 77 CHG=2.33E-03 dt0=1.00E+04 DIVF(1)=-4.77E-06 DIVFrms= 2.33E-03 DT(ND)=-1.20E-04 T(ND)=2.5232E+02
 NST=   122 JCONV= 77 CHG=2.35E-03 dt0=1.00E+04 DIVF(1)=-7.43E-06 DIVFrms= 2.33E-03 DT(ND)=-1.87E-04 T(ND)=2.5232E+02
 NST=   123 JCONV= 77 CHG=2.35E-03 dt0=1.00E+04 DIVF(1)=-8.60E-06 DIVFrms= 2.33E-03 DT(ND)=-2.17E-04 T(ND)=2.5232E+02
 NST=   124 JCONV= 77 CHG=2.35E-03 dt0=1.00E+04 DIVF(1)=-5.06E-06 DIVFrms= 2.33E-03 DT(ND)=-1.28E-04 T(ND)=2.5232E+02
 NST=   125 JCONV= 77 CHG=2.33E-03 dt0=1.00E+04 DIVF(1)=-6.22E-06 DIVFrms= 2.33E-03 DT(ND)=-1.57E-04 T(ND)=2.5232E+02
 NST=   126 JCONV= 77 CHG=2.35E-03 dt0=1.00E+04 DIVF(1)=-8.20E-06 DIVFrms= 2.33E-03 DT(ND)=-2.07E-04 T(ND)=2.5232E+02
 NST=   127 JCONV= 77 CHG=2.35E-03 dt0=1.00E+04 DIVF(1)=-1.02E-05 DIVFrms= 2.32E-03 DT(ND)=-2.56E-04 T(ND)=2.5232E+02
 NST=   128 JCONV= 77 CHG=2.35E-03 dt0=1.00E+04 DIVF(1)=-1.09E-05 DIVFrms= 2.32E-03 DT(ND)=-2.76E-04 T(ND)=2.5232E+02
 NST=   129 JCONV= 77 CHG=2.35E-03 dt0=1.00E+04 DIVF(1)=-1.13E-05 DIVFrms= 2.32E-03 DT(ND)=-2.85E-04 T(ND)=2.5232E+02
 NST=   130 JCONV= 77 CHG=2.33E-03 dt0=1.00E+04 DIVF(1)=-1.11E-05 DIVFrms= 2.32E-03 DT(ND)=-2.81E-04 T(ND)=2.5232E+02
 NST=   131 JCONV= 77 CHG=2.35E-03 dt0=1.00E+04 DIVF(1)=-1.21E-05 DIVFrms= 2.32E-03 DT(ND)=-3.04E-04 T(ND)=2.5232E+02
 NST=   132 JCONV= 77 CHG=2.35E-03 dt0=1.00E+04 DIVF(1)=-1.15E-05 DIVFrms= 2.31E-03 DT(ND)=-2.89E-04 T(ND)=2.5232E+02
 NST=   133 JCONV= 77 CHG=2.35E-03 dt0=1.00E+04 DIVF(1)=-1.23E-05 DIVFrms= 2.31E-03 DT(ND)=-3.10E-04 T(ND)=2.5232E+02
 NST=   134 JCONV= 77 CHG=2.35E-03 dt0=1.00E+04 DIVF(1)=-1.33E-05 DIVFrms= 2.31E-03 DT(ND)=-3.35E-04 T(ND)=2.5232E+02
 NST=   135 JCONV= 77 CHG=2.33E-03 dt0=1.00E+04 DIVF(1)=-4.92E-06 DIVFrms= 2.31E-03 DT(ND)=-1.24E-04 T(ND)=2.5232E+02
 NST=   136 JCONV= 77 CHG=2.35E-03 dt0=1.00E+04 DIVF(1)=-7.90E-06 DIVFrms= 2.31E-03 DT(ND)=-1.99E-04 T(ND)=2.5232E+02
 NST=   137 JCONV= 77 CHG=2.35E-03 dt0=1.00E+04 DIVF(1)=-9.37E-06 DIVFrms= 2.30E-03 DT(ND)=-2.36E-04 T(ND)=2.5232E+02
 NST=   138 JCONV= 77 CHG=2.35E-03 dt0=1.00E+04 DIVF(1)=-1.07E-05 DIVFrms= 2.30E-03 DT(ND)=-2.71E-04 T(ND)=2.5232E+02
 NST=   139 JCONV= 77 CHG=2.35E-03 dt0=1.00E+04 DIVF(1)=-1.15E-05 DIVFrms= 2.30E-03 DT(ND)=-2.90E-04 T(ND)=2.5232E+02
 NST=   140 JCONV= 77 CHG=2.33E-03 dt0=1.00E+04 DIVF(1)=-1.35E-05 DIVFrms= 2.30E-03 DT(ND)=-3.39E-04 T(ND)=2.5232E+02
 NST=   141 JCONV= 77 CHG=2.35E-03 dt0=1.00E+04 DIVF(1)=-1.45E-05 DIVFrms= 2.29E-03 DT(ND)=-3.65E-04 T(ND)=2.5232E+02
 NST=   142 JCONV= 77 CHG=2.35E-03 dt0=1.00E+04 DIVF(1)=-1.45E-05 DIVFrms= 2.29E-03 DT(ND)=-3.65E-04 T(ND)=2.5232E+02
 NST=   143 JCONV= 77 CHG=2.35E-03 dt0=1.00E+04 DIVF(1)=-1.40E-05 DIVFrms= 2.29E-03 DT(ND)=-3.54E-04 T(ND)=2.5232E+02
 NST=   144 JCONV= 77 CHG=2.35E-03 dt0=1.00E+04 DIVF(1)=-1.37E-05 DIVFrms= 2.29E-03 DT(ND)=-3.47E-04 T(ND)=2.5232E+02
 NST=   145 JCONV= 77 CHG=2.33E-03 dt0=1.00E+04 DIVF(1)=-1.29E-05 DIVFrms= 2.29E-03 DT(ND)=-3.25E-04 T(ND)=2.5232E+02
 NST=   146 JCONV= 77 CHG=2.35E-03 dt0=1.00E+04 DIVF(1)=-1.54E-05 DIVFrms= 2.28E-03 DT(ND)=-3.88E-04 T(ND)=2.5232E+02
 NST=   147 JCONV= 77 CHG=2.35E-03 dt0=1.00E+04 DIVF(1)=-1.53E-05 DIVFrms= 2.28E-03 DT(ND)=-3.87E-04 T(ND)=2.5232E+02
 NST=   148 JCONV= 77 CHG=2.35E-03 dt0=1.00E+04 DIVF(1)=-6.00E-06 DIVFrms= 2.28E-03 DT(ND)=-1.51E-04 T(ND)=2.5231E+02
 NST=   149 JCONV= 77 CHG=2.35E-03 dt0=1.00E+04 DIVF(1)=-7.69E-06 DIVFrms= 2.27E-03 DT(ND)=-1.94E-04 T(ND)=2.5231E+02
 NST=   150 JCONV= 77 CHG=2.33E-03 dt0=1.00E+04 DIVF(1)=-7.55E-06 DIVFrms= 2.27E-03 DT(ND)=-1.91E-04 T(ND)=2.5231E+02
 NST=   151 JCONV= 77 CHG=2.35E-03 dt0=1.00E+04 DIVF(1)=-1.13E-05 DIVFrms= 2.27E-03 DT(ND)=-2.85E-04 T(ND)=2.5231E+02
 NST=   152 JCONV= 77 CHG=2.35E-03 dt0=1.00E+04 DIVF(1)=-1.22E-05 DIVFrms= 2.27E-03 DT(ND)=-3.07E-04 T(ND)=2.5231E+02
 NST=   153 JCONV= 77 CHG=2.35E-03 dt0=1.00E+04 DIVF(1)=-1.23E-05 DIVFrms= 2.27E-03 DT(ND)=-3.11E-04 T(ND)=2.5231E+02
 NST=   154 JCONV= 77 CHG=2.35E-03 dt0=1.00E+04 DIVF(1)=-1.24E-05 DIVFrms= 2.26E-03 DT(ND)=-3.12E-04 T(ND)=2.5231E+02
 NST=   155 JCONV= 77 CHG=2.33E-03 dt0=1.00E+04 DIVF(1)=-1.24E-05 DIVFrms= 2.26E-03 DT(ND)=-3.14E-04 T(ND)=2.5231E+02
 NST=   156 JCONV= 77 CHG=2.35E-03 dt0=1.00E+04 DIVF(1)=-1.38E-05 DIVFrms= 2.26E-03 DT(ND)=-3.47E-04 T(ND)=2.5231E+02
 NST=   157 JCONV= 77 CHG=2.35E-03 dt0=1.00E+04 DIVF(1)=-1.41E-05 DIVFrms= 2.26E-03 DT(ND)=-3.56E-04 T(ND)=2.5231E+02
 NST=   158 JCONV= 77 CHG=2.35E-03 dt0=1.00E+04 DIVF(1)=-1.47E-05 DIVFrms= 2.25E-03 DT(ND)=-3.71E-04 T(ND)=2.5231E+02
 NST=   159 JCONV= 77 CHG=2.35E-03 dt0=1.00E+04 DIVF(1)=-1.51E-05 DIVFrms= 2.25E-03 DT(ND)=-3.81E-04 T(ND)=2.5231E+02
 NST=   160 JCONV= 77 CHG=2.33E-03 dt0=1.00E+04 DIVF(1)=-1.40E-05 DIVFrms= 2.25E-03 DT(ND)=-3.53E-04 T(ND)=2.5231E+02
 NST=   161 JCONV= 77 CHG=2.35E-03 dt0=1.00E+04 DIVF(1)=-1.53E-05 DIVFrms= 2.25E-03 DT(ND)=-3.87E-04 T(ND)=2.5231E+02
 NST=   162 JCONV= 77 CHG=2.35E-03 dt0=1.00E+04 DIVF(1)=-1.59E-05 DIVFrms= 2.24E-03 DT(ND)=-4.01E-04 T(ND)=2.5231E+02
 NST=   163 JCONV= 77 CHG=2.35E-03 dt0=1.00E+04 DIVF(1)=-1.48E-05 DIVFrms= 2.24E-03 DT(ND)=-3.73E-04 T(ND)=2.5231E+02
 NST=   164 JCONV= 77 CHG=2.35E-03 dt0=1.00E+04 DIVF(1)=-1.48E-05 DIVFrms= 2.24E-03 DT(ND)=-3.73E-04 T(ND)=2.5231E+02
 NST=   165 JCONV= 77 CHG=2.35E-03 dt0=1.00E+04 DIVF(1)=-7.20E-06 DIVFrms= 2.23E-03 DT(ND)=-1.82E-04 T(ND)=2.5231E+02
 NST=   166 JCONV= 77 CHG=2.33E-03 dt0=1.00E+04 DIVF(1)=-8.72E-06 DIVFrms= 2.23E-03 DT(ND)=-2.20E-04 T(ND)=2.5231E+02
 NST=   167 JCONV= 77 CHG=2.35E-03 dt0=1.00E+04 DIVF(1)=-1.15E-05 DIVFrms= 2.23E-03 DT(ND)=-2.90E-04 T(ND)=2.5231E+02
 NST=   168 JCONV= 77 CHG=2.35E-03 dt0=1.00E+04 DIVF(1)=-1.27E-05 DIVFrms= 2.23E-03 DT(ND)=-3.21E-04 T(ND)=2.5231E+02
 NST=   169 JCONV= 77 CHG=2.35E-03 dt0=1.00E+04 DIVF(1)=-1.29E-05 DIVFrms= 2.22E-03 DT(ND)=-3.25E-04 T(ND)=2.5231E+02
 NST=   170 JCONV= 77 CHG=2.35E-03 dt0=1.00E+04 DIVF(1)=-1.30E-05 DIVFrms= 2.22E-03 DT(ND)=-3.29E-04 T(ND)=2.5231E+02
 NST=   171 JCONV= 77 CHG=2.35E-03 dt0=1.00E+04 DIVF(1)=-1.34E-05 DIVFrms= 2.22E-03 DT(ND)=-3.39E-04 T(ND)=2.5231E+02
 NST=   172 JCONV= 77 CHG=2.35E-03 dt0=1.00E+04 DIVF(1)=-1.57E-05 DIVFrms= 2.22E-03 DT(ND)=-3.96E-04 T(ND)=2.5231E+02
 NST=   173 JCONV= 77 CHG=2.33E-03 dt0=1.00E+04 DIVF(1)=-1.49E-05 DIVFrms= 2.21E-03 DT(ND)=-3.76E-04 T(ND)=2.5231E+02
 NST=   174 JCONV= 77 CHG=2.35E-03 dt0=1.00E+04 DIVF(1)=-1.53E-05 DIVFrms= 2.21E-03 DT(ND)=-3.85E-04 T(ND)=2.5231E+02
 NST=   175 JCONV= 77 CHG=2.35E-03 dt0=1.00E+04 DIVF(1)=-1.55E-05 DIVFrms= 2.21E-03 DT(ND)=-3.90E-04 T(ND)=2.5231E+02
 NST=   176 JCONV= 77 CHG=2.35E-03 dt0=1.00E+04 DIVF(1)=-1.50E-05 DIVFrms= 2.21E-03 DT(ND)=-3.78E-04 T(ND)=2.5231E+02
 NST=   177 JCONV= 77 CHG=2.35E-03 dt0=1.00E+04 DIVF(1)=-1.46E-05 DIVFrms= 2.21E-03 DT(ND)=-3.69E-04 T(ND)=2.5231E+02
 NST=   178 JCONV= 77 CHG=2.35E-03 dt0=1.00E+04 DIVF(1)=-1.14E-05 DIVFrms= 2.20E-03 DT(ND)=-2.87E-04 T(ND)=2.5231E+02
 NST=   179 JCONV= 77 CHG=2.35E-03 dt0=1.00E+04 DIVF(1)=-1.24E-05 DIVFrms= 2.20E-03 DT(ND)=-3.12E-04 T(ND)=2.5230E+02
 NST=   180 JCONV= 77 CHG=2.35E-03 dt0=1.00E+04 DIVF(1)=-1.28E-05 DIVFrms= 2.20E-03 DT(ND)=-3.22E-04 T(ND)=2.5230E+02
 NST=   181 JCONV= 77 CHG=2.35E-03 dt0=1.00E+04 DIVF(1)=-1.25E-05 DIVFrms= 2.20E-03 DT(ND)=-3.16E-04 T(ND)=2.5230E+02
 NST=   182 JCONV= 77 CHG=2.35E-03 dt0=1.00E+04 DIVF(1)=-1.37E-05 DIVFrms= 2.20E-03 DT(ND)=-3.46E-04 T(ND)=2.5230E+02
 NST=   183 JCONV= 77 CHG=2.35E-03 dt0=1.00E+04 DIVF(1)=-1.44E-05 DIVFrms= 2.19E-03 DT(ND)=-3.63E-04 T(ND)=2.5230E+02
 NST=   184 JCONV= 77 CHG=2.35E-03 dt0=1.00E+04 DIVF(1)=-1.41E-05 DIVFrms= 2.19E-03 DT(ND)=-3.57E-04 T(ND)=2.5230E+02
 NST=   185 JCONV= 77 CHG=2.35E-03 dt0=1.00E+04 DIVF(1)=-1.39E-05 DIVFrms= 2.19E-03 DT(ND)=-3.52E-04 T(ND)=2.5230E+02
 NST=   186 JCONV= 77 CHG=2.35E-03 dt0=1.00E+04 DIVF(1)=-1.44E-05 DIVFrms= 2.19E-03 DT(ND)=-3.63E-04 T(ND)=2.5230E+02
 NST=   187 JCONV= 77 CHG=2.35E-03 dt0=1.00E+04 DIVF(1)=-3.88E-06 DIVFrms= 2.18E-03 DT(ND)=-9.79E-05 T(ND)=2.5230E+02
 NST=   188 JCONV= 77 CHG=2.35E-03 dt0=1.00E+04 DIVF(1)=-7.53E-06 DIVFrms= 2.18E-03 DT(ND)=-1.90E-04 T(ND)=2.5230E+02
 NST=   189 JCONV= 77 CHG=2.35E-03 dt0=1.00E+04 DIVF(1)=-9.75E-06 DIVFrms= 2.18E-03 DT(ND)=-2.46E-04 T(ND)=2.5230E+02
 NST=   190 JCONV= 77 CHG=2.35E-03 dt0=1.00E+04 DIVF(1)=-1.10E-05 DIVFrms= 2.17E-03 DT(ND)=-2.78E-04 T(ND)=2.5230E+02
 NST=   191 JCONV= 77 CHG=2.35E-03 dt0=1.00E+04 DIVF(1)=-1.27E-05 DIVFrms= 2.17E-03 DT(ND)=-3.19E-04 T(ND)=2.5230E+02
 NST=   192 JCONV= 77 CHG=2.35E-03 dt0=1.00E+04 DIVF(1)=-1.33E-05 DIVFrms= 2.17E-03 DT(ND)=-3.36E-04 T(ND)=2.5230E+02
 NST=   193 JCONV= 77 CHG=2.33E-03 dt0=1.00E+04 DIVF(1)=-1.25E-05 DIVFrms= 2.17E-03 DT(ND)=-3.14E-04 T(ND)=2.5230E+02
 NST=   194 JCONV= 77 CHG=2.35E-03 dt0=1.00E+04 DIVF(1)=-1.47E-05 DIVFrms= 2.16E-03 DT(ND)=-3.70E-04 T(ND)=2.5230E+02
 NST=   195 JCONV= 77 CHG=2.35E-03 dt0=1.00E+04 DIVF(1)=-1.78E-05 DIVFrms= 2.16E-03 DT(ND)=-4.48E-04 T(ND)=2.5230E+02
 NST=   196 JCONV= 77 CHG=2.35E-03 dt0=1.00E+04 DIVF(1)=-1.81E-05 DIVFrms= 2.16E-03 DT(ND)=-4.57E-04 T(ND)=2.5230E+02
 NST=   197 JCONV= 77 CHG=2.35E-03 dt0=1.00E+04 DIVF(1)=-1.76E-05 DIVFrms= 2.15E-03 DT(ND)=-4.45E-04 T(ND)=2.5230E+02
 NST=   198 JCONV= 77 CHG=2.35E-03 dt0=1.00E+04 DIVF(1)=-1.71E-05 DIVFrms= 2.15E-03 DT(ND)=-4.32E-04 T(ND)=2.5230E+02
 NST=   199 JCONV= 77 CHG=2.35E-03 dt0=1.00E+04 DIVF(1)=-1.70E-05 DIVFrms= 2.15E-03 DT(ND)=-4.30E-04 T(ND)=2.5230E+02
 NST=   200 JCONV= 77 CHG=2.35E-03 dt0=1.00E+04 DIVF(1)=-1.62E-05 DIVFrms= 2.15E-03 DT(ND)=-4.08E-04 T(ND)=2.5230E+02
 NST=   201 JCONV= 77 CHG=2.35E-03 dt0=1.00E+04 DIVF(1)=-1.57E-05 DIVFrms= 2.14E-03 DT(ND)=-3.95E-04 T(ND)=2.5230E+02
 NST=   202 JCONV= 77 CHG=2.35E-03 dt0=1.00E+04 DIVF(1)=-1.57E-05 DIVFrms= 2.14E-03 DT(ND)=-3.96E-04 T(ND)=2.5230E+02
 NST=   203 JCONV= 77 CHG=2.35E-03 dt0=1.00E+04 DIVF(1)=-1.83E-05 DIVFrms= 2.14E-03 DT(ND)=-4.61E-04 T(ND)=2.5230E+02
 NST=   204 JCONV= 77 CHG=2.35E-03 dt0=1.00E+04 DIVF(1)=-3.86E-06 DIVFrms= 2.13E-03 DT(ND)=-9.73E-05 T(ND)=2.5230E+02
 NST=   205 JCONV= 77 CHG=2.35E-03 dt0=1.00E+04 DIVF(1)=-2.66E-07 DIVFrms= 2.13E-03 DT(ND)=-6.70E-06 T(ND)=2.5230E+02
 NST=   206 JCONV= 77 CHG=2.35E-03 dt0=1.00E+04 DIVF(1)=-3.70E-06 DIVFrms= 2.13E-03 DT(ND)=-9.33E-05 T(ND)=2.5230E+02
 NST=   207 JCONV= 77 CHG=2.35E-03 dt0=1.00E+04 DIVF(1)=-6.64E-06 DIVFrms= 2.13E-03 DT(ND)=-1.68E-04 T(ND)=2.5230E+02
 NST=   208 JCONV= 77 CHG=2.35E-03 dt0=1.00E+04 DIVF(1)=-8.53E-06 DIVFrms= 2.13E-03 DT(ND)=-2.15E-04 T(ND)=2.5230E+02
 NST=   209 JCONV= 77 CHG=2.35E-03 dt0=1.00E+04 DIVF(1)=-1.18E-05 DIVFrms= 2.13E-03 DT(ND)=-2.99E-04 T(ND)=2.5230E+02
 NST=   210 JCONV= 77 CHG=2.35E-03 dt0=1.00E+04 DIVF(1)=-8.21E-06 DIVFrms= 2.13E-03 DT(ND)=-2.07E-04 T(ND)=2.5230E+02
 NST=   211 JCONV= 77 CHG=2.35E-03 dt0=1.00E+04 DIVF(1)=-1.02E-05 DIVFrms= 2.12E-03 DT(ND)=-2.57E-04 T(ND)=2.5229E+02
 NST=   212 JCONV= 77 CHG=2.35E-03 dt0=1.00E+04 DIVF(1)=-1.86E-06 DIVFrms= 2.12E-03 DT(ND)=-4.70E-05 T(ND)=2.5229E+02
 NST=   213 JCONV= 77 CHG=2.35E-03 dt0=1.00E+04 DIVF(1)=-4.67E-06 DIVFrms= 2.12E-03 DT(ND)=-1.18E-04 T(ND)=2.5229E+02
 NST=   214 JCONV= 77 CHG=2.35E-03 dt0=1.00E+04 DIVF(1)=-8.80E-06 DIVFrms= 2.12E-03 DT(ND)=-2.22E-04 T(ND)=2.5229E+02
 NST=   215 JCONV= 77 CHG=2.35E-03 dt0=1.00E+04 DIVF(1)=-1.02E-05 DIVFrms= 2.11E-03 DT(ND)=-2.57E-04 T(ND)=2.5229E+02
 NST=   216 JCONV= 77 CHG=2.35E-03 dt0=1.00E+04 DIVF(1)=-1.13E-05 DIVFrms= 2.11E-03 DT(ND)=-2.85E-04 T(ND)=2.5229E+02
 NST=   217 JCONV= 77 CHG=2.35E-03 dt0=1.00E+04 DIVF(1)=-1.22E-05 DIVFrms= 2.11E-03 DT(ND)=-3.08E-04 T(ND)=2.5229E+02
 NST=   218 JCONV= 77 CHG=2.35E-03 dt0=1.00E+04 DIVF(1)=-1.29E-05 DIVFrms= 2.11E-03 DT(ND)=-3.26E-04 T(ND)=2.5229E+02
 NST=   219 JCONV= 77 CHG=2.35E-03 dt0=1.00E+04 DIVF(1)=-1.36E-05 DIVFrms= 2.11E-03 DT(ND)=-3.43E-04 T(ND)=2.5229E+02
 NST=   220 JCONV= 77 CHG=2.35E-03 dt0=1.00E+04 DIVF(1)=-1.48E-05 DIVFrms= 2.10E-03 DT(ND)=-3.72E-04 T(ND)=2.5229E+02
 NST=   221 JCONV= 77 CHG=2.35E-03 dt0=1.00E+04 DIVF(1)=-1.52E-05 DIVFrms= 2.10E-03 DT(ND)=-3.84E-04 T(ND)=2.5229E+02
 NST=   222 JCONV= 77 CHG=2.35E-03 dt0=1.00E+04 DIVF(1)=-1.54E-05 DIVFrms= 2.10E-03 DT(ND)=-3.90E-04 T(ND)=2.5229E+02
 NST=   223 JCONV= 77 CHG=2.35E-03 dt0=1.00E+04 DIVF(1)=-1.55E-05 DIVFrms= 2.10E-03 DT(ND)=-3.92E-04 T(ND)=2.5229E+02
 NST=   224 JCONV= 77 CHG=2.35E-03 dt0=1.00E+04 DIVF(1)=-1.57E-05 DIVFrms= 2.09E-03 DT(ND)=-3.96E-04 T(ND)=2.5229E+02
 NST=   225 JCONV= 77 CHG=2.35E-03 dt0=1.00E+04 DIVF(1)=-1.61E-05 DIVFrms= 2.09E-03 DT(ND)=-4.06E-04 T(ND)=2.5229E+02
 NST=   226 JCONV= 77 CHG=2.35E-03 dt0=1.00E+04 DIVF(1)=-1.57E-05 DIVFrms= 2.09E-03 DT(ND)=-3.96E-04 T(ND)=2.5229E+02
 NST=   227 JCONV= 77 CHG=2.35E-03 dt0=1.00E+04 DIVF(1)=-1.56E-05 DIVFrms= 2.09E-03 DT(ND)=-3.93E-04 T(ND)=2.5229E+02
 NST=   228 JCONV= 77 CHG=2.35E-03 dt0=1.00E+04 DIVF(1)=-1.87E-05 DIVFrms= 2.08E-03 DT(ND)=-4.71E-04 T(ND)=2.5229E+02
 NST=   229 JCONV= 77 CHG=2.35E-03 dt0=1.00E+04 DIVF(1)=-8.00E-06 DIVFrms= 2.07E-03 DT(ND)=-2.02E-04 T(ND)=2.5229E+02
 NST=   230 JCONV= 77 CHG=2.35E-03 dt0=1.00E+04 DIVF(1)=-1.03E-05 DIVFrms= 2.07E-03 DT(ND)=-2.59E-04 T(ND)=2.5229E+02
 NST=   231 JCONV= 77 CHG=2.35E-03 dt0=1.00E+04 DIVF(1)=-1.11E-05 DIVFrms= 2.07E-03 DT(ND)=-2.80E-04 T(ND)=2.5229E+02
 NST=   232 JCONV= 77 CHG=2.35E-03 dt0=1.00E+04 DIVF(1)=-1.28E-05 DIVFrms= 2.07E-03 DT(ND)=-3.22E-04 T(ND)=2.5229E+02
 NST=   233 JCONV= 77 CHG=2.35E-03 dt0=1.00E+04 DIVF(1)=-1.38E-05 DIVFrms= 2.07E-03 DT(ND)=-3.47E-04 T(ND)=2.5229E+02
 NST=   234 JCONV= 77 CHG=2.35E-03 dt0=1.00E+04 DIVF(1)=-1.36E-05 DIVFrms= 2.06E-03 DT(ND)=-3.43E-04 T(ND)=2.5229E+02
 NST=   235 JCONV= 77 CHG=2.35E-03 dt0=1.00E+04 DIVF(1)=-1.41E-05 DIVFrms= 2.06E-03 DT(ND)=-3.55E-04 T(ND)=2.5229E+02
 NST=   236 JCONV= 77 CHG=2.35E-03 dt0=1.00E+04 DIVF(1)=-1.65E-05 DIVFrms= 2.06E-03 DT(ND)=-4.17E-04 T(ND)=2.5229E+02
 NST=   237 JCONV= 77 CHG=2.35E-03 dt0=1.00E+04 DIVF(1)=-1.64E-05 DIVFrms= 2.05E-03 DT(ND)=-4.15E-04 T(ND)=2.5229E+02
 NST=   238 JCONV= 77 CHG=2.35E-03 dt0=1.00E+04 DIVF(1)=-1.63E-05 DIVFrms= 2.05E-03 DT(ND)=-4.10E-04 T(ND)=2.5229E+02
 NST=   239 JCONV= 77 CHG=2.35E-03 dt0=1.00E+04 DIVF(1)=-1.61E-05 DIVFrms= 2.05E-03 DT(ND)=-4.05E-04 T(ND)=2.5229E+02
 NST=   240 JCONV= 77 CHG=2.35E-03 dt0=1.00E+04 DIVF(1)=-1.54E-05 DIVFrms= 2.05E-03 DT(ND)=-3.88E-04 T(ND)=2.5229E+02
 NST=   241 JCONV= 77 CHG=2.35E-03 dt0=1.00E+04 DIVF(1)=-1.51E-05 DIVFrms= 2.05E-03 DT(ND)=-3.80E-04 T(ND)=2.5228E+02
 NST=   242 JCONV= 77 CHG=2.35E-03 dt0=1.00E+04 DIVF(1)=-1.39E-05 DIVFrms= 2.04E-03 DT(ND)=-3.50E-04 T(ND)=2.5228E+02
 NST=   243 JCONV= 77 CHG=2.35E-03 dt0=1.00E+04 DIVF(1)=-1.74E-05 DIVFrms= 2.04E-03 DT(ND)=-4.38E-04 T(ND)=2.5228E+02
 NST=   244 JCONV= 77 CHG=2.35E-03 dt0=1.00E+04 DIVF(1)=-1.36E-05 DIVFrms= 2.04E-03 DT(ND)=-3.44E-04 T(ND)=2.5228E+02
 NST=   245 JCONV= 77 CHG=2.35E-03 dt0=1.00E+04 DIVF(1)=-1.70E-05 DIVFrms= 2.03E-03 DT(ND)=-4.29E-04 T(ND)=2.5228E+02
 NST=   246 JCONV= 77 CHG=2.35E-03 dt0=1.00E+04 DIVF(1)=-1.34E-05 DIVFrms= 2.03E-03 DT(ND)=-3.38E-04 T(ND)=2.5228E+02
 NST=   247 JCONV= 77 CHG=2.35E-03 dt0=1.00E+04 DIVF(1)=-1.45E-05 DIVFrms= 2.03E-03 DT(ND)=-3.66E-04 T(ND)=2.5228E+02
 NST=   248 JCONV= 77 CHG=2.35E-03 dt0=1.00E+04 DIVF(1)=-1.53E-05 DIVFrms= 2.03E-03 DT(ND)=-3.86E-04 T(ND)=2.5228E+02
 NST=   249 JCONV= 77 CHG=2.35E-03 dt0=1.00E+04 DIVF(1)=-1.44E-05 DIVFrms= 2.03E-03 DT(ND)=-3.64E-04 T(ND)=2.5228E+02
 NST=   250 JCONV= 77 CHG=2.35E-03 dt0=1.00E+04 DIVF(1)=-1.51E-05 DIVFrms= 2.02E-03 DT(ND)=-3.82E-04 T(ND)=2.5228E+02

 TIME= 2.473E+06  TIME IN DAYS = 2.862E+01

 PLANETARY ALBEDO:  ALBP = 0.2636

  J     P         ALT         T        CONVEC       DT          TOLD        FH20       FSAVE       TCOOL       THEAT
  1 5.3818E-05 8.0159E+01 1.9074E+02  0.00E+00  -1.6553E-03  1.9074E+02  1.1233E-07  1.1722E-07 -2.7549E+02  2.7548E+02
  2 6.2315E-05 7.8746E+01 1.8530E+02  0.00E+00   1.9392E-02  1.8530E+02  1.1233E-07  1.1722E-07 -8.8975E+01  8.9142E+01
  3 7.2073E-05 7.7384E+01 1.7974E+02  0.00E+00   8.9857E-02  1.7974E+02  1.1233E-07  1.1722E-07 -5.3471E+01  5.4247E+01
  4 8.3267E-05 7.6074E+01 1.7412E+02  0.00E+00  -1.4805E-01  1.7412E+02  1.1233E-07  1.1722E-07 -3.4153E+01  3.2873E+01
  5 9.6093E-05 7.4815E+01 1.6876E+02  0.00E+00  -6.2653E-02  1.6876E+02  1.1233E-07  1.1722E-07 -2.1039E+01  2.0498E+01
  6 1.1077E-04 7.3602E+01 1.6400E+02  0.00E+00  -3.1992E-01  1.6400E+02  1.1233E-07  1.1722E-07 -1.6493E+01  1.3728E+01
  7 1.2755E-04 7.2429E+01 1.6032E+02  0.00E+00  -3.7617E-01  1.6032E+02  1.1233E-07  1.1722E-07 -1.3474E+01  1.0224E+01
  8 1.4670E-04 7.1287E+01 1.5797E+02  0.00E+00  -2.6680E-01  1.5797E+02  1.1233E-07  1.1722E-07 -1.0793E+01  8.4875E+00
  9 1.6855E-04 7.0167E+01 1.5668E+02  0.00E+00  -1.4467E-01  1.5668E+02  1.1233E-07  1.1722E-07 -8.8785E+00  7.6286E+00
 10 1.9343E-04 6.9063E+01 1.5602E+02  0.00E+00  -6.5125E-02  1.5602E+02  1.1233E-07  1.1722E-07 -7.7192E+00  7.1565E+00
 11 2.2174E-04 6.7971E+01 1.5564E+02  0.00E+00  -2.2775E-02  1.5564E+02  1.1233E-07  1.1722E-07 -7.0239E+00  6.8271E+00
 12 2.5391E-04 6.6891E+01 1.5540E+02  0.00E+00  -1.3781E-02  1.5540E+02  1.1233E-07  1.1722E-07 -6.6521E+00  6.5330E+00
 13 2.9043E-04 6.5821E+01 1.5522E+02  0.00E+00  -1.8963E-02  1.5522E+02  1.1233E-07  1.1722E-07 -6.3979E+00  6.2340E+00
 14 3.3183E-04 6.4760E+01 1.5513E+02  0.00E+00  -2.7614E-02  1.5513E+02  1.1233E-07  1.1722E-07 -6.1567E+00  5.9182E+00
 15 3.7870E-04 6.3709E+01 1.5514E+02  0.00E+00  -3.2795E-02  1.5514E+02  1.1233E-07  1.1722E-07 -5.8668E+00  5.5835E+00
 16 4.3172E-04 6.2666E+01 1.5527E+02  0.00E+00  -3.1479E-02  1.5527E+02  1.1233E-07  1.1722E-07 -5.5035E+00  5.2315E+00
 17 4.9162E-04 6.1631E+01 1.5553E+02  0.00E+00  -2.3420E-02  1.5553E+02  1.1233E-07  1.1722E-07 -5.0680E+00  4.8656E+00
 18 5.5920E-04 6.0602E+01 1.5587E+02  0.00E+00  -1.0361E-02  1.5587E+02  1.1233E-07  1.1722E-07 -4.5794E+00  4.4899E+00
 19 6.3536E-04 5.9580E+01 1.5627E+02  0.00E+00  -1.7585E-03  1.5627E+02  1.1233E-07  1.1722E-07 -4.1245E+00  4.1093E+00
 20 7.2110E-04 5.8565E+01 1.5666E+02  0.00E+00   1.4061E-02  1.5666E+02  1.1233E-07  1.1722E-07 -3.6078E+00  3.7293E+00
 21 8.1749E-04 5.7556E+01 1.5700E+02  0.00E+00   2.1788E-02  1.5700E+02  1.1233E-07  1.1722E-07 -3.1674E+00  3.3556E+00
 22 9.2575E-04 5.6554E+01 1.5725E+02  0.00E+00   3.6308E-02  1.5725E+02  1.1233E-07  1.1722E-07 -2.6803E+00  2.9940E+00
 23 1.0472E-03 5.5559E+01 1.5738E+02  0.00E+00   3.6097E-02  1.5738E+02  1.1233E-07  1.1722E-07 -2.4711E+00  2.7830E+00
 24 1.1832E-03 5.4574E+01 1.5736E+02  0.00E+00   2.7127E-02  1.5736E+02  1.1233E-07  1.1722E-07 -2.4847E+00  2.7191E+00
 25 1.3354E-03 5.3597E+01 1.5725E+02  0.00E+00   1.8144E-02  1.5725E+02  1.1233E-07  1.1722E-07 -2.3748E+00  2.5315E+00
 26 1.5055E-03 5.2631E+01 1.5707E+02  0.00E+00  -2.7675E-03  1.5707E+02  1.1233E-07  1.1722E-07 -2.2932E+00  2.2693E+00
 27 1.6954E-03 5.1675E+01 1.5689E+02  0.00E+00  -1.4788E-02  1.5689E+02  1.1233E-07  1.1722E-07 -2.1152E+00  1.9875E+00
 28 1.9072E-03 5.0728E+01 1.5678E+02  0.00E+00  -2.6121E-02  1.5678E+02  1.1233E-07  1.1722E-07 -1.9560E+00  1.7303E+00
 29 2.1430E-03 4.9791E+01 1.5676E+02  0.00E+00  -2.6170E-02  1.5676E+02  1.1233E-07  1.1722E-07 -1.7457E+00  1.5196E+00
 30 2.4053E-03 4.8862E+01 1.5684E+02  0.00E+00  -1.8884E-02  1.5684E+02  1.1233E-07  1.1722E-07 -1.5178E+00  1.3547E+00
 31 2.6967E-03 4.7942E+01 1.5700E+02  0.00E+00  -1.5298E-02  1.5700E+02  1.1233E-07  1.1722E-07 -1.3545E+00  1.2223E+00
 32 3.0200E-03 4.7030E+01 1.5722E+02  0.00E+00  -5.8267E-03  1.5722E+02  1.1233E-07  1.1722E-07 -1.1588E+00  1.1085E+00
 33 3.3783E-03 4.6125E+01 1.5746E+02  0.00E+00  -1.6792E-06  1.5746E+02  1.1233E-07  1.1722E-07 -1.0049E+00  1.0049E+00
 34 3.7750E-03 4.5228E+01 1.5772E+02  0.00E+00   2.5901E-03  1.5772E+02  1.1233E-07  1.1722E-07 -8.8654E-01  9.0891E-01
 35 4.2135E-03 4.4338E+01 1.5797E+02  0.00E+00   2.8638E-03  1.5797E+02  1.1233E-07  1.1722E-07 -7.9638E-01  8.2112E-01
 36 4.6977E-03 4.3456E+01 1.5823E+02  0.00E+00  -2.1500E-03  1.5823E+02  1.1233E-07  1.1722E-07 -7.6111E-01  7.4254E-01
 37 5.2318E-03 4.2582E+01 1.5850E+02  0.00E+00  -2.9562E-03  1.5849E+02  1.1233E-07  1.1722E-07 -6.9938E-01  6.7384E-01
 38 5.8201E-03 4.1715E+01 1.5879E+02  0.00E+00  -3.9542E-03  1.5878E+02  1.1233E-07  1.1722E-07 -6.4937E-01  6.1521E-01
 39 6.4674E-03 4.0855E+01 1.5910E+02  0.00E+00  -7.5143E-03  1.5910E+02  1.1233E-07  1.1722E-07 -6.3142E-01  5.6650E-01
 40 7.1787E-03 4.0003E+01 1.5946E+02  0.00E+00  -6.2748E-03  1.5946E+02  1.1233E-07  1.1722E-07 -5.8144E-01  5.2723E-01
 41 7.9593E-03 3.9158E+01 1.5985E+02  0.00E+00  -4.5010E-03  1.5985E+02  1.1233E-07  1.1722E-07 -5.3543E-01  4.9654E-01
 42 8.8150E-03 3.8320E+01 1.6028E+02  0.00E+00  -4.5037E-03  1.6027E+02  1.1233E-07  1.1722E-07 -5.1205E-01  4.7314E-01
 43 9.7519E-03 3.7488E+01 1.6073E+02  0.00E+00  -1.7439E-03  1.6073E+02  1.1233E-07  1.1722E-07 -4.7045E-01  4.5538E-01
 44 1.0776E-02 3.6664E+01 1.6121E+02  0.00E+00  -3.3289E-03  1.6121E+02  1.1233E-07  1.1722E-07 -5.0609E-01  4.7733E-01
 45 1.1895E-02 3.5846E+01 1.6172E+02  0.00E+00   1.2450E-04  1.6171E+02  1.1233E-07  1.1722E-07 -5.0488E-01  5.0596E-01
 46 1.3116E-02 3.5034E+01 1.6225E+02  0.00E+00   3.1548E-03  1.6224E+02  1.1233E-07  1.1724E-07 -5.0076E-01  5.2802E-01
 47 1.4445E-02 3.4230E+01 1.6278E+02  0.00E+00   8.5586E-03  1.6277E+02  1.1233E-07  1.1734E-07 -4.6811E-01  5.4205E-01
 48 1.5892E-02 3.3432E+01 1.6330E+02  0.00E+00   1.0416E-02  1.6330E+02  1.1233E-07  1.1764E-07 -4.5667E-01  5.4667E-01
 49 1.7464E-02 3.2640E+01 1.6381E+02  0.00E+00   1.2953E-02  1.6380E+02  1.1233E-07  1.2138E-07 -4.2929E-01  5.4120E-01
 50 1.9170E-02 3.1856E+01 1.6429E+02  0.00E+00   1.2507E-02  1.6429E+02  1.1233E-07  1.2271E-07 -4.1779E-01  5.2585E-01
 51 2.1020E-02 3.1079E+01 1.6475E+02  0.00E+00   1.3588E-02  1.6474E+02  1.1233E-07  1.3095E-07 -3.8415E-01  5.0156E-01
 52 2.3022E-02 3.0309E+01 1.6519E+02  0.00E+00   1.3209E-02  1.6518E+02  1.1233E-07  1.3867E-07 -3.5572E-01  4.6984E-01
 53 2.5188E-02 2.9547E+01 1.6560E+02  0.00E+00   1.4631E-02  1.6559E+02  1.1233E-07  1.5298E-07 -3.0625E-01  4.3266E-01
 54 2.7526E-02 2.8792E+01 1.6599E+02  0.00E+00  -3.8172E-04  1.6598E+02  1.1233E-07  1.6817E-07 -2.5511E-01  3.9222E-01
 55 3.0048E-02 2.8045E+01 1.6640E+02  0.00E+00  -3.8172E-04  1.6638E+02  1.1283E-07  1.8460E-07 -2.1104E-01  3.5077E-01
 56 3.2764E-02 2.7305E+01 1.6687E+02  0.00E+00  -3.8172E-04  1.6687E+02  1.1484E-07  2.0217E-07 -1.8454E-01  3.1037E-01
 57 3.5687E-02 2.6573E+01 1.6758E+02  0.00E+00  -3.8172E-04  1.6758E+02  1.2337E-07  2.2226E-07 -1.7579E-01  2.7275E-01
 58 3.8826E-02 2.5846E+01 1.6830E+02  0.00E+00  -3.8172E-04  1.6830E+02  1.3251E-07  2.4426E-07 -1.6372E-01  2.3925E-01
 59 4.2195E-02 2.5127E+01 1.6906E+02  0.00E+00  -3.8172E-04  1.6906E+02  1.4377E-07  2.7214E-07 -1.5738E-01  2.1057E-01
 60 4.5806E-02 2.4413E+01 1.6988E+02  0.00E+00  -3.8172E-04  1.6988E+02  1.5749E-07  3.0603E-07 -1.5265E-01  1.8688E-01
 61 4.9670E-02 2.3706E+01 1.7069E+02  0.00E+00  -3.8172E-04  1.7069E+02  1.7253E-07  3.4486E-07 -1.5533E-01  1.6793E-01
 62 5.3800E-02 2.3005E+01 1.7160E+02  0.00E+00  -3.8172E-04  1.7161E+02  1.9290E-07  3.9434E-07 -1.5628E-01  1.5312E-01
 63 5.8209E-02 2.2310E+01 1.7246E+02  0.00E+00  -3.8172E-04  1.7246E+02  2.1299E-07  4.4453E-07 -1.5894E-01  1.4176E-01
 64 6.2910E-02 2.1621E+01 1.7345E+02  0.00E+00  -3.8172E-04  1.7345E+02  2.4141E-07  5.1153E-07 -1.5877E-01  1.3305E-01
 65 6.7914E-02 2.0939E+01 1.7432E+02  0.00E+00  -3.8172E-04  1.7432E+02  2.6642E-07  5.7202E-07 -1.5837E-01  1.2630E-01
 66 7.3235E-02 2.0262E+01 1.7535E+02  0.00E+00  -3.8172E-04  1.7535E+02  3.0394E-07  6.5946E-07 -1.5674E-01  1.2086E-01
 67 7.8885E-02 1.9592E+01 1.7622E+02  0.00E+00  -3.8172E-04  1.7622E+02  3.3548E-07  7.3365E-07 -1.5298E-01  1.1630E-01
 68 8.4876E-02 1.8929E+01 1.7728E+02  0.00E+00  -3.8172E-04  1.7728E+02  3.8407E-07  8.4676E-07 -1.5020E-01  1.1221E-01
 69 9.1221E-02 1.8272E+01 1.7820E+02  0.00E+00  -3.8172E-04  1.7820E+02  4.2681E-07  9.4558E-07 -1.4368E-01  1.0840E-01
 70 9.7931E-02 1.7621E+01 1.7929E+02  0.00E+00  -3.8172E-04  1.7929E+02  4.9034E-07  1.0940E-06 -1.3995E-01  1.0468E-01
 71 1.0502E-01 1.6977E+01 1.8030E+02  0.00E+00  -3.8172E-04  1.8030E+02  5.5332E-07  1.2338E-06 -1.3353E-01  1.0683E-01
 72 1.1249E-01 1.6339E+01 1.8144E+02  0.00E+00  -3.8172E-04  1.8145E+02  6.4068E-07  1.4269E-06 -1.2690E-01  1.1028E-01
 73 1.2037E-01 1.5708E+01 1.8255E+02  0.00E+00  -3.8172E-04  1.8255E+02  7.3471E-07  1.6282E-06 -1.1618E-01  1.1249E-01
 74 1.2865E-01 1.5083E+01 1.8380E+02  0.00E+00  -3.8172E-04  1.8380E+02  8.6327E-07  1.8832E-06 -8.4942E-02  1.1355E-01
 75 1.3734E-01 1.4464E+01 1.8493E+02  0.00E+00  -3.8172E-04  1.8493E+02  9.9225E-07  2.1786E-06 -9.4169E-02  1.1363E-01
 76 1.4647E-01 1.3849E+01 1.8782E+02  0.00E+00  -3.8172E-04  1.8782E+02  1.5508E-06  2.5319E-06 -1.9318E-01  1.1308E-01
 77 1.5602E-01 1.3236E+01 1.9094E+02  1.00E+00  -3.8172E-04  1.9094E+02  2.4814E-06  3.1088E-06 -3.0935E-01  1.1235E-01
 78 1.6602E-01 1.2623E+01 1.9404E+02  1.00E+00  -3.8172E-04  1.9404E+02  3.8952E-06  3.6474E-06 -4.4320E-01  1.1180E-01
 79 1.7645E-01 1.2011E+01 1.9712E+02  1.00E+00  -3.8172E-04  1.9712E+02  6.0031E-06  5.4717E-06 -5.7774E-01  1.1183E-01
 80 1.8734E-01 1.1401E+01 2.0018E+02  1.00E+00  -3.8172E-04  2.0018E+02  9.0894E-06  8.0808E-06 -7.1116E-01  1.1280E-01
 81 1.9868E-01 1.0794E+01 2.0320E+02  1.00E+00  -3.8172E-04  2.0320E+02  1.3530E-05  1.1755E-05 -8.6047E-01  1.1495E-01
 82 2.1046E-01 1.0189E+01 2.0620E+02  1.00E+00  -3.8172E-04  2.0620E+02  1.9812E-05  1.6851E-05 -9.7564E-01  1.1830E-01
 83 2.2270E-01 9.5866E+00 2.0917E+02  1.00E+00  -3.8172E-04  2.0917E+02  2.8554E-05  2.3817E-05 -1.0445E+00  1.2268E-01
 84 2.3539E-01 8.9880E+00 2.1211E+02  1.00E+00  -3.8172E-04  2.1211E+02  4.0524E-05  3.3203E-05 -1.0754E+00  1.2811E-01
 85 2.4853E-01 8.3933E+00 2.1500E+02  1.00E+00  -3.8172E-04  2.1500E+02  5.6659E-05  4.5673E-05 -1.0995E+00  1.3513E-01
 86 2.6210E-01 7.8029E+00 2.1786E+02  1.00E+00  -3.8172E-04  2.1786E+02  7.8074E-05  6.2012E-05 -1.1232E+00  1.4445E-01
 87 2.7611E-01 7.2173E+00 2.2067E+02  1.00E+00  -3.8172E-04  2.2067E+02  1.0607E-04  8.3130E-05 -1.1585E+00  1.5550E-01
 88 2.9055E-01 6.6369E+00 2.2343E+02  1.00E+00  -3.8172E-04  2.2343E+02  1.4211E-04  1.1006E-04 -1.1673E+00  1.6603E-01
 89 3.0540E-01 6.0621E+00 2.2614E+02  1.00E+00  -3.8172E-04  2.2614E+02  1.8783E-04  1.4395E-04 -1.1437E+00  1.7345E-01
 90 3.2066E-01 5.4935E+00 2.2879E+02  1.00E+00  -3.8172E-04  2.2879E+02  2.4497E-04  1.8602E-04 -1.0879E+00  1.7657E-01
 91 3.3630E-01 4.9314E+00 2.3138E+02  1.00E+00  -3.8172E-04  2.3138E+02  3.1533E-04  2.3757E-04 -1.0385E+00  1.7642E-01
 92 3.5232E-01 4.3763E+00 2.3391E+02  1.00E+00  -3.8172E-04  2.3391E+02  4.0071E-04  2.9991E-04 -9.8263E-01  1.7578E-01
 93 3.6868E-01 3.8286E+00 2.3636E+02  1.00E+00  -3.8172E-04  2.3636E+02  5.0281E-04  3.7431E-04 -9.5007E-01  1.7744E-01
 94 3.8538E-01 3.2888E+00 2.3874E+02  1.00E+00  -3.8172E-04  2.3875E+02  6.2316E-04  4.6197E-04 -9.1675E-01  1.8229E-01
 95 4.0238E-01 2.7574E+00 2.4105E+02  1.00E+00  -3.8172E-04  2.4105E+02  7.6305E-04  5.6395E-04 -9.0176E-01  1.8931E-01
 96 4.1967E-01 2.2347E+00 2.4328E+02  1.00E+00  -3.8172E-04  2.4328E+02  9.2343E-04  6.8108E-04 -8.7934E-01  1.9685E-01
 97 4.3722E-01 1.7211E+00 2.4542E+02  1.00E+00  -3.8172E-04  2.4542E+02  1.1048E-03  8.1398E-04 -8.6572E-01  2.0353E-01
 98 4.5499E-01 1.2172E+00 2.4748E+02  1.00E+00  -3.8172E-04  2.4748E+02  1.3074E-03  9.6297E-04 -8.6781E-01  2.0859E-01
 99 4.7296E-01 7.2319E-01 2.4946E+02  1.00E+00  -3.8172E-04  2.4946E+02  1.5309E-03  1.1281E-03 -9.4786E-01  2.1206E-01
100 4.9110E-01 2.3959E-01 2.5136E+02  1.00E+00  -3.8172E-04  2.5136E+02  1.7745E-03  1.3090E-03 -1.0033E+00  2.1491E-01
101 5.0028E-01 0.0000E+00 2.5228E+02  1.00E+00  -3.8172E-04  2.5228E+02  1.9047E-03  1.4061E-03  0.0000E+00  0.0000E+00

 FCO2
  9.50E-01 9.50E-01 9.50E-01 9.50E-01 9.50E-01 9.50E-01 9.50E-01 9.50E-01 9.50E-01 9.50E-01
  9.50E-01 9.50E-01 9.50E-01 9.50E-01 9.50E-01 9.50E-01 9.50E-01 9.50E-01 9.50E-01 9.50E-01
  9.50E-01 9.50E-01 9.50E-01 9.50E-01 9.50E-01 9.50E-01 9.50E-01 9.50E-01 9.50E-01 9.50E-01
  9.50E-01 9.50E-01 9.50E-01 9.50E-01 9.50E-01 9.50E-01 9.50E-01 9.50E-01 9.50E-01 9.50E-01
  9.50E-01 9.50E-01 9.50E-01 9.50E-01 9.50E-01 9.50E-01 9.50E-01 9.50E-01 9.50E-01 9.50E-01
  9.50E-01 9.50E-01 9.50E-01 9.50E-01 9.50E-01 9.50E-01 9.50E-01 9.50E-01 9.50E-01 9.50E-01
  9.50E-01 9.50E-01 9.50E-01 9.50E-01 9.50E-01 9.50E-01 9.50E-01 9.50E-01 9.50E-01 9.50E-01
  9.50E-01 9.50E-01 9.50E-01 9.50E-01 9.50E-01 9.50E-01 9.50E-01 9.50E-01 9.50E-01 9.50E-01
  9.50E-01 9.50E-01 9.50E-01 9.50E-01 9.50E-01 9.50E-01 9.50E-01 9.50E-01 9.50E-01 9.50E-01
  9.50E-01 9.50E-01 9.50E-01 9.50E-01 9.50E-01 9.50E-01 9.50E-01 9.50E-01 9.50E-01 9.50E-01
  9.50E-01

  J    PF         ALT       FTOTAL       FTIR       FDNIR       FUPIR       FTSOL       FDNSOL       FUPSOL       DIVF
  1 5.0000E-05 8.0159E+01 -1.7920E+00 -1.1844E+05  0.0000E+00  1.1844E+05  1.1843E+05  1.6082E+05  4.2384E+04 -1.5131E-05
  2 5.7927E-05 7.8746E+01 -1.7660E+00 -1.1793E+05  3.9747E+02  1.1833E+05  1.1793E+05  1.6032E+05  4.2384E+04 -1.4924E-05
  3 6.7035E-05 7.7384E+01 -2.1133E+00 -1.1775E+05  4.8628E+02  1.1824E+05  1.1775E+05  1.6013E+05  4.2383E+04 -1.7873E-05
  4 7.7490E-05 7.6074E+01 -3.9452E+00 -1.1762E+05  5.2868E+02  1.1815E+05  1.1762E+05  1.6000E+05  4.2383E+04 -3.3391E-05
  5 8.9475E-05 7.4815E+01 -5.1275E-01 -1.1753E+05  5.5139E+02  1.1808E+05  1.1753E+05  1.5991E+05  4.2382E+04 -4.3423E-06
  6 1.0320E-04 7.3602E+01  1.1379E+00 -1.1747E+05  5.6471E+02  1.1803E+05  1.1747E+05  1.5985E+05  4.2382E+04  9.6403E-06
  7 1.1890E-04 7.2429E+01  1.0712E+01 -1.1741E+05  5.8393E+02  1.1800E+05  1.1742E+05  1.5980E+05  4.2381E+04  9.0783E-05
  8 1.3683E-04 7.1287E+01  2.3504E+01 -1.1736E+05  6.1200E+02  1.1797E+05  1.1738E+05  1.5976E+05  4.2380E+04  1.9924E-04
  9 1.5729E-04 7.0167E+01  3.3822E+01 -1.1731E+05  6.4557E+02  1.1796E+05  1.1734E+05  1.5972E+05  4.2379E+04  2.8674E-04
 10 1.8061E-04 6.9063E+01  4.0187E+01 -1.1726E+05  6.8238E+02  1.1795E+05  1.1731E+05  1.5968E+05  4.2378E+04  3.4072E-04
 11 2.0716E-04 6.7971E+01  4.3446E+01 -1.1722E+05  7.2224E+02  1.1794E+05  1.1726E+05  1.5964E+05  4.2377E+04  3.6836E-04
 12 2.3735E-04 6.6891E+01  4.4741E+01 -1.1717E+05  7.6587E+02  1.1794E+05  1.1722E+05  1.5959E+05  4.2376E+04  3.7935E-04
 13 2.7163E-04 6.5821E+01  4.5630E+01 -1.1712E+05  8.1511E+02  1.1794E+05  1.1717E+05  1.5954E+05  4.2374E+04  3.8690E-04
 14 3.1053E-04 6.4760E+01  4.7019E+01 -1.1707E+05  8.7160E+02  1.1794E+05  1.1712E+05  1.5949E+05  4.2372E+04  3.9866E-04
 15 3.5459E-04 6.3709E+01  4.9309E+01 -1.1701E+05  9.3640E+02  1.1795E+05  1.1706E+05  1.5943E+05  4.2370E+04  4.1806E-04
 16 4.0446E-04 6.2666E+01  5.2387E+01 -1.1695E+05  1.0095E+03  1.1796E+05  1.1700E+05  1.5937E+05  4.2368E+04  4.4412E-04
 17 4.6082E-04 6.1631E+01  5.5728E+01 -1.1688E+05  1.0899E+03  1.1797E+05  1.1694E+05  1.5930E+05  4.2366E+04  4.7239E-04
 18 5.2446E-04 6.0602E+01  5.8534E+01 -1.1681E+05  1.1752E+03  1.1798E+05  1.1687E+05  1.5923E+05  4.2363E+04  4.9612E-04
 19 5.9623E-04 5.9580E+01  5.9936E+01 -1.1674E+05  1.2628E+03  1.1800E+05  1.1680E+05  1.5916E+05  4.2360E+04  5.0793E-04
 20 6.7706E-04 5.8565E+01  6.0204E+01 -1.1666E+05  1.3507E+03  1.1802E+05  1.1673E+05  1.5908E+05  4.2356E+04  5.1013E-04
 21 7.6800E-04 5.7556E+01  5.7792E+01 -1.1659E+05  1.4347E+03  1.1803E+05  1.1665E+05  1.5900E+05  4.2352E+04  4.8964E-04
 22 8.7018E-04 5.6554E+01  5.3590E+01 -1.1652E+05  1.5134E+03  1.1804E+05  1.1658E+05  1.5892E+05  4.2347E+04  4.5401E-04
 23 9.8486E-04 5.5559E+01  4.5728E+01 -1.1646E+05  1.5833E+03  1.1804E+05  1.1650E+05  1.5884E+05  4.2342E+04  3.8740E-04
 24 1.1134E-03 5.4574E+01  3.6966E+01 -1.1639E+05  1.6505E+03  1.1804E+05  1.1642E+05  1.5876E+05  4.2337E+04  3.1317E-04
 25 1.2574E-03 5.3597E+01  2.9593E+01 -1.1631E+05  1.7222E+03  1.1803E+05  1.1634E+05  1.5867E+05  4.2330E+04  2.5072E-04
 26 1.4183E-03 5.2631E+01  2.4079E+01 -1.1622E+05  1.7977E+03  1.1802E+05  1.1625E+05  1.5857E+05  4.2323E+04  2.0402E-04
 27 1.5981E-03 5.1675E+01  2.5018E+01 -1.1613E+05  1.8816E+03  1.1802E+05  1.1616E+05  1.5847E+05  4.2315E+04  2.1199E-04
 28 1.7987E-03 5.0728E+01  3.0615E+01 -1.1604E+05  1.9729E+03  1.1801E+05  1.1607E+05  1.5838E+05  4.2306E+04  2.5942E-04
 29 2.0222E-03 4.9791E+01  4.1630E+01 -1.1595E+05  2.0740E+03  1.1802E+05  1.1599E+05  1.5828E+05  4.2296E+04  3.5274E-04
 30 2.2710E-03 4.8862E+01  5.3913E+01 -1.1585E+05  2.1817E+03  1.1803E+05  1.1591E+05  1.5819E+05  4.2285E+04  4.5676E-04
 31 2.5475E-03 4.7942E+01  6.3766E+01 -1.1576E+05  2.2924E+03  1.1805E+05  1.1582E+05  1.5810E+05  4.2273E+04  5.4015E-04
 32 2.8545E-03 4.7030E+01  7.2630E+01 -1.1567E+05  2.4076E+03  1.1808E+05  1.1574E+05  1.5800E+05  4.2259E+04  6.1511E-04
 33 3.1950E-03 4.6125E+01  7.6376E+01 -1.1558E+05  2.5214E+03  1.1810E+05  1.1566E+05  1.5790E+05  4.2244E+04  6.4668E-04
 34 3.5721E-03 4.5228E+01  7.6377E+01 -1.1550E+05  2.6338E+03  1.1813E+05  1.1558E+05  1.5780E+05  4.2228E+04  6.4653E-04
 35 3.9893E-03 4.4338E+01  7.4335E+01 -1.1542E+05  2.7458E+03  1.1816E+05  1.1549E+05  1.5770E+05  4.2209E+04  6.2908E-04
 36 4.4503E-03 4.3456E+01  7.1841E+01 -1.1534E+05  2.8590E+03  1.1820E+05  1.1541E+05  1.5760E+05  4.2189E+04  6.0780E-04
 37 4.9590E-03 4.2582E+01  7.3908E+01 -1.1525E+05  2.9806E+03  1.1823E+05  1.1533E+05  1.5749E+05  4.2166E+04  6.2510E-04
 38 5.5197E-03 4.1715E+01  7.7043E+01 -1.1517E+05  3.1073E+03  1.1828E+05  1.1525E+05  1.5739E+05  4.2141E+04  6.5139E-04
 39 6.1369E-03 4.0855E+01  8.1662E+01 -1.1508E+05  3.2404E+03  1.1832E+05  1.1516E+05  1.5728E+05  4.2114E+04  6.9017E-04
 40 6.8156E-03 4.0003E+01  9.1317E+01 -1.1499E+05  3.3862E+03  1.1837E+05  1.1508E+05  1.5716E+05  4.2084E+04  7.7143E-04
 41 7.5610E-03 3.9158E+01  1.0018E+02 -1.1489E+05  3.5386E+03  1.1843E+05  1.1499E+05  1.5704E+05  4.2051E+04  8.4586E-04
 42 8.3786E-03 3.8320E+01  1.0715E+02 -1.1480E+05  3.6969E+03  1.1849E+05  1.1490E+05  1.5692E+05  4.2015E+04  9.0427E-04
 43 9.2742E-03 3.7488E+01  1.1480E+02 -1.1469E+05  3.8658E+03  1.1856E+05  1.1481E+05  1.5679E+05  4.1976E+04  9.6826E-04
 44 1.0254E-02 3.6664E+01  1.1804E+02 -1.1459E+05  4.0385E+03  1.1863E+05  1.1471E+05  1.5664E+05  4.1933E+04  9.9501E-04
 45 1.1325E-02 3.5846E+01  1.2481E+02 -1.1447E+05  4.2378E+03  1.1871E+05  1.1460E+05  1.5649E+05  4.1886E+04  1.0514E-03
 46 1.2494E-02 3.5034E+01  1.2453E+02 -1.1434E+05  4.4550E+03  1.1880E+05  1.1447E+05  1.5630E+05  4.1835E+04  1.0483E-03
 47 1.3768E-02 3.4230E+01  1.1689E+02 -1.1420E+05  4.6900E+03  1.1889E+05  1.1432E+05  1.5610E+05  4.1779E+04  9.8313E-04
 48 1.5156E-02 3.3432E+01  9.4293E+01 -1.1406E+05  4.9309E+03  1.1899E+05  1.1416E+05  1.5587E+05  4.1719E+04  7.9243E-04
 49 1.6664E-02 3.2640E+01  6.4366E+01 -1.1391E+05  5.1846E+03  1.1909E+05  1.1397E+05  1.5563E+05  4.1653E+04  5.4047E-04
 50 1.8302E-02 3.1856E+01  2.3920E+01 -1.1375E+05  5.4428E+03  1.1920E+05  1.1378E+05  1.5536E+05  4.1582E+04  2.0068E-04
 51 2.0079E-02 3.1079E+01 -1.8471E+01 -1.1359E+05  5.7132E+03  1.1930E+05  1.1357E+05  1.5508E+05  4.1504E+04 -1.5482E-04
 52 2.2005E-02 3.0309E+01 -6.8395E+01 -1.1343E+05  5.9847E+03  1.1941E+05  1.1336E+05  1.5478E+05  4.1421E+04 -5.7277E-04
 53 2.4087E-02 2.9547E+01 -1.2093E+02 -1.1326E+05  6.2614E+03  1.1952E+05  1.1314E+05  1.5447E+05  4.1331E+04 -1.0118E-03
 54 2.6338E-02 2.8792E+01 -1.8386E+02 -1.1311E+05  6.5321E+03  1.1964E+05  1.1293E+05  1.5416E+05  4.1234E+04 -1.5367E-03
 55 2.8767E-02 2.8045E+01 -2.5756E+02 -1.1297E+05  6.7984E+03  1.1977E+05  1.1272E+05  1.5385E+05  4.1130E+04 -2.1504E-03
 56 3.1385E-02 2.7305E+01 -3.3856E+02 -1.1285E+05  7.0817E+03  1.1993E+05  1.1251E+05  1.5353E+05  4.1017E+04 -2.8229E-03
 57 3.4204E-02 2.6573E+01 -4.1714E+02 -1.1274E+05  7.4028E+03  1.2014E+05  1.1232E+05  1.5322E+05  4.0897E+04 -3.4721E-03
 58 3.7234E-02 2.5846E+01 -4.8230E+02 -1.1262E+05  7.7410E+03  1.2036E+05  1.1214E+05  1.5290E+05  4.0768E+04 -4.0072E-03
 59 4.0487E-02 2.5127E+01 -5.3686E+02 -1.1250E+05  8.1029E+03  1.2060E+05  1.1196E+05  1.5259E+05  4.0630E+04 -4.4515E-03
 60 4.3976E-02 2.4413E+01 -5.7811E+02 -1.1238E+05  8.4933E+03  1.2087E+05  1.1180E+05  1.5228E+05  4.0482E+04 -4.7829E-03
 61 4.7712E-02 2.3706E+01 -6.0658E+02 -1.1225E+05  8.9038E+03  1.2115E+05  1.1164E+05  1.5197E+05  4.0324E+04 -5.0067E-03
 62 5.1708E-02 2.3005E+01 -6.1780E+02 -1.1211E+05  9.3612E+03  1.2147E+05  1.1149E+05  1.5165E+05  4.0157E+04 -5.0859E-03
 63 5.5977E-02 2.2310E+01 -6.1479E+02 -1.1196E+05  9.8398E+03  1.2180E+05  1.1135E+05  1.5133E+05  3.9978E+04 -5.0474E-03
 64 6.0531E-02 2.1621E+01 -5.9732E+02 -1.1180E+05  1.0376E+04  1.2218E+05  1.1120E+05  1.5099E+05  3.9788E+04 -4.8889E-03
 65 6.5382E-02 2.0939E+01 -5.6941E+02 -1.1163E+05  1.0921E+04  1.2255E+05  1.1106E+05  1.5065E+05  3.9586E+04 -4.6463E-03
 66 7.0544E-02 2.0262E+01 -5.3233E+02 -1.1145E+05  1.1535E+04  1.2298E+05  1.1091E+05  1.5029E+05  3.9373E+04 -4.3286E-03
 67 7.6028E-02 1.9592E+01 -4.8820E+02 -1.1125E+05  1.2151E+04  1.2340E+05  1.1077E+05  1.4991E+05  3.9147E+04 -3.9561E-03
 68 8.1848E-02 1.8929E+01 -4.4025E+02 -1.1105E+05  1.2845E+04  1.2390E+05  1.1061E+05  1.4952E+05  3.8908E+04 -3.5533E-03
 69 8.8016E-02 1.8272E+01 -3.8755E+02 -1.1085E+05  1.3546E+04  1.2439E+05  1.1046E+05  1.4911E+05  3.8656E+04 -3.1155E-03
 70 9.4543E-02 1.7621E+01 -3.3568E+02 -1.1063E+05  1.4328E+04  1.2496E+05  1.1030E+05  1.4869E+05  3.8390E+04 -2.6863E-03
 71 1.0144E-01 1.6977E+01 -2.8081E+02 -1.1042E+05  1.5135E+04  1.2555E+05  1.1014E+05  1.4825E+05  3.8111E+04 -2.2366E-03
 72 1.0872E-01 1.6339E+01 -2.3691E+02 -1.1020E+05  1.6036E+04  1.2623E+05  1.0996E+05  1.4778E+05  3.7818E+04 -1.8767E-03
 73 1.1640E-01 1.5708E+01 -2.0806E+02 -1.0998E+05  1.6999E+04  1.2697E+05  1.0977E+05  1.4728E+05  3.7510E+04 -1.6386E-03
 74 1.2447E-01 1.5083E+01 -2.0132E+02 -1.0976E+05  1.8076E+04  1.2784E+05  1.0956E+05  1.4675E+05  3.7188E+04 -1.5748E-03
 75 1.3296E-01 1.4464E+01 -2.5646E+02 -1.0960E+05  1.9205E+04  1.2881E+05  1.0934E+05  1.4619E+05  3.6851E+04 -1.9911E-03
 76 1.4187E-01 1.3849E+01 -2.9590E+02 -1.0941E+05  2.1020E+04  1.3043E+05  1.0911E+05  1.4561E+05  3.6499E+04 -2.2687E-03
 77 1.5121E-01 1.3236E+01 -1.2508E+02 -1.0900E+05  2.3272E+04  1.3227E+05  1.0887E+05  1.4500E+05  3.6132E+04 -9.4565E-04
 78 1.6099E-01 1.2623E+01  3.1657E+02 -1.0830E+05  2.5950E+04  1.3425E+05  1.0862E+05  1.4437E+05  3.5750E+04  2.3580E-03
 79 1.7120E-01 1.2011E+01  1.0965E+03 -1.0726E+05  2.9140E+04  1.3640E+05  1.0836E+05  1.4371E+05  3.5352E+04  8.0391E-03
 80 1.8187E-01 1.1401E+01  2.2460E+03 -1.0584E+05  3.2865E+04  1.3870E+05  1.0808E+05  1.4302E+05  3.4939E+04  1.6193E-02
 81 1.9298E-01 1.0794E+01  3.7911E+03 -1.0400E+05  3.7145E+04  1.4114E+05  1.0779E+05  1.4230E+05  3.4511E+04  2.6860E-02
 82 2.0454E-01 1.0189E+01  5.8030E+03 -1.0168E+05  4.2220E+04  1.4390E+05  1.0748E+05  1.4155E+05  3.4068E+04  4.0327E-02
 83 2.1656E-01 9.5866E+00  8.2172E+03 -9.8929E+04  4.8021E+04  1.4695E+05  1.0715E+05  1.4076E+05  3.3610E+04  5.5919E-02
 84 2.2902E-01 8.9880E+00  1.0922E+04 -9.5865E+04  5.4430E+04  1.5030E+05  1.0679E+05  1.3992E+05  3.3137E+04  7.2669E-02
 85 2.4194E-01 8.3933E+00  1.3813E+04 -9.2583E+04  6.1343E+04  1.5393E+05  1.0640E+05  1.3905E+05  3.2650E+04  8.9737E-02
 86 2.5530E-01 7.8029E+00  1.6870E+04 -8.9098E+04  6.8743E+04  1.5784E+05  1.0597E+05  1.3812E+05  3.2149E+04  1.0688E-01
 87 2.6909E-01 7.2173E+00  2.0086E+04 -8.5406E+04  7.6566E+04  1.6197E+05  1.0549E+05  1.3713E+05  3.1634E+04  1.2401E-01
 88 2.8332E-01 6.6369E+00  2.3499E+04 -8.1464E+04  8.4886E+04  1.6635E+05  1.0496E+05  1.3607E+05  3.1106E+04  1.4126E-01
 89 2.9797E-01 6.0621E+00  2.7020E+04 -7.7359E+04  9.3598E+04  1.7096E+05  1.0438E+05  1.3495E+05  3.0566E+04  1.5805E-01
 90 3.1303E-01 5.4935E+00  3.0541E+04 -7.3209E+04  1.0257E+05  1.7578E+05  1.0375E+05  1.3377E+05  3.0015E+04  1.7375E-01
 91 3.2848E-01 4.9314E+00  3.3947E+04 -6.9144E+04  1.1160E+05  1.8075E+05  1.0309E+05  1.3254E+05  2.9453E+04  1.8781E-01
 92 3.4431E-01 4.3763E+00  3.7259E+04 -6.5153E+04  1.2072E+05  1.8587E+05  1.0241E+05  1.3130E+05  2.8883E+04  2.0046E-01
 93 3.6051E-01 3.8286E+00  4.0442E+04 -6.1277E+04  1.2981E+05  1.9109E+05  1.0172E+05  1.3002E+05  2.8305E+04  2.1164E-01
 94 3.7704E-01 3.2888E+00  4.3564E+04 -5.7438E+04  1.3896E+05  1.9640E+05  1.0100E+05  1.2872E+05  2.7722E+04  2.2182E-01
 95 3.9390E-01 2.7574E+00  4.6599E+04 -5.3650E+04  1.4807E+05  2.0172E+05  1.0025E+05  1.2738E+05  2.7134E+04  2.3101E-01
 96 4.1105E-01 2.2347E+00  4.9604E+04 -4.9846E+04  1.5721E+05  2.0706E+05  9.9450E+04  1.2600E+05  2.6546E+04  2.3957E-01
 97 4.2848E-01 1.7211E+00  5.2537E+04 -4.6067E+04  1.6626E+05  2.1233E+05  9.8604E+04  1.2456E+05  2.5959E+04  2.4744E-01
 98 4.4614E-01 1.2172E+00  5.5431E+04 -4.2284E+04  1.7518E+05  2.1746E+05  9.7715E+04  1.2309E+05  2.5377E+04  2.5490E-01
 99 4.6402E-01 7.2319E-01  5.8354E+04 -3.8436E+04  1.8391E+05  2.2235E+05  9.6790E+04  1.2159E+05  2.4805E+04  2.6244E-01
100 4.8208E-01 2.3959E-01  6.1659E+04 -3.4179E+04  1.9241E+05  2.2659E+05  9.5838E+04  1.2009E+05  2.4248E+04  2.7212E-01
101 5.0028E-01 0.0000E+00  6.5237E+04 -2.9626E+04  1.9887E+05  2.2849E+05  9.4862E+04  1.1858E+05  2.3716E+04  2.8551E-01
 
