 
    OUTPUT FILES FOR THE Sun  
 
 Solar Constant= 0.473   F_CH4= 1.0000E-60  F_CO2= 9.5000E-01  F_O2= 1.0000E-60  F_N2= 5.0000E-02  IO3 =  0   IUP=  0
 ICONSERV= 1  FAC= 4.0  ND=101  SRFALB= 0.200  G=373.0  IMW= 0

 FNO2 = 1.000E-60
 
 NST=     1 JCONV= 83 CHG=4.37E-04 dt0=1.00E+04 DIVF(1)= 1.76E-04 DIVFrms= 1.22E-02 DT(ND)= 2.02E-02 T(ND)=2.6306E+02

 TIME= 2.500E+03  TIME IN DAYS = 2.894E-02

 PLANETARY ALBEDO:  ALBP = 0.3048

  J     P         ALT         T        CONVEC       DT          TOLD        FH20       FSAVE       TCOOL       THEAT
  1 5.4117E-05 8.6926E+01 1.9069E+02  0.00E+00   3.7248E-02  1.9065E+02  8.6191E-08  8.6263E-08 -2.6305E+02  2.6307E+02
  2 6.3359E-05 8.5408E+01 1.8490E+02  0.00E+00  -2.6423E-02  1.8492E+02  8.6191E-08  8.6263E-08 -8.3359E+01  8.4334E+01
  3 7.4090E-05 8.3949E+01 1.7890E+02  0.00E+00  -5.2144E-02  1.7895E+02  8.6191E-08  8.6263E-08 -4.9151E+01  4.9301E+01
  4 8.6535E-05 8.2548E+01 1.7296E+02  0.00E+00  -3.2001E-02  1.7299E+02  8.6191E-08  8.6263E-08 -3.0254E+01  2.8848E+01
  5 1.0095E-04 8.1203E+01 1.6737E+02  0.00E+00  -7.3194E-02  1.6745E+02  8.6191E-08  8.6263E-08 -1.8659E+01  1.7667E+01
  6 1.1762E-04 7.9909E+01 1.6269E+02  0.00E+00  -3.8622E-02  1.6273E+02  8.6191E-08  8.6263E-08 -1.5672E+01  1.1947E+01
  7 1.3689E-04 7.8657E+01 1.5938E+02  0.00E+00   1.1361E-02  1.5936E+02  8.6191E-08  8.6263E-08 -1.2495E+01  9.1949E+00
  8 1.5912E-04 7.7434E+01 1.5741E+02  0.00E+00  -1.4789E-02  1.5742E+02  8.6191E-08  8.6263E-08 -9.8950E+00  7.9162E+00
  9 1.8474E-04 7.6233E+01 1.5639E+02  0.00E+00  -4.1782E-02  1.5643E+02  8.6191E-08  8.6263E-08 -8.1949E+00  7.2883E+00
 10 2.1423E-04 7.5048E+01 1.5587E+02  0.00E+00  -4.4342E-02  1.5591E+02  8.6191E-08  8.6263E-08 -7.2223E+00  6.9023E+00
 11 2.4813E-04 7.3874E+01 1.5556E+02  0.00E+00  -3.2156E-02  1.5560E+02  8.6191E-08  8.6263E-08 -6.7376E+00  6.5808E+00
 12 2.8704E-04 7.2713E+01 1.5536E+02  0.00E+00  -1.8409E-02  1.5537E+02  8.6191E-08  8.6263E-08 -6.4518E+00  6.2588E+00
 13 3.3167E-04 7.1562E+01 1.5524E+02  0.00E+00  -9.1430E-03  1.5525E+02  8.6191E-08  8.6263E-08 -6.1992E+00  5.9174E+00
 14 3.8278E-04 7.0421E+01 1.5525E+02  0.00E+00  -4.0924E-03  1.5525E+02  8.6191E-08  8.6263E-08 -5.8843E+00  5.5537E+00
 15 4.4123E-04 6.9289E+01 1.5539E+02  0.00E+00  -2.2344E-03  1.5540E+02  8.6191E-08  8.6263E-08 -5.4696E+00  5.1698E+00
 16 5.0800E-04 6.8165E+01 1.5567E+02  0.00E+00  -1.9722E-03  1.5567E+02  8.6191E-08  8.6263E-08 -4.9650E+00  4.7697E+00
 17 5.8418E-04 6.7048E+01 1.5605E+02  0.00E+00   3.3888E-04  1.5605E+02  8.6191E-08  8.6263E-08 -4.4675E+00  4.3592E+00
 18 6.7097E-04 6.5938E+01 1.5646E+02  0.00E+00   2.4830E-03  1.5646E+02  8.6191E-08  8.6263E-08 -3.8928E+00  3.9447E+00
 19 7.6974E-04 6.4835E+01 1.5686E+02  0.00E+00   3.6130E-03  1.5686E+02  8.6191E-08  8.6263E-08 -3.3306E+00  3.5333E+00
 20 8.8200E-04 6.3739E+01 1.5717E+02  0.00E+00   4.4074E-03  1.5717E+02  8.6191E-08  8.6263E-08 -2.8459E+00  3.1327E+00
 21 1.0094E-03 6.2651E+01 1.5735E+02  0.00E+00   1.4447E-03  1.5735E+02  8.6191E-08  8.6263E-08 -2.3782E+00  2.7784E+00
 22 1.1539E-03 6.1571E+01 1.5737E+02  0.00E+00   8.6856E-04  1.5737E+02  8.6191E-08  8.6263E-08 -2.4899E+00  2.7483E+00
 23 1.3174E-03 6.0502E+01 1.5727E+02  0.00E+00   1.4857E-05  1.5727E+02  8.6191E-08  8.6263E-08 -2.3804E+00  2.5611E+00
 24 1.5023E-03 5.9443E+01 1.5710E+02  0.00E+00  -7.8201E-04  1.5710E+02  8.6191E-08  8.6263E-08 -2.3013E+00  2.2771E+00
 25 1.7111E-03 5.8395E+01 1.5694E+02  0.00E+00  -5.3918E-04  1.5694E+02  8.6191E-08  8.6263E-08 -2.1200E+00  1.9680E+00
 26 1.9467E-03 5.7358E+01 1.5684E+02  0.00E+00   8.1025E-05  1.5684E+02  8.6191E-08  8.6263E-08 -1.9409E+00  1.6910E+00
 27 2.2120E-03 5.6330E+01 1.5686E+02  0.00E+00  -2.0512E-04  1.5686E+02  8.6191E-08  8.6263E-08 -1.7025E+00  1.4710E+00
 28 2.5104E-03 5.5311E+01 1.5697E+02  0.00E+00  -2.2113E-03  1.5697E+02  8.6191E-08  8.6263E-08 -1.4506E+00  1.3026E+00
 29 2.8457E-03 5.4302E+01 1.5717E+02  0.00E+00  -2.3345E-03  1.5717E+02  8.6191E-08  8.6263E-08 -1.2723E+00  1.1668E+00
 30 3.2220E-03 5.3300E+01 1.5741E+02  0.00E+00  -2.0372E-03  1.5742E+02  8.6191E-08  8.6263E-08 -1.0751E+00  1.0478E+00
 31 3.6436E-03 5.2306E+01 1.5768E+02  0.00E+00  -2.4773E-03  1.5768E+02  8.6191E-08  8.6263E-08 -9.2796E-01  9.3873E-01
 32 4.1155E-03 5.1321E+01 1.5796E+02  0.00E+00  -2.5191E-03  1.5796E+02  8.6191E-08  8.6263E-08 -8.2051E-01  8.3918E-01
 33 4.6429E-03 5.0343E+01 1.5824E+02  0.00E+00  -1.2108E-03  1.5824E+02  8.6191E-08  8.6263E-08 -7.7624E-01  7.5050E-01
 34 5.2317E-03 4.9373E+01 1.5853E+02  0.00E+00  -7.1117E-04  1.5853E+02  8.6191E-08  8.6263E-08 -7.0870E-01  6.7376E-01
 35 5.8881E-03 4.8411E+01 1.5885E+02  0.00E+00  -1.3255E-03  1.5885E+02  8.6191E-08  8.6263E-08 -6.5489E-01  6.0931E-01
 36 6.6189E-03 4.7457E+01 1.5920E+02  0.00E+00  -9.9434E-04  1.5920E+02  8.6191E-08  8.6263E-08 -6.3300E-01  5.5695E-01
 37 7.4315E-03 4.6511E+01 1.5959E+02  0.00E+00  -9.0095E-04  1.5959E+02  8.6191E-08  8.6263E-08 -5.7866E-01  5.1600E-01
 38 8.3340E-03 4.5571E+01 1.6002E+02  0.00E+00  -7.1909E-04  1.6002E+02  8.6191E-08  8.6263E-08 -5.4923E-01  4.8516E-01
 39 9.3348E-03 4.4639E+01 1.6049E+02  0.00E+00  -8.9680E-04  1.6049E+02  8.6191E-08  8.6263E-08 -4.9672E-01  4.6246E-01
 40 1.0443E-02 4.3714E+01 1.6099E+02  0.00E+00  -1.0284E-03  1.6099E+02  8.6191E-08  8.6263E-08 -4.8648E-01  4.6699E-01
 41 1.1670E-02 4.2796E+01 1.6151E+02  0.00E+00   4.1081E-04  1.6151E+02  8.6191E-08  8.6263E-08 -5.2139E-01  5.0079E-01
 42 1.3024E-02 4.1885E+01 1.6204E+02  0.00E+00   1.6097E-03  1.6204E+02  8.6191E-08  8.6263E-08 -5.1578E-01  5.2660E-01
 43 1.4519E-02 4.0981E+01 1.6259E+02  0.00E+00   1.3112E-03  1.6258E+02  8.6191E-08  8.6263E-08 -4.7947E-01  5.4245E-01
 44 1.6165E-02 4.0084E+01 1.6312E+02  0.00E+00   1.2788E-03  1.6312E+02  8.6191E-08  8.6263E-08 -4.6679E-01  5.4633E-01
 45 1.7977E-02 3.9194E+01 1.6363E+02  0.00E+00   1.5775E-03  1.6363E+02  8.6191E-08  8.6263E-08 -4.3889E-01  5.3736E-01
 46 1.9968E-02 3.8311E+01 1.6411E+02  0.00E+00   2.2336E-03  1.6411E+02  8.6191E-08  8.6263E-08 -4.2596E-01  5.1603E-01
 47 2.2153E-02 3.7436E+01 1.6457E+02  0.00E+00   2.5729E-03  1.6457E+02  8.6191E-08  8.6263E-08 -3.8865E-01  4.8397E-01
 48 2.4548E-02 3.6568E+01 1.6500E+02  0.00E+00   2.3457E-03  1.6500E+02  8.6191E-08  8.6263E-08 -3.4811E-01  4.4366E-01
 49 2.7169E-02 3.5709E+01 1.6541E+02  0.00E+00   2.3092E-03  1.6540E+02  8.6191E-08  8.6263E-08 -3.1351E-01  3.9820E-01
 50 3.0034E-02 3.4857E+01 1.6579E+02  0.00E+00   2.0615E-03  1.6578E+02  8.6191E-08  8.6263E-08 -2.6936E-01  3.5088E-01
 51 3.3162E-02 3.4014E+01 1.6615E+02  0.00E+00   1.7165E-03  1.6615E+02  8.6191E-08  8.6263E-08 -2.3712E-01  3.0486E-01
 52 3.6572E-02 3.3180E+01 1.6649E+02  0.00E+00   1.3250E-03  1.6649E+02  8.6191E-08  8.6263E-08 -2.0733E-01  2.6272E-01
 53 4.0283E-02 3.2353E+01 1.6683E+02  0.00E+00   8.9667E-04  1.6683E+02  8.6191E-08  8.6263E-08 -1.8857E-01  2.2621E-01
 54 4.4319E-02 3.1536E+01 1.6717E+02  0.00E+00   6.1802E-04  1.6717E+02  8.6191E-08  8.6263E-08 -1.7874E-01  1.9615E-01
 55 4.8701E-02 3.0727E+01 1.6751E+02  0.00E+00   3.8471E-04  1.6751E+02  8.6191E-08  8.6263E-08 -1.7131E-01  1.7251E-01
 56 5.3451E-02 2.9926E+01 1.6787E+02  0.00E+00   1.8384E-04  1.6787E+02  8.6191E-08  8.6263E-08 -1.6713E-01  1.5459E-01
 57 5.8595E-02 2.9134E+01 1.6825E+02  0.00E+00   1.3906E-04  1.6825E+02  8.6191E-08  8.6263E-08 -1.6404E-01  1.4135E-01
 58 6.4158E-02 2.8351E+01 1.6864E+02  0.00E+00   1.8728E-04  1.6864E+02  8.6191E-08  8.6263E-08 -1.5814E-01  1.3161E-01
 59 7.0164E-02 2.7576E+01 1.6905E+02  0.00E+00   6.7860E-04  1.6905E+02  8.6219E-08  8.6300E-08 -1.4574E-01  1.2428E-01
 60 7.6641E-02 2.6810E+01 1.6947E+02  0.00E+00  -3.0371E-03  1.6947E+02  8.6331E-08  8.6446E-08 -1.3929E-01  1.1847E-01
 61 8.3616E-02 2.6051E+01 1.7026E+02  0.00E+00  -9.3464E-04  1.7026E+02  9.3539E-08  9.3671E-08 -1.4575E-01  1.1345E-01
 62 9.1117E-02 2.5299E+01 1.7116E+02  0.00E+00  -1.0038E-03  1.7116E+02  1.0383E-07  1.0398E-07 -1.4350E-01  1.0881E-01
 63 9.9172E-02 2.4553E+01 1.7200E+02  0.00E+00  -1.0942E-03  1.7200E+02  1.1365E-07  1.1382E-07 -1.4213E-01  1.0432E-01
 64 1.0781E-01 2.3815E+01 1.7302E+02  0.00E+00  -9.4113E-04  1.7302E+02  1.2901E-07  1.2919E-07 -1.4105E-01  1.0853E-01
 65 1.1706E-01 2.3082E+01 1.7392E+02  0.00E+00  -7.3348E-04  1.7392E+02  1.4272E-07  1.4292E-07 -1.3719E-01  1.1184E-01
 66 1.2695E-01 2.2357E+01 1.7499E+02  0.00E+00  -5.8799E-04  1.7499E+02  1.6305E-07  1.6328E-07 -1.3366E-01  1.1334E-01
 67 1.3752E-01 2.1637E+01 1.7590E+02  0.00E+00  -4.0253E-04  1.7590E+02  1.8048E-07  1.8073E-07 -1.2718E-01  1.1327E-01
 68 1.4878E-01 2.0925E+01 1.7700E+02  0.00E+00  -2.1915E-04  1.7700E+02  2.0716E-07  2.0744E-07 -1.1939E-01  1.1181E-01
 69 1.6077E-01 2.0219E+01 1.7797E+02  0.00E+00   4.9225E-05  1.7797E+02  2.3167E-07  2.3197E-07 -1.0761E-01  1.0931E-01
 70 1.7353E-01 1.9520E+01 1.7913E+02  0.00E+00   3.5305E-04  1.7913E+02  2.6815E-07  2.6849E-07 -9.3818E-02  1.0602E-01
 71 1.8707E-01 1.8828E+01 1.8023E+02  0.00E+00   8.1203E-04  1.8022E+02  3.0651E-07  3.0688E-07 -7.4163E-02  1.0223E-01
 72 2.0143E-01 1.8142E+01 1.8154E+02  0.00E+00   1.7149E-03  1.8154E+02  3.6407E-07  3.6445E-07 -3.8877E-02  9.8142E-02
 73 2.1663E-01 1.7463E+01 1.8267E+02  0.00E+00   1.7049E-03  1.8267E+02  4.1768E-07  4.1812E-07 -3.5071E-02  9.3994E-02
 74 2.3270E-01 1.6787E+01 1.8581E+02  0.00E+00  -3.0462E-04  1.8581E+02  6.8524E-07  6.8622E-07 -1.0046E-01  8.9933E-02
 75 2.4966E-01 1.6110E+01 1.8925E+02  0.00E+00  -2.7017E-03  1.8926E+02  1.1643E-06  1.1665E-06 -1.7969E-01  8.6315E-02
 76 2.6754E-01 1.5433E+01 1.9269E+02  0.00E+00  -5.1770E-03  1.9269E+02  1.9346E-06  1.9390E-06 -2.6224E-01  8.3320E-02
 77 2.8635E-01 1.4755E+01 1.9610E+02  0.00E+00  -7.7397E-03  1.9611E+02  3.1458E-06  3.1542E-06 -3.4861E-01  8.1123E-02
 78 3.0612E-01 1.4078E+01 1.9950E+02  0.00E+00  -1.0134E-02  1.9951E+02  5.0108E-06  5.0258E-06 -4.3011E-01  7.9868E-02
 79 3.2687E-01 1.3401E+01 2.0287E+02  0.00E+00  -1.2678E-02  2.0288E+02  7.8246E-06  7.8506E-06 -5.1777E-01  7.9606E-02
 80 3.4861E-01 1.2726E+01 2.0622E+02  0.00E+00  -1.4715E-02  2.0623E+02  1.1989E-05  1.2032E-05 -5.8883E-01  8.0265E-02
 81 3.7134E-01 1.2052E+01 2.0954E+02  0.00E+00  -1.5294E-02  2.0956E+02  1.8040E-05  1.8105E-05 -6.1038E-01  8.1809E-02
 82 3.9509E-01 1.1381E+01 2.1284E+02  0.00E+00  -1.5109E-02  2.1285E+02  2.6673E-05  2.6767E-05 -6.3261E-01  8.4571E-02
 83 4.1986E-01 1.0712E+01 2.1610E+02  1.00E+00  -1.4770E-02  2.1612E+02  3.8770E-05  3.8903E-05 -6.6135E-01  8.9086E-02
 84 4.4564E-01 1.0047E+01 2.1932E+02  1.00E+00  -1.4267E-02  2.1934E+02  5.5431E-05  5.5615E-05 -6.6606E-01  9.4937E-02
 85 4.7244E-01 9.3852E+00 2.2251E+02  1.00E+00  -1.3599E-02  2.2252E+02  7.7991E-05  7.8240E-05 -6.5538E-01  1.0027E-01
 86 5.0025E-01 8.7278E+00 2.2564E+02  1.00E+00  -1.2759E-02  2.2566E+02  1.0803E-04  1.0836E-04 -6.2673E-01  1.0315E-01
 87 5.2907E-01 8.0752E+00 2.2873E+02  1.00E+00  -1.1732E-02  2.2874E+02  1.4738E-04  1.4781E-04 -5.8959E-01  1.0317E-01
 88 5.5888E-01 7.4279E+00 2.3176E+02  1.00E+00  -1.0506E-02  2.3177E+02  1.9809E-04  1.9863E-04 -5.5547E-01  1.0207E-01
 89 5.8966E-01 6.7865E+00 2.3473E+02  1.00E+00  -9.0640E-03  2.3474E+02  2.6237E-04  2.6304E-04 -5.2883E-01  1.0255E-01
 90 6.2139E-01 6.1515E+00 2.3763E+02  1.00E+00  -7.3955E-03  2.3764E+02  3.4256E-04  3.4337E-04 -5.0806E-01  1.0578E-01
 91 6.5405E-01 5.5234E+00 2.4046E+02  1.00E+00  -5.4955E-03  2.4047E+02  4.4101E-04  4.4195E-04 -4.8891E-01  1.1082E-01
 92 6.8761E-01 4.9028E+00 2.4321E+02  1.00E+00  -3.3678E-03  2.4322E+02  5.5996E-04  5.6103E-04 -4.6618E-01  1.1589E-01
 93 7.2202E-01 4.2901E+00 2.4589E+02  1.00E+00  -1.0267E-03  2.4589E+02  7.0144E-04  7.0262E-04 -4.3449E-01  1.1950E-01
 94 7.5725E-01 3.6860E+00 2.4848E+02  1.00E+00   1.5026E-03  2.4847E+02  8.6718E-04  8.6841E-04 -4.0297E-01  1.2093E-01
 95 7.9324E-01 3.0909E+00 2.5097E+02  1.00E+00   4.1817E-03  2.5097E+02  1.0584E-03  1.0597E-03 -3.6837E-01  1.2041E-01
 96 8.2996E-01 2.5054E+00 2.5338E+02  1.00E+00   6.9593E-03  2.5337E+02  1.2759E-03  1.2771E-03 -3.5932E-01  1.1871E-01
 97 8.6733E-01 1.9300E+00 2.5570E+02  1.00E+00   9.7707E-03  2.5569E+02  1.5199E-03  1.5209E-03 -3.2574E-01  1.1654E-01
 98 9.0531E-01 1.3650E+00 2.5792E+02  1.00E+00   1.2540E-02  2.5790E+02  1.7899E-03  1.7908E-03 -3.0670E-01  1.1439E-01
 99 9.4382E-01 8.1117E-01 2.6004E+02  1.00E+00   1.5181E-02  2.6003E+02  2.0852E-03  2.0856E-03 -3.3981E-01  1.1264E-01
100 9.8279E-01 2.6877E-01 2.6207E+02  1.00E+00   1.7605E-02  2.6205E+02  2.4041E-03  2.4042E-03 -3.4996E-01  1.1188E-01
101 1.0026E+00 0.0000E+00 2.6306E+02  1.00E+00   2.0237E-02  2.6304E+02  2.5735E-03  2.5730E-03 -6.1191E-01  3.3444E+00

 FCO2
  9.50E-01 9.50E-01 9.50E-01 9.50E-01 9.50E-01 9.50E-01 9.50E-01 9.50E-01 9.50E-01 9.50E-01
  9.50E-01 9.50E-01 9.50E-01 9.50E-01 9.50E-01 9.50E-01 9.50E-01 9.50E-01 9.50E-01 9.50E-01
  9.50E-01 9.50E-01 9.50E-01 9.50E-01 9.50E-01 9.50E-01 9.50E-01 9.50E-01 9.50E-01 9.50E-01
  9.50E-01 9.50E-01 9.50E-01 9.50E-01 9.50E-01 9.50E-01 9.50E-01 9.50E-01 9.50E-01 9.50E-01
  9.50E-01 9.50E-01 9.50E-01 9.50E-01 9.50E-01 9.50E-01 9.50E-01 9.50E-01 9.50E-01 9.50E-01
  9.50E-01 9.50E-01 9.50E-01 9.50E-01 9.50E-01 9.50E-01 9.50E-01 9.50E-01 9.50E-01 9.50E-01
  9.50E-01 9.50E-01 9.50E-01 9.50E-01 9.50E-01 9.50E-01 9.50E-01 9.50E-01 9.50E-01 9.50E-01
  9.50E-01 9.50E-01 9.50E-01 9.50E-01 9.50E-01 9.50E-01 9.50E-01 9.50E-01 9.50E-01 9.50E-01
  9.50E-01 9.50E-01 9.50E-01 9.50E-01 9.50E-01 9.50E-01 9.50E-01 9.50E-01 9.50E-01 9.50E-01
  9.50E-01 9.50E-01 9.50E-01 9.50E-01 9.50E-01 9.50E-01 9.50E-01 9.50E-01 9.50E-01 9.50E-01
  9.50E-01

  J    PF         ALT       FTOTAL       FTIR       FDNIR       FUPIR       FTSOL       FDNSOL       FUPSOL       DIVF
  1 5.0000E-05 8.6926E+01  1.9672E+01 -1.1179E+05  0.0000E+00  1.1179E+05  1.1181E+05  1.6082E+05  4.9013E+04  1.7598E-04
  2 5.8573E-05 8.5408E+01  1.9636E+01 -1.1127E+05  4.0737E+02  1.1168E+05  1.1129E+05  1.6030E+05  4.9012E+04  1.7583E-04
  3 6.8535E-05 8.3949E+01  1.7428E+01 -1.1108E+05  4.9531E+02  1.1158E+05  1.1110E+05  1.6011E+05  4.9012E+04  1.5620E-04
  4 8.0095E-05 8.2548E+01  1.7037E+01 -1.1095E+05  5.3645E+02  1.1149E+05  1.1097E+05  1.5998E+05  4.9011E+04  1.5282E-04
  5 9.3492E-05 8.1203E+01  2.1245E+01 -1.1086E+05  5.5838E+02  1.1142E+05  1.1088E+05  1.5989E+05  4.9011E+04  1.9068E-04
  6 1.0900E-04 7.9909E+01  2.4655E+01 -1.1080E+05  5.7334E+02  1.1137E+05  1.1082E+05  1.5983E+05  4.9010E+04  2.2138E-04
  7 1.2693E-04 7.8657E+01  3.9366E+01 -1.1073E+05  5.9955E+02  1.1133E+05  1.1077E+05  1.5978E+05  4.9010E+04  3.5358E-04
  8 1.4763E-04 7.7434E+01  5.4341E+01 -1.1068E+05  6.3429E+02  1.1131E+05  1.1073E+05  1.5974E+05  4.9009E+04  4.8819E-04
  9 1.7150E-04 7.6233E+01  6.4666E+01 -1.1063E+05  6.7345E+02  1.1130E+05  1.1069E+05  1.5970E+05  4.9008E+04  5.8101E-04
 10 1.9900E-04 7.5048E+01  7.0107E+01 -1.1058E+05  7.1555E+02  1.1129E+05  1.1065E+05  1.5965E+05  4.9007E+04  6.2993E-04
 11 2.3062E-04 7.3874E+01  7.2315E+01 -1.1053E+05  7.6136E+02  1.1129E+05  1.1060E+05  1.5961E+05  4.9006E+04  6.4979E-04
 12 2.6696E-04 7.2713E+01  7.3557E+01 -1.1047E+05  8.1328E+02  1.1129E+05  1.1055E+05  1.5955E+05  4.9005E+04  6.6096E-04
 13 3.0864E-04 7.1562E+01  7.5311E+01 -1.1042E+05  8.7361E+02  1.1129E+05  1.1049E+05  1.5949E+05  4.9003E+04  6.7671E-04
 14 3.5641E-04 7.0421E+01  7.8243E+01 -1.1035E+05  9.4379E+02  1.1129E+05  1.1043E+05  1.5943E+05  4.9001E+04  7.0302E-04
 15 4.1109E-04 6.9289E+01  8.2181E+01 -1.1028E+05  1.0238E+03  1.1130E+05  1.1036E+05  1.5936E+05  4.8999E+04  7.3834E-04
 16 4.7358E-04 6.8165E+01  8.6265E+01 -1.1021E+05  1.1119E+03  1.1132E+05  1.1029E+05  1.5929E+05  4.8997E+04  7.7494E-04
 17 5.4492E-04 6.7048E+01  8.9302E+01 -1.1013E+05  1.2051E+03  1.1133E+05  1.1022E+05  1.5921E+05  4.8994E+04  8.0211E-04
 18 6.2626E-04 6.5938E+01  9.1224E+01 -1.1005E+05  1.3010E+03  1.1135E+05  1.1014E+05  1.5913E+05  4.8991E+04  8.1925E-04
 19 7.1888E-04 6.4835E+01  9.0176E+01 -1.0997E+05  1.3944E+03  1.1137E+05  1.1006E+05  1.5905E+05  4.8988E+04  8.0973E-04
 20 8.2421E-04 6.3739E+01  8.5513E+01 -1.0989E+05  1.4817E+03  1.1138E+05  1.0998E+05  1.5896E+05  4.8984E+04  7.6778E-04
 21 9.4384E-04 6.2651E+01  7.8016E+01 -1.0982E+05  1.5610E+03  1.1138E+05  1.0990E+05  1.5888E+05  4.8980E+04  7.0044E-04
 22 1.0795E-03 6.1571E+01  6.6147E+01 -1.0975E+05  1.6308E+03  1.1138E+05  1.0982E+05  1.5879E+05  4.8975E+04  5.9388E-04
 23 1.2333E-03 6.0502E+01  5.7465E+01 -1.0967E+05  1.7090E+03  1.1138E+05  1.0972E+05  1.5869E+05  4.8969E+04  5.1596E-04
 24 1.4072E-03 5.9443E+01  5.0596E+01 -1.0958E+05  1.7921E+03  1.1137E+05  1.0963E+05  1.5859E+05  4.8963E+04  4.5431E-04
 25 1.6038E-03 5.8395E+01  5.1637E+01 -1.0948E+05  1.8855E+03  1.1136E+05  1.0953E+05  1.5848E+05  4.8955E+04  4.6369E-04
 26 1.8257E-03 5.7358E+01  5.9001E+01 -1.0937E+05  1.9884E+03  1.1136E+05  1.0943E+05  1.5838E+05  4.8947E+04  5.2981E-04
 27 2.0757E-03 5.6330E+01  7.2646E+01 -1.0927E+05  2.1024E+03  1.1137E+05  1.0934E+05  1.5828E+05  4.8938E+04  6.5229E-04
 28 2.3572E-03 5.5311E+01  8.6872E+01 -1.0916E+05  2.2229E+03  1.1139E+05  1.0925E+05  1.5818E+05  4.8928E+04  7.7991E-04
 29 2.6736E-03 5.4302E+01  9.7100E+01 -1.0906E+05  2.3452E+03  1.1141E+05  1.0916E+05  1.5808E+05  4.8916E+04  8.7157E-04
 30 3.0289E-03 5.3300E+01  1.0529E+02 -1.0896E+05  2.4714E+03  1.1144E+05  1.0907E+05  1.5797E+05  4.8903E+04  9.4484E-04
 31 3.4273E-03 5.2306E+01  1.0767E+02 -1.0887E+05  2.5955E+03  1.1147E+05  1.0898E+05  1.5787E+05  4.8888E+04  9.6596E-04
 32 3.8735E-03 5.1321E+01  1.0662E+02 -1.0878E+05  2.7187E+03  1.1150E+05  1.0889E+05  1.5776E+05  4.8872E+04  9.5625E-04
 33 4.3726E-03 5.0343E+01  1.0458E+02 -1.0869E+05  2.8432E+03  1.1153E+05  1.0880E+05  1.5765E+05  4.8854E+04  9.3769E-04
 34 4.9300E-03 4.9373E+01  1.0772E+02 -1.0860E+05  2.9771E+03  1.1157E+05  1.0870E+05  1.5754E+05  4.8833E+04  9.6549E-04
 35 5.5518E-03 4.8411E+01  1.1248E+02 -1.0850E+05  3.1171E+03  1.1162E+05  1.0861E+05  1.5742E+05  4.8810E+04  1.0077E-03
 36 6.2447E-03 4.7457E+01  1.1940E+02 -1.0840E+05  3.2650E+03  1.1167E+05  1.0852E+05  1.5730E+05  4.8785E+04  1.0692E-03
 37 7.0155E-03 4.6511E+01  1.3224E+02 -1.0829E+05  3.4273E+03  1.1172E+05  1.0843E+05  1.5718E+05  4.8757E+04  1.1837E-03
 38 7.8722E-03 4.5571E+01  1.4401E+02 -1.0818E+05  3.5972E+03  1.1178E+05  1.0833E+05  1.5705E+05  4.8726E+04  1.2883E-03
 39 8.8228E-03 4.4639E+01  1.5737E+02 -1.0807E+05  3.7795E+03  1.1185E+05  1.0823E+05  1.5692E+05  4.8691E+04  1.4070E-03
 40 9.8765E-03 4.3714E+01  1.6530E+02 -1.0796E+05  3.9659E+03  1.1192E+05  1.0812E+05  1.5677E+05  4.8653E+04  1.4769E-03
 41 1.1043E-02 4.2796E+01  1.7029E+02 -1.0783E+05  4.1667E+03  1.1200E+05  1.0800E+05  1.5661E+05  4.8610E+04  1.5205E-03
 42 1.2332E-02 4.1885E+01  1.7613E+02 -1.0768E+05  4.3994E+03  1.1208E+05  1.0786E+05  1.5642E+05  4.8564E+04  1.5714E-03
 43 1.3755E-02 4.0981E+01  1.7274E+02 -1.0752E+05  4.6527E+03  1.1217E+05  1.0769E+05  1.5621E+05  4.8512E+04  1.5399E-03
 44 1.5324E-02 4.0084E+01  1.5098E+02 -1.0736E+05  4.9127E+03  1.1227E+05  1.0751E+05  1.5596E+05  4.8455E+04  1.3448E-03
 45 1.7052E-02 3.9194E+01  1.2069E+02 -1.0718E+05  5.1874E+03  1.1237E+05  1.0730E+05  1.5569E+05  4.8393E+04  1.0741E-03
 46 1.8952E-02 3.8311E+01  7.9432E+01 -1.0699E+05  5.4680E+03  1.1246E+05  1.0707E+05  1.5540E+05  4.8325E+04  7.0630E-04
 47 2.1039E-02 3.7436E+01  3.7958E+01 -1.0680E+05  5.7623E+03  1.1256E+05  1.0684E+05  1.5509E+05  4.8250E+04  3.3723E-04
 48 2.3327E-02 3.6568E+01 -1.0210E+01 -1.0660E+05  6.0566E+03  1.1266E+05  1.0659E+05  1.5476E+05  4.8168E+04 -9.0624E-05
 49 2.5833E-02 3.5709E+01 -6.3127E+01 -1.0641E+05  6.3469E+03  1.1276E+05  1.0635E+05  1.5442E+05  4.8079E+04 -5.5986E-04
 50 2.8575E-02 3.4857E+01 -1.1445E+02 -1.0622E+05  6.6367E+03  1.1286E+05  1.0610E+05  1.5409E+05  4.7982E+04 -1.0142E-03
 51 3.1569E-02 3.4014E+01 -1.6846E+02 -1.0604E+05  6.9161E+03  1.1296E+05  1.0587E+05  1.5375E+05  4.7876E+04 -1.4914E-03
 52 3.4836E-02 3.3180E+01 -2.1744E+02 -1.0587E+05  7.1932E+03  1.1306E+05  1.0565E+05  1.5341E+05  4.7761E+04 -1.9232E-03
 53 3.8394E-02 3.2353E+01 -2.6109E+02 -1.0571E+05  7.4669E+03  1.1317E+05  1.0544E+05  1.5308E+05  4.7637E+04 -2.3070E-03
 54 4.2266E-02 3.1536E+01 -2.9338E+02 -1.0554E+05  7.7454E+03  1.1329E+05  1.0525E+05  1.5275E+05  4.7502E+04 -2.5896E-03
 55 4.6472E-02 3.0727E+01 -3.0962E+02 -1.0538E+05  8.0402E+03  1.1342E+05  1.0507E+05  1.5242E+05  4.7356E+04 -2.7299E-03
 56 5.1036E-02 2.9926E+01 -3.1083E+02 -1.0520E+05  8.3532E+03  1.1356E+05  1.0489E+05  1.5209E+05  4.7198E+04 -2.7372E-03
 57 5.5981E-02 2.9134E+01 -2.9707E+02 -1.0502E+05  8.6893E+03  1.1371E+05  1.0472E+05  1.5175E+05  4.7028E+04 -2.6125E-03
 58 6.1332E-02 2.8351E+01 -2.7012E+02 -1.0483E+05  9.0549E+03  1.1388E+05  1.0455E+05  1.5140E+05  4.6845E+04 -2.3719E-03
 59 6.7114E-02 2.7576E+01 -2.3604E+02 -1.0462E+05  9.4455E+03  1.1407E+05  1.0439E+05  1.5103E+05  4.6648E+04 -2.0693E-03
 60 7.3353E-02 2.6810E+01 -2.0628E+02 -1.0442E+05  9.8641E+03  1.1428E+05  1.0421E+05  1.5065E+05  4.6437E+04 -1.8050E-03
 61 8.0077E-02 2.6051E+01 -1.7514E+02 -1.0421E+05  1.0382E+04  1.1459E+05  1.0404E+05  1.5025E+05  4.6212E+04 -1.5284E-03
 62 8.7312E-02 2.5299E+01 -1.2311E+02 -1.0398E+05  1.0971E+04  1.1495E+05  1.0385E+05  1.4982E+05  4.5970E+04 -1.0710E-03
 63 9.5088E-02 2.4553E+01 -6.2972E+01 -1.0373E+05  1.1586E+04  1.1531E+05  1.0367E+05  1.4938E+05  4.5712E+04 -5.4609E-04
 64 1.0343E-01 2.3815E+01  7.4609E+00 -1.0346E+05  1.2279E+04  1.1574E+05  1.0347E+05  1.4891E+05  4.5437E+04  6.4461E-05
 65 1.1237E-01 2.3082E+01  7.2475E+01 -1.0318E+05  1.2999E+04  1.1618E+05  1.0325E+05  1.4840E+05  4.5144E+04  6.2381E-04
 66 1.2194E-01 2.2357E+01  1.2677E+02 -1.0289E+05  1.3803E+04  1.1669E+05  1.0301E+05  1.4785E+05  4.4833E+04  1.0864E-03
 67 1.3217E-01 2.1637E+01  1.7335E+02 -1.0258E+05  1.4630E+04  1.1721E+05  1.0275E+05  1.4726E+05  4.4503E+04  1.4790E-03
 68 1.4308E-01 2.0925E+01  2.0742E+02 -1.0227E+05  1.5560E+04  1.1783E+05  1.0248E+05  1.4663E+05  4.4153E+04  1.7604E-03
 69 1.5471E-01 2.0219E+01  2.2722E+02 -1.0196E+05  1.6519E+04  1.1848E+05  1.0218E+05  1.4597E+05  4.3782E+04  1.9179E-03
 70 1.6708E-01 1.9520E+01  2.2248E+02 -1.0166E+05  1.7587E+04  1.1924E+05  1.0188E+05  1.4527E+05  4.3391E+04  1.8658E-03
 71 1.8023E-01 1.8828E+01  1.8631E+02 -1.0138E+05  1.8717E+04  1.2010E+05  1.0157E+05  1.4454E+05  4.2978E+04  1.5513E-03
 72 1.9417E-01 1.8142E+01  9.7897E+01 -1.0115E+05  1.9976E+04  1.2112E+05  1.0124E+05  1.4379E+05  4.2543E+04  8.0825E-04
 73 2.0895E-01 1.7463E+01 -1.0029E+02 -1.0102E+05  2.1256E+04  1.2227E+05  1.0092E+05  1.4300E+05  4.2085E+04 -8.2024E-04
 74 2.2458E-01 1.6787E+01 -3.0909E+02 -1.0089E+05  2.3324E+04  1.2422E+05  1.0058E+05  1.4219E+05  4.1604E+04 -2.4883E-03
 75 2.4110E-01 1.6110E+01 -2.6950E+02 -1.0051E+05  2.5933E+04  1.2645E+05  1.0024E+05  1.4134E+05  4.1099E+04 -2.1313E-03
 76 2.5852E-01 1.5433E+01  1.0266E+02 -9.9798E+04  2.9091E+04  1.2889E+05  9.9900E+04  1.4047E+05  4.0570E+04  7.9647E-04
 77 2.7687E-01 1.4755E+01  8.5743E+02 -9.8692E+04  3.2838E+04  1.3153E+05  9.9549E+04  1.3957E+05  4.0017E+04  6.5189E-03
 78 2.9616E-01 1.4078E+01  2.0499E+03 -9.7137E+04  3.7254E+04  1.3439E+05  9.9187E+04  1.3863E+05  3.9438E+04  1.5253E-02
 79 3.1642E-01 1.3401E+01  3.6974E+03 -9.5114E+04  4.2325E+04  1.3744E+05  9.8812E+04  1.3765E+05  3.8835E+04  2.6902E-02
 80 3.3767E-01 1.2726E+01  5.8687E+03 -9.2548E+04  4.8268E+04  1.4082E+05  9.8417E+04  1.3662E+05  3.8206E+04  4.1676E-02
 81 3.5990E-01 1.2052E+01  8.5194E+03 -8.9479E+04  5.5195E+04  1.4467E+05  9.7999E+04  1.3555E+05  3.7551E+04  5.8887E-02
 82 3.8315E-01 1.1381E+01  1.1413E+04 -8.6138E+04  6.2781E+04  1.4892E+05  9.7551E+04  1.3442E+05  3.6871E+04  7.6636E-02
 83 4.0741E-01 1.0712E+01  1.4558E+04 -8.2508E+04  7.1026E+04  1.5353E+05  9.7066E+04  1.3323E+05  3.6165E+04  9.4817E-02
 84 4.3268E-01 1.0047E+01  1.7995E+04 -7.8535E+04  8.0043E+04  1.5858E+05  9.6531E+04  1.3196E+05  3.5434E+04  1.1348E-01
 85 4.5898E-01 9.3852E+00  2.1580E+04 -7.4355E+04  8.9630E+04  1.6398E+05  9.5935E+04  1.3061E+05  3.4678E+04  1.3160E-01
 86 4.8629E-01 8.7278E+00  2.5215E+04 -7.0063E+04  9.9672E+04  1.6973E+05  9.5278E+04  1.2918E+05  3.3897E+04  1.4856E-01
 87 5.1461E-01 8.0752E+00  2.8786E+04 -6.5789E+04  1.1002E+05  1.7581E+05  9.4575E+04  1.2767E+05  3.3092E+04  1.6373E-01
 88 5.4393E-01 7.4279E+00  3.2235E+04 -6.1608E+04  1.2057E+05  1.8218E+05  9.3843E+04  1.2611E+05  3.2264E+04  1.7694E-01
 89 5.7423E-01 6.7865E+00  3.5571E+04 -5.7521E+04  1.3130E+05  1.8882E+05  9.3092E+04  1.2451E+05  3.1414E+04  1.8838E-01
 90 6.0550E-01 6.1515E+00  3.8821E+04 -5.3489E+04  1.4221E+05  1.9570E+05  9.2310E+04  1.2285E+05  3.0542E+04  1.9837E-01
 91 6.3771E-01 5.5234E+00  4.1992E+04 -4.9484E+04  1.5328E+05  2.0277E+05  9.1476E+04  1.2113E+05  2.9651E+04  2.0710E-01
 92 6.7082E-01 4.9028E+00  4.5069E+04 -4.5506E+04  1.6448E+05  2.0999E+05  9.0575E+04  1.1932E+05  2.8742E+04  2.1462E-01
 93 7.0481E-01 4.2901E+00  4.8005E+04 -4.1598E+04  1.7573E+05  2.1733E+05  8.9603E+04  1.1742E+05  2.7817E+04  2.2089E-01
 94 7.3964E-01 3.6860E+00  5.0721E+04 -3.7852E+04  1.8685E+05  2.2470E+05  8.8573E+04  1.1545E+05  2.6878E+04  2.2573E-01
 95 7.7527E-01 3.0909E+00  5.3216E+04 -3.4287E+04  1.9779E+05  2.3208E+05  8.7503E+04  1.1343E+05  2.5928E+04  2.2931E-01
 96 8.1164E-01 2.5054E+00  5.5463E+04 -3.0948E+04  2.0838E+05  2.3933E+05  8.6412E+04  1.1138E+05  2.4970E+04  2.3175E-01
 97 8.4869E-01 1.9300E+00  5.7692E+04 -2.7619E+04  2.1901E+05  2.4663E+05  8.5312E+04  1.0932E+05  2.4008E+04  2.3393E-01
 98 8.8638E-01 1.3650E+00  5.9670E+04 -2.4541E+04  2.2927E+05  2.5381E+05  8.4210E+04  1.0726E+05  2.3046E+04  2.3509E-01
 99 9.2464E-01 8.1117E-01  6.1520E+04 -2.1590E+04  2.3917E+05  2.6076E+05  8.3110E+04  1.0520E+05  2.2090E+04  2.3592E-01
100 9.6340E-01 2.6877E-01  6.3740E+04 -1.8269E+04  2.4882E+05  2.6709E+05  8.2009E+04  1.0315E+05  2.1146E+04  2.3864E-01
101 1.0026E+00 0.0000E+00  6.6099E+04 -1.4802E+04  2.5523E+05  2.7003E+05  8.0901E+04  1.0113E+05  2.0225E+04  2.4478E-01
 
 NST=     2 JCONV= 81 CHG=1.91E-03 dt0=1.00E+04 DIVF(1)= 9.96E-05 DIVFrms= 5.95E-03 DT(ND)= 6.10E-02 T(ND)=2.6312E+02
 NST=     3 JCONV= 80 CHG=1.45E-03 dt0=1.00E+04 DIVF(1)= 7.26E-05 DIVFrms= 3.74E-03 DT(ND)= 3.70E-02 T(ND)=2.6316E+02
 NST=     4 JCONV= 79 CHG=1.15E-03 dt0=1.00E+04 DIVF(1)= 2.13E-04 DIVFrms= 2.25E-03 DT(ND)= 2.48E-02 T(ND)=2.6318E+02
 NST=     5 JCONV= 79 CHG=9.24E-04 dt0=1.00E+04 DIVF(1)= 7.26E-05 DIVFrms= 2.21E-03 DT(ND)= 1.74E-02 T(ND)=2.6320E+02
 NST=     6 JCONV= 79 CHG=7.82E-04 dt0=1.00E+04 DIVF(1)= 5.20E-06 DIVFrms= 2.18E-03 DT(ND)= 1.24E-02 T(ND)=2.6321E+02
 NST=     7 JCONV= 78 CHG=6.57E-04 dt0=1.00E+04 DIVF(1)= 3.47E-05 DIVFrms= 1.41E-03 DT(ND)= 9.05E-03 T(ND)=2.6322E+02
 NST=     8 JCONV= 78 CHG=5.60E-04 dt0=1.00E+04 DIVF(1)= 1.83E-05 DIVFrms= 1.41E-03 DT(ND)= 6.68E-03 T(ND)=2.6323E+02
 NST=     9 JCONV= 78 CHG=4.89E-04 dt0=1.00E+04 DIVF(1)= 3.32E-05 DIVFrms= 1.40E-03 DT(ND)= 5.00E-03 T(ND)=2.6323E+02
 NST=    10 JCONV= 78 CHG=4.30E-04 dt0=1.00E+04 DIVF(1)= 4.59E-05 DIVFrms= 1.40E-03 DT(ND)= 3.76E-03 T(ND)=2.6324E+02
 NST=    11 JCONV= 77 CHG=3.79E-04 dt0=1.00E+04 DIVF(1)= 5.90E-05 DIVFrms= 1.21E-03 DT(ND)= 2.84E-03 T(ND)=2.6324E+02
 NST=    12 JCONV= 77 CHG=3.35E-04 dt0=1.00E+04 DIVF(1)= 6.90E-05 DIVFrms= 1.21E-03 DT(ND)= 2.17E-03 T(ND)=2.6324E+02
 NST=    13 JCONV= 77 CHG=2.96E-04 dt0=1.00E+04 DIVF(1)= 8.02E-05 DIVFrms= 1.20E-03 DT(ND)= 1.68E-03 T(ND)=2.6325E+02
 NST=    14 JCONV= 77 CHG=2.66E-04 dt0=1.00E+04 DIVF(1)= 8.97E-05 DIVFrms= 1.20E-03 DT(ND)= 1.30E-03 T(ND)=2.6325E+02
 NST=    15 JCONV= 77 CHG=2.32E-04 dt0=1.00E+04 DIVF(1)= 9.97E-05 DIVFrms= 1.20E-03 DT(ND)= 1.00E-03 T(ND)=2.6325E+02
 NST=    16 JCONV= 77 CHG=2.07E-04 dt0=1.00E+04 DIVF(1)= 1.08E-04 DIVFrms= 1.20E-03 DT(ND)= 7.59E-04 T(ND)=2.6325E+02
 NST=    17 JCONV= 77 CHG=1.84E-04 dt0=1.00E+04 DIVF(1)= 1.15E-04 DIVFrms= 1.19E-03 DT(ND)= 5.74E-04 T(ND)=2.6325E+02
 NST=    18 JCONV= 77 CHG=1.60E-04 dt0=1.00E+04 DIVF(1)= 1.23E-04 DIVFrms= 1.19E-03 DT(ND)= 4.36E-04 T(ND)=2.6325E+02
 NST=    19 JCONV= 77 CHG=1.42E-04 dt0=1.00E+04 DIVF(1)= 1.26E-04 DIVFrms= 1.19E-03 DT(ND)= 3.33E-04 T(ND)=2.6325E+02
 NST=    20 JCONV= 77 CHG=1.30E-04 dt0=1.00E+04 DIVF(1)= 1.32E-04 DIVFrms= 1.18E-03 DT(ND)= 2.57E-04 T(ND)=2.6325E+02
 NST=    21 JCONV= 77 CHG=1.20E-04 dt0=1.00E+04 DIVF(1)= 1.37E-04 DIVFrms= 1.18E-03 DT(ND)= 2.00E-04 T(ND)=2.6325E+02
 NST=    22 JCONV= 76 CHG=1.10E-04 dt0=1.00E+04 DIVF(1)= 1.42E-04 DIVFrms= 1.19E-03 DT(ND)= 1.59E-04 T(ND)=2.6325E+02
 NST=    23 JCONV= 76 CHG=1.02E-04 dt0=1.00E+04 DIVF(1)= 1.46E-04 DIVFrms= 1.18E-03 DT(ND)= 1.28E-04 T(ND)=2.6325E+02
 NST=    24 JCONV= 76 CHG=9.38E-05 dt0=1.00E+04 DIVF(1)= 1.51E-04 DIVFrms= 1.18E-03 DT(ND)= 1.05E-04 T(ND)=2.6325E+02
 NST=    25 JCONV= 76 CHG=8.66E-05 dt0=1.00E+04 DIVF(1)= 1.55E-04 DIVFrms= 1.18E-03 DT(ND)= 8.36E-05 T(ND)=2.6325E+02
 NST=    26 JCONV= 76 CHG=4.21E-04 dt0=1.00E+04 DIVF(1)= 1.59E-04 DIVFrms= 1.18E-03 DT(ND)= 5.40E-05 T(ND)=2.6325E+02
 NST=    27 JCONV= 76 CHG=2.06E-04 dt0=1.00E+04 DIVF(1)= 1.49E-04 DIVFrms= 1.17E-03 DT(ND)= 1.99E-05 T(ND)=2.6325E+02
 NST=    28 JCONV= 76 CHG=8.66E-05 dt0=1.00E+04 DIVF(1)= 1.51E-04 DIVFrms= 1.17E-03 DT(ND)=-1.16E-05 T(ND)=2.6325E+02
 NST=    29 JCONV= 76 CHG=8.52E-05 dt0=1.00E+04 DIVF(1)= 1.55E-04 DIVFrms= 1.17E-03 DT(ND)=-3.77E-05 T(ND)=2.6325E+02
 NST=    30 JCONV= 76 CHG=6.91E-05 dt0=1.00E+04 DIVF(1)= 1.58E-04 DIVFrms= 1.17E-03 DT(ND)=-5.82E-05 T(ND)=2.6325E+02
 NST=    31 JCONV= 76 CHG=6.39E-05 dt0=1.00E+04 DIVF(1)= 1.61E-04 DIVFrms= 1.16E-03 DT(ND)=-7.39E-05 T(ND)=2.6325E+02
 NST=    32 JCONV= 76 CHG=6.39E-05 dt0=1.00E+04 DIVF(1)= 1.64E-04 DIVFrms= 1.16E-03 DT(ND)=-8.57E-05 T(ND)=2.6325E+02
 NST=    33 JCONV= 76 CHG=5.61E-05 dt0=1.00E+04 DIVF(1)= 1.67E-04 DIVFrms= 1.16E-03 DT(ND)=-9.46E-05 T(ND)=2.6325E+02
 NST=    34 JCONV= 76 CHG=6.00E-05 dt0=1.00E+04 DIVF(1)= 1.70E-04 DIVFrms= 1.16E-03 DT(ND)=-1.01E-04 T(ND)=2.6325E+02
 NST=    35 JCONV= 76 CHG=5.60E-05 dt0=1.00E+04 DIVF(1)= 1.72E-04 DIVFrms= 1.16E-03 DT(ND)=-1.06E-04 T(ND)=2.6325E+02
 NST=    36 JCONV= 76 CHG=5.59E-05 dt0=1.00E+04 DIVF(1)= 1.74E-04 DIVFrms= 1.15E-03 DT(ND)=-1.10E-04 T(ND)=2.6325E+02
 NST=    37 JCONV= 76 CHG=5.55E-05 dt0=1.00E+04 DIVF(1)= 1.76E-04 DIVFrms= 1.15E-03 DT(ND)=-1.12E-04 T(ND)=2.6325E+02
 NST=    38 JCONV= 76 CHG=5.53E-05 dt0=1.00E+04 DIVF(1)= 1.78E-04 DIVFrms= 1.15E-03 DT(ND)=-1.14E-04 T(ND)=2.6325E+02
 NST=    39 JCONV= 76 CHG=5.49E-05 dt0=1.00E+04 DIVF(1)= 1.80E-04 DIVFrms= 1.15E-03 DT(ND)=-1.15E-04 T(ND)=2.6325E+02
 NST=    40 JCONV= 76 CHG=5.47E-05 dt0=1.00E+04 DIVF(1)= 1.81E-04 DIVFrms= 1.14E-03 DT(ND)=-1.16E-04 T(ND)=2.6325E+02
 NST=    41 JCONV= 76 CHG=3.39E-04 dt0=1.00E+04 DIVF(1)= 1.82E-04 DIVFrms= 1.14E-03 DT(ND)=-1.17E-04 T(ND)=2.6325E+02
 NST=    42 JCONV= 76 CHG=1.66E-04 dt0=1.00E+04 DIVF(1)= 1.84E-04 DIVFrms= 1.14E-03 DT(ND)=-1.17E-04 T(ND)=2.6325E+02
 NST=    43 JCONV= 76 CHG=7.64E-05 dt0=1.00E+04 DIVF(1)= 1.95E-04 DIVFrms= 1.14E-03 DT(ND)=-1.17E-04 T(ND)=2.6325E+02
 NST=    44 JCONV= 76 CHG=7.48E-05 dt0=1.00E+04 DIVF(1)= 1.45E-04 DIVFrms= 1.14E-03 DT(ND)=-1.17E-04 T(ND)=2.6325E+02
 NST=    45 JCONV= 76 CHG=6.98E-05 dt0=1.00E+04 DIVF(1)= 1.47E-04 DIVFrms= 1.14E-03 DT(ND)=-1.17E-04 T(ND)=2.6325E+02
 NST=    46 JCONV= 76 CHG=6.17E-05 dt0=1.00E+04 DIVF(1)= 1.42E-04 DIVFrms= 1.14E-03 DT(ND)=-1.17E-04 T(ND)=2.6325E+02
 NST=    47 JCONV= 76 CHG=5.35E-05 dt0=1.00E+04 DIVF(1)= 1.49E-04 DIVFrms= 1.13E-03 DT(ND)=-1.17E-04 T(ND)=2.6325E+02
 NST=    48 JCONV= 76 CHG=5.44E-05 dt0=1.00E+04 DIVF(1)= 1.58E-04 DIVFrms= 1.13E-03 DT(ND)=-1.17E-04 T(ND)=2.6325E+02
 NST=    49 JCONV= 76 CHG=5.42E-05 dt0=1.00E+04 DIVF(1)= 1.59E-04 DIVFrms= 1.12E-03 DT(ND)=-1.17E-04 T(ND)=2.6325E+02
 NST=    50 JCONV= 76 CHG=5.39E-05 dt0=1.00E+04 DIVF(1)= 1.60E-04 DIVFrms= 1.12E-03 DT(ND)=-1.17E-04 T(ND)=2.6325E+02
 NST=    51 JCONV= 76 CHG=5.36E-05 dt0=1.00E+04 DIVF(1)= 1.60E-04 DIVFrms= 1.12E-03 DT(ND)=-1.17E-04 T(ND)=2.6325E+02
 NST=    52 JCONV= 76 CHG=2.75E-04 dt0=1.00E+04 DIVF(1)= 1.62E-04 DIVFrms= 1.12E-03 DT(ND)=-1.16E-04 T(ND)=2.6325E+02
 NST=    53 JCONV= 76 CHG=1.36E-04 dt0=1.00E+04 DIVF(1)= 1.62E-04 DIVFrms= 1.12E-03 DT(ND)=-1.16E-04 T(ND)=2.6325E+02
 NST=    54 JCONV= 76 CHG=5.86E-05 dt0=1.00E+04 DIVF(1)= 1.61E-04 DIVFrms= 1.12E-03 DT(ND)=-1.16E-04 T(ND)=2.6325E+02
 NST=    55 JCONV= 76 CHG=5.21E-05 dt0=1.00E+04 DIVF(1)= 1.64E-04 DIVFrms= 1.11E-03 DT(ND)=-1.16E-04 T(ND)=2.6325E+02
 NST=    56 JCONV= 76 CHG=5.17E-05 dt0=1.00E+04 DIVF(1)= 2.30E-04 DIVFrms= 1.10E-03 DT(ND)=-1.15E-04 T(ND)=2.6325E+02
 NST=    57 JCONV= 76 CHG=5.14E-05 dt0=1.00E+04 DIVF(1)= 2.31E-04 DIVFrms= 1.10E-03 DT(ND)=-1.14E-04 T(ND)=2.6325E+02
 NST=    58 JCONV= 76 CHG=5.11E-05 dt0=1.00E+04 DIVF(1)= 2.31E-04 DIVFrms= 1.09E-03 DT(ND)=-1.13E-04 T(ND)=2.6325E+02
 NST=    59 JCONV= 76 CHG=2.14E-04 dt0=1.00E+04 DIVF(1)= 2.32E-04 DIVFrms= 1.09E-03 DT(ND)=-1.12E-04 T(ND)=2.6325E+02
 NST=    60 JCONV= 76 CHG=1.07E-04 dt0=1.00E+04 DIVF(1)= 2.32E-04 DIVFrms= 1.09E-03 DT(ND)=-1.11E-04 T(ND)=2.6325E+02
 NST=    61 JCONV= 76 CHG=5.50E-05 dt0=1.00E+04 DIVF(1)= 2.31E-04 DIVFrms= 1.09E-03 DT(ND)=-1.10E-04 T(ND)=2.6325E+02
 NST=    62 JCONV= 76 CHG=5.03E-05 dt0=1.00E+04 DIVF(1)= 2.33E-04 DIVFrms= 1.09E-03 DT(ND)=-1.09E-04 T(ND)=2.6325E+02
 NST=    63 JCONV= 76 CHG=5.00E-05 dt0=1.00E+04 DIVF(1)= 2.33E-04 DIVFrms= 1.08E-03 DT(ND)=-1.08E-04 T(ND)=2.6325E+02
 NST=    64 JCONV= 76 CHG=4.97E-05 dt0=1.00E+04 DIVF(1)= 2.34E-04 DIVFrms= 1.08E-03 DT(ND)=-1.08E-04 T(ND)=2.6325E+02
 NST=    65 JCONV= 76 CHG=4.94E-05 dt0=1.00E+04 DIVF(1)= 2.34E-04 DIVFrms= 1.08E-03 DT(ND)=-1.07E-04 T(ND)=2.6325E+02
 NST=    66 JCONV= 76 CHG=1.82E-04 dt0=1.00E+04 DIVF(1)= 2.30E-04 DIVFrms= 1.08E-03 DT(ND)=-1.06E-04 T(ND)=2.6325E+02
 NST=    67 JCONV= 76 CHG=9.09E-05 dt0=1.00E+04 DIVF(1)= 2.30E-04 DIVFrms= 1.07E-03 DT(ND)=-1.06E-04 T(ND)=2.6325E+02
 NST=    68 JCONV= 76 CHG=5.20E-05 dt0=1.00E+04 DIVF(1)= 2.29E-04 DIVFrms= 1.07E-03 DT(ND)=-1.06E-04 T(ND)=2.6325E+02
 NST=    69 JCONV= 76 CHG=4.67E-05 dt0=1.00E+04 DIVF(1)= 2.37E-04 DIVFrms= 1.07E-03 DT(ND)=-1.05E-04 T(ND)=2.6325E+02
 NST=    70 JCONV= 76 CHG=4.63E-05 dt0=1.00E+04 DIVF(1)= 2.38E-04 DIVFrms= 1.06E-03 DT(ND)=-1.05E-04 T(ND)=2.6325E+02
 NST=    71 JCONV= 76 CHG=1.41E-04 dt0=1.00E+04 DIVF(1)= 2.38E-04 DIVFrms= 1.06E-03 DT(ND)=-1.04E-04 T(ND)=2.6325E+02
 NST=    72 JCONV= 76 CHG=7.33E-05 dt0=1.00E+04 DIVF(1)= 2.39E-04 DIVFrms= 1.06E-03 DT(ND)=-1.04E-04 T(ND)=2.6325E+02
 NST=    73 JCONV= 76 CHG=4.99E-05 dt0=1.00E+04 DIVF(1)= 2.38E-04 DIVFrms= 1.06E-03 DT(ND)=-1.04E-04 T(ND)=2.6325E+02
 NST=    74 JCONV= 76 CHG=4.63E-05 dt0=1.00E+04 DIVF(1)= 2.38E-04 DIVFrms= 1.06E-03 DT(ND)=-1.03E-04 T(ND)=2.6325E+02
 NST=    75 JCONV= 76 CHG=4.61E-05 dt0=1.00E+04 DIVF(1)= 2.39E-04 DIVFrms= 1.05E-03 DT(ND)=-1.03E-04 T(ND)=2.6325E+02
 NST=    76 JCONV= 76 CHG=1.20E-04 dt0=1.00E+04 DIVF(1)= 2.38E-04 DIVFrms= 1.05E-03 DT(ND)=-1.03E-04 T(ND)=2.6325E+02
 NST=    77 JCONV= 76 CHG=6.87E-05 dt0=1.00E+04 DIVF(1)= 2.39E-04 DIVFrms= 1.05E-03 DT(ND)=-1.02E-04 T(ND)=2.6325E+02
 NST=    78 JCONV= 76 CHG=4.80E-05 dt0=1.00E+04 DIVF(1)= 2.38E-04 DIVFrms= 1.05E-03 DT(ND)=-1.02E-04 T(ND)=2.6325E+02
 NST=    79 JCONV= 76 CHG=4.54E-05 dt0=1.00E+04 DIVF(1)= 2.39E-04 DIVFrms= 1.05E-03 DT(ND)=-1.02E-04 T(ND)=2.6325E+02
 NST=    80 JCONV= 76 CHG=9.56E-05 dt0=1.00E+04 DIVF(1)= 2.37E-04 DIVFrms= 1.04E-03 DT(ND)=-1.01E-04 T(ND)=2.6325E+02
 NST=    81 JCONV= 76 CHG=6.47E-05 dt0=1.00E+04 DIVF(1)= 2.39E-04 DIVFrms= 1.04E-03 DT(ND)=-1.01E-04 T(ND)=2.6325E+02
 NST=    82 JCONV= 76 CHG=4.66E-05 dt0=1.00E+04 DIVF(1)= 2.36E-04 DIVFrms= 1.04E-03 DT(ND)=-1.01E-04 T(ND)=2.6325E+02
 NST=    83 JCONV= 76 CHG=6.88E-05 dt0=1.00E+04 DIVF(1)= 2.34E-04 DIVFrms= 1.04E-03 DT(ND)=-1.00E-04 T(ND)=2.6324E+02
 NST=    84 JCONV= 76 CHG=6.12E-05 dt0=1.00E+04 DIVF(1)= 2.33E-04 DIVFrms= 1.03E-03 DT(ND)=-1.00E-04 T(ND)=2.6324E+02
 NST=    85 JCONV= 76 CHG=4.56E-05 dt0=1.00E+04 DIVF(1)= 2.32E-04 DIVFrms= 1.03E-03 DT(ND)=-9.97E-05 T(ND)=2.6324E+02
 NST=    86 JCONV= 76 CHG=6.21E-05 dt0=1.00E+04 DIVF(1)= 2.32E-04 DIVFrms= 1.03E-03 DT(ND)=-9.94E-05 T(ND)=2.6324E+02
 NST=    87 JCONV= 76 CHG=5.85E-05 dt0=1.00E+04 DIVF(1)= 2.32E-04 DIVFrms= 1.03E-03 DT(ND)=-9.91E-05 T(ND)=2.6324E+02
 NST=    88 JCONV= 76 CHG=4.44E-05 dt0=1.00E+04 DIVF(1)= 2.32E-04 DIVFrms= 1.03E-03 DT(ND)=-9.88E-05 T(ND)=2.6324E+02
 NST=    89 JCONV= 76 CHG=5.83E-05 dt0=1.00E+04 DIVF(1)= 2.31E-04 DIVFrms= 1.03E-03 DT(ND)=-9.84E-05 T(ND)=2.6324E+02
 NST=    90 JCONV= 76 CHG=5.65E-05 dt0=1.00E+04 DIVF(1)= 2.31E-04 DIVFrms= 1.02E-03 DT(ND)=-9.81E-05 T(ND)=2.6324E+02
 NST=    91 JCONV= 76 CHG=4.93E-05 dt0=1.00E+04 DIVF(1)= 2.94E-04 DIVFrms= 1.01E-03 DT(ND)=-9.77E-05 T(ND)=2.6324E+02
 NST=    92 JCONV= 76 CHG=5.47E-05 dt0=1.00E+04 DIVF(1)= 2.94E-04 DIVFrms= 1.01E-03 DT(ND)=-9.71E-05 T(ND)=2.6324E+02
 NST=    93 JCONV= 76 CHG=4.54E-05 dt0=1.00E+04 DIVF(1)= 3.04E-04 DIVFrms= 1.01E-03 DT(ND)=-9.62E-05 T(ND)=2.6324E+02
 NST=    94 JCONV= 76 CHG=5.29E-05 dt0=1.00E+04 DIVF(1)= 3.03E-04 DIVFrms= 1.01E-03 DT(ND)=-9.52E-05 T(ND)=2.6324E+02
 NST=    95 JCONV= 76 CHG=4.32E-05 dt0=1.00E+04 DIVF(1)= 3.02E-04 DIVFrms= 1.00E-03 DT(ND)=-9.42E-05 T(ND)=2.6324E+02
 NST=    96 JCONV= 76 CHG=5.16E-05 dt0=1.00E+04 DIVF(1)= 3.02E-04 DIVFrms= 1.00E-03 DT(ND)=-9.33E-05 T(ND)=2.6324E+02
 NST=    97 JCONV= 76 CHG=4.23E-05 dt0=1.00E+04 DIVF(1)= 3.02E-04 DIVFrms= 1.00E-03 DT(ND)=-9.25E-05 T(ND)=2.6324E+02
 NST=    98 JCONV= 76 CHG=5.06E-05 dt0=1.00E+04 DIVF(1)= 3.01E-04 DIVFrms= 9.99E-04 DT(ND)=-9.18E-05 T(ND)=2.6324E+02
 NST=    99 JCONV= 76 CHG=4.19E-05 dt0=1.00E+04 DIVF(1)= 3.01E-04 DIVFrms= 9.97E-04 DT(ND)=-9.13E-05 T(ND)=2.6324E+02
 NST=   100 JCONV= 76 CHG=4.17E-05 dt0=1.00E+04 DIVF(1)= 3.00E-04 DIVFrms= 9.95E-04 DT(ND)=-9.07E-05 T(ND)=2.6324E+02
 NST=   101 JCONV= 76 CHG=4.15E-05 dt0=1.00E+04 DIVF(1)= 2.99E-04 DIVFrms= 9.93E-04 DT(ND)=-9.03E-05 T(ND)=2.6324E+02
 NST=   102 JCONV= 76 CHG=4.13E-05 dt0=1.00E+04 DIVF(1)= 2.99E-04 DIVFrms= 9.91E-04 DT(ND)=-8.99E-05 T(ND)=2.6324E+02
 NST=   103 JCONV= 76 CHG=4.11E-05 dt0=1.00E+04 DIVF(1)= 2.98E-04 DIVFrms= 9.89E-04 DT(ND)=-8.95E-05 T(ND)=2.6324E+02
 NST=   104 JCONV= 76 CHG=9.92E-04 dt0=1.00E+04 DIVF(1)= 2.98E-04 DIVFrms= 9.88E-04 DT(ND)=-8.91E-05 T(ND)=2.6324E+02
 NST=   105 JCONV= 76 CHG=4.91E-04 dt0=1.00E+04 DIVF(1)= 2.98E-04 DIVFrms= 9.86E-04 DT(ND)=-8.88E-05 T(ND)=2.6324E+02
 NST=   106 JCONV= 76 CHG=1.94E-04 dt0=1.00E+04 DIVF(1)= 2.93E-04 DIVFrms= 9.89E-04 DT(ND)=-8.84E-05 T(ND)=2.6324E+02
 NST=   107 JCONV= 76 CHG=1.94E-04 dt0=1.00E+04 DIVF(1)= 2.94E-04 DIVFrms= 9.85E-04 DT(ND)=-8.81E-05 T(ND)=2.6324E+02
 NST=   108 JCONV= 76 CHG=1.29E-04 dt0=1.00E+04 DIVF(1)= 2.94E-04 DIVFrms= 9.82E-04 DT(ND)=-8.78E-05 T(ND)=2.6324E+02
 NST=   109 JCONV= 76 CHG=6.65E-05 dt0=1.00E+04 DIVF(1)= 2.93E-04 DIVFrms= 9.80E-04 DT(ND)=-8.75E-05 T(ND)=2.6324E+02
 NST=   110 JCONV= 76 CHG=1.52E-04 dt0=1.00E+04 DIVF(1)= 2.94E-04 DIVFrms= 9.77E-04 DT(ND)=-8.72E-05 T(ND)=2.6324E+02
 NST=   111 JCONV= 76 CHG=9.38E-05 dt0=1.00E+04 DIVF(1)= 2.93E-04 DIVFrms= 9.76E-04 DT(ND)=-8.69E-05 T(ND)=2.6324E+02
 NST=   112 JCONV= 76 CHG=6.17E-05 dt0=1.00E+04 DIVF(1)= 2.92E-04 DIVFrms= 9.74E-04 DT(ND)=-8.66E-05 T(ND)=2.6324E+02
 NST=   113 JCONV= 76 CHG=1.19E-04 dt0=1.00E+04 DIVF(1)= 2.92E-04 DIVFrms= 9.72E-04 DT(ND)=-8.63E-05 T(ND)=2.6324E+02
 NST=   114 JCONV= 76 CHG=8.29E-05 dt0=1.00E+04 DIVF(1)= 2.98E-04 DIVFrms= 9.71E-04 DT(ND)=-8.59E-05 T(ND)=2.6324E+02
 NST=   115 JCONV= 76 CHG=7.54E-05 dt0=1.00E+04 DIVF(1)= 2.98E-04 DIVFrms= 9.70E-04 DT(ND)=-8.57E-05 T(ND)=2.6324E+02
 NST=   116 JCONV= 76 CHG=7.73E-05 dt0=1.00E+04 DIVF(1)= 2.98E-04 DIVFrms= 9.67E-04 DT(ND)=-8.53E-05 T(ND)=2.6324E+02
 NST=   117 JCONV= 76 CHG=6.56E-05 dt0=1.00E+04 DIVF(1)= 2.97E-04 DIVFrms= 9.66E-04 DT(ND)=-8.50E-05 T(ND)=2.6324E+02
 NST=   118 JCONV= 76 CHG=7.25E-05 dt0=1.00E+04 DIVF(1)= 2.96E-04 DIVFrms= 9.64E-04 DT(ND)=-8.47E-05 T(ND)=2.6324E+02
 NST=   119 JCONV= 76 CHG=5.96E-05 dt0=1.00E+04 DIVF(1)= 2.95E-04 DIVFrms= 9.62E-04 DT(ND)=-8.44E-05 T(ND)=2.6324E+02
 NST=   120 JCONV= 76 CHG=6.88E-05 dt0=1.00E+04 DIVF(1)= 2.95E-04 DIVFrms= 9.60E-04 DT(ND)=-8.41E-05 T(ND)=2.6324E+02
 NST=   121 JCONV= 76 CHG=5.55E-05 dt0=1.00E+04 DIVF(1)= 3.01E-04 DIVFrms= 9.57E-04 DT(ND)=-8.38E-05 T(ND)=2.6324E+02
 NST=   122 JCONV= 76 CHG=6.59E-05 dt0=1.00E+04 DIVF(1)= 3.01E-04 DIVFrms= 9.55E-04 DT(ND)=-8.35E-05 T(ND)=2.6324E+02
 NST=   123 JCONV= 76 CHG=5.25E-05 dt0=1.00E+04 DIVF(1)= 3.07E-04 DIVFrms= 9.50E-04 DT(ND)=-8.32E-05 T(ND)=2.6324E+02
 NST=   124 JCONV= 76 CHG=6.36E-05 dt0=1.00E+04 DIVF(1)= 3.07E-04 DIVFrms= 9.49E-04 DT(ND)=-8.29E-05 T(ND)=2.6324E+02
 NST=   125 JCONV= 76 CHG=5.02E-05 dt0=1.00E+04 DIVF(1)= 3.06E-04 DIVFrms= 9.47E-04 DT(ND)=-8.26E-05 T(ND)=2.6324E+02
 NST=   126 JCONV= 76 CHG=3.94E-05 dt0=1.00E+04 DIVF(1)= 3.05E-04 DIVFrms= 9.46E-04 DT(ND)=-8.23E-05 T(ND)=2.6324E+02
 NST=   127 JCONV= 76 CHG=3.92E-05 dt0=1.00E+04 DIVF(1)= 3.05E-04 DIVFrms= 9.44E-04 DT(ND)=-8.19E-05 T(ND)=2.6324E+02
 NST=   128 JCONV= 76 CHG=3.90E-05 dt0=1.00E+04 DIVF(1)= 3.04E-04 DIVFrms= 9.42E-04 DT(ND)=-8.16E-05 T(ND)=2.6324E+02
 NST=   129 JCONV= 76 CHG=3.88E-05 dt0=1.00E+04 DIVF(1)= 3.03E-04 DIVFrms= 9.40E-04 DT(ND)=-8.14E-05 T(ND)=2.6324E+02
 NST=   130 JCONV= 76 CHG=8.08E-04 dt0=1.00E+04 DIVF(1)= 3.03E-04 DIVFrms= 9.39E-04 DT(ND)=-8.11E-05 T(ND)=2.6324E+02
 NST=   131 JCONV= 76 CHG=4.01E-04 dt0=1.00E+04 DIVF(1)= 3.11E-04 DIVFrms= 9.34E-04 DT(ND)=-8.08E-05 T(ND)=2.6324E+02
 NST=   132 JCONV= 76 CHG=1.67E-04 dt0=1.00E+04 DIVF(1)= 3.07E-04 DIVFrms= 9.36E-04 DT(ND)=-8.05E-05 T(ND)=2.6324E+02
 NST=   133 JCONV= 76 CHG=1.67E-04 dt0=1.00E+04 DIVF(1)= 3.08E-04 DIVFrms= 9.32E-04 DT(ND)=-8.02E-05 T(ND)=2.6324E+02
 NST=   134 JCONV= 76 CHG=1.15E-04 dt0=1.00E+04 DIVF(1)= 3.08E-04 DIVFrms= 9.30E-04 DT(ND)=-7.99E-05 T(ND)=2.6324E+02
 NST=   135 JCONV= 76 CHG=1.04E-04 dt0=1.00E+04 DIVF(1)= 3.07E-04 DIVFrms= 9.28E-04 DT(ND)=-7.96E-05 T(ND)=2.6324E+02
 NST=   136 JCONV= 76 CHG=9.27E-05 dt0=1.00E+04 DIVF(1)= 3.07E-04 DIVFrms= 9.26E-04 DT(ND)=-7.93E-05 T(ND)=2.6324E+02
 NST=   137 JCONV= 76 CHG=8.03E-05 dt0=1.00E+04 DIVF(1)= 3.06E-04 DIVFrms= 9.24E-04 DT(ND)=-7.90E-05 T(ND)=2.6324E+02
 NST=   138 JCONV= 76 CHG=8.52E-05 dt0=1.00E+04 DIVF(1)= 3.06E-04 DIVFrms= 9.22E-04 DT(ND)=-7.87E-05 T(ND)=2.6324E+02
 NST=   139 JCONV= 76 CHG=7.08E-05 dt0=1.00E+04 DIVF(1)= 3.05E-04 DIVFrms= 9.21E-04 DT(ND)=-7.84E-05 T(ND)=2.6324E+02
 NST=   140 JCONV= 76 CHG=7.96E-05 dt0=1.00E+04 DIVF(1)= 3.05E-04 DIVFrms= 9.19E-04 DT(ND)=-7.81E-05 T(ND)=2.6324E+02
 NST=   141 JCONV= 76 CHG=6.45E-05 dt0=1.00E+04 DIVF(1)= 3.04E-04 DIVFrms= 9.17E-04 DT(ND)=-7.78E-05 T(ND)=2.6324E+02
 NST=   142 JCONV= 76 CHG=7.54E-05 dt0=1.00E+04 DIVF(1)= 3.03E-04 DIVFrms= 9.16E-04 DT(ND)=-7.75E-05 T(ND)=2.6324E+02
 NST=   143 JCONV= 76 CHG=6.00E-05 dt0=1.00E+04 DIVF(1)= 3.03E-04 DIVFrms= 9.14E-04 DT(ND)=-7.72E-05 T(ND)=2.6324E+02
 NST=   144 JCONV= 76 CHG=4.41E-05 dt0=1.00E+04 DIVF(1)= 3.02E-04 DIVFrms= 9.13E-04 DT(ND)=-7.70E-05 T(ND)=2.6324E+02
 NST=   145 JCONV= 76 CHG=3.88E-05 dt0=1.00E+04 DIVF(1)= 3.01E-04 DIVFrms= 9.10E-04 DT(ND)=-7.67E-05 T(ND)=2.6324E+02
 NST=   146 JCONV= 76 CHG=3.61E-05 dt0=1.00E+04 DIVF(1)= 3.01E-04 DIVFrms= 9.09E-04 DT(ND)=-7.64E-05 T(ND)=2.6324E+02
 NST=   147 JCONV= 76 CHG=3.51E-05 dt0=1.00E+04 DIVF(1)= 3.00E-04 DIVFrms= 9.07E-04 DT(ND)=-7.61E-05 T(ND)=2.6324E+02
 NST=   148 JCONV= 76 CHG=3.51E-05 dt0=1.00E+04 DIVF(1)= 2.99E-04 DIVFrms= 9.06E-04 DT(ND)=-7.58E-05 T(ND)=2.6324E+02
 NST=   149 JCONV= 76 CHG=6.69E-04 dt0=1.00E+04 DIVF(1)= 2.98E-04 DIVFrms= 9.04E-04 DT(ND)=-7.55E-05 T(ND)=2.6324E+02
 NST=   150 JCONV= 76 CHG=3.33E-04 dt0=1.00E+04 DIVF(1)= 2.98E-04 DIVFrms= 9.03E-04 DT(ND)=-7.53E-05 T(ND)=2.6324E+02
 NST=   151 JCONV= 76 CHG=1.46E-04 dt0=1.00E+04 DIVF(1)= 2.94E-04 DIVFrms= 9.05E-04 DT(ND)=-7.50E-05 T(ND)=2.6324E+02
 NST=   152 JCONV= 76 CHG=1.45E-04 dt0=1.00E+04 DIVF(1)= 2.94E-04 DIVFrms= 9.01E-04 DT(ND)=-7.47E-05 T(ND)=2.6324E+02
 NST=   153 JCONV= 76 CHG=1.03E-04 dt0=1.00E+04 DIVF(1)= 2.94E-04 DIVFrms= 8.99E-04 DT(ND)=-7.44E-05 T(ND)=2.6324E+02
 NST=   154 JCONV= 76 CHG=9.43E-05 dt0=1.00E+04 DIVF(1)= 2.94E-04 DIVFrms= 8.97E-04 DT(ND)=-7.42E-05 T(ND)=2.6324E+02
 NST=   155 JCONV= 76 CHG=9.20E-05 dt0=1.00E+04 DIVF(1)= 2.93E-04 DIVFrms= 8.95E-04 DT(ND)=-7.39E-05 T(ND)=2.6324E+02
 NST=   156 JCONV= 76 CHG=7.73E-05 dt0=1.00E+04 DIVF(1)= 2.93E-04 DIVFrms= 8.93E-04 DT(ND)=-7.37E-05 T(ND)=2.6324E+02
 NST=   157 JCONV= 76 CHG=8.55E-05 dt0=1.00E+04 DIVF(1)= 2.92E-04 DIVFrms= 8.92E-04 DT(ND)=-7.34E-05 T(ND)=2.6324E+02
 NST=   158 JCONV= 76 CHG=6.93E-05 dt0=1.00E+04 DIVF(1)= 2.92E-04 DIVFrms= 8.90E-04 DT(ND)=-7.31E-05 T(ND)=2.6324E+02
 NST=   159 JCONV= 76 CHG=4.95E-05 dt0=1.00E+04 DIVF(1)= 2.90E-04 DIVFrms= 8.89E-04 DT(ND)=-7.29E-05 T(ND)=2.6324E+02
 NST=   160 JCONV= 76 CHG=4.27E-05 dt0=1.00E+04 DIVF(1)= 2.90E-04 DIVFrms= 8.87E-04 DT(ND)=-7.26E-05 T(ND)=2.6324E+02
 NST=   161 JCONV= 76 CHG=3.92E-05 dt0=1.00E+04 DIVF(1)= 2.89E-04 DIVFrms= 8.85E-04 DT(ND)=-7.23E-05 T(ND)=2.6324E+02
 NST=   162 JCONV= 76 CHG=3.70E-05 dt0=1.00E+04 DIVF(1)= 2.88E-04 DIVFrms= 8.84E-04 DT(ND)=-7.20E-05 T(ND)=2.6324E+02
 NST=   163 JCONV= 76 CHG=3.54E-05 dt0=1.00E+04 DIVF(1)= 2.87E-04 DIVFrms= 8.82E-04 DT(ND)=-7.18E-05 T(ND)=2.6324E+02
 NST=   164 JCONV= 76 CHG=5.58E-04 dt0=1.00E+04 DIVF(1)= 2.87E-04 DIVFrms= 8.81E-04 DT(ND)=-7.15E-05 T(ND)=2.6324E+02
 NST=   165 JCONV= 76 CHG=2.78E-04 dt0=1.00E+04 DIVF(1)= 2.86E-04 DIVFrms= 8.79E-04 DT(ND)=-7.12E-05 T(ND)=2.6324E+02
 NST=   166 JCONV= 76 CHG=1.30E-04 dt0=1.00E+04 DIVF(1)= 2.82E-04 DIVFrms= 8.81E-04 DT(ND)=-7.10E-05 T(ND)=2.6324E+02
 NST=   167 JCONV= 76 CHG=1.29E-04 dt0=1.00E+04 DIVF(1)= 2.83E-04 DIVFrms= 8.77E-04 DT(ND)=-7.07E-05 T(ND)=2.6324E+02
 NST=   168 JCONV= 76 CHG=9.90E-05 dt0=1.00E+04 DIVF(1)= 2.82E-04 DIVFrms= 8.76E-04 DT(ND)=-7.05E-05 T(ND)=2.6324E+02
 NST=   169 JCONV= 76 CHG=8.72E-05 dt0=1.00E+04 DIVF(1)= 2.82E-04 DIVFrms= 8.74E-04 DT(ND)=-7.02E-05 T(ND)=2.6324E+02
 NST=   170 JCONV= 76 CHG=9.14E-05 dt0=1.00E+04 DIVF(1)= 2.81E-04 DIVFrms= 8.72E-04 DT(ND)=-6.99E-05 T(ND)=2.6324E+02
 NST=   171 JCONV= 76 CHG=7.50E-05 dt0=1.00E+04 DIVF(1)= 2.81E-04 DIVFrms= 8.70E-04 DT(ND)=-6.97E-05 T(ND)=2.6324E+02
 NST=   172 JCONV= 76 CHG=5.26E-05 dt0=1.00E+04 DIVF(1)= 2.79E-04 DIVFrms= 8.69E-04 DT(ND)=-6.94E-05 T(ND)=2.6324E+02
 NST=   173 JCONV= 76 CHG=4.49E-05 dt0=1.00E+04 DIVF(1)= 2.79E-04 DIVFrms= 8.67E-04 DT(ND)=-6.92E-05 T(ND)=2.6324E+02
 NST=   174 JCONV= 76 CHG=4.09E-05 dt0=1.00E+04 DIVF(1)= 2.78E-04 DIVFrms= 8.66E-04 DT(ND)=-6.89E-05 T(ND)=2.6324E+02
 NST=   175 JCONV= 76 CHG=3.84E-05 dt0=1.00E+04 DIVF(1)= 2.86E-04 DIVFrms= 8.60E-04 DT(ND)=-6.86E-05 T(ND)=2.6324E+02
 NST=   176 JCONV= 76 CHG=4.64E-04 dt0=1.00E+04 DIVF(1)= 2.84E-04 DIVFrms= 8.59E-04 DT(ND)=-6.84E-05 T(ND)=2.6324E+02
 NST=   177 JCONV= 76 CHG=2.33E-04 dt0=1.00E+04 DIVF(1)= 2.85E-04 DIVFrms= 8.58E-04 DT(ND)=-6.81E-05 T(ND)=2.6324E+02
 NST=   178 JCONV= 76 CHG=1.18E-04 dt0=1.00E+04 DIVF(1)= 2.81E-04 DIVFrms= 8.59E-04 DT(ND)=-6.78E-05 T(ND)=2.6324E+02
 NST=   179 JCONV= 76 CHG=1.16E-04 dt0=1.00E+04 DIVF(1)= 2.82E-04 DIVFrms= 8.55E-04 DT(ND)=-6.75E-05 T(ND)=2.6324E+02
 NST=   180 JCONV= 76 CHG=9.78E-05 dt0=1.00E+04 DIVF(1)= 2.80E-04 DIVFrms= 8.54E-04 DT(ND)=-6.73E-05 T(ND)=2.6324E+02
 NST=   181 JCONV= 76 CHG=8.27E-05 dt0=1.00E+04 DIVF(1)= 2.80E-04 DIVFrms= 8.52E-04 DT(ND)=-6.70E-05 T(ND)=2.6324E+02
 NST=   182 JCONV= 76 CHG=5.67E-05 dt0=1.00E+04 DIVF(1)= 2.79E-04 DIVFrms= 8.51E-04 DT(ND)=-6.68E-05 T(ND)=2.6324E+02
 NST=   183 JCONV= 76 CHG=4.77E-05 dt0=1.00E+04 DIVF(1)= 2.78E-04 DIVFrms= 8.49E-04 DT(ND)=-6.65E-05 T(ND)=2.6324E+02
 NST=   184 JCONV= 76 CHG=4.30E-05 dt0=1.00E+04 DIVF(1)= 2.78E-04 DIVFrms= 8.47E-04 DT(ND)=-6.62E-05 T(ND)=2.6324E+02
 NST=   185 JCONV= 76 CHG=4.00E-05 dt0=1.00E+04 DIVF(1)= 2.77E-04 DIVFrms= 8.46E-04 DT(ND)=-6.60E-05 T(ND)=2.6324E+02
 NST=   186 JCONV= 76 CHG=3.90E-04 dt0=1.00E+04 DIVF(1)= 2.76E-04 DIVFrms= 8.45E-04 DT(ND)=-6.57E-05 T(ND)=2.6324E+02
 NST=   187 JCONV= 76 CHG=1.97E-04 dt0=1.00E+04 DIVF(1)= 2.76E-04 DIVFrms= 8.43E-04 DT(ND)=-6.55E-05 T(ND)=2.6324E+02
 NST=   188 JCONV= 76 CHG=1.07E-04 dt0=1.00E+04 DIVF(1)= 2.72E-04 DIVFrms= 8.44E-04 DT(ND)=-6.52E-05 T(ND)=2.6324E+02
 NST=   189 JCONV= 76 CHG=1.05E-04 dt0=1.00E+04 DIVF(1)= 2.73E-04 DIVFrms= 8.41E-04 DT(ND)=-6.50E-05 T(ND)=2.6324E+02
 NST=   190 JCONV= 76 CHG=6.21E-05 dt0=1.00E+04 DIVF(1)= 2.71E-04 DIVFrms= 8.40E-04 DT(ND)=-6.47E-05 T(ND)=2.6324E+02
 NST=   191 JCONV= 76 CHG=5.11E-05 dt0=1.00E+04 DIVF(1)= 2.71E-04 DIVFrms= 8.38E-04 DT(ND)=-6.45E-05 T(ND)=2.6324E+02
 NST=   192 JCONV= 76 CHG=4.54E-05 dt0=1.00E+04 DIVF(1)= 2.71E-04 DIVFrms= 8.36E-04 DT(ND)=-6.42E-05 T(ND)=2.6324E+02
 NST=   193 JCONV= 76 CHG=4.19E-05 dt0=1.00E+04 DIVF(1)= 2.70E-04 DIVFrms= 8.34E-04 DT(ND)=-6.40E-05 T(ND)=2.6324E+02
 NST=   194 JCONV= 76 CHG=3.25E-04 dt0=1.00E+04 DIVF(1)= 2.69E-04 DIVFrms= 8.33E-04 DT(ND)=-6.38E-05 T(ND)=2.6324E+02
 NST=   195 JCONV= 76 CHG=1.66E-04 dt0=1.00E+04 DIVF(1)= 2.68E-04 DIVFrms= 8.32E-04 DT(ND)=-6.35E-05 T(ND)=2.6324E+02
 NST=   196 JCONV= 76 CHG=7.11E-05 dt0=1.00E+04 DIVF(1)= 2.66E-04 DIVFrms= 8.32E-04 DT(ND)=-6.32E-05 T(ND)=2.6324E+02
 NST=   197 JCONV= 76 CHG=5.59E-05 dt0=1.00E+04 DIVF(1)= 2.66E-04 DIVFrms= 8.29E-04 DT(ND)=-6.30E-05 T(ND)=2.6324E+02
 NST=   198 JCONV= 76 CHG=4.85E-05 dt0=1.00E+04 DIVF(1)= 2.66E-04 DIVFrms= 8.27E-04 DT(ND)=-6.28E-05 T(ND)=2.6324E+02
 NST=   199 JCONV= 76 CHG=4.42E-05 dt0=1.00E+04 DIVF(1)= 2.65E-04 DIVFrms= 8.26E-04 DT(ND)=-6.25E-05 T(ND)=2.6324E+02
 NST=   200 JCONV= 76 CHG=4.12E-05 dt0=1.00E+04 DIVF(1)= 2.64E-04 DIVFrms= 8.25E-04 DT(ND)=-6.23E-05 T(ND)=2.6324E+02
 NST=   201 JCONV= 76 CHG=2.80E-04 dt0=1.00E+04 DIVF(1)= 2.64E-04 DIVFrms= 8.23E-04 DT(ND)=-6.20E-05 T(ND)=2.6324E+02
 NST=   202 JCONV= 76 CHG=1.43E-04 dt0=1.00E+04 DIVF(1)= 2.62E-04 DIVFrms= 8.22E-04 DT(ND)=-6.18E-05 T(ND)=2.6324E+02
 NST=   203 JCONV= 76 CHG=6.66E-05 dt0=1.00E+04 DIVF(1)= 2.60E-04 DIVFrms= 8.23E-04 DT(ND)=-6.15E-05 T(ND)=2.6324E+02
 NST=   204 JCONV= 76 CHG=5.32E-05 dt0=1.00E+04 DIVF(1)= 2.60E-04 DIVFrms= 8.20E-04 DT(ND)=-6.13E-05 T(ND)=2.6324E+02
 NST=   205 JCONV= 76 CHG=4.67E-05 dt0=1.00E+04 DIVF(1)= 2.60E-04 DIVFrms= 8.18E-04 DT(ND)=-6.11E-05 T(ND)=2.6324E+02
 NST=   206 JCONV= 76 CHG=4.28E-05 dt0=1.00E+04 DIVF(1)= 2.59E-04 DIVFrms= 8.17E-04 DT(ND)=-6.09E-05 T(ND)=2.6324E+02
 NST=   207 JCONV= 76 CHG=2.36E-04 dt0=1.00E+04 DIVF(1)= 2.57E-04 DIVFrms= 8.15E-04 DT(ND)=-6.06E-05 T(ND)=2.6324E+02
 NST=   208 JCONV= 76 CHG=1.22E-04 dt0=1.00E+04 DIVF(1)= 2.56E-04 DIVFrms= 8.14E-04 DT(ND)=-6.04E-05 T(ND)=2.6324E+02
 NST=   209 JCONV= 76 CHG=6.32E-05 dt0=1.00E+04 DIVF(1)= 2.54E-04 DIVFrms= 8.14E-04 DT(ND)=-6.01E-05 T(ND)=2.6324E+02
 NST=   210 JCONV= 76 CHG=5.13E-05 dt0=1.00E+04 DIVF(1)= 2.55E-04 DIVFrms= 8.12E-04 DT(ND)=-5.99E-05 T(ND)=2.6324E+02
 NST=   211 JCONV= 76 CHG=4.55E-05 dt0=1.00E+04 DIVF(1)= 2.54E-04 DIVFrms= 8.10E-04 DT(ND)=-5.97E-05 T(ND)=2.6324E+02
 NST=   212 JCONV= 76 CHG=1.95E-04 dt0=1.00E+04 DIVF(1)= 2.53E-04 DIVFrms= 8.09E-04 DT(ND)=-5.94E-05 T(ND)=2.6324E+02
 NST=   213 JCONV= 76 CHG=1.03E-04 dt0=1.00E+04 DIVF(1)= 2.59E-04 DIVFrms= 8.07E-04 DT(ND)=-5.92E-05 T(ND)=2.6323E+02
 NST=   214 JCONV= 76 CHG=6.04E-05 dt0=1.00E+04 DIVF(1)= 2.57E-04 DIVFrms= 8.07E-04 DT(ND)=-5.90E-05 T(ND)=2.6323E+02
 NST=   215 JCONV= 76 CHG=4.98E-05 dt0=1.00E+04 DIVF(1)= 2.58E-04 DIVFrms= 8.05E-04 DT(ND)=-5.87E-05 T(ND)=2.6323E+02
 NST=   216 JCONV= 76 CHG=1.55E-04 dt0=1.00E+04 DIVF(1)= 2.57E-04 DIVFrms= 8.03E-04 DT(ND)=-5.85E-05 T(ND)=2.6323E+02
 NST=   217 JCONV= 76 CHG=8.57E-05 dt0=1.00E+04 DIVF(1)= 2.62E-04 DIVFrms= 7.99E-04 DT(ND)=-5.83E-05 T(ND)=2.6323E+02
 NST=   218 JCONV= 76 CHG=5.81E-05 dt0=1.00E+04 DIVF(1)= 2.62E-04 DIVFrms= 7.99E-04 DT(ND)=-5.80E-05 T(ND)=2.6323E+02
 NST=   219 JCONV= 76 CHG=4.87E-05 dt0=1.00E+04 DIVF(1)= 2.60E-04 DIVFrms= 7.97E-04 DT(ND)=-5.78E-05 T(ND)=2.6323E+02
 NST=   220 JCONV= 76 CHG=1.35E-04 dt0=1.00E+04 DIVF(1)= 2.59E-04 DIVFrms= 7.95E-04 DT(ND)=-5.76E-05 T(ND)=2.6323E+02
 NST=   221 JCONV= 76 CHG=8.04E-05 dt0=1.00E+04 DIVF(1)= 2.58E-04 DIVFrms= 7.94E-04 DT(ND)=-5.73E-05 T(ND)=2.6323E+02
 NST=   222 JCONV= 76 CHG=5.59E-05 dt0=1.00E+04 DIVF(1)= 2.57E-04 DIVFrms= 7.94E-04 DT(ND)=-5.71E-05 T(ND)=2.6323E+02
 NST=   223 JCONV= 76 CHG=1.02E-04 dt0=1.00E+04 DIVF(1)= 2.56E-04 DIVFrms= 7.92E-04 DT(ND)=-5.69E-05 T(ND)=2.6323E+02
 NST=   224 JCONV= 76 CHG=7.59E-05 dt0=1.00E+04 DIVF(1)= 2.56E-04 DIVFrms= 7.90E-04 DT(ND)=-5.66E-05 T(ND)=2.6323E+02
 NST=   225 JCONV= 76 CHG=5.44E-05 dt0=1.00E+04 DIVF(1)= 2.54E-04 DIVFrms= 7.90E-04 DT(ND)=-5.64E-05 T(ND)=2.6323E+02
 NST=   226 JCONV= 76 CHG=8.83E-05 dt0=1.00E+04 DIVF(1)= 2.54E-04 DIVFrms= 7.88E-04 DT(ND)=-5.61E-05 T(ND)=2.6323E+02
 NST=   227 JCONV= 76 CHG=7.23E-05 dt0=1.00E+04 DIVF(1)= 2.53E-04 DIVFrms= 7.87E-04 DT(ND)=-5.59E-05 T(ND)=2.6323E+02
 NST=   228 JCONV= 76 CHG=5.28E-05 dt0=1.00E+04 DIVF(1)= 2.52E-04 DIVFrms= 7.86E-04 DT(ND)=-5.57E-05 T(ND)=2.6323E+02
 NST=   229 JCONV= 76 CHG=8.01E-05 dt0=1.00E+04 DIVF(1)= 2.53E-04 DIVFrms= 7.84E-04 DT(ND)=-5.55E-05 T(ND)=2.6323E+02
 NST=   230 JCONV= 76 CHG=6.92E-05 dt0=1.00E+04 DIVF(1)= 2.22E-04 DIVFrms= 7.88E-04 DT(ND)=-5.53E-05 T(ND)=2.6323E+02
 NST=   231 JCONV= 76 CHG=5.10E-05 dt0=1.00E+04 DIVF(1)= 2.21E-04 DIVFrms= 7.88E-04 DT(ND)=-5.51E-05 T(ND)=2.6323E+02
 NST=   232 JCONV= 76 CHG=7.49E-05 dt0=1.00E+04 DIVF(1)= 2.20E-04 DIVFrms= 7.86E-04 DT(ND)=-5.50E-05 T(ND)=2.6323E+02
 NST=   233 JCONV= 76 CHG=6.71E-05 dt0=1.00E+04 DIVF(1)= 2.19E-04 DIVFrms= 7.85E-04 DT(ND)=-5.48E-05 T(ND)=2.6323E+02
 NST=   234 JCONV= 76 CHG=5.42E-05 dt0=1.00E+04 DIVF(1)= 2.18E-04 DIVFrms= 7.84E-04 DT(ND)=-5.47E-05 T(ND)=2.6323E+02
 NST=   235 JCONV= 76 CHG=6.49E-05 dt0=1.00E+04 DIVF(1)= 2.18E-04 DIVFrms= 7.82E-04 DT(ND)=-5.45E-05 T(ND)=2.6323E+02
 NST=   236 JCONV= 76 CHG=4.99E-05 dt0=1.00E+04 DIVF(1)= 2.17E-04 DIVFrms= 7.82E-04 DT(ND)=-5.44E-05 T(ND)=2.6323E+02
 NST=   237 JCONV= 76 CHG=6.28E-05 dt0=1.00E+04 DIVF(1)= 2.16E-04 DIVFrms= 7.80E-04 DT(ND)=-5.42E-05 T(ND)=2.6323E+02
 NST=   238 JCONV= 76 CHG=4.67E-05 dt0=1.00E+04 DIVF(1)= 2.14E-04 DIVFrms= 7.79E-04 DT(ND)=-5.40E-05 T(ND)=2.6323E+02
 NST=   239 JCONV= 76 CHG=6.10E-05 dt0=1.00E+04 DIVF(1)= 2.37E-04 DIVFrms= 7.69E-04 DT(ND)=-5.38E-05 T(ND)=2.6323E+02
 NST=   240 JCONV= 76 CHG=4.48E-05 dt0=1.00E+04 DIVF(1)= 2.36E-04 DIVFrms= 7.68E-04 DT(ND)=-5.36E-05 T(ND)=2.6323E+02
 NST=   241 JCONV= 76 CHG=5.97E-05 dt0=1.00E+04 DIVF(1)= 2.35E-04 DIVFrms= 7.67E-04 DT(ND)=-5.33E-05 T(ND)=2.6323E+02
 NST=   242 JCONV= 76 CHG=4.34E-05 dt0=1.00E+04 DIVF(1)= 2.34E-04 DIVFrms= 7.66E-04 DT(ND)=-5.31E-05 T(ND)=2.6323E+02
 NST=   243 JCONV= 76 CHG=5.86E-05 dt0=1.00E+04 DIVF(1)= 2.34E-04 DIVFrms= 7.65E-04 DT(ND)=-5.28E-05 T(ND)=2.6323E+02
 NST=   244 JCONV= 76 CHG=4.23E-05 dt0=1.00E+04 DIVF(1)= 2.32E-04 DIVFrms= 7.63E-04 DT(ND)=-5.26E-05 T(ND)=2.6323E+02
 NST=   245 JCONV= 76 CHG=3.13E-05 dt0=1.00E+04 DIVF(1)= 2.31E-04 DIVFrms= 7.63E-04 DT(ND)=-5.24E-05 T(ND)=2.6323E+02
 NST=   246 JCONV= 76 CHG=2.78E-05 dt0=1.00E+04 DIVF(1)= 2.30E-04 DIVFrms= 7.61E-04 DT(ND)=-5.21E-05 T(ND)=2.6323E+02
 NST=   247 JCONV= 76 CHG=2.62E-05 dt0=1.00E+04 DIVF(1)= 2.30E-04 DIVFrms= 7.60E-04 DT(ND)=-5.19E-05 T(ND)=2.6323E+02
 NST=   248 JCONV= 76 CHG=2.54E-05 dt0=1.00E+04 DIVF(1)= 2.28E-04 DIVFrms= 7.59E-04 DT(ND)=-5.17E-05 T(ND)=2.6323E+02
 NST=   249 JCONV= 76 CHG=2.53E-05 dt0=1.00E+04 DIVF(1)= 2.28E-04 DIVFrms= 7.58E-04 DT(ND)=-5.15E-05 T(ND)=2.6323E+02
 NST=   250 JCONV= 76 CHG=1.16E-03 dt0=1.00E+04 DIVF(1)= 2.27E-04 DIVFrms= 7.57E-04 DT(ND)=-5.13E-05 T(ND)=2.6323E+02

 TIME= 2.492E+06  TIME IN DAYS = 2.885E+01

 PLANETARY ALBEDO:  ALBP = 0.3047

  J     P         ALT         T        CONVEC       DT          TOLD        FH20       FSAVE       TCOOL       THEAT
  1 5.4117E-05 8.6812E+01 1.9057E+02  0.00E+00  -1.6523E-03  1.9058E+02  7.9554E-08  8.6263E-08 -2.6370E+02  2.6309E+02
  2 6.3359E-05 8.5295E+01 1.8468E+02  0.00E+00  -1.8344E-03  1.8468E+02  7.9554E-08  8.6263E-08 -8.3594E+01  8.4363E+01
  3 7.4090E-05 8.3839E+01 1.7841E+02  0.00E+00  -6.6021E-03  1.7841E+02  7.9554E-08  8.6263E-08 -4.8791E+01  4.9338E+01
  4 8.6535E-05 8.2443E+01 1.7211E+02  0.00E+00   3.5415E-03  1.7210E+02  7.9554E-08  8.6263E-08 -2.9133E+01  2.8885E+01
  5 1.0095E-04 8.1107E+01 1.6601E+02  0.00E+00   8.3424E-03  1.6600E+02  7.9554E-08  8.6263E-08 -1.6519E+01  1.7704E+01
  6 1.1762E-04 7.9826E+01 1.6094E+02  0.00E+00   4.3563E-03  1.6094E+02  7.9554E-08  8.6263E-08 -1.3235E+01  1.1978E+01
  7 1.3689E-04 7.8587E+01 1.5756E+02  0.00E+00   6.8896E-04  1.5756E+02  7.9554E-08  8.6263E-08 -1.0375E+01  9.2189E+00
  8 1.5912E-04 7.7378E+01 1.5573E+02  0.00E+00  -7.1418E-04  1.5573E+02  7.9554E-08  8.6263E-08 -8.2470E+00  7.9356E+00
  9 1.8474E-04 7.6189E+01 1.5492E+02  0.00E+00  -8.1976E-04  1.5492E+02  7.9554E-08  8.6263E-08 -7.0620E+00  7.3041E+00
 10 2.1423E-04 7.5014E+01 1.5461E+02  0.00E+00  -5.5150E-04  1.5461E+02  7.9554E-08  8.6263E-08 -6.5620E+00  6.9152E+00
 11 2.4813E-04 7.3849E+01 1.5449E+02  0.00E+00  -3.0947E-04  1.5449E+02  7.9554E-08  8.6263E-08 -6.3352E+00  6.5913E+00
 12 2.8704E-04 7.2695E+01 1.5443E+02  0.00E+00  -1.8307E-04  1.5443E+02  7.9554E-08  8.6263E-08 -6.1455E+00  6.2673E+00
 13 3.3167E-04 7.1551E+01 1.5443E+02  0.00E+00  -1.4390E-04  1.5443E+02  7.9554E-08  8.6263E-08 -5.9109E+00  5.9244E+00
 14 3.8278E-04 7.0415E+01 1.5454E+02  0.00E+00  -1.4262E-04  1.5454E+02  7.9554E-08  8.6263E-08 -5.6030E+00  5.5594E+00
 15 4.4123E-04 6.9288E+01 1.5478E+02  0.00E+00  -1.5079E-04  1.5479E+02  7.9554E-08  8.6263E-08 -5.2241E+00  5.1743E+00
 16 5.0800E-04 6.8168E+01 1.5518E+02  0.00E+00  -1.5672E-04  1.5518E+02  7.9554E-08  8.6263E-08 -4.8491E+00  4.7732E+00
 17 5.8418E-04 6.7055E+01 1.5568E+02  0.00E+00  -1.6023E-04  1.5568E+02  7.9554E-08  8.6263E-08 -4.3883E+00  4.3615E+00
 18 6.7097E-04 6.5947E+01 1.5626E+02  0.00E+00  -1.6286E-04  1.5626E+02  7.9554E-08  8.6263E-08 -3.9923E+00  3.9458E+00
 19 7.6974E-04 6.4844E+01 1.5681E+02  0.00E+00  -1.6660E-04  1.5681E+02  7.9554E-08  8.6263E-08 -3.5359E+00  3.5336E+00
 20 8.8200E-04 6.3748E+01 1.5726E+02  0.00E+00  -1.7144E-04  1.5726E+02  7.9554E-08  8.6263E-08 -3.1086E+00  3.1323E+00
 21 1.0094E-03 6.2659E+01 1.5750E+02  0.00E+00  -1.7951E-04  1.5750E+02  7.9554E-08  8.6263E-08 -2.6190E+00  2.7778E+00
 22 1.1539E-03 6.1579E+01 1.5750E+02  0.00E+00  -1.9149E-04  1.5750E+02  7.9554E-08  8.6263E-08 -2.6901E+00  2.7478E+00
 23 1.3174E-03 6.0509E+01 1.5728E+02  0.00E+00  -2.0688E-04  1.5728E+02  7.9554E-08  8.6263E-08 -2.4637E+00  2.5611E+00
 24 1.5023E-03 5.9451E+01 1.5691E+02  0.00E+00  -2.2576E-04  1.5691E+02  7.9554E-08  8.6263E-08 -2.2002E+00  2.2777E+00
 25 1.7111E-03 5.8405E+01 1.5652E+02  0.00E+00  -2.4766E-04  1.5652E+02  7.9554E-08  8.6263E-08 -2.0366E+00  1.9692E+00
 26 1.9467E-03 5.7370E+01 1.5624E+02  0.00E+00  -2.7177E-04  1.5624E+02  7.9554E-08  8.6263E-08 -1.8296E+00  1.6925E+00
 27 2.2120E-03 5.6347E+01 1.5616E+02  0.00E+00  -2.9734E-04  1.5616E+02  7.9554E-08  8.6263E-08 -1.5927E+00  1.4725E+00
 28 2.5104E-03 5.5333E+01 1.5626E+02  0.00E+00  -3.2349E-04  1.5626E+02  7.9554E-08  8.6263E-08 -1.3630E+00  1.3039E+00
 29 2.8457E-03 5.4328E+01 1.5650E+02  0.00E+00  -3.4884E-04  1.5650E+02  7.9554E-08  8.6263E-08 -1.1637E+00  1.1679E+00
 30 3.2220E-03 5.3330E+01 1.5681E+02  0.00E+00  -3.7127E-04  1.5681E+02  7.9554E-08  8.6263E-08 -1.0030E+00  1.0487E+00
 31 3.6436E-03 5.2340E+01 1.5712E+02  0.00E+00  -3.8796E-04  1.5713E+02  7.9554E-08  8.6263E-08 -9.1613E-01  9.3948E-01
 32 4.1155E-03 5.1358E+01 1.5743E+02  0.00E+00  -3.9437E-04  1.5743E+02  7.9554E-08  8.6263E-08 -8.0550E-01  8.3981E-01
 33 4.6429E-03 5.0383E+01 1.5772E+02  0.00E+00  -3.8432E-04  1.5772E+02  7.9554E-08  8.6263E-08 -7.1918E-01  7.5106E-01
 34 5.2317E-03 4.9417E+01 1.5801E+02  0.00E+00  -3.5192E-04  1.5801E+02  7.9554E-08  8.6263E-08 -6.8143E-01  6.7426E-01
 35 5.8881E-03 4.8458E+01 1.5833E+02  0.00E+00  -2.9204E-04  1.5833E+02  7.9554E-08  8.6263E-08 -6.1746E-01  6.0977E-01
 36 6.6189E-03 4.7507E+01 1.5869E+02  0.00E+00  -2.0049E-04  1.5869E+02  7.9554E-08  8.6263E-08 -5.6465E-01  5.5736E-01
 37 7.4315E-03 4.6563E+01 1.5912E+02  0.00E+00  -7.4757E-05  1.5912E+02  7.9554E-08  8.6263E-08 -5.4036E-01  5.1636E-01
 38 8.3340E-03 4.5627E+01 1.5963E+02  0.00E+00   8.5909E-05  1.5963E+02  7.9554E-08  8.6263E-08 -4.9196E-01  4.8543E-01
 39 9.3348E-03 4.4696E+01 1.6022E+02  0.00E+00   2.8230E-04  1.6022E+02  7.9554E-08  8.6263E-08 -4.7392E-01  4.6264E-01
 40 1.0443E-02 4.3773E+01 1.6089E+02  0.00E+00   5.2176E-04  1.6089E+02  7.9554E-08  8.6263E-08 -4.7473E-01  4.6706E-01
 41 1.1670E-02 4.2854E+01 1.6164E+02  0.00E+00   8.2047E-04  1.6164E+02  7.9554E-08  8.6263E-08 -5.2318E-01  5.0069E-01
 42 1.3024E-02 4.1942E+01 1.6244E+02  0.00E+00   1.1924E-03  1.6244E+02  7.9554E-08  8.6263E-08 -5.3188E-01  5.2629E-01
 43 1.4519E-02 4.1035E+01 1.6327E+02  0.00E+00   1.6321E-03  1.6327E+02  7.9554E-08  8.6263E-08 -5.2491E-01  5.4191E-01
 44 1.6165E-02 4.0133E+01 1.6408E+02  0.00E+00   2.1104E-03  1.6408E+02  7.9554E-08  8.6263E-08 -5.1496E-01  5.4556E-01
 45 1.7977E-02 3.9237E+01 1.6484E+02  0.00E+00   2.5918E-03  1.6484E+02  7.9554E-08  8.6263E-08 -4.8882E-01  5.3642E-01
 46 1.9968E-02 3.8347E+01 1.6553E+02  0.00E+00   3.0515E-03  1.6552E+02  7.9554E-08  8.6263E-08 -4.7780E-01  5.1498E-01
 47 2.2153E-02 3.7464E+01 1.6613E+02  0.00E+00   3.4772E-03  1.6613E+02  7.9554E-08  8.6263E-08 -4.5070E-01  4.8288E-01
 48 2.4548E-02 3.6588E+01 1.6664E+02  0.00E+00   3.8423E-03  1.6664E+02  7.9554E-08  8.6263E-08 -3.9855E-01  4.4261E-01
 49 2.7169E-02 3.5720E+01 1.6705E+02  0.00E+00   4.1116E-03  1.6705E+02  7.9554E-08  8.6263E-08 -3.5287E-01  3.9725E-01
 50 3.0034E-02 3.4860E+01 1.6736E+02  0.00E+00   4.2139E-03  1.6736E+02  7.9554E-08  8.6263E-08 -2.9676E-01  3.5008E-01
 51 3.3162E-02 3.4009E+01 1.6758E+02  0.00E+00   4.1265E-03  1.6757E+02  7.9554E-08  8.6263E-08 -2.5026E-01  3.0423E-01
 52 3.6572E-02 3.3168E+01 1.6771E+02  0.00E+00   3.8034E-03  1.6771E+02  7.9554E-08  8.6263E-08 -2.1495E-01  2.6226E-01
 53 4.0283E-02 3.2337E+01 1.6779E+02  0.00E+00   3.2542E-03  1.6779E+02  7.9554E-08  8.6263E-08 -1.9047E-01  2.2590E-01
 54 4.4319E-02 3.1515E+01 1.6785E+02  0.00E+00   2.6824E-03  1.6784E+02  7.9554E-08  8.6263E-08 -1.7493E-01  1.9596E-01
 55 4.8701E-02 3.0703E+01 1.6791E+02  0.00E+00   2.1079E-03  1.6791E+02  7.9554E-08  8.6263E-08 -1.6580E-01  1.7240E-01
 56 5.3451E-02 2.9901E+01 1.6802E+02  0.00E+00   1.3623E-03  1.6802E+02  7.9554E-08  8.6263E-08 -1.6103E-01  1.5455E-01
 57 5.8595E-02 2.9109E+01 1.6818E+02  0.00E+00   6.1180E-04  1.6818E+02  7.9554E-08  8.6263E-08 -1.5641E-01  1.4135E-01
 58 6.4158E-02 2.8327E+01 1.6842E+02  0.00E+00   1.4226E-04  1.6842E+02  7.9554E-08  8.6263E-08 -1.5194E-01  1.3164E-01
 59 7.0164E-02 2.7553E+01 1.6873E+02  0.00E+00  -2.6503E-04  1.6873E+02  7.9554E-08  8.6300E-08 -1.4675E-01  1.2433E-01
 60 7.6641E-02 2.6788E+01 1.6910E+02  0.00E+00  -1.1153E-03  1.6910E+02  7.9554E-08  8.6446E-08 -1.3935E-01  1.1852E-01
 61 8.3616E-02 2.6032E+01 1.6939E+02  0.00E+00  -1.0243E-01  1.6950E+02  7.9554E-08  9.3671E-08 -1.1794E-01  1.1356E-01
 62 9.1117E-02 2.5284E+01 1.7010E+02  0.00E+00   1.9627E-01  1.6990E+02  8.2473E-08  1.0398E-07 -1.1599E-01  1.0899E-01
 63 9.9172E-02 2.4543E+01 1.7100E+02  0.00E+00  -1.0317E-01  1.7110E+02  9.4151E-08  1.1382E-07 -1.3249E-01  1.0443E-01
 64 1.0781E-01 2.3808E+01 1.7225E+02  0.00E+00  -2.5696E-03  1.7225E+02  1.1000E-07  1.2919E-07 -1.3083E-01  1.0863E-01
 65 1.1706E-01 2.3079E+01 1.7330E+02  0.00E+00  -2.0363E-03  1.7330E+02  1.2565E-07  1.4292E-07 -1.2951E-01  1.1192E-01
 66 1.2695E-01 2.2356E+01 1.7449E+02  0.00E+00  -1.6008E-03  1.7449E+02  1.4757E-07  1.6328E-07 -1.2723E-01  1.1340E-01
 67 1.3752E-01 2.1638E+01 1.7555E+02  0.00E+00  -1.0844E-03  1.7556E+02  1.6863E-07  1.8073E-07 -1.2267E-01  1.1331E-01
 68 1.4878E-01 2.0927E+01 1.7679E+02  0.00E+00  -6.4690E-04  1.7679E+02  1.9911E-07  2.0744E-07 -1.1743E-01  1.1184E-01
 69 1.6077E-01 2.0222E+01 1.7796E+02  0.00E+00  -1.4168E-04  1.7796E+02  2.3109E-07  2.3197E-07 -1.1054E-01  1.0932E-01
 70 1.7353E-01 1.9522E+01 1.7933E+02  0.00E+00   5.0985E-04  1.7933E+02  2.7871E-07  2.6849E-07 -1.0160E-01  1.0601E-01
 71 1.8707E-01 1.8829E+01 1.8062E+02  0.00E+00   8.4577E-04  1.8062E+02  3.3028E-07  3.0688E-07 -9.4904E-02  1.0221E-01
 72 2.0143E-01 1.8140E+01 1.8239E+02  0.00E+00   1.2574E-03  1.8239E+02  4.2643E-07  3.6445E-07 -8.7262E-02  9.8126E-02
 73 2.1663E-01 1.7457E+01 1.8388E+02  0.00E+00   3.3397E-03  1.8388E+02  5.2073E-07  4.1812E-07 -6.5133E-02  9.3988E-02
 74 2.3270E-01 1.6779E+01 1.8580E+02  0.00E+00   5.6778E-04  1.8580E+02  6.8396E-07  6.8622E-07 -8.5033E-02  8.9938E-02
 75 2.4966E-01 1.6103E+01 1.8902E+02  0.00E+00  -5.0278E-05  1.8902E+02  1.1183E-06  1.1665E-06 -1.6044E-01  8.6258E-02
 76 2.6754E-01 1.5426E+01 1.9245E+02  1.00E+00  -5.0933E-05  1.9245E+02  1.8607E-06  1.9390E-06 -2.4555E-01  8.3207E-02
 77 2.8635E-01 1.4749E+01 1.9587E+02  1.00E+00  -5.1688E-05  1.9587E+02  3.0304E-06  3.1542E-06 -3.3154E-01  8.0940E-02
 78 3.0612E-01 1.4073E+01 1.9926E+02  1.00E+00  -5.2538E-05  1.9926E+02  4.8355E-06  5.0258E-06 -4.2076E-01  7.9602E-02
 79 3.2687E-01 1.3397E+01 2.0264E+02  1.00E+00  -5.3452E-05  2.0264E+02  7.5655E-06  7.8506E-06 -5.0904E-01  7.9255E-02
 80 3.4861E-01 1.2723E+01 2.0600E+02  1.00E+00  -5.4379E-05  2.0600E+02  1.1615E-05  1.2032E-05 -5.8108E-01  7.9838E-02
 81 3.7134E-01 1.2050E+01 2.0933E+02  1.00E+00  -5.5263E-05  2.0933E+02  1.7513E-05  1.8105E-05 -6.0352E-01  8.1309E-02
 82 3.9509E-01 1.1379E+01 2.1264E+02  1.00E+00  -5.6069E-05  2.1264E+02  2.5946E-05  2.6767E-05 -6.2417E-01  8.3973E-02
 83 4.1986E-01 1.0711E+01 2.1591E+02  1.00E+00  -5.6805E-05  2.1591E+02  3.7797E-05  3.8903E-05 -6.4888E-01  8.8382E-02
 84 4.4564E-01 1.0046E+01 2.1914E+02  1.00E+00  -5.7492E-05  2.1914E+02  5.4168E-05  5.5615E-05 -6.6824E-01  9.4226E-02
 85 4.7244E-01 9.3850E+00 2.2234E+02  1.00E+00  -5.8108E-05  2.2234E+02  7.6405E-05  7.8240E-05 -6.5674E-01  9.9722E-02
 86 5.0025E-01 8.7281E+00 2.2549E+02  1.00E+00  -5.8635E-05  2.2549E+02  1.0611E-04  1.0836E-04 -6.2877E-01  1.0287E-01
 87 5.2907E-01 8.0759E+00 2.2860E+02  1.00E+00  -5.9055E-05  2.2860E+02  1.4516E-04  1.4781E-04 -5.9186E-01  1.0312E-01
 88 5.5888E-01 7.4290E+00 2.3165E+02  1.00E+00  -5.9353E-05  2.3165E+02  1.9564E-04  1.9863E-04 -5.5760E-01  1.0210E-01
 89 5.8966E-01 6.7878E+00 2.3464E+02  1.00E+00  -5.9515E-05  2.3464E+02  2.5987E-04  2.6304E-04 -5.3089E-01  1.0254E-01
 90 6.2139E-01 6.1530E+00 2.3757E+02  1.00E+00  -5.9527E-05  2.3757E+02  3.4027E-04  3.4337E-04 -5.1032E-01  1.0576E-01
 91 6.5405E-01 5.5251E+00 2.4042E+02  1.00E+00  -5.9382E-05  2.4042E+02  4.3929E-04  4.4195E-04 -4.9163E-01  1.1091E-01
 92 6.8761E-01 4.9045E+00 2.4320E+02  1.00E+00  -5.9074E-05  2.4320E+02  5.5932E-04  5.6103E-04 -4.6955E-01  1.1616E-01
 93 7.2202E-01 4.2918E+00 2.4590E+02  1.00E+00  -5.8604E-05  2.4590E+02  7.0251E-04  7.0262E-04 -4.3873E-01  1.1997E-01
 94 7.5725E-01 3.6876E+00 2.4852E+02  1.00E+00  -5.7979E-05  2.4852E+02  8.7068E-04  8.6841E-04 -4.1012E-01  1.2158E-01
 95 7.9324E-01 3.0924E+00 2.5104E+02  1.00E+00  -5.7209E-05  2.5104E+02  1.0652E-03  1.0597E-03 -3.8373E-01  1.2117E-01
 96 8.2996E-01 2.5067E+00 2.5347E+02  1.00E+00  -5.6312E-05  2.5347E+02  1.2868E-03  1.2771E-03 -3.5464E-01  1.1951E-01
 97 8.6733E-01 1.9310E+00 2.5581E+02  1.00E+00  -5.5306E-05  2.5581E+02  1.5357E-03  1.5209E-03 -3.2672E-01  1.1736E-01
 98 9.0531E-01 1.3659E+00 2.5805E+02  1.00E+00  -5.4213E-05  2.5805E+02  1.8115E-03  1.7908E-03 -3.1475E-01  1.1520E-01
 99 9.4382E-01 8.1167E-01 2.6019E+02  1.00E+00  -5.3055E-05  2.6019E+02  2.1130E-03  2.0856E-03 -3.3488E-01  1.1344E-01
100 9.8279E-01 2.6895E-01 2.6223E+02  1.00E+00  -5.1853E-05  2.6223E+02  2.4385E-03  2.4042E-03 -3.4882E-01  1.1268E-01
101 1.0026E+00 0.0000E+00 2.6323E+02  1.00E+00  -5.1253E-05  2.6323E+02  2.6128E-03  2.5730E-03 -6.1121E-01  3.3434E+00

 FCO2
  9.50E-01 9.50E-01 9.50E-01 9.50E-01 9.50E-01 9.50E-01 9.50E-01 9.50E-01 9.50E-01 9.50E-01
  9.50E-01 9.50E-01 9.50E-01 9.50E-01 9.50E-01 9.50E-01 9.50E-01 9.50E-01 9.50E-01 9.50E-01
  9.50E-01 9.50E-01 9.50E-01 9.50E-01 9.50E-01 9.50E-01 9.50E-01 9.50E-01 9.50E-01 9.50E-01
  9.50E-01 9.50E-01 9.50E-01 9.50E-01 9.50E-01 9.50E-01 9.50E-01 9.50E-01 9.50E-01 9.50E-01
  9.50E-01 9.50E-01 9.50E-01 9.50E-01 9.50E-01 9.50E-01 9.50E-01 9.50E-01 9.50E-01 9.50E-01
  9.50E-01 9.50E-01 9.50E-01 9.50E-01 9.50E-01 9.50E-01 9.50E-01 9.50E-01 9.50E-01 9.50E-01
  9.50E-01 9.50E-01 9.50E-01 9.50E-01 9.50E-01 9.50E-01 9.50E-01 9.50E-01 9.50E-01 9.50E-01
  9.50E-01 9.50E-01 9.50E-01 9.50E-01 9.50E-01 9.50E-01 9.50E-01 9.50E-01 9.50E-01 9.50E-01
  9.50E-01 9.50E-01 9.50E-01 9.50E-01 9.50E-01 9.50E-01 9.50E-01 9.50E-01 9.50E-01 9.50E-01
  9.50E-01 9.50E-01 9.50E-01 9.50E-01 9.50E-01 9.50E-01 9.50E-01 9.50E-01 9.50E-01 9.50E-01
  9.50E-01

  J    PF         ALT       FTOTAL       FTIR       FDNIR       FUPIR       FTSOL       FDNSOL       FUPSOL       DIVF
  1 5.0000E-05 8.6812E+01  2.5395E+01 -1.1179E+05  0.0000E+00  1.1179E+05  1.1181E+05  1.6082E+05  4.9006E+04  2.2718E-04
  2 5.8573E-05 8.5295E+01  2.6591E+01 -1.1127E+05  4.0523E+02  1.1167E+05  1.1129E+05  1.6030E+05  4.9006E+04  2.3812E-04
  3 6.8535E-05 8.3839E+01  2.4850E+01 -1.1108E+05  4.8999E+02  1.1157E+05  1.1110E+05  1.6011E+05  4.9005E+04  2.2273E-04
  4 8.0095E-05 8.2443E+01  2.3425E+01 -1.1095E+05  5.2692E+02  1.1148E+05  1.1098E+05  1.5998E+05  4.9005E+04  2.1013E-04
  5 9.3492E-05 8.1107E+01  2.4166E+01 -1.1086E+05  5.4286E+02  1.1141E+05  1.1089E+05  1.5989E+05  4.9004E+04  2.1691E-04
  6 1.0900E-04 7.9826E+01  2.0100E+01 -1.1081E+05  5.5166E+02  1.1136E+05  1.1083E+05  1.5983E+05  4.9004E+04  1.8049E-04
  7 1.2693E-04 7.8587E+01  2.5051E+01 -1.1076E+05  5.7182E+02  1.1133E+05  1.1078E+05  1.5978E+05  4.9003E+04  2.2502E-04
  8 1.4763E-04 7.7378E+01  3.0284E+01 -1.1071E+05  6.0127E+02  1.1131E+05  1.1074E+05  1.5974E+05  4.9002E+04  2.7207E-04
  9 1.7150E-04 7.6189E+01  3.1905E+01 -1.1067E+05  6.3656E+02  1.1130E+05  1.1070E+05  1.5970E+05  4.9002E+04  2.8665E-04
 10 1.9900E-04 7.5014E+01  3.0455E+01 -1.1062E+05  6.7669E+02  1.1130E+05  1.1065E+05  1.5965E+05  4.9001E+04  2.7363E-04
 11 2.3062E-04 7.3849E+01  2.8023E+01 -1.1058E+05  7.2259E+02  1.1130E+05  1.1061E+05  1.5961E+05  4.8999E+04  2.5178E-04
 12 2.6696E-04 7.2695E+01  2.5998E+01 -1.1053E+05  7.7561E+02  1.1130E+05  1.1055E+05  1.5955E+05  4.8998E+04  2.3358E-04
 13 3.0864E-04 7.1551E+01  2.4893E+01 -1.1047E+05  8.3710E+02  1.1131E+05  1.1050E+05  1.5949E+05  4.8997E+04  2.2363E-04
 14 3.5641E-04 7.0415E+01  2.4752E+01 -1.1041E+05  9.0810E+02  1.1132E+05  1.1044E+05  1.5943E+05  4.8995E+04  2.2235E-04
 15 4.1109E-04 6.9288E+01  2.5270E+01 -1.1034E+05  9.8876E+02  1.1133E+05  1.1037E+05  1.5936E+05  4.8993E+04  2.2698E-04
 16 4.7358E-04 6.8168E+01  2.5947E+01 -1.1027E+05  1.0781E+03  1.1135E+05  1.1030E+05  1.5929E+05  4.8990E+04  2.3302E-04
 17 5.4492E-04 6.7055E+01  2.7128E+01 -1.1020E+05  1.1749E+03  1.1137E+05  1.1023E+05  1.5921E+05  4.8988E+04  2.4358E-04
 18 6.2626E-04 6.5947E+01  2.7603E+01 -1.1012E+05  1.2750E+03  1.1140E+05  1.1015E+05  1.5913E+05  4.8985E+04  2.4780E-04
 19 7.1888E-04 6.4844E+01  2.8541E+01 -1.1004E+05  1.3758E+03  1.1142E+05  1.1007E+05  1.5905E+05  4.8981E+04  2.5617E-04
 20 8.2421E-04 6.3748E+01  2.8596E+01 -1.0996E+05  1.4711E+03  1.1143E+05  1.0999E+05  1.5896E+05  4.8978E+04  2.5663E-04
 21 9.4384E-04 6.2659E+01  2.7976E+01 -1.0988E+05  1.5572E+03  1.1143E+05  1.0990E+05  1.5888E+05  4.8973E+04  2.5105E-04
 22 1.0795E-03 6.1579E+01  2.3265E+01 -1.0980E+05  1.6305E+03  1.1143E+05  1.0982E+05  1.5879E+05  4.8968E+04  2.0878E-04
 23 1.2333E-03 6.0509E+01  2.1327E+01 -1.0971E+05  1.7070E+03  1.1142E+05  1.0973E+05  1.5869E+05  4.8962E+04  1.9142E-04
 24 1.4072E-03 5.9451E+01  1.7623E+01 -1.0962E+05  1.7809E+03  1.1140E+05  1.0963E+05  1.5859E+05  4.8956E+04  1.5820E-04
 25 1.6038E-03 5.8405E+01  1.4295E+01 -1.0952E+05  1.8572E+03  1.1138E+05  1.0953E+05  1.5848E+05  4.8949E+04  1.2835E-04
 26 1.8257E-03 5.7370E+01  1.7558E+01 -1.0942E+05  1.9467E+03  1.1137E+05  1.0944E+05  1.5838E+05  4.8941E+04  1.5765E-04
 27 2.0757E-03 5.6347E+01  2.5036E+01 -1.0932E+05  2.0505E+03  1.1137E+05  1.0935E+05  1.5828E+05  4.8931E+04  2.2479E-04
 28 2.3572E-03 5.5333E+01  3.2418E+01 -1.0922E+05  2.1650E+03  1.1139E+05  1.0926E+05  1.5818E+05  4.8921E+04  2.9103E-04
 29 2.6736E-03 5.4328E+01  3.6493E+01 -1.0913E+05  2.2855E+03  1.1142E+05  1.0917E+05  1.5808E+05  4.8909E+04  3.2754E-04
 30 3.0289E-03 5.3330E+01  3.6164E+01 -1.0904E+05  2.4075E+03  1.1145E+05  1.0908E+05  1.5797E+05  4.8896E+04  3.2450E-04
 31 3.4273E-03 5.2340E+01  3.2187E+01 -1.0895E+05  2.5290E+03  1.1148E+05  1.0898E+05  1.5787E+05  4.8882E+04  2.8872E-04
 32 3.8735E-03 5.1358E+01  2.9910E+01 -1.0886E+05  2.6545E+03  1.1152E+05  1.0889E+05  1.5776E+05  4.8865E+04  2.6821E-04
 33 4.3726E-03 5.0383E+01  2.6168E+01 -1.0878E+05  2.7795E+03  1.1156E+05  1.0880E+05  1.5765E+05  4.8847E+04  2.3457E-04
 34 4.9300E-03 4.9417E+01  2.2282E+01 -1.0869E+05  2.9070E+03  1.1159E+05  1.0871E+05  1.5754E+05  4.8827E+04  1.9967E-04
 35 5.5518E-03 4.8458E+01  2.3257E+01 -1.0860E+05  3.0458E+03  1.1164E+05  1.0862E+05  1.5742E+05  4.8804E+04  2.0832E-04
 36 6.2447E-03 4.7507E+01  2.4424E+01 -1.0850E+05  3.1931E+03  1.1169E+05  1.0853E+05  1.5730E+05  4.8778E+04  2.1867E-04
 37 7.0155E-03 4.6563E+01  2.5654E+01 -1.0841E+05  3.3514E+03  1.1176E+05  1.0843E+05  1.5718E+05  4.8750E+04  2.2955E-04
 38 7.8722E-03 4.5627E+01  3.0158E+01 -1.0830E+05  3.5280E+03  1.1183E+05  1.0834E+05  1.5705E+05  4.8719E+04  2.6967E-04
 39 8.8228E-03 4.4696E+01  3.1518E+01 -1.0820E+05  3.7166E+03  1.1192E+05  1.0823E+05  1.5692E+05  4.8684E+04  2.8161E-04
 40 9.8765E-03 4.3773E+01  3.4128E+01 -1.0809E+05  3.9240E+03  1.1202E+05  1.0813E+05  1.5677E+05  4.8646E+04  3.0467E-04
 41 1.1043E-02 4.2854E+01  3.6093E+01 -1.0797E+05  4.1546E+03  1.1213E+05  1.0801E+05  1.5661E+05  4.8604E+04  3.2190E-04
 42 1.2332E-02 4.1942E+01  4.2468E+01 -1.0782E+05  4.4273E+03  1.1225E+05  1.0787E+05  1.5642E+05  4.8557E+04  3.7833E-04
 43 1.3755E-02 4.1035E+01  4.4219E+01 -1.0766E+05  4.7287E+03  1.1238E+05  1.0770E+05  1.5621E+05  4.8506E+04  3.9346E-04
 44 1.5324E-02 4.0133E+01  3.8339E+01 -1.0747E+05  5.0496E+03  1.1252E+05  1.0751E+05  1.5596E+05  4.8449E+04  3.4072E-04
 45 1.7052E-02 3.9237E+01  2.6669E+01 -1.0728E+05  5.3841E+03  1.1266E+05  1.0730E+05  1.5569E+05  4.8387E+04  2.3671E-04
 46 1.8952E-02 3.8347E+01  6.6918E+00 -1.0707E+05  5.7197E+03  1.1279E+05  1.0708E+05  1.5540E+05  4.8318E+04  5.9328E-05
 47 2.1039E-02 3.7464E+01 -1.0461E+01 -1.0685E+05  6.0615E+03  1.1291E+05  1.0684E+05  1.5509E+05  4.8244E+04 -9.2644E-05
 48 2.3327E-02 3.6588E+01 -2.6757E+01 -1.0662E+05  6.3996E+03  1.1302E+05  1.0660E+05  1.5476E+05  4.8162E+04 -2.3674E-04
 49 2.5833E-02 3.5720E+01 -5.1217E+01 -1.0640E+05  6.7157E+03  1.1312E+05  1.0635E+05  1.5442E+05  4.8073E+04 -4.5277E-04
 50 2.8575E-02 3.4860E+01 -7.8179E+01 -1.0619E+05  7.0110E+03  1.1320E+05  1.0611E+05  1.5409E+05  4.7976E+04 -6.9063E-04
 51 3.1569E-02 3.4009E+01 -1.1359E+02 -1.0599E+05  7.2748E+03  1.1327E+05  1.0588E+05  1.5375E+05  4.7870E+04 -1.0028E-03
 52 3.4836E-02 3.3168E+01 -1.5269E+02 -1.0581E+05  7.5125E+03  1.1332E+05  1.0566E+05  1.5341E+05  4.7755E+04 -1.3474E-03
 53 3.8394E-02 3.2337E+01 -1.9004E+02 -1.0564E+05  7.7340E+03  1.1337E+05  1.0545E+05  1.5308E+05  4.7630E+04 -1.6762E-03
 54 4.2266E-02 3.1515E+01 -2.2047E+02 -1.0548E+05  7.9522E+03  1.1343E+05  1.0526E+05  1.5275E+05  4.7495E+04 -1.9437E-03
 55 4.6472E-02 3.0703E+01 -2.4009E+02 -1.0531E+05  8.1807E+03  1.1349E+05  1.0507E+05  1.5242E+05  4.7349E+04 -2.1155E-03
 56 5.1036E-02 2.9901E+01 -2.4678E+02 -1.0515E+05  8.4315E+03  1.1358E+05  1.0490E+05  1.5209E+05  4.7191E+04 -2.1728E-03
 57 5.5981E-02 2.9109E+01 -2.3967E+02 -1.0497E+05  8.7167E+03  1.1369E+05  1.0473E+05  1.5175E+05  4.7021E+04 -2.1082E-03
 58 6.1332E-02 2.8327E+01 -2.2179E+02 -1.0478E+05  9.0379E+03  1.1382E+05  1.0456E+05  1.5140E+05  4.6838E+04 -1.9486E-03
 59 6.7114E-02 2.7553E+01 -1.9572E+02 -1.0459E+05  9.3961E+03  1.1398E+05  1.0439E+05  1.5103E+05  4.6642E+04 -1.7171E-03
 60 7.3353E-02 2.6788E+01 -1.6464E+02 -1.0438E+05  9.7889E+03  1.1417E+05  1.0422E+05  1.5065E+05  4.6431E+04 -1.4421E-03
 61 8.0077E-02 2.6032E+01 -1.3353E+02 -1.0418E+05  1.0215E+04  1.1439E+05  1.0404E+05  1.5025E+05  4.6205E+04 -1.1673E-03
 62 8.7312E-02 2.5284E+01 -1.2647E+02 -1.0399E+05  1.0662E+04  1.1465E+05  1.0386E+05  1.4982E+05  4.5963E+04 -1.1031E-03
 63 9.5088E-02 2.4543E+01 -1.1435E+02 -1.0379E+05  1.1308E+04  1.1509E+05  1.0367E+05  1.4938E+05  4.5705E+04 -9.9355E-04
 64 1.0343E-01 2.3808E+01 -6.2168E+01 -1.0354E+05  1.2015E+04  1.1556E+05  1.0348E+05  1.4891E+05  4.5430E+04 -5.3799E-04
 65 1.1237E-01 2.3079E+01 -1.7839E+01 -1.0328E+05  1.2754E+04  1.1603E+05  1.0326E+05  1.4840E+05  4.5138E+04 -1.5374E-04
 66 1.2194E-01 2.2356E+01  1.9809E+01 -1.0300E+05  1.3584E+04  1.1659E+05  1.0302E+05  1.4785E+05  4.4826E+04  1.6991E-04
 67 1.3217E-01 2.1638E+01  5.1491E+01 -1.0271E+05  1.4446E+04  1.1716E+05  1.0276E+05  1.4726E+05  4.4496E+04  4.3951E-04
 68 1.4308E-01 2.0927E+01  7.4427E+01 -1.0241E+05  1.5415E+04  1.1782E+05  1.0248E+05  1.4663E+05  4.4146E+04  6.3168E-04
 69 1.5471E-01 2.0222E+01  8.9034E+01 -1.0210E+05  1.6434E+04  1.1854E+05  1.0219E+05  1.4597E+05  4.3776E+04  7.5111E-04
 70 1.6708E-01 1.9522E+01  9.2444E+01 -1.0179E+05  1.7581E+04  1.1938E+05  1.0189E+05  1.4527E+05  4.3384E+04  7.7439E-04
 71 1.8023E-01 1.8829E+01  7.9381E+01 -1.0149E+05  1.8800E+04  1.2029E+05  1.0157E+05  1.4454E+05  4.2971E+04  6.5989E-04
 72 1.9417E-01 1.8140E+01  5.6346E+01 -1.0119E+05  2.0252E+04  1.2145E+05  1.0125E+05  1.4379E+05  4.2536E+04  4.6395E-04
 73 2.0895E-01 1.7457E+01  1.9970E+01 -1.0090E+05  2.1753E+04  1.2265E+05  1.0092E+05  1.4300E+05  4.2079E+04  1.6281E-04
 74 2.2458E-01 1.6779E+01 -8.2458E+01 -1.0067E+05  2.3508E+04  1.2418E+05  1.0059E+05  1.4219E+05  4.1597E+04 -6.6402E-04
 75 2.4110E-01 1.6103E+01 -1.0090E+02 -1.0035E+05  2.5970E+04  1.2632E+05  1.0025E+05  1.4134E+05  4.1093E+04 -7.9878E-04
 76 2.5852E-01 1.5426E+01  1.9466E+02 -9.9712E+04  2.9041E+04  1.2875E+05  9.9907E+04  1.4047E+05  4.0564E+04  1.5119E-03
 77 2.7687E-01 1.4749E+01  8.7929E+02 -9.8676E+04  3.2710E+04  1.3139E+05  9.9556E+04  1.3957E+05  4.0010E+04  6.6924E-03
 78 2.9616E-01 1.4073E+01  1.9961E+03 -9.7199E+04  3.7021E+04  1.3422E+05  9.9195E+04  1.3863E+05  3.9432E+04  1.4872E-02
 79 3.1642E-01 1.3397E+01  3.6003E+03 -9.5220E+04  4.2036E+04  1.3726E+05  9.8821E+04  1.3765E+05  3.8828E+04  2.6231E-02
 80 3.3767E-01 1.2723E+01  5.7294E+03 -9.2699E+04  4.7926E+04  1.4062E+05  9.8428E+04  1.3663E+05  3.8199E+04  4.0742E-02
 81 3.5990E-01 1.2050E+01  8.3411E+03 -8.9671E+04  5.4805E+04  1.4448E+05  9.8012E+04  1.3556E+05  3.7544E+04  5.7734E-02
 82 3.8315E-01 1.1379E+01  1.1199E+04 -8.6369E+04  6.2351E+04  1.4872E+05  9.7567E+04  1.3443E+05  3.6864E+04  7.5300E-02
 83 4.0741E-01 1.0711E+01  1.4298E+04 -8.2788E+04  7.0561E+04  1.5335E+05  9.7085E+04  1.3324E+05  3.6158E+04  9.3236E-02
 84 4.3268E-01 1.0046E+01  1.7663E+04 -7.8891E+04  7.9453E+04  1.5834E+05  9.6555E+04  1.3198E+05  3.5427E+04  1.1155E-01
 85 4.5898E-01 9.3850E+00  2.1266E+04 -7.4698E+04  8.9061E+04  1.6376E+05  9.5963E+04  1.3063E+05  3.4671E+04  1.2986E-01
 86 4.8629E-01 8.7281E+00  2.4912E+04 -7.0398E+04  9.9127E+04  1.6952E+05  9.5311E+04  1.2920E+05  3.3890E+04  1.4695E-01
 87 5.1461E-01 8.0759E+00  2.8498E+04 -6.6111E+04  1.0951E+05  1.7562E+05  9.4609E+04  1.2769E+05  3.3085E+04  1.6227E-01
 88 5.4393E-01 7.4290E+00  3.1963E+04 -6.1915E+04  1.2011E+05  1.8203E+05  9.3878E+04  1.2614E+05  3.2257E+04  1.7559E-01
 89 5.7423E-01 6.7878E+00  3.5314E+04 -5.7813E+04  1.3090E+05  1.8871E+05  9.3127E+04  1.2453E+05  3.1407E+04  1.8713E-01
 90 6.0550E-01 6.1530E+00  3.8579E+04 -5.3766E+04  1.4187E+05  1.9564E+05  9.2345E+04  1.2288E+05  3.0535E+04  1.9720E-01
 91 6.3771E-01 5.5251E+00  4.1768E+04 -4.9744E+04  1.5302E+05  2.0276E+05  9.1512E+04  1.2116E+05  2.9644E+04  2.0599E-01
 92 6.7082E-01 4.9045E+00  4.4866E+04 -4.5744E+04  1.6431E+05  2.1005E+05  9.0609E+04  1.1934E+05  2.8734E+04  2.1359E-01
 93 7.0481E-01 4.2918E+00  4.7828E+04 -4.1807E+04  1.7566E+05  2.1746E+05  8.9635E+04  1.1744E+05  2.7809E+04  2.1994E-01
 94 7.3964E-01 3.6876E+00  5.0576E+04 -3.8025E+04  1.8688E+05  2.2490E+05  8.8601E+04  1.1547E+05  2.6870E+04  2.2488E-01
 95 7.7527E-01 3.0924E+00  5.3129E+04 -3.4396E+04  1.9793E+05  2.3233E+05  8.7525E+04  1.1345E+05  2.5920E+04  2.2868E-01
 96 8.1164E-01 2.5067E+00  5.5509E+04 -3.0918E+04  2.0882E+05  2.3974E+05  8.6427E+04  1.1139E+05  2.4962E+04  2.3154E-01
 97 8.4869E-01 1.9310E+00  5.7688E+04 -2.7632E+04  2.1949E+05  2.4712E+05  8.5320E+04  1.0932E+05  2.4000E+04  2.3344E-01
 98 8.8638E-01 1.3659E+00  5.9667E+04 -2.4544E+04  2.2982E+05  2.5437E+05  8.4210E+04  1.0725E+05  2.3038E+04  2.3457E-01
 99 9.2464E-01 8.1167E-01  6.1587E+04 -2.1515E+04  2.3992E+05  2.6143E+05  8.3102E+04  1.0518E+05  2.2082E+04  2.3557E-01
100 9.6340E-01 2.6895E-01  6.3751E+04 -1.8241E+04  2.4959E+05  2.6783E+05  8.1993E+04  1.0313E+05  2.1139E+04  2.3803E-01
101 1.0026E+00 0.0000E+00  6.6091E+04 -1.4785E+04  2.5603E+05  2.7082E+05  8.0876E+04  1.0110E+05  2.0219E+04  2.4404E-01
 
