   1.56798371352978        214.760000000000     
   2.79402527692523        114.001000000000     
   4.29075776493493        109.857000000000     
   6.94247511034428        144.648000000000     
   9.34602684789371        106.328000000000     
   32.6044002318739        732.534000000000     
   245.102973646484        4003.37000000000     
   1657.60870074287        15377.0000000000     
   1952.04074776890        2420.35000000000     
   2488.09912967323        4127.38000000000     
   4002.15351300772        10289.3000000000     
   4895.09088894155        5401.97000000000     
   8169.30465009438        17778.1000000000     
   9930.74803280688        8649.84000000000     
   18909.3375262087        39840.3000000000     
   26103.4907993606        28690.1000000000     
   42082.9923129939        60217.4000000000     
   56348.2695126534        52851.7000000000     
   82006.8625251495        82326.6000000000     
   110266.861547854        85484.1000000000     
   113955.345170022        36859.6000000000     
   135479.753814612        61503.1000000000     
   160905.479574056        70749.9000000000     
   169269.195978950        91579.1000000000     
   184740.790690469        98757.0000000000     
   188062.575922798        96914.9000000000     
   188103.436092974        82422.0000000000     
   197443.611724395        92135.8000000000     
   197443.806005242        59227.2000000000     
   197485.609452168        55080.7000000000     
   197486.082882693        61744.3000000000     
   198301.457723393        23377.6000000000     
   198301.457723393        26484.2000000000     
   198629.323512021        25823.1000000000     
   200419.059788315        22090.5000000000     
   200419.133394032        20783.8000000000     
   200419.133394032        5846.16000000000     
   200419.133394032        9741.42000000000     
