 
    OUTPUT FILES FOR THE Sun  
 
 Solar Constant= 0.323   F_CH4= 1.0000E-60  F_CO2= 9.9000E-01  F_O2= 1.0000E-60  F_N2= 1.0000E-02  IO3 =  0   IUP=  1
 ICONSERV= 0  FAC= 4.0  ND=101  SRFALB= 0.200  G=373.0  IMW= 0

 FNO2 = 1.000E-60
 
 NST=     1 JCONV=101 CHG=7.81E-03 dt0=3.75E+03 DIVF(1)= 7.15E-03 DIVFrms= 8.35E-02 DT(ND)= 1.43E-01 T(ND)=2.0014E+02

 TIME= 2.500E+03  TIME IN DAYS = 2.894E-02

 PLANETARY ALBEDO:  ALBP = 0.4214

  J     P         ALT         T        CONVEC       DT          TOLD        FH20       FSAVE       TCOOL       THEAT
  1 5.4593E-05 8.8444E+01 1.5393E+02  0.00E+00   3.9271E+00  1.5000E+02  3.0073E-09  3.0042E-09 -4.6441E+01  1.8216E+02
  2 6.5041E-05 8.7091E+01 1.5170E+02  0.00E+00   1.1722E+00  1.5000E+02  3.0073E-09  3.0042E-09 -1.5840E+01  5.6352E+01
  3 7.7384E-05 8.5764E+01 1.5059E+02  0.00E+00   5.1324E-01  1.5000E+02  3.0073E-09  3.0042E-09 -1.2541E+01  3.0279E+01
  4 9.1949E-05 8.4454E+01 1.5019E+02  0.00E+00   1.5941E-01  1.5000E+02  3.0073E-09  3.0042E-09 -1.1087E+01  1.6596E+01
  5 1.0911E-04 8.3156E+01 1.4996E+02  0.00E+00  -6.6474E-02  1.5000E+02  3.0073E-09  3.0042E-09 -1.2275E+01  9.9776E+00
  6 1.2930E-04 8.1870E+01 1.4982E+02  0.00E+00  -2.0598E-01  1.5000E+02  3.0073E-09  3.0042E-09 -1.4138E+01  7.0190E+00
  7 1.5303E-04 8.0595E+01 1.4978E+02  0.00E+00  -2.3268E-01  1.5000E+02  3.0073E-09  3.0042E-09 -1.3812E+01  5.7701E+00
  8 1.8086E-04 7.9329E+01 1.4981E+02  0.00E+00  -1.9167E-01  1.5000E+02  3.0073E-09  3.0042E-09 -1.1845E+01  5.2214E+00
  9 2.1348E-04 7.8074E+01 1.4987E+02  0.00E+00  -1.3027E-01  1.5000E+02  3.0073E-09  3.0042E-09 -9.4102E+00  4.9082E+00
 10 2.5165E-04 7.6828E+01 1.4991E+02  0.00E+00  -8.3418E-02  1.5000E+02  3.0073E-09  3.0042E-09 -7.5310E+00  4.6481E+00
 11 2.9624E-04 7.5592E+01 1.4994E+02  0.00E+00  -6.0472E-02  1.5000E+02  3.0073E-09  3.0042E-09 -6.4727E+00  4.3828E+00
 12 3.4828E-04 7.4366E+01 1.4995E+02  0.00E+00  -5.1422E-02  1.5000E+02  3.0073E-09  3.0042E-09 -5.8763E+00  4.0991E+00
 13 4.0891E-04 7.3150E+01 1.4996E+02  0.00E+00  -4.4047E-02  1.5000E+02  3.0073E-09  3.0042E-09 -5.3190E+00  3.7967E+00
 14 4.7946E-04 7.1943E+01 1.4997E+02  0.00E+00  -3.3157E-02  1.5000E+02  3.0073E-09  3.0042E-09 -4.6246E+00  3.4787E+00
 15 5.6143E-04 7.0747E+01 1.4998E+02  0.00E+00  -1.9279E-02  1.5000E+02  3.0073E-09  3.0042E-09 -3.8162E+00  3.1499E+00
 16 6.5655E-04 6.9561E+01 1.4999E+02  0.00E+00  -5.1077E-03  1.5000E+02  3.0073E-09  3.0042E-09 -2.9929E+00  2.8164E+00
 17 7.6677E-04 6.8385E+01 1.5001E+02  0.00E+00   6.5319E-03  1.5000E+02  3.0073E-09  3.0042E-09 -2.2594E+00  2.4851E+00
 18 8.9429E-04 6.7218E+01 1.5001E+02  0.00E+00   1.3764E-02  1.5000E+02  3.0073E-09  3.0042E-09 -1.6879E+00  2.1636E+00
 19 1.0416E-03 6.6062E+01 1.5001E+02  0.00E+00   1.4705E-02  1.5000E+02  3.0073E-09  3.0042E-09 -1.4339E+00  1.9421E+00
 20 1.2117E-03 6.4916E+01 1.5001E+02  0.00E+00   9.8370E-03  1.5000E+02  3.0073E-09  3.0042E-09 -1.5315E+00  1.8714E+00
 21 1.4076E-03 6.3780E+01 1.5000E+02  0.00E+00   2.6416E-03  1.5000E+02  3.0073E-09  3.0042E-09 -1.5890E+00  1.6803E+00
 22 1.6330E-03 6.2654E+01 1.5000E+02  0.00E+00  -5.0047E-03  1.5000E+02  3.0073E-09  3.0042E-09 -1.6116E+00  1.4386E+00
 23 1.8920E-03 6.1538E+01 1.4999E+02  0.00E+00  -9.1831E-03  1.5000E+02  3.0073E-09  3.0042E-09 -1.5298E+00  1.2124E+00
 24 2.1891E-03 6.0432E+01 1.4999E+02  0.00E+00  -9.2051E-03  1.5000E+02  3.0073E-09  3.0042E-09 -1.3530E+00  1.0349E+00
 25 2.5296E-03 5.9337E+01 1.4999E+02  0.00E+00  -6.5844E-03  1.5000E+02  3.0073E-09  3.0042E-09 -1.1305E+00  9.0298E-01
 26 2.9191E-03 5.8251E+01 1.5000E+02  0.00E+00  -3.3502E-03  1.5000E+02  3.0073E-09  3.0042E-09 -9.1354E-01  7.9775E-01
 27 3.3642E-03 5.7176E+01 1.5000E+02  0.00E+00  -8.6801E-04  1.5000E+02  3.0073E-09  3.0042E-09 -7.3513E-01  7.0514E-01
 28 3.8719E-03 5.6110E+01 1.5000E+02  0.00E+00   4.8191E-04  1.5000E+02  3.0073E-09  3.0042E-09 -6.0438E-01  6.2104E-01
 29 4.4504E-03 5.5055E+01 1.5000E+02  0.00E+00   9.3153E-04  1.5000E+02  3.0073E-09  3.0042E-09 -5.1419E-01  5.4639E-01
 30 5.1085E-03 5.4009E+01 1.5000E+02  0.00E+00   8.6190E-04  1.5000E+02  3.0073E-09  3.0042E-09 -4.5278E-01  4.8257E-01
 31 5.8561E-03 5.2974E+01 1.5000E+02  0.00E+00   5.9549E-04  1.5000E+02  3.0073E-09  3.0042E-09 -4.0960E-01  4.3018E-01
 32 6.7043E-03 5.1949E+01 1.5000E+02  0.00E+00   3.7791E-04  1.5000E+02  3.0073E-09  3.0042E-09 -3.7603E-01  3.8909E-01
 33 7.6651E-03 5.0933E+01 1.5000E+02  0.00E+00   3.7624E-04  1.5000E+02  3.0073E-09  3.0042E-09 -3.4553E-01  3.5853E-01
 34 8.7520E-03 4.9928E+01 1.5000E+02  0.00E+00   6.5357E-04  1.5000E+02  3.0073E-09  3.0042E-09 -3.1427E-01  3.3685E-01
 35 9.9797E-03 4.8933E+01 1.5000E+02  0.00E+00   1.1674E-03  1.5000E+02  3.0073E-09  3.0042E-09 -2.8132E-01  3.2166E-01
 36 1.1365E-02 4.7948E+01 1.5000E+02  0.00E+00   1.5954E-03  1.5000E+02  3.0073E-09  3.0042E-09 -2.9715E-01  3.5229E-01
 37 1.2924E-02 4.6973E+01 1.5000E+02  0.00E+00   2.9178E-03  1.5000E+02  3.0073E-09  3.0042E-09 -2.7424E-01  3.7508E-01
 38 1.4679E-02 4.6008E+01 1.5000E+02  0.00E+00   4.6342E-03  1.5000E+02  3.0073E-09  3.0042E-09 -2.2775E-01  3.8791E-01
 39 1.6649E-02 4.5054E+01 1.5001E+02  0.00E+00   6.3156E-03  1.5000E+02  3.0073E-09  3.0042E-09 -1.7027E-01  3.8854E-01
 40 1.8859E-02 4.4109E+01 1.5006E+02  0.00E+00   7.4593E-03  1.5000E+02  3.0073E-09  3.0042E-09 -9.7662E-02  3.5546E-01
 41 2.1334E-02 4.3173E+01 1.5040E+02  0.00E+00   3.8187E-03  1.5022E+02  3.0894E-09  3.0042E-09 -3.6332E-02  1.6831E-01
 42 2.4101E-02 4.2243E+01 1.5115E+02  0.00E+00   2.3804E-03  1.5115E+02  3.4176E-09  3.4155E-09 -7.2677E-02  1.5494E-01
 43 2.7192E-02 4.1319E+01 1.5208E+02  0.00E+00   1.5623E-03  1.5207E+02  3.8792E-09  3.8776E-09 -9.9110E-02  1.5310E-01
 44 3.0638E-02 4.0399E+01 1.5300E+02  0.00E+00   9.2619E-04  1.5300E+02  4.3972E-09  4.3961E-09 -1.1608E-01  1.4809E-01
 45 3.4475E-02 3.9484E+01 1.5393E+02  0.00E+00   5.5448E-04  1.5393E+02  4.9778E-09  4.9770E-09 -1.2107E-01  1.4023E-01
 46 3.8741E-02 3.8574E+01 1.5486E+02  0.00E+00  -6.1778E-05  1.5486E+02  5.6268E-09  5.6269E-09 -1.3224E-01  1.3011E-01
 47 4.3476E-02 3.7668E+01 1.5579E+02  0.00E+00  -5.8436E-04  1.5579E+02  6.3517E-09  6.3527E-09 -1.3866E-01  1.1846E-01
 48 4.8727E-02 3.6768E+01 1.5673E+02  0.00E+00  -9.9183E-04  1.5673E+02  7.1603E-09  7.1621E-09 -1.4044E-01  1.0616E-01
 49 5.4538E-02 3.5873E+01 1.5766E+02  0.00E+00  -1.2594E-03  1.5766E+02  8.0609E-09  8.0634E-09 -1.3759E-01  9.4063E-02
 50 6.0962E-02 3.4983E+01 1.5859E+02  0.00E+00  -1.3955E-03  1.5859E+02  9.0625E-09  9.0656E-09 -1.3113E-01  8.2903E-02
 51 6.8052E-02 3.4099E+01 1.5952E+02  0.00E+00  -1.4423E-03  1.5952E+02  1.0175E-08  1.0178E-08 -1.2304E-01  7.3195E-02
 52 7.5866E-02 3.3220E+01 1.6045E+02  0.00E+00  -1.4558E-03  1.6045E+02  1.1407E-08  1.1411E-08 -1.1550E-01  6.5189E-02
 53 8.4464E-02 3.2347E+01 1.6138E+02  0.00E+00  -1.4812E-03  1.6138E+02  1.2772E-08  1.2776E-08 -1.1007E-01  5.8881E-02
 54 9.3913E-02 3.1480E+01 1.6231E+02  0.00E+00  -1.5432E-03  1.6231E+02  1.4279E-08  1.4284E-08 -1.0741E-01  5.4072E-02
 55 1.0428E-01 3.0619E+01 1.6324E+02  0.00E+00  -1.5741E-03  1.6324E+02  1.5943E-08  1.5948E-08 -1.0710E-01  5.2701E-02
 56 1.1564E-01 2.9764E+01 1.6417E+02  0.00E+00  -1.5291E-03  1.6417E+02  1.7775E-08  1.7782E-08 -1.0749E-01  5.4651E-02
 57 1.2806E-01 2.8915E+01 1.6509E+02  0.00E+00  -1.4889E-03  1.6509E+02  1.9791E-08  1.9798E-08 -1.0767E-01  5.6215E-02
 58 1.4163E-01 2.8072E+01 1.6602E+02  0.00E+00  -1.4652E-03  1.6602E+02  2.2005E-08  2.2012E-08 -1.0791E-01  5.7271E-02
 59 1.5643E-01 2.7236E+01 1.6694E+02  0.00E+00  -1.4323E-03  1.6694E+02  2.4432E-08  2.4440E-08 -1.0716E-01  5.7660E-02
 60 1.7255E-01 2.6406E+01 1.6786E+02  0.00E+00  -1.4667E-03  1.6786E+02  2.7089E-08  2.7098E-08 -1.0799E-01  5.7295E-02
 61 1.9008E-01 2.5583E+01 1.6878E+02  0.00E+00  -1.5082E-03  1.6878E+02  2.9993E-08  3.0003E-08 -1.0832E-01  5.6199E-02
 62 2.0911E-01 2.4767E+01 1.6969E+02  0.00E+00  -1.5533E-03  1.6969E+02  3.3163E-08  3.3174E-08 -1.0816E-01  5.4477E-02
 63 2.2973E-01 2.3958E+01 1.7060E+02  0.00E+00  -1.5901E-03  1.7060E+02  3.6617E-08  3.6629E-08 -1.0723E-01  5.2280E-02
 64 2.5206E-01 2.3157E+01 1.7151E+02  0.00E+00  -1.6087E-03  1.7151E+02  4.0375E-08  4.0389E-08 -1.0536E-01  4.9765E-02
 65 2.7619E-01 2.2362E+01 1.7242E+02  0.00E+00  -1.6050E-03  1.7242E+02  4.4458E-08  4.4473E-08 -1.0255E-01  4.7079E-02
 66 3.0223E-01 2.1575E+01 1.7332E+02  0.00E+00  -1.5811E-03  1.7332E+02  4.8887E-08  4.8903E-08 -9.8986E-02  4.4344E-02
 67 3.3029E-01 2.0796E+01 1.7422E+02  0.00E+00  -1.5431E-03  1.7422E+02  5.3682E-08  5.3699E-08 -9.4977E-02  4.1648E-02
 68 3.6047E-01 2.0024E+01 1.7511E+02  0.00E+00  -1.4986E-03  1.7511E+02  5.8866E-08  5.8883E-08 -9.0837E-02  3.9047E-02
 69 3.9289E-01 1.9260E+01 1.7600E+02  0.00E+00  -1.4529E-03  1.7600E+02  6.4460E-08  6.4479E-08 -8.6778E-02  3.6564E-02
 70 4.2765E-01 1.8504E+01 1.7688E+02  0.00E+00  -1.3815E-03  1.7688E+02  7.0488E-08  7.0507E-08 -8.1944E-02  3.4198E-02
 71 4.6487E-01 1.7756E+01 1.7776E+02  0.00E+00  -1.3585E-03  1.7776E+02  7.6972E-08  7.6992E-08 -7.8880E-02  3.1932E-02
 72 5.0467E-01 1.7016E+01 1.7864E+02  0.00E+00  -1.3335E-03  1.7864E+02  8.3935E-08  8.3957E-08 -7.5826E-02  2.9741E-02
 73 5.4713E-01 1.6285E+01 1.7950E+02  0.00E+00  -1.3048E-03  1.7951E+02  9.1400E-08  9.1423E-08 -7.2705E-02  2.7610E-02
 74 5.9239E-01 1.5563E+01 1.8037E+02  0.00E+00  -1.2711E-03  1.8037E+02  9.9391E-08  9.9415E-08 -6.9461E-02  2.5531E-02
 75 6.4054E-01 1.4849E+01 1.8122E+02  0.00E+00  -1.2320E-03  1.8122E+02  1.0793E-07  1.0795E-07 -6.6086E-02  2.3509E-02
 76 6.9168E-01 1.4144E+01 1.8207E+02  0.00E+00  -1.1873E-03  1.8207E+02  1.1704E-07  1.1706E-07 -6.2594E-02  2.1560E-02
 77 7.4592E-01 1.3447E+01 1.8291E+02  0.00E+00  -1.1240E-03  1.8291E+02  1.2674E-07  1.2676E-07 -5.8549E-02  1.9705E-02
 78 8.0334E-01 1.2760E+01 1.8375E+02  0.00E+00  -1.0884E-03  1.8375E+02  1.3705E-07  1.3708E-07 -5.5583E-02  1.7966E-02
 79 8.6403E-01 1.2083E+01 1.8458E+02  0.00E+00  -1.0523E-03  1.8458E+02  1.4800E-07  1.4803E-07 -5.2728E-02  1.6362E-02
 80 9.2807E-01 1.1414E+01 1.8540E+02  0.00E+00  -1.0182E-03  1.8540E+02  1.5960E-07  1.5963E-07 -5.0093E-02  1.4904E-02
 81 9.9553E-01 1.0755E+01 1.8621E+02  0.00E+00  -9.8721E-04  1.8621E+02  1.7188E-07  1.7191E-07 -4.7716E-02  1.3598E-02
 82 1.0665E+00 1.0106E+01 1.8701E+02  0.00E+00  -8.8378E-04  1.8701E+02  1.8485E-07  1.8488E-07 -4.6099E-02  1.5556E-02
 83 1.1410E+00 9.4667E+00 1.8781E+02  0.00E+00  -8.7212E-04  1.8781E+02  1.9852E-07  1.9855E-07 -4.4245E-02  1.4105E-02
 84 1.2191E+00 8.8372E+00 1.8859E+02  0.00E+00  -8.5485E-04  1.8860E+02  2.1291E-07  2.1294E-07 -4.3157E-02  1.3613E-02
 85 1.3007E+00 8.2177E+00 1.8937E+02  0.00E+00  -8.4484E-04  1.8937E+02  2.2802E-07  2.2805E-07 -4.2017E-02  1.2820E-02
 86 1.3861E+00 7.6085E+00 1.9014E+02  0.00E+00  -8.3531E-04  1.9014E+02  2.4387E-07  2.4390E-07 -4.0813E-02  1.1944E-02
 87 1.4750E+00 7.0096E+00 1.9090E+02  0.00E+00  -8.1140E-04  1.9090E+02  2.6045E-07  2.6049E-07 -3.9255E-02  1.1213E-02
 88 1.5676E+00 6.4212E+00 1.9164E+02  0.00E+00  -7.9799E-04  1.9165E+02  2.7778E-07  2.7782E-07 -3.8257E-02  1.0679E-02
 89 1.6638E+00 5.8434E+00 1.9238E+02  0.00E+00  -7.7804E-04  1.9238E+02  2.9585E-07  2.9589E-07 -3.7175E-02  1.0286E-02
 90 1.7635E+00 5.2763E+00 1.9311E+02  0.00E+00  -7.5474E-04  1.9311E+02  3.1465E-07  3.1469E-07 -3.6044E-02  9.9604E-03
 91 1.8668E+00 4.7201E+00 1.9382E+02  0.00E+00  -7.2322E-04  1.9382E+02  3.3418E-07  3.3422E-07 -3.4650E-02  9.6553E-03
 92 1.9734E+00 4.1749E+00 1.9453E+02  0.00E+00  -7.0802E-04  1.9453E+02  3.5444E-07  3.5448E-07 -3.3823E-02  9.3537E-03
 93 2.0834E+00 3.6408E+00 1.9522E+02  0.00E+00  -6.9306E-04  1.9522E+02  3.7539E-07  3.7543E-07 -3.3006E-02  9.0542E-03
 94 2.1966E+00 3.1180E+00 1.9590E+02  0.00E+00  -6.7302E-04  1.9590E+02  3.9703E-07  3.9707E-07 -3.2020E-02  8.7603E-03
 95 2.3129E+00 2.6065E+00 1.9656E+02  0.00E+00  -6.7038E-04  1.9656E+02  4.1933E-07  4.1937E-07 -3.1645E-02  8.4764E-03
 96 2.4321E+00 2.1065E+00 1.9722E+02  0.00E+00  -6.7038E-04  1.9722E+02  4.4226E-07  4.4231E-07 -3.1375E-02  8.2061E-03
 97 2.5540E+00 1.6181E+00 1.9786E+02  0.00E+00  -6.6839E-04  1.9786E+02  4.6580E-07  4.6585E-07 -3.1051E-02  7.9517E-03
 98 2.6785E+00 1.1415E+00 1.9849E+02  0.00E+00  -6.9119E-04  1.9849E+02  4.8990E-07  4.8996E-07 -3.1602E-02  7.7150E-03
 99 2.8054E+00 6.7671E-01 1.9910E+02  0.00E+00  -7.5855E-04  1.9910E+02  5.1454E-07  5.1460E-07 -3.3713E-02  7.4970E-03
100 2.9343E+00 2.2373E-01 1.9985E+02  0.00E+00   1.4292E-01  1.9970E+02  5.5171E-07  5.3973E-07 -3.6637E-02  8.2526E-03
101 3.0000E+00 0.0000E+00 2.0014E+02  1.00E+00   1.4308E-01  2.0000E+02  5.6480E-07  5.5255E-07  0.0000E+00  0.0000E+00

 FCO2
  9.90E-01 9.90E-01 9.90E-01 9.90E-01 9.90E-01 9.90E-01 9.90E-01 9.90E-01 9.90E-01 9.90E-01
  9.90E-01 9.90E-01 9.90E-01 9.90E-01 9.90E-01 9.90E-01 9.90E-01 9.90E-01 9.90E-01 9.90E-01
  9.90E-01 9.90E-01 9.90E-01 9.90E-01 9.90E-01 9.90E-01 9.90E-01 9.90E-01 9.90E-01 9.90E-01
  9.90E-01 9.90E-01 9.90E-01 9.90E-01 9.90E-01 9.90E-01 9.90E-01 9.90E-01 9.90E-01 9.90E-01
  4.10E-01 4.13E-01 4.16E-01 4.19E-01 4.22E-01 4.24E-01 4.27E-01 4.30E-01 4.32E-01 4.35E-01
  4.37E-01 4.40E-01 4.42E-01 4.45E-01 4.47E-01 4.50E-01 4.52E-01 4.54E-01 4.57E-01 4.59E-01
  4.61E-01 4.64E-01 4.66E-01 4.68E-01 4.70E-01 4.72E-01 4.74E-01 4.76E-01 4.78E-01 4.80E-01
  4.82E-01 4.84E-01 4.86E-01 4.88E-01 4.90E-01 4.91E-01 4.93E-01 4.95E-01 4.97E-01 4.98E-01
  5.00E-01 5.01E-01 5.03E-01 5.05E-01 5.06E-01 5.08E-01 5.09E-01 5.11E-01 5.12E-01 5.13E-01
  5.15E-01 5.16E-01 5.17E-01 5.19E-01 5.20E-01 5.21E-01 5.22E-01 5.23E-01 5.25E-01 5.32E-01
  9.90E-01

  J    PF         ALT       FTOTAL       FTIR       FDNIR       FUPIR       FTSOL       FDNSOL       FUPSOL       DIVF
  1 5.0000E-05 8.8444E+01  4.5064E+02 -6.2990E+04  0.0000E+00  6.2990E+04  6.3441E+04  1.0965E+05  4.6207E+04  7.1541E-03
  2 5.9608E-05 8.7091E+01  1.7220E+02 -6.2895E+04  9.5275E+01  6.2990E+04  6.3067E+04  1.0927E+05  4.6207E+04  2.7338E-03
  3 7.0968E-05 8.5764E+01  7.3938E+01 -6.2857E+04  1.3370E+02  6.2990E+04  6.2931E+04  1.0914E+05  4.6207E+04  1.1738E-03
  4 8.4381E-05 8.4454E+01  2.3138E+01 -6.2821E+04  1.6962E+02  6.2990E+04  6.2844E+04  1.0905E+05  4.6207E+04  3.6733E-04
  5 1.0020E-04 8.3156E+01  4.5350E+00 -6.2783E+04  2.0705E+02  6.2990E+04  6.2788E+04  1.0899E+05  4.6207E+04  7.1994E-05
  6 1.1882E-04 8.1870E+01  1.3669E+01 -6.2735E+04  2.5586E+02  6.2990E+04  6.2748E+04  1.0895E+05  4.6206E+04  2.1700E-04
  7 1.4071E-04 8.0595E+01  4.6948E+01 -6.2668E+04  3.2195E+02  6.2990E+04  6.2715E+04  1.0892E+05  4.6206E+04  7.4531E-04
  8 1.6642E-04 7.9329E+01  9.1089E+01 -6.2593E+04  3.9777E+02  6.2990E+04  6.2684E+04  1.0889E+05  4.6205E+04  1.4461E-03
  9 1.9656E-04 7.8074E+01  1.3372E+02 -6.2516E+04  4.7401E+02  6.2990E+04  6.2650E+04  1.0885E+05  4.6205E+04  2.1229E-03
 10 2.3186E-04 7.6828E+01  1.6765E+02 -6.2446E+04  5.4494E+02  6.2990E+04  6.2613E+04  1.0882E+05  4.6204E+04  2.6615E-03
 11 2.7313E-04 7.5592E+01  1.9305E+02 -6.2379E+04  6.1131E+02  6.2990E+04  6.2572E+04  1.0878E+05  4.6203E+04  3.0648E-03
 12 3.2131E-04 7.4366E+01  2.1456E+02 -6.2313E+04  6.7792E+02  6.2990E+04  6.2527E+04  1.0873E+05  4.6203E+04  3.4062E-03
 13 3.7750E-04 7.3150E+01  2.3588E+02 -6.2242E+04  7.4843E+02  6.2990E+04  6.2478E+04  1.0868E+05  4.6202E+04  3.7446E-03
 14 4.4293E-04 7.1943E+01  2.5714E+02 -6.2168E+04  8.2276E+02  6.2990E+04  6.2425E+04  1.0863E+05  4.6200E+04  4.0822E-03
 15 5.1900E-04 7.0747E+01  2.7576E+02 -6.2093E+04  8.9790E+02  6.2991E+04  6.2368E+04  1.0857E+05  4.6199E+04  4.3777E-03
 16 6.0733E-04 6.9561E+01  2.8832E+02 -6.2021E+04  9.6991E+02  6.2991E+04  6.2309E+04  1.0851E+05  4.6197E+04  4.5772E-03
 17 7.0976E-04 6.8385E+01  2.9218E+02 -6.1955E+04  1.0354E+03  6.2991E+04  6.2247E+04  1.0844E+05  4.6196E+04  4.6385E-03
 18 8.2835E-04 6.7218E+01  2.8647E+02 -6.1898E+04  1.0927E+03  6.2991E+04  6.2184E+04  1.0838E+05  4.6194E+04  4.5478E-03
 19 9.6548E-04 6.6062E+01  2.7254E+02 -6.1849E+04  1.1422E+03  6.2991E+04  6.2121E+04  1.0831E+05  4.6191E+04  4.3266E-03
 20 1.1238E-03 6.4916E+01  2.5536E+02 -6.1800E+04  1.1907E+03  6.2991E+04  6.2055E+04  1.0824E+05  4.6188E+04  4.0539E-03
 21 1.3064E-03 6.3780E+01  2.4210E+02 -6.1740E+04  1.2506E+03  6.2991E+04  6.1982E+04  1.0817E+05  4.6185E+04  3.8435E-03
 22 1.5166E-03 6.2654E+01  2.3801E+02 -6.1669E+04  1.3221E+03  6.2991E+04  6.1907E+04  1.0809E+05  4.6181E+04  3.7784E-03
 23 1.7583E-03 6.1538E+01  2.4693E+02 -6.1586E+04  1.4055E+03  6.2991E+04  6.1833E+04  1.0801E+05  4.6177E+04  3.9201E-03
 24 2.0358E-03 6.0432E+01  2.6574E+02 -6.1495E+04  1.4966E+03  6.2992E+04  6.1761E+04  1.0793E+05  4.6172E+04  4.2186E-03
 25 2.3540E-03 5.9337E+01  2.8735E+02 -6.1403E+04  1.5890E+03  6.2992E+04  6.1691E+04  1.0786E+05  4.6166E+04  4.5617E-03
 26 2.7183E-03 5.8251E+01  3.0505E+02 -6.1315E+04  1.6776E+03  6.2993E+04  6.1620E+04  1.0778E+05  4.6160E+04  4.8426E-03
 27 3.1348E-03 5.7176E+01  3.1535E+02 -6.1234E+04  1.7597E+03  6.2994E+04  6.1549E+04  1.0770E+05  4.6152E+04  5.0060E-03
 28 3.6103E-03 5.6110E+01  3.1840E+02 -6.1160E+04  1.8354E+03  6.2995E+04  6.1478E+04  1.0762E+05  4.6144E+04  5.0543E-03
 29 4.1525E-03 5.5055E+01  3.1647E+02 -6.1090E+04  1.9068E+03  6.2996E+04  6.1406E+04  1.0754E+05  4.6134E+04  5.0236E-03
 30 4.7697E-03 5.4009E+01  3.1222E+02 -6.1022E+04  1.9763E+03  6.2998E+04  6.1334E+04  1.0746E+05  4.6123E+04  4.9561E-03
 31 5.4714E-03 5.2974E+01  3.0776E+02 -6.0954E+04  2.0463E+03  6.3000E+04  6.1262E+04  1.0737E+05  4.6111E+04  4.8851E-03
 32 6.2680E-03 5.1949E+01  3.0426E+02 -6.0884E+04  2.1187E+03  6.3003E+04  6.1189E+04  1.0729E+05  4.6097E+04  4.8293E-03
 33 7.1710E-03 5.0933E+01  3.0174E+02 -6.0812E+04  2.1946E+03  6.3006E+04  6.1114E+04  1.0719E+05  4.6081E+04  4.7891E-03
 34 8.1932E-03 4.9928E+01  2.9890E+02 -6.0736E+04  2.2743E+03  6.3011E+04  6.1035E+04  1.0710E+05  4.6063E+04  4.7437E-03
 35 9.3488E-03 4.8933E+01  2.9333E+02 -6.0659E+04  2.3572E+03  6.3016E+04  6.0952E+04  1.0699E+05  4.6043E+04  4.6549E-03
 36 1.0653E-02 4.7948E+01  2.8210E+02 -6.0580E+04  2.4422E+03  6.3023E+04  6.0863E+04  1.0688E+05  4.6020E+04  4.4761E-03
 37 1.2123E-02 4.6973E+01  2.6479E+02 -6.0487E+04  2.5452E+03  6.3032E+04  6.0752E+04  1.0675E+05  4.5994E+04  4.2008E-03
 38 1.3778E-02 4.6008E+01  2.2916E+02 -6.0390E+04  2.6561E+03  6.3046E+04  6.0619E+04  1.0658E+05  4.5966E+04  3.6347E-03
 39 1.5638E-02 4.5054E+01  1.6555E+02 -6.0300E+04  2.7672E+03  6.3067E+04  6.0465E+04  1.0640E+05  4.5933E+04  2.6250E-03
 40 1.7726E-02 4.4109E+01  6.8269E+01 -6.0224E+04  2.8772E+03  6.3101E+04  6.0292E+04  1.0619E+05  4.5897E+04  1.0819E-03
 41 2.0065E-02 4.3173E+01 -6.0502E+01 -6.0175E+04  3.0030E+03  6.3178E+04  6.0115E+04  1.0597E+05  4.5857E+04 -9.5764E-04
 42 2.2683E-02 4.2243E+01 -1.3430E+02 -6.0155E+04  3.1321E+03  6.3287E+04  6.0021E+04  1.0583E+05  4.5812E+04 -2.1221E-03
 43 2.5608E-02 4.1319E+01 -1.8578E+02 -6.0109E+04  3.2917E+03  6.3401E+04  5.9924E+04  1.0569E+05  4.5762E+04 -2.9302E-03
 44 2.8873E-02 4.0399E+01 -2.2353E+02 -6.0040E+04  3.4840E+03  6.3524E+04  5.9817E+04  1.0552E+05  4.5707E+04 -3.5188E-03
 45 3.2510E-02 3.9484E+01 -2.4850E+02 -5.9950E+04  3.7073E+03  6.3657E+04  5.9701E+04  1.0535E+05  4.5646E+04 -3.9038E-03
 46 3.6558E-02 3.8574E+01 -2.6516E+02 -5.9844E+04  3.9506E+03  6.3795E+04  5.9579E+04  1.0516E+05  4.5578E+04 -4.1564E-03
 47 4.1054E-02 3.7668E+01 -2.6310E+02 -5.9716E+04  4.2257E+03  6.3942E+04  5.9453E+04  1.0496E+05  4.5504E+04 -4.1146E-03
 48 4.6042E-02 3.6768E+01 -2.4140E+02 -5.9567E+04  4.5312E+03  6.4099E+04  5.9326E+04  1.0475E+05  4.5422E+04 -3.7660E-03
 49 5.1568E-02 3.5873E+01 -2.0055E+02 -5.9400E+04  4.8646E+03  6.4265E+04  5.9199E+04  1.0453E+05  4.5331E+04 -3.1206E-03
 50 5.7680E-02 3.4983E+01 -1.4309E+02 -5.9218E+04  5.2220E+03  6.4440E+04  5.9075E+04  1.0431E+05  4.5233E+04 -2.2205E-03
 51 6.4431E-02 3.4099E+01 -7.2671E+01 -5.9027E+04  5.5992E+03  6.4626E+04  5.8954E+04  1.0408E+05  4.5125E+04 -1.1245E-03
 52 7.1877E-02 3.3220E+01  7.7092E+00 -5.8829E+04  5.9934E+03  6.4822E+04  5.8836E+04  1.0384E+05  4.5007E+04  1.1893E-04
 53 8.0076E-02 3.2347E+01  9.7185E+01 -5.8623E+04  6.4049E+03  6.5028E+04  5.8720E+04  1.0360E+05  4.4878E+04  1.4945E-03
 54 8.9093E-02 3.1480E+01  1.9743E+02 -5.8408E+04  6.8370E+03  6.5245E+04  5.8605E+04  1.0334E+05  4.4738E+04  3.0261E-03
 55 9.8993E-02 3.0619E+01  3.1228E+02 -5.8176E+04  7.2946E+03  6.5471E+04  5.8489E+04  1.0308E+05  4.4587E+04  4.7697E-03
 56 1.0985E-01 2.9764E+01  4.4088E+02 -5.7923E+04  7.7855E+03  6.5709E+04  5.8364E+04  1.0279E+05  4.4422E+04  6.7097E-03
 57 1.2173E-01 2.8915E+01  5.7783E+02 -5.7645E+04  8.3162E+03  6.5961E+04  5.8222E+04  1.0247E+05  4.4245E+04  8.7603E-03
 58 1.3472E-01 2.8072E+01  7.2380E+02 -5.7339E+04  8.8887E+03  6.6228E+04  5.8063E+04  1.0212E+05  4.4053E+04  1.0929E-02
 59 1.4890E-01 2.7236E+01  8.8082E+02 -5.7004E+04  9.5063E+03  6.6511E+04  5.7885E+04  1.0173E+05  4.3846E+04  1.3243E-02
 60 1.6435E-01 2.6406E+01  1.0483E+03 -5.6642E+04  1.0164E+04  6.6806E+04  5.7690E+04  1.0131E+05  4.3624E+04  1.5692E-02
 61 1.8116E-01 2.5583E+01  1.2352E+03 -5.6244E+04  1.0874E+04  6.7117E+04  5.7479E+04  1.0086E+05  4.3386E+04  1.8404E-02
 62 1.9943E-01 2.4767E+01  1.4443E+03 -5.5809E+04  1.1636E+04  6.7445E+04  5.7253E+04  1.0038E+05  4.3130E+04  2.1415E-02
 63 2.1925E-01 2.3958E+01  1.6783E+03 -5.5338E+04  1.2451E+04  6.7789E+04  5.7016E+04  9.9872E+04  4.2856E+04  2.4758E-02
 64 2.4072E-01 2.3157E+01  1.9381E+03 -5.4831E+04  1.3320E+04  6.8150E+04  5.6769E+04  9.9332E+04  4.2563E+04  2.8439E-02
 65 2.6394E-01 2.2362E+01  2.2228E+03 -5.4291E+04  1.4238E+04  6.8529E+04  5.6514E+04  9.8764E+04  4.2250E+04  3.2435E-02
 66 2.8902E-01 2.1575E+01  2.5299E+03 -5.3723E+04  1.5202E+04  6.8926E+04  5.6253E+04  9.8170E+04  4.1917E+04  3.6704E-02
 67 3.1606E-01 2.0796E+01  2.8566E+03 -5.3132E+04  1.6209E+04  6.9341E+04  5.5988E+04  9.7550E+04  4.1562E+04  4.1196E-02
 68 3.4517E-01 2.0024E+01  3.2002E+03 -5.2520E+04  1.7254E+04  6.9773E+04  5.5720E+04  9.6904E+04  4.1184E+04  4.5866E-02
 69 3.7646E-01 1.9260E+01  3.5595E+03 -5.1890E+04  1.8335E+04  7.0225E+04  5.5449E+04  9.6232E+04  4.0783E+04  5.0687E-02
 70 4.1004E-01 1.8504E+01  3.9338E+03 -5.1243E+04  1.9452E+04  7.0695E+04  5.5176E+04  9.5535E+04  4.0358E+04  5.5645E-02
 71 4.4602E-01 1.7756E+01  4.3157E+03 -5.0587E+04  2.0591E+04  7.1179E+04  5.4903E+04  9.4810E+04  3.9907E+04  6.0632E-02
 72 4.8452E-01 1.7016E+01  4.7180E+03 -4.9911E+04  2.1769E+04  7.1680E+04  5.4629E+04  9.4060E+04  3.9430E+04  6.5820E-02
 73 5.2565E-01 1.6285E+01  5.1403E+03 -4.9216E+04  2.2983E+04  7.2199E+04  5.4357E+04  9.3283E+04  3.8926E+04  7.1197E-02
 74 5.6950E-01 1.5563E+01  5.5816E+03 -4.8505E+04  2.4231E+04  7.2736E+04  5.4087E+04  9.2480E+04  3.8394E+04  7.6739E-02
 75 6.1620E-01 1.4849E+01  6.0400E+03 -4.7780E+04  2.5509E+04  7.3289E+04  5.3820E+04  9.1653E+04  3.7832E+04  8.2413E-02
 76 6.6584E-01 1.4144E+01  6.5128E+03 -4.7046E+04  2.6814E+04  7.3860E+04  5.3559E+04  9.0800E+04  3.7241E+04  8.8178E-02
 77 7.1853E-01 1.3447E+01  6.9971E+03 -4.6308E+04  2.8141E+04  7.4448E+04  5.3305E+04  8.9924E+04  3.6619E+04  9.3985E-02
 78 7.7435E-01 1.2760E+01  7.4834E+03 -4.5575E+04  2.9473E+04  7.5047E+04  5.3058E+04  8.9024E+04  3.5966E+04  9.9716E-02
 79 8.3341E-01 1.2083E+01  7.9822E+03 -4.4837E+04  3.0824E+04  7.5661E+04  5.2820E+04  8.8100E+04  3.5280E+04  1.0550E-01
 80 8.9577E-01 1.1414E+01  8.4921E+03 -4.4098E+04  3.2191E+04  7.6289E+04  5.2590E+04  8.7152E+04  3.4561E+04  1.1132E-01
 81 9.6153E-01 1.0755E+01  9.0130E+03 -4.3357E+04  3.3574E+04  7.6931E+04  5.2370E+04  8.6179E+04  3.3809E+04  1.1716E-01
 82 1.0307E+00 1.0106E+01  9.5452E+03 -4.2612E+04  3.4972E+04  7.7585E+04  5.2158E+04  8.5181E+04  3.3023E+04  1.2303E-01
 83 1.1035E+00 9.4667E+00  1.0046E+04 -4.1856E+04  3.6398E+04  7.8254E+04  5.1902E+04  8.4105E+04  3.2203E+04  1.2838E-01
 84 1.1798E+00 8.8372E+00  1.0566E+04 -4.1093E+04  3.7837E+04  7.8931E+04  5.1659E+04  8.3008E+04  3.1348E+04  1.3386E-01
 85 1.2597E+00 8.2177E+00  1.1100E+04 -4.0313E+04  3.9306E+04  7.9619E+04  5.1413E+04  8.1872E+04  3.0459E+04  1.3941E-01
 86 1.3432E+00 7.6085E+00  1.1652E+04 -3.9519E+04  4.0800E+04  8.0319E+04  5.1171E+04  8.0706E+04  2.9535E+04  1.4507E-01
 87 1.4303E+00 7.0096E+00  1.2222E+04 -3.8713E+04  4.2316E+04  8.1029E+04  5.0935E+04  7.9511E+04  2.8576E+04  1.5084E-01
 88 1.5211E+00 6.4212E+00  1.2800E+04 -3.7904E+04  4.3838E+04  8.1742E+04  5.0704E+04  7.8287E+04  2.7583E+04  1.5659E-01
 89 1.6155E+00 5.8434E+00  1.3392E+04 -3.7083E+04  4.5379E+04  8.2462E+04  5.0475E+04  7.7030E+04  2.6556E+04  1.6240E-01
 90 1.7135E+00 5.2763E+00  1.3991E+04 -3.6255E+04  4.6932E+04  8.3187E+04  5.0246E+04  7.5740E+04  2.5495E+04  1.6818E-01
 91 1.8150E+00 4.7201E+00  1.4594E+04 -3.5422E+04  4.8494E+04  8.3916E+04  5.0015E+04  7.4416E+04  2.4400E+04  1.7391E-01
 92 1.9200E+00 4.1749E+00  1.5192E+04 -3.4593E+04  5.0049E+04  8.4642E+04  4.9784E+04  7.3058E+04  2.3274E+04  1.7948E-01
 93 2.0284E+00 3.6408E+00  1.5797E+04 -3.3756E+04  5.1610E+04  8.5367E+04  4.9553E+04  7.1670E+04  2.2117E+04  1.8504E-01
 94 2.1400E+00 3.1180E+00  1.6407E+04 -3.2915E+04  5.3174E+04  8.6089E+04  4.9322E+04  7.0252E+04  2.0929E+04  1.9058E-01
 95 2.2548E+00 2.6065E+00  1.7018E+04 -3.2075E+04  5.4727E+04  8.6801E+04  4.9092E+04  6.8806E+04  1.9714E+04  1.9605E-01
 96 2.3725E+00 2.1065E+00  1.7642E+04 -3.1222E+04  5.6281E+04  8.7503E+04  4.8864E+04  6.7335E+04  1.8471E+04  2.0162E-01
 97 2.4932E+00 1.6181E+00  1.8282E+04 -3.0355E+04  5.7835E+04  8.8190E+04  4.8637E+04  6.5840E+04  1.7203E+04  2.0730E-01
 98 2.6164E+00 1.1415E+00  1.8935E+04 -2.9478E+04  5.9373E+04  8.8851E+04  4.8412E+04  6.4325E+04  1.5912E+04  2.1311E-01
 99 2.7421E+00 6.7671E-01  1.9624E+04 -2.8566E+04  6.0909E+04  8.9475E+04  4.8190E+04  6.2791E+04  1.4601E+04  2.1932E-01
100 2.8701E+00 2.2373E-01  2.0394E+04 -2.7575E+04  6.2439E+04  9.0014E+04  4.7970E+04  6.1241E+04  1.3272E+04  2.2657E-01
101 3.0000E+00 0.0000E+00  2.1242E+04 -2.6481E+04  6.3781E+04  9.0262E+04  4.7723E+04  5.9654E+04  1.1931E+04  2.3534E-01
 
