 
    OUTPUT FILES FOR THE GJ581
 
 Solar Constant= 0.306   F_CH4= 1.0000E-60  F_CO2= 1.1650E-07  F_O2= 1.0000E-60  F_N2= 1.0000E+00  IO3 =  0   IUP=  1
 ICONSERV= 0  FAC= 4.0  ND=101  SRFALB= 0.280  G=2000.0  IMW= 0

 FNO2 = 1.000E-60
 
 NST=     1 JCONV= 95 CHG=1.34E-02 dt0=5.00E+03 DIVF(1)= 1.34E-01 DIVFrms= 1.35E-01 DT(ND)= 2.47E+00 T(ND)=1.8747E+02

 TIME= 5.000E+03  TIME IN DAYS = 5.787E-02

 PLANETARY ALBEDO:  ALBP = 0.2825

  J     P         ALT         T        CONVEC       DT          TOLD        FH20       FSAVE       TCOOL       THEAT
  1 1.0763E-04 2.3224E+01 1.7200E+02  0.00E+00  -5.2303E-05  1.7200E+02  1.5286E-08  1.9903E-08 -1.1572E-03  2.5337E-04
  2 1.2463E-04 2.2852E+01 1.7200E+02  0.00E+00  -6.2268E-05  1.7200E+02  1.5286E-08  1.9903E-08 -1.3294E-03  2.5337E-04
  3 1.4414E-04 2.2482E+01 1.7200E+02  0.00E+00  -7.2157E-05  1.7200E+02  1.5286E-08  1.9903E-08 -1.5002E-03  2.5337E-04
  4 1.6653E-04 2.2116E+01 1.7200E+02  0.00E+00  -8.1968E-05  1.7200E+02  1.5286E-08  1.9903E-08 -1.6698E-03  2.5337E-04
  5 1.9218E-04 2.1752E+01 1.7200E+02  0.00E+00  -9.1702E-05  1.7200E+02  1.5286E-08  1.9903E-08 -1.8380E-03  2.5337E-04
  6 2.2153E-04 2.1392E+01 1.7200E+02  0.00E+00  -1.0136E-04  1.7200E+02  1.5286E-08  1.9903E-08 -2.0048E-03  2.5337E-04
  7 2.5508E-04 2.1034E+01 1.7200E+02  0.00E+00  -1.1094E-04  1.7200E+02  1.5286E-08  1.9903E-08 -2.1704E-03  2.5337E-04
  8 2.9339E-04 2.0679E+01 1.7200E+02  0.00E+00  -1.2044E-04  1.7200E+02  1.5286E-08  1.9903E-08 -2.3345E-03  2.5336E-04
  9 3.3707E-04 2.0326E+01 1.7200E+02  0.00E+00  -1.2985E-04  1.7200E+02  1.5286E-08  1.9903E-08 -2.4972E-03  2.5336E-04
 10 3.8683E-04 1.9977E+01 1.7200E+02  0.00E+00  -1.3919E-04  1.7200E+02  1.5286E-08  1.9903E-08 -2.6586E-03  2.5336E-04
 11 4.4345E-04 1.9630E+01 1.7200E+02  0.00E+00  -1.4845E-04  1.7200E+02  1.5286E-08  1.9903E-08 -2.8185E-03  2.5336E-04
 12 5.0778E-04 1.9286E+01 1.7200E+02  0.00E+00  -1.5762E-04  1.7200E+02  1.5286E-08  1.9903E-08 -2.9770E-03  2.5336E-04
 13 5.8080E-04 1.8945E+01 1.7200E+02  0.00E+00  -1.6670E-04  1.7200E+02  1.5286E-08  1.9903E-08 -3.1340E-03  2.5336E-04
 14 6.6358E-04 1.8607E+01 1.7200E+02  0.00E+00  -1.7570E-04  1.7200E+02  1.5286E-08  1.9903E-08 -3.2895E-03  2.5336E-04
 15 7.5731E-04 1.8272E+01 1.7200E+02  0.00E+00  -1.8461E-04  1.7200E+02  1.5286E-08  1.9903E-08 -3.4434E-03  2.5335E-04
 16 8.6333E-04 1.7939E+01 1.7200E+02  0.00E+00  -1.9343E-04  1.7200E+02  1.5286E-08  1.9903E-08 -3.5958E-03  2.5335E-04
 17 9.8310E-04 1.7609E+01 1.7200E+02  0.00E+00  -2.0215E-04  1.7200E+02  1.5286E-08  1.9903E-08 -3.7464E-03  2.5335E-04
 18 1.1182E-03 1.7283E+01 1.7200E+02  0.00E+00  -2.4095E-04  1.7200E+02  1.5286E-08  1.9903E-08 -4.4411E-03  2.7736E-04
 19 1.2705E-03 1.6959E+01 1.7200E+02  0.00E+00  -2.8391E-04  1.7200E+02  1.5286E-08  1.9903E-08 -5.2107E-03  3.0486E-04
 20 1.4420E-03 1.6637E+01 1.7200E+02  0.00E+00  -3.2636E-04  1.7200E+02  1.5286E-08  1.9903E-08 -5.9716E-03  3.3211E-04
 21 1.6347E-03 1.6319E+01 1.7200E+02  0.00E+00  -3.6828E-04  1.7200E+02  1.5286E-08  1.9903E-08 -6.7231E-03  3.5912E-04
 22 1.8512E-03 1.6003E+01 1.7200E+02  0.00E+00  -4.0964E-04  1.7200E+02  1.5286E-08  1.9903E-08 -7.4644E-03  3.8589E-04
 23 2.0939E-03 1.5690E+01 1.7200E+02  0.00E+00  -4.5036E-04  1.7200E+02  1.5286E-08  1.9903E-08 -8.1947E-03  4.1241E-04
 24 2.3659E-03 1.5381E+01 1.7200E+02  0.00E+00  -4.9041E-04  1.7200E+02  1.5286E-08  1.9903E-08 -8.9130E-03  4.3869E-04
 25 2.6703E-03 1.5073E+01 1.7200E+02  0.00E+00  -5.2971E-04  1.7200E+02  1.5286E-08  1.9903E-08 -9.6181E-03  4.6473E-04
 26 3.0105E-03 1.4769E+01 1.7200E+02  0.00E+00  -5.6818E-04  1.7200E+02  1.5286E-08  1.9903E-08 -1.0309E-02  4.9052E-04
 27 3.3902E-03 1.4468E+01 1.7200E+02  0.00E+00  -6.0573E-04  1.7200E+02  1.5286E-08  1.9903E-08 -1.0983E-02  5.1606E-04
 28 3.8135E-03 1.4169E+01 1.7200E+02  0.00E+00  -6.4225E-04  1.7200E+02  1.5286E-08  1.9903E-08 -1.1639E-02  5.4135E-04
 29 4.2850E-03 1.3873E+01 1.7200E+02  0.00E+00  -6.7763E-04  1.7200E+02  1.5286E-08  1.9903E-08 -1.2276E-02  5.6639E-04
 30 4.8094E-03 1.3580E+01 1.7200E+02  0.00E+00  -7.1173E-04  1.7200E+02  1.5286E-08  1.9903E-08 -1.2890E-02  5.9118E-04
 31 5.3920E-03 1.3290E+01 1.7200E+02  0.00E+00  -7.4442E-04  1.7200E+02  1.5286E-08  1.9903E-08 -1.3479E-02  6.1572E-04
 32 6.0385E-03 1.3002E+01 1.7200E+02  0.00E+00  -7.7552E-04  1.7200E+02  1.5286E-08  1.9903E-08 -1.4041E-02  6.4000E-04
 33 6.7549E-03 1.2718E+01 1.7200E+02  0.00E+00  -8.0486E-04  1.7200E+02  1.5286E-08  1.9903E-08 -1.4572E-02  6.6401E-04
 34 7.5479E-03 1.2436E+01 1.7200E+02  0.00E+00  -8.3226E-04  1.7200E+02  1.5286E-08  1.9903E-08 -1.5069E-02  6.8777E-04
 35 8.4247E-03 1.2157E+01 1.7200E+02  0.00E+00  -8.5751E-04  1.7200E+02  1.5286E-08  1.9903E-08 -1.5529E-02  7.1126E-04
 36 9.3928E-03 1.1881E+01 1.7200E+02  0.00E+00  -8.8042E-04  1.7200E+02  1.5286E-08  1.9903E-08 -1.5948E-02  7.3447E-04
 37 1.0461E-02 1.1608E+01 1.7200E+02  0.00E+00  -8.9772E-04  1.7200E+02  1.5286E-08  1.9903E-08 -1.6305E-02  7.9271E-04
 38 1.1637E-02 1.1337E+01 1.7200E+02  0.00E+00  -9.0934E-04  1.7200E+02  1.5286E-08  1.9903E-08 -1.6610E-02  8.9624E-04
 39 1.2931E-02 1.1070E+01 1.7200E+02  0.00E+00  -9.1998E-04  1.7200E+02  1.5286E-08  1.9903E-08 -1.6896E-02  9.9854E-04
 40 1.4353E-02 1.0805E+01 1.7200E+02  0.00E+00  -9.2964E-04  1.7200E+02  1.5286E-08  1.9903E-08 -1.7164E-02  1.0996E-03
 41 1.5914E-02 1.0543E+01 1.7200E+02  0.00E+00  -9.3829E-04  1.7200E+02  1.5286E-08  1.9903E-08 -1.7413E-02  1.1993E-03
 42 1.7624E-02 1.0284E+01 1.7200E+02  0.00E+00  -9.4593E-04  1.7200E+02  1.5286E-08  1.9903E-08 -1.7643E-02  1.2977E-03
 43 1.9498E-02 1.0027E+01 1.7200E+02  0.00E+00  -9.5253E-04  1.7200E+02  1.5286E-08  1.9903E-08 -1.7854E-02  1.3948E-03
 44 2.1546E-02 9.7739E+00 1.7200E+02  0.00E+00  -9.5808E-04  1.7200E+02  1.5286E-08  1.9903E-08 -1.8046E-02  1.4904E-03
 45 2.3783E-02 9.5232E+00 1.7200E+02  0.00E+00  -9.6257E-04  1.7200E+02  1.5286E-08  1.9903E-08 -1.8218E-02  1.5844E-03
 46 2.6222E-02 9.2754E+00 1.7200E+02  0.00E+00  -9.6599E-04  1.7200E+02  1.5286E-08  1.9903E-08 -1.8369E-02  1.6770E-03
 47 2.8880E-02 9.0303E+00 1.7200E+02  0.00E+00  -9.6832E-04  1.7200E+02  1.5286E-08  1.9903E-08 -1.8500E-02  1.7678E-03
 48 3.1773E-02 8.7881E+00 1.7200E+02  0.00E+00  -9.6955E-04  1.7200E+02  1.5286E-08  1.9903E-08 -1.8611E-02  1.8570E-03
 49 3.4915E-02 8.5487E+00 1.7200E+02  0.00E+00  -9.6967E-04  1.7200E+02  1.5286E-08  1.9903E-08 -1.8700E-02  1.9443E-03
 50 3.8327E-02 8.3121E+00 1.7200E+02  0.00E+00  -9.6864E-04  1.7200E+02  1.5286E-08  1.9903E-08 -1.8768E-02  2.0296E-03
 51 4.2024E-02 8.0783E+00 1.7200E+02  0.00E+00  -9.6646E-04  1.7200E+02  1.5286E-08  1.9903E-08 -1.8813E-02  2.1130E-03
 52 4.6028E-02 7.8474E+00 1.7200E+02  0.00E+00  -9.6309E-04  1.7200E+02  1.5286E-08  1.9903E-08 -1.8836E-02  2.1942E-03
 53 5.0356E-02 7.6193E+00 1.7200E+02  0.00E+00  -9.5852E-04  1.7200E+02  1.5286E-08  1.9903E-08 -1.8836E-02  2.2731E-03
 54 5.5031E-02 7.3940E+00 1.7200E+02  0.00E+00  -9.5270E-04  1.7200E+02  1.5286E-08  1.9903E-08 -1.8812E-02  2.3496E-03
 55 6.0072E-02 7.1715E+00 1.7200E+02  0.00E+00  -9.4562E-04  1.7200E+02  1.5286E-08  1.9903E-08 -1.8764E-02  2.4235E-03
 56 6.5502E-02 6.9519E+00 1.7200E+02  0.00E+00  -9.3723E-04  1.7200E+02  1.5286E-08  1.9903E-08 -1.8690E-02  2.4947E-03
 57 7.1344E-02 6.7350E+00 1.7200E+02  0.00E+00  -9.2752E-04  1.7200E+02  1.5286E-08  1.9903E-08 -1.8590E-02  2.5630E-03
 58 7.7621E-02 6.5210E+00 1.7200E+02  0.00E+00  -9.1644E-04  1.7200E+02  1.5286E-08  1.9903E-08 -1.8464E-02  2.6282E-03
 59 8.4356E-02 6.3098E+00 1.7200E+02  0.00E+00  -9.0398E-04  1.7200E+02  1.5286E-08  1.9903E-08 -1.8311E-02  2.6902E-03
 60 9.1574E-02 6.1015E+00 1.7200E+02  0.00E+00  -8.9013E-04  1.7200E+02  1.5286E-08  1.9903E-08 -1.8130E-02  2.7488E-03
 61 9.9298E-02 5.8959E+00 1.7200E+02  0.00E+00  -8.7486E-04  1.7200E+02  1.5286E-08  1.9903E-08 -1.7921E-02  2.8038E-03
 62 1.0755E-01 5.6932E+00 1.7200E+02  0.00E+00  -8.4514E-04  1.7200E+02  1.5286E-08  1.9903E-08 -1.7585E-02  2.9811E-03
 63 1.1637E-01 5.4933E+00 1.7200E+02  0.00E+00  -8.1595E-04  1.7200E+02  1.5286E-08  1.9903E-08 -1.7260E-02  3.1607E-03
 64 1.2576E-01 5.2962E+00 1.7200E+02  0.00E+00  -7.8867E-04  1.7200E+02  1.5286E-08  1.9903E-08 -1.6959E-02  3.3311E-03
 65 1.3577E-01 5.1020E+00 1.7200E+02  0.00E+00  -7.6329E-04  1.7200E+02  1.5286E-08  1.9903E-08 -1.6681E-02  3.4917E-03
 66 1.4640E-01 4.9105E+00 1.7200E+02  0.00E+00  -7.3979E-04  1.7200E+02  1.5286E-08  1.9903E-08 -1.6426E-02  3.6420E-03
 67 1.5770E-01 4.7219E+00 1.7200E+02  0.00E+00  -7.1814E-04  1.7200E+02  1.5286E-08  1.9903E-08 -1.6191E-02  3.7815E-03
 68 1.6967E-01 4.5361E+00 1.7200E+02  0.00E+00  -6.9831E-04  1.7200E+02  1.5286E-08  1.9903E-08 -1.5976E-02  3.9095E-03
 69 1.8236E-01 4.3532E+00 1.7200E+02  0.00E+00  -6.8025E-04  1.7200E+02  1.5286E-08  1.9903E-08 -1.5780E-02  4.0255E-03
 70 1.9577E-01 4.1730E+00 1.7200E+02  0.00E+00  -6.6389E-04  1.7200E+02  1.5286E-08  1.9903E-08 -1.5601E-02  4.1293E-03
 71 2.0994E-01 3.9957E+00 1.7200E+02  0.00E+00  -6.4916E-04  1.7200E+02  1.5286E-08  1.9903E-08 -1.5438E-02  4.2202E-03
 72 2.2488E-01 3.8212E+00 1.7200E+02  0.00E+00  -6.3600E-04  1.7200E+02  1.5286E-08  1.9903E-08 -1.5288E-02  4.2982E-03
 73 2.4062E-01 3.6495E+00 1.7200E+02  0.00E+00  -6.2432E-04  1.7200E+02  1.5286E-08  1.9903E-08 -1.5151E-02  4.3630E-03
 74 2.5717E-01 3.4807E+00 1.7200E+02  0.00E+00  -6.1403E-04  1.7200E+02  1.5286E-08  1.9903E-08 -1.5025E-02  4.4144E-03
 75 2.7456E-01 3.3146E+00 1.7200E+02  0.00E+00  -6.0502E-04  1.7200E+02  1.5286E-08  1.9903E-08 -1.4907E-02  4.4525E-03
 76 2.9279E-01 3.1514E+00 1.7200E+02  0.00E+00  -5.9719E-04  1.7200E+02  1.5286E-08  1.9903E-08 -1.4797E-02  4.4775E-03
 77 3.1189E-01 2.9910E+00 1.7200E+02  0.00E+00  -5.9042E-04  1.7200E+02  1.5286E-08  1.9903E-08 -1.4692E-02  4.4895E-03
 78 3.3187E-01 2.8335E+00 1.7200E+02  0.00E+00  -5.8458E-04  1.7200E+02  1.5286E-08  1.9903E-08 -1.4591E-02  4.4891E-03
 79 3.5273E-01 2.6787E+00 1.7200E+02  0.00E+00  -5.7955E-04  1.7200E+02  1.5286E-08  1.9903E-08 -1.4491E-02  4.4768E-03
 80 3.7449E-01 2.5268E+00 1.7200E+02  0.00E+00  -5.7517E-04  1.7200E+02  1.5286E-08  1.9903E-08 -1.4392E-02  4.4532E-03
 81 3.9715E-01 2.3777E+00 1.7200E+02  0.00E+00  -5.7130E-04  1.7200E+02  1.5286E-08  1.9903E-08 -1.4291E-02  4.4191E-03
 82 4.2071E-01 2.2314E+00 1.7200E+02  0.00E+00  -5.6777E-04  1.7200E+02  1.5286E-08  1.9903E-08 -1.4187E-02  4.3754E-03
 83 4.4518E-01 2.0880E+00 1.7200E+02  0.00E+00  -5.6442E-04  1.7200E+02  1.5286E-08  1.9903E-08 -1.4076E-02  4.3231E-03
 84 4.7054E-01 1.9473E+00 1.7200E+02  0.00E+00  -5.6104E-04  1.7200E+02  1.5286E-08  1.9903E-08 -1.3958E-02  4.2633E-03
 85 4.9679E-01 1.8095E+00 1.7200E+02  0.00E+00  -5.5744E-04  1.7200E+02  1.5286E-08  1.9903E-08 -1.3830E-02  4.1970E-03
 86 5.2393E-01 1.6745E+00 1.7200E+02  0.00E+00  -5.5339E-04  1.7200E+02  1.5286E-08  1.9903E-08 -1.3688E-02  4.1256E-03
 87 5.5194E-01 1.5424E+00 1.7200E+02  0.00E+00  -5.4862E-04  1.7200E+02  1.5286E-08  1.9903E-08 -1.3530E-02  4.0502E-03
 88 5.8080E-01 1.4130E+00 1.7200E+02  0.00E+00  -5.4284E-04  1.7200E+02  1.5286E-08  1.9903E-08 -1.3352E-02  3.9720E-03
 89 6.1048E-01 1.2865E+00 1.7200E+02  0.00E+00  -5.3565E-04  1.7200E+02  1.5286E-08  1.9903E-08 -1.3148E-02  3.8921E-03
 90 6.4098E-01 1.1628E+00 1.7200E+02  0.00E+00  -5.2658E-04  1.7200E+02  1.5286E-08  1.9903E-08 -1.2911E-02  3.8117E-03
 91 6.7224E-01 1.0419E+00 1.7200E+02  0.00E+00  -5.1496E-04  1.7200E+02  1.5286E-08  1.9903E-08 -1.2630E-02  3.7319E-03
 92 7.0425E-01 9.2386E-01 1.7200E+02  0.00E+00  -4.9992E-04  1.7200E+02  1.5286E-08  1.9903E-08 -1.2292E-02  3.6536E-03
 93 7.3696E-01 8.0846E-01 1.7246E+02  0.00E+00  -4.8017E-04  1.7200E+02  1.6505E-08  1.9903E-08 -1.1875E-02  3.5778E-03
 94 7.7034E-01 6.9529E-01 1.7385E+02  0.00E+00   1.8525E+00  1.7200E+02  2.1384E-08  1.9903E-08 -1.2637E-02  3.5053E-03
 95 8.0433E-01 5.8383E-01 1.7604E+02  1.00E+00   2.3256E+00  1.7371E+02  3.1730E-08  1.9903E-08 -1.5439E-02  3.4459E-03
 96 8.3888E-01 4.7388E-01 1.7819E+02  1.00E+00   2.3536E+00  1.7584E+02  4.6358E-08  2.9247E-08 -2.3875E-02  3.5032E-03
 97 8.7395E-01 3.6555E-01 1.8031E+02  1.00E+00   2.3811E+00  1.7793E+02  6.6723E-08  4.2328E-08 -3.6094E-02  3.6299E-03
 98 9.0948E-01 2.5892E-01 1.8240E+02  1.00E+00   2.4082E+00  1.8000E+02  9.4648E-08  6.0362E-08 -5.2890E-02  3.8371E-03
 99 9.4540E-01 1.5409E-01 1.8446E+02  1.00E+00   2.4349E+00  1.8202E+02  1.3238E-07  8.4856E-08 -7.6014E-02  4.1490E-03
100 9.8164E-01 5.1130E-02 1.8647E+02  1.00E+00   2.4610E+00  1.8401E+02  1.8263E-07  1.1764E-07 -1.0396E-01  4.5958E-03
101 1.0000E+00 0.0000E+00 1.8747E+02  1.00E+00   2.4739E+00  1.8500E+02  2.1369E-07  1.3798E-07  0.0000E+00  0.0000E+00

 FCO2
  1.17E-07 1.17E-07 1.17E-07 1.17E-07 1.17E-07 1.17E-07 1.17E-07 1.17E-07 1.17E-07 1.17E-07
  1.17E-07 1.17E-07 1.17E-07 1.17E-07 1.17E-07 1.17E-07 1.17E-07 1.17E-07 1.17E-07 1.17E-07
  1.17E-07 1.17E-07 1.17E-07 1.17E-07 1.17E-07 1.17E-07 1.17E-07 1.17E-07 1.17E-07 1.17E-07
  1.17E-07 1.17E-07 1.17E-07 1.17E-07 1.17E-07 1.17E-07 1.17E-07 1.17E-07 1.17E-07 1.17E-07
  1.17E-07 1.17E-07 1.17E-07 1.17E-07 1.17E-07 1.17E-07 1.17E-07 1.17E-07 1.17E-07 1.17E-07
  1.17E-07 1.17E-07 1.17E-07 1.17E-07 1.17E-07 1.17E-07 1.17E-07 1.17E-07 1.17E-07 1.17E-07
  1.17E-07 1.17E-07 1.17E-07 1.17E-07 1.17E-07 1.17E-07 1.17E-07 1.17E-07 1.17E-07 1.17E-07
  1.17E-07 1.17E-07 1.17E-07 1.17E-07 1.17E-07 1.17E-07 1.17E-07 1.17E-07 1.17E-07 1.17E-07
  1.17E-07 1.17E-07 1.17E-07 1.17E-07 1.17E-07 1.17E-07 1.17E-07 1.17E-07 1.17E-07 1.17E-07
  1.17E-07 1.17E-07 1.17E-07 1.17E-07 1.17E-07 1.17E-07 1.17E-07 1.17E-07 1.17E-07 1.17E-07
  1.17E-07

  J    PF         ALT       FTOTAL       FTIR       FDNIR       FUPIR       FTSOL       FDNSOL       FUPSOL       DIVF
  1 1.0000E-04 2.3224E+01  8.7989E+03 -6.5798E+04  0.0000E+00  6.5798E+04  7.4597E+04  1.0397E+05  2.9375E+04  1.3373E-01
  2 1.1585E-04 2.2852E+01  8.7989E+03 -6.5798E+04  1.1134E-03  6.5798E+04  7.4597E+04  1.0397E+05  2.9375E+04  1.3373E-01
  3 1.3407E-04 2.2482E+01  8.7989E+03 -6.5798E+04  2.5830E-03  6.5798E+04  7.4597E+04  1.0397E+05  2.9375E+04  1.3373E-01
  4 1.5497E-04 2.2116E+01  8.7989E+03 -6.5798E+04  4.4866E-03  6.5798E+04  7.4597E+04  1.0397E+05  2.9375E+04  1.3373E-01
  5 1.7894E-04 2.1752E+01  8.7989E+03 -6.5798E+04  6.9153E-03  6.5798E+04  7.4597E+04  1.0397E+05  2.9375E+04  1.3373E-01
  6 2.0639E-04 2.1392E+01  8.7989E+03 -6.5798E+04  9.9765E-03  6.5798E+04  7.4597E+04  1.0397E+05  2.9375E+04  1.3373E-01
  7 2.3778E-04 2.1034E+01  8.7989E+03 -6.5798E+04  1.3795E-02  6.5798E+04  7.4597E+04  1.0397E+05  2.9375E+04  1.3373E-01
  8 2.7364E-04 2.0679E+01  8.7989E+03 -6.5798E+04  1.8518E-02  6.5798E+04  7.4597E+04  1.0397E+05  2.9375E+04  1.3373E-01
  9 3.1456E-04 2.0326E+01  8.7989E+03 -6.5798E+04  2.4314E-02  6.5798E+04  7.4597E+04  1.0397E+05  2.9375E+04  1.3373E-01
 10 3.6120E-04 1.9977E+01  8.7989E+03 -6.5798E+04  3.1381E-02  6.5798E+04  7.4597E+04  1.0397E+05  2.9375E+04  1.3373E-01
 11 4.1429E-04 1.9630E+01  8.7989E+03 -6.5798E+04  3.9945E-02  6.5798E+04  7.4597E+04  1.0397E+05  2.9375E+04  1.3373E-01
 12 4.7466E-04 1.9286E+01  8.7989E+03 -6.5798E+04  5.0269E-02  6.5798E+04  7.4597E+04  1.0397E+05  2.9375E+04  1.3373E-01
 13 5.4321E-04 1.8945E+01  8.7989E+03 -6.5798E+04  6.2652E-02  6.5798E+04  7.4597E+04  1.0397E+05  2.9375E+04  1.3373E-01
 14 6.2098E-04 1.8607E+01  8.7989E+03 -6.5798E+04  7.7440E-02  6.5798E+04  7.4597E+04  1.0397E+05  2.9375E+04  1.3373E-01
 15 7.0909E-04 1.8272E+01  8.7990E+03 -6.5798E+04  9.5026E-02  6.5798E+04  7.4597E+04  1.0397E+05  2.9375E+04  1.3373E-01
 16 8.0881E-04 1.7939E+01  8.7990E+03 -6.5798E+04  1.1586E-01  6.5798E+04  7.4597E+04  1.0397E+05  2.9375E+04  1.3373E-01
 17 9.2152E-04 1.7609E+01  8.7990E+03 -6.5798E+04  1.4045E-01  6.5798E+04  7.4597E+04  1.0397E+05  2.9375E+04  1.3373E-01
 18 1.0488E-03 1.7283E+01  8.7990E+03 -6.5798E+04  1.6938E-01  6.5798E+04  7.4597E+04  1.0397E+05  2.9375E+04  1.3373E-01
 19 1.1923E-03 1.6959E+01  8.7991E+03 -6.5798E+04  2.0808E-01  6.5798E+04  7.4597E+04  1.0397E+05  2.9375E+04  1.3373E-01
 20 1.3539E-03 1.6637E+01  8.7991E+03 -6.5798E+04  2.5926E-01  6.5798E+04  7.4597E+04  1.0397E+05  2.9374E+04  1.3373E-01
 21 1.5357E-03 1.6319E+01  8.7992E+03 -6.5797E+04  3.2528E-01  6.5798E+04  7.4597E+04  1.0397E+05  2.9374E+04  1.3373E-01
 22 1.7401E-03 1.6003E+01  8.7992E+03 -6.5797E+04  4.0884E-01  6.5798E+04  7.4597E+04  1.0397E+05  2.9374E+04  1.3373E-01
 23 1.9694E-03 1.5690E+01  8.7993E+03 -6.5797E+04  5.1299E-01  6.5798E+04  7.4597E+04  1.0397E+05  2.9374E+04  1.3373E-01
 24 2.2264E-03 1.5381E+01  8.7995E+03 -6.5797E+04  6.4121E-01  6.5798E+04  7.4597E+04  1.0397E+05  2.9374E+04  1.3373E-01
 25 2.5142E-03 1.5073E+01  8.7996E+03 -6.5797E+04  7.9740E-01  6.5798E+04  7.4597E+04  1.0397E+05  2.9374E+04  1.3374E-01
 26 2.8361E-03 1.4769E+01  8.7998E+03 -6.5797E+04  9.8592E-01  6.5798E+04  7.4597E+04  1.0397E+05  2.9374E+04  1.3374E-01
 27 3.1956E-03 1.4468E+01  8.8000E+03 -6.5797E+04  1.2117E+00  6.5798E+04  7.4597E+04  1.0397E+05  2.9374E+04  1.3374E-01
 28 3.5966E-03 1.4169E+01  8.8002E+03 -6.5796E+04  1.4801E+00  6.5798E+04  7.4597E+04  1.0397E+05  2.9373E+04  1.3375E-01
 29 4.0435E-03 1.3873E+01  8.8005E+03 -6.5796E+04  1.7971E+00  6.5798E+04  7.4597E+04  1.0397E+05  2.9373E+04  1.3375E-01
 30 4.5409E-03 1.3580E+01  8.8009E+03 -6.5796E+04  2.1692E+00  6.5798E+04  7.4597E+04  1.0397E+05  2.9373E+04  1.3376E-01
 31 5.0938E-03 1.3290E+01  8.8013E+03 -6.5795E+04  2.6038E+00  6.5798E+04  7.4597E+04  1.0397E+05  2.9373E+04  1.3376E-01
 32 5.7077E-03 1.3002E+01  8.8017E+03 -6.5795E+04  3.1084E+00  6.5798E+04  7.4596E+04  1.0397E+05  2.9372E+04  1.3377E-01
 33 6.3884E-03 1.2718E+01  8.8023E+03 -6.5794E+04  3.6915E+00  6.5798E+04  7.4596E+04  1.0397E+05  2.9372E+04  1.3378E-01
 34 7.1424E-03 1.2436E+01  8.8029E+03 -6.5794E+04  4.3619E+00  6.5798E+04  7.4596E+04  1.0397E+05  2.9372E+04  1.3379E-01
 35 7.9765E-03 1.2157E+01  8.8036E+03 -6.5793E+04  5.1292E+00  6.5798E+04  7.4596E+04  1.0397E+05  2.9371E+04  1.3380E-01
 36 8.8981E-03 1.1881E+01  8.8044E+03 -6.5792E+04  6.0032E+00  6.5798E+04  7.4596E+04  1.0397E+05  2.9371E+04  1.3381E-01
 37 9.9151E-03 1.1608E+01  8.8054E+03 -6.5791E+04  6.9941E+00  6.5798E+04  7.4596E+04  1.0397E+05  2.9370E+04  1.3382E-01
 38 1.1036E-02 1.1337E+01  8.8064E+03 -6.5790E+04  8.1128E+00  6.5798E+04  7.4596E+04  1.0397E+05  2.9370E+04  1.3384E-01
 39 1.2270E-02 1.1070E+01  8.8075E+03 -6.5789E+04  9.3719E+00  6.5798E+04  7.4596E+04  1.0397E+05  2.9369E+04  1.3386E-01
 40 1.3627E-02 1.0805E+01  8.8088E+03 -6.5787E+04  1.0785E+01  6.5798E+04  7.4596E+04  1.0396E+05  2.9369E+04  1.3388E-01
 41 1.5117E-02 1.0543E+01  8.8102E+03 -6.5786E+04  1.2367E+01  6.5798E+04  7.4596E+04  1.0396E+05  2.9368E+04  1.3390E-01
 42 1.6752E-02 1.0284E+01  8.8118E+03 -6.5784E+04  1.4132E+01  6.5798E+04  7.4596E+04  1.0396E+05  2.9367E+04  1.3392E-01
 43 1.8543E-02 1.0027E+01  8.8135E+03 -6.5782E+04  1.6099E+01  6.5798E+04  7.4596E+04  1.0396E+05  2.9366E+04  1.3395E-01
 44 2.0502E-02 9.7739E+00  8.8155E+03 -6.5780E+04  1.8282E+01  6.5798E+04  7.4596E+04  1.0396E+05  2.9365E+04  1.3398E-01
 45 2.2643E-02 9.5232E+00  8.8176E+03 -6.5778E+04  2.0702E+01  6.5799E+04  7.4595E+04  1.0396E+05  2.9364E+04  1.3401E-01
 46 2.4980E-02 9.2754E+00  8.8199E+03 -6.5775E+04  2.3375E+01  6.5799E+04  7.4595E+04  1.0396E+05  2.9363E+04  1.3404E-01
 47 2.7527E-02 9.0303E+00  8.8224E+03 -6.5773E+04  2.6323E+01  6.5799E+04  7.4595E+04  1.0396E+05  2.9362E+04  1.3408E-01
 48 3.0300E-02 8.7881E+00  8.8251E+03 -6.5770E+04  2.9564E+01  6.5799E+04  7.4595E+04  1.0396E+05  2.9361E+04  1.3412E-01
 49 3.3316E-02 8.5487E+00  8.8281E+03 -6.5766E+04  3.3121E+01  6.5799E+04  7.4594E+04  1.0395E+05  2.9359E+04  1.3417E-01
 50 3.6592E-02 8.3121E+00  8.8314E+03 -6.5763E+04  3.7014E+01  6.5800E+04  7.4594E+04  1.0395E+05  2.9358E+04  1.3422E-01
 51 4.0144E-02 8.0783E+00  8.8349E+03 -6.5759E+04  4.1264E+01  6.5800E+04  7.4594E+04  1.0395E+05  2.9356E+04  1.3427E-01
 52 4.3993E-02 7.8474E+00  8.8387E+03 -6.5754E+04  4.5894E+01  6.5800E+04  7.4593E+04  1.0395E+05  2.9354E+04  1.3433E-01
 53 4.8157E-02 7.6193E+00  8.8429E+03 -6.5750E+04  5.0926E+01  6.5801E+04  7.4592E+04  1.0394E+05  2.9352E+04  1.3439E-01
 54 5.2656E-02 7.3940E+00  8.8473E+03 -6.5745E+04  5.6380E+01  6.5801E+04  7.4592E+04  1.0394E+05  2.9350E+04  1.3446E-01
 55 5.7512E-02 7.1715E+00  8.8520E+03 -6.5739E+04  6.2279E+01  6.5801E+04  7.4591E+04  1.0394E+05  2.9348E+04  1.3453E-01
 56 6.2746E-02 6.9519E+00  8.8571E+03 -6.5733E+04  6.8643E+01  6.5802E+04  7.4590E+04  1.0394E+05  2.9345E+04  1.3460E-01
 57 6.8380E-02 6.7350E+00  8.8625E+03 -6.5727E+04  7.5491E+01  6.5803E+04  7.4590E+04  1.0393E+05  2.9343E+04  1.3468E-01
 58 7.4437E-02 6.5210E+00  8.8683E+03 -6.5720E+04  8.2842E+01  6.5803E+04  7.4589E+04  1.0393E+05  2.9340E+04  1.3477E-01
 59 8.0941E-02 6.3098E+00  8.8744E+03 -6.5713E+04  9.0713E+01  6.5804E+04  7.4588E+04  1.0392E+05  2.9337E+04  1.3486E-01
 60 8.7915E-02 6.1015E+00  8.8808E+03 -6.5706E+04  9.9119E+01  6.5805E+04  7.4587E+04  1.0392E+05  2.9333E+04  1.3496E-01
 61 9.5384E-02 5.8959E+00  8.8877E+03 -6.5698E+04  1.0807E+02  6.5806E+04  7.4585E+04  1.0392E+05  2.9330E+04  1.3506E-01
 62 1.0337E-01 5.6932E+00  8.8948E+03 -6.5689E+04  1.1759E+02  6.5807E+04  7.4584E+04  1.0391E+05  2.9326E+04  1.3517E-01
 63 1.1191E-01 5.4933E+00  8.9022E+03 -6.5680E+04  1.2764E+02  6.5808E+04  7.4583E+04  1.0390E+05  2.9322E+04  1.3528E-01
 64 1.2101E-01 5.2962E+00  8.9098E+03 -6.5671E+04  1.3827E+02  6.5809E+04  7.4581E+04  1.0390E+05  2.9318E+04  1.3539E-01
 65 1.3071E-01 5.1020E+00  8.9177E+03 -6.5661E+04  1.4950E+02  6.5811E+04  7.4579E+04  1.0389E+05  2.9313E+04  1.3550E-01
 66 1.4102E-01 4.9105E+00  8.9258E+03 -6.5651E+04  1.6136E+02  6.5812E+04  7.4577E+04  1.0389E+05  2.9308E+04  1.3562E-01
 67 1.5199E-01 4.7219E+00  8.9341E+03 -6.5640E+04  1.7388E+02  6.5814E+04  7.4574E+04  1.0388E+05  2.9303E+04  1.3575E-01
 68 1.6362E-01 4.5361E+00  8.9426E+03 -6.5629E+04  1.8710E+02  6.5816E+04  7.4572E+04  1.0387E+05  2.9298E+04  1.3587E-01
 69 1.7595E-01 4.3532E+00  8.9515E+03 -6.5617E+04  2.0105E+02  6.5819E+04  7.4569E+04  1.0386E+05  2.9292E+04  1.3600E-01
 70 1.8900E-01 4.1730E+00  8.9606E+03 -6.5605E+04  2.1577E+02  6.5821E+04  7.4566E+04  1.0385E+05  2.9286E+04  1.3614E-01
 71 2.0279E-01 3.9957E+00  8.9699E+03 -6.5592E+04  2.3130E+02  6.5824E+04  7.4562E+04  1.0384E+05  2.9280E+04  1.3627E-01
 72 2.1734E-01 3.8212E+00  8.9796E+03 -6.5579E+04  2.4766E+02  6.5827E+04  7.4559E+04  1.0383E+05  2.9273E+04  1.3641E-01
 73 2.3268E-01 3.6495E+00  8.9896E+03 -6.5565E+04  2.6490E+02  6.5830E+04  7.4555E+04  1.0382E+05  2.9266E+04  1.3656E-01
 74 2.4883E-01 3.4807E+00  9.0000E+03 -6.5551E+04  2.8304E+02  6.5834E+04  7.4551E+04  1.0381E+05  2.9258E+04  1.3671E-01
 75 2.6580E-01 3.3146E+00  9.0107E+03 -6.5536E+04  3.0213E+02  6.5838E+04  7.4546E+04  1.0380E+05  2.9250E+04  1.3686E-01
 76 2.8361E-01 3.1514E+00  9.0217E+03 -6.5520E+04  3.2220E+02  6.5842E+04  7.4542E+04  1.0378E+05  2.9242E+04  1.3702E-01
 77 3.0228E-01 2.9910E+00  9.0331E+03 -6.5503E+04  3.4326E+02  6.5847E+04  7.4537E+04  1.0377E+05  2.9234E+04  1.3718E-01
 78 3.2181E-01 2.8335E+00  9.0450E+03 -6.5486E+04  3.6536E+02  6.5852E+04  7.4531E+04  1.0376E+05  2.9225E+04  1.3735E-01
 79 3.4224E-01 2.6787E+00  9.0572E+03 -6.5469E+04  3.8852E+02  6.5857E+04  7.4526E+04  1.0374E+05  2.9215E+04  1.3753E-01
 80 3.6355E-01 2.5268E+00  9.0699E+03 -6.5450E+04  4.1276E+02  6.5863E+04  7.4520E+04  1.0373E+05  2.9205E+04  1.3771E-01
 81 3.8576E-01 2.3777E+00  9.0830E+03 -6.5431E+04  4.3810E+02  6.5870E+04  7.4514E+04  1.0371E+05  2.9195E+04  1.3789E-01
 82 4.0887E-01 2.2314E+00  9.0965E+03 -6.5412E+04  4.6456E+02  6.5876E+04  7.4508E+04  1.0369E+05  2.9185E+04  1.3808E-01
 83 4.3289E-01 2.0880E+00  9.1105E+03 -6.5392E+04  4.9214E+02  6.5884E+04  7.4502E+04  1.0368E+05  2.9174E+04  1.3828E-01
 84 4.5781E-01 1.9473E+00  9.1249E+03 -6.5371E+04  5.2084E+02  6.5892E+04  7.4496E+04  1.0366E+05  2.9162E+04  1.3848E-01
 85 4.8362E-01 1.8095E+00  9.1398E+03 -6.5349E+04  5.5068E+02  6.5900E+04  7.4489E+04  1.0364E+05  2.9151E+04  1.3869E-01
 86 5.1033E-01 1.6745E+00  9.1550E+03 -6.5328E+04  5.8164E+02  6.5909E+04  7.4483E+04  1.0362E+05  2.9139E+04  1.3890E-01
 87 5.3790E-01 1.5424E+00  9.1707E+03 -6.5305E+04  6.1371E+02  6.5919E+04  7.4476E+04  1.0360E+05  2.9126E+04  1.3912E-01
 88 5.6634E-01 1.4130E+00  9.1867E+03 -6.5282E+04  6.4688E+02  6.5929E+04  7.4469E+04  1.0358E+05  2.9113E+04  1.3934E-01
 89 5.9562E-01 1.2865E+00  9.2030E+03 -6.5259E+04  6.8111E+02  6.5940E+04  7.4462E+04  1.0356E+05  2.9100E+04  1.3957E-01
 90 6.2572E-01 1.1628E+00  9.2195E+03 -6.5236E+04  7.1638E+02  6.5952E+04  7.4455E+04  1.0354E+05  2.9086E+04  1.3979E-01
 91 6.5660E-01 1.0419E+00  9.2362E+03 -6.5212E+04  7.5266E+02  6.5965E+04  7.4448E+04  1.0352E+05  2.9073E+04  1.4002E-01
 92 6.8825E-01 9.2386E-01  9.2529E+03 -6.5188E+04  7.8989E+02  6.5978E+04  7.4441E+04  1.0350E+05  2.9058E+04  1.4024E-01
 93 7.2062E-01 8.0846E-01  9.2695E+03 -6.5165E+04  8.2803E+02  6.5993E+04  7.4434E+04  1.0348E+05  2.9044E+04  1.4046E-01
 94 7.5367E-01 6.9529E-01  9.2857E+03 -6.5141E+04  8.6702E+02  6.6008E+04  7.4427E+04  1.0346E+05  2.9029E+04  1.4068E-01
 95 7.8737E-01 5.8383E-01  9.3040E+03 -6.5116E+04  9.0804E+02  6.6024E+04  7.4420E+04  1.0343E+05  2.9014E+04  1.4092E-01
 96 8.2165E-01 4.7388E-01  9.3284E+03 -6.5085E+04  9.5374E+02  6.6038E+04  7.4413E+04  1.0341E+05  2.8999E+04  1.4126E-01
 97 8.5648E-01 3.6555E-01  9.3705E+03 -6.5035E+04  1.0168E+03  6.6052E+04  7.4406E+04  1.0339E+05  2.8984E+04  1.4187E-01
 98 8.9179E-01 2.5892E-01  9.4386E+03 -6.4960E+04  1.1051E+03  6.6065E+04  7.4398E+04  1.0337E+05  2.8968E+04  1.4287E-01
 99 9.2752E-01 1.5409E-01  9.5426E+03 -6.4847E+04  1.2280E+03  6.6075E+04  7.4390E+04  1.0334E+05  2.8953E+04  1.4442E-01
100 9.6361E-01 5.1130E-02  9.6967E+03 -6.4684E+04  1.3978E+03  6.6082E+04  7.4381E+04  1.0332E+05  2.8937E+04  1.4674E-01
101 1.0000E+00 0.0000E+00  9.9114E+03 -6.4460E+04  1.6248E+03  6.6085E+04  7.4371E+04  1.0329E+05  2.8922E+04  1.4998E-01
 
 NST=     2 JCONV= 94 CHG=7.57E-03 dt0=7.50E+03 DIVF(1)= 7.56E-02 DIVFrms= 7.67E-02 DT(ND)= 1.42E+00 T(ND)=1.8889E+02
 NST=     3 JCONV= 94 CHG=4.42E-03 dt0=1.00E+04 DIVF(1)= 4.42E-02 DIVFrms= 4.53E-02 DT(ND)= 8.34E-01 T(ND)=1.8972E+02
 NST=     4 JCONV= 94 CHG=2.63E-03 dt0=1.00E+04 DIVF(1)= 2.63E-02 DIVFrms= 2.73E-02 DT(ND)= 4.98E-01 T(ND)=1.9022E+02
 NST=     5 JCONV= 94 CHG=1.57E-03 dt0=1.00E+04 DIVF(1)= 1.57E-02 DIVFrms= 1.68E-02 DT(ND)= 2.99E-01 T(ND)=1.9052E+02
 NST=     6 JCONV= 94 CHG=3.12E-03 dt0=1.00E+04 DIVF(1)= 9.43E-03 DIVFrms= 1.06E-02 DT(ND)= 1.80E-01 T(ND)=1.9070E+02
 NST=     7 JCONV= 94 CHG=1.24E-02 dt0=1.00E+04 DIVF(1)= 5.97E-03 DIVFrms= 7.22E-03 DT(ND)= 1.14E-01 T(ND)=1.9082E+02
 NST=     8 JCONV=  3 CHG=6.38E-02 dt0=5.00E+03 DIVF(1)= 6.01E-03 DIVFrms= 5.89E-03 DT(ND)= 1.15E-01 T(ND)=1.9093E+02
 NST=     9 JCONV=  3 CHG=1.45E-01 dt0=2.50E+03 DIVF(1)=-4.61E-03 DIVFrms= 5.68E-03 DT(ND)=-8.80E-02 T(ND)=1.9084E+02
 NST=    10 JCONV=  3 CHG=1.65E-01 dt0=1.25E+03 DIVF(1)=-2.48E-02 DIVFrms= 2.08E-02 DT(ND)=-4.73E-01 T(ND)=1.9037E+02
 NST=    11 JCONV=  2 CHG=4.66E-01 dt0=6.25E+02 DIVF(1)= 1.07E-01 DIVFrms= 1.07E-01 DT(ND)= 2.03E+00 T(ND)=1.9240E+02
 NST=    12 JCONV=  2 CHG=3.64E-02 dt0=3.12E+02 DIVF(1)=-6.09E-02 DIVFrms= 6.09E-02 DT(ND)=-1.17E+00 T(ND)=1.9123E+02
 NST=    13 JCONV=  2 CHG=6.53E-03 dt0=4.69E+02 DIVF(1)=-2.13E-02 DIVFrms= 2.13E-02 DT(ND)=-4.07E-01 T(ND)=1.9082E+02
 NST=    14 JCONV=  2 CHG=1.28E-02 dt0=4.69E+02 DIVF(1)=-1.16E-02 DIVFrms= 1.16E-02 DT(ND)=-2.22E-01 T(ND)=1.9060E+02
 NST=    15 JCONV=  2 CHG=3.25E-02 dt0=2.34E+02 DIVF(1)=-1.99E-02 DIVFrms= 1.99E-02 DT(ND)=-3.80E-01 T(ND)=1.9022E+02
 NST=    16 JCONV= 93 CHG=5.15E-03 dt0=3.52E+02 DIVF(1)= 2.09E-03 DIVFrms= 9.90E-03 DT(ND)= 3.98E-02 T(ND)=1.9026E+02
 NST=    17 JCONV= 93 CHG=1.62E-02 dt0=3.52E+02 DIVF(1)= 1.84E-02 DIVFrms= 4.16E-03 DT(ND)= 3.50E-01 T(ND)=1.9061E+02
 NST=    18 JCONV= 93 CHG=3.77E-03 dt0=5.27E+02 DIVF(1)=-1.07E-02 DIVFrms= 1.87E-03 DT(ND)=-2.04E-01 T(ND)=1.9040E+02
 NST=    19 JCONV= 93 CHG=1.28E-02 dt0=5.27E+02 DIVF(1)= 8.47E-03 DIVFrms= 6.26E-03 DT(ND)= 1.61E-01 T(ND)=1.9057E+02
 NST=    20 JCONV= 93 CHG=3.02E-02 dt0=2.64E+02 DIVF(1)= 3.40E-03 DIVFrms= 2.30E-03 DT(ND)= 6.49E-02 T(ND)=1.9063E+02
 NST=    21 JCONV= 93 CHG=1.76E-02 dt0=2.64E+02 DIVF(1)= 1.55E-02 DIVFrms= 1.52E-02 DT(ND)= 2.96E-01 T(ND)=1.9093E+02
 NST=    22 JCONV= 93 CHG=1.12E-02 dt0=2.64E+02 DIVF(1)=-1.53E-02 DIVFrms= 1.27E-02 DT(ND)=-2.92E-01 T(ND)=1.9063E+02
 NST=    23 JCONV= 93 CHG=9.66E-03 dt0=3.96E+02 DIVF(1)= 9.53E-04 DIVFrms= 1.59E-02 DT(ND)= 1.82E-02 T(ND)=1.9065E+02
 NST=    24 JCONV= 93 CHG=5.69E-03 dt0=5.93E+02 DIVF(1)= 1.89E-03 DIVFrms= 4.70E-03 DT(ND)= 3.60E-02 T(ND)=1.9069E+02
 NST=    25 JCONV= 93 CHG=1.04E-02 dt0=5.93E+02 DIVF(1)= 1.84E-03 DIVFrms= 1.33E-02 DT(ND)= 3.50E-02 T(ND)=1.9072E+02
 NST=    26 JCONV= 93 CHG=1.41E-02 dt0=5.93E+02 DIVF(1)=-1.01E-02 DIVFrms= 1.60E-02 DT(ND)=-1.93E-01 T(ND)=1.9053E+02
 NST=    27 JCONV= 93 CHG=8.15E-03 dt0=8.90E+02 DIVF(1)=-5.19E-03 DIVFrms= 2.66E-03 DT(ND)=-9.89E-02 T(ND)=1.9043E+02
 NST=    28 JCONV= 93 CHG=2.74E-02 dt0=4.45E+02 DIVF(1)=-9.93E-03 DIVFrms= 7.22E-03 DT(ND)=-1.89E-01 T(ND)=1.9024E+02
 NST=    29 JCONV=  3 CHG=2.74E-02 dt0=2.22E+02 DIVF(1)= 6.26E-03 DIVFrms= 4.97E-03 DT(ND)= 1.19E-01 T(ND)=1.9036E+02
 NST=    30 JCONV= 94 CHG=1.75E-02 dt0=2.22E+02 DIVF(1)= 6.91E-03 DIVFrms= 1.53E-02 DT(ND)= 1.32E-01 T(ND)=1.9049E+02
 NST=    31 JCONV= 94 CHG=8.81E-03 dt0=3.34E+02 DIVF(1)= 3.38E-03 DIVFrms= 3.33E-03 DT(ND)= 6.43E-02 T(ND)=1.9056E+02
 NST=    32 JCONV= 93 CHG=1.38E-02 dt0=3.34E+02 DIVF(1)= 1.38E-02 DIVFrms= 3.41E-03 DT(ND)= 2.62E-01 T(ND)=1.9082E+02
 NST=    33 JCONV= 93 CHG=1.07E-02 dt0=3.34E+02 DIVF(1)= 2.94E-03 DIVFrms= 1.26E-02 DT(ND)= 5.60E-02 T(ND)=1.9088E+02
 NST=    34 JCONV= 93 CHG=1.23E-02 dt0=3.34E+02 DIVF(1)=-8.60E-03 DIVFrms= 8.54E-03 DT(ND)=-1.64E-01 T(ND)=1.9071E+02
 NST=    35 JCONV= 93 CHG=2.20E-02 dt0=1.67E+02 DIVF(1)= 3.98E-03 DIVFrms= 1.27E-02 DT(ND)= 7.58E-02 T(ND)=1.9079E+02
 NST=    36 JCONV= 93 CHG=2.56E-03 dt0=2.50E+02 DIVF(1)=-1.07E-02 DIVFrms= 4.63E-03 DT(ND)=-2.04E-01 T(ND)=1.9058E+02
 NST=    37 JCONV= 93 CHG=8.08E-03 dt0=3.75E+02 DIVF(1)=-3.28E-03 DIVFrms= 1.86E-03 DT(ND)=-6.24E-02 T(ND)=1.9052E+02
 NST=    38 JCONV= 94 CHG=1.41E-02 dt0=3.75E+02 DIVF(1)= 8.34E-04 DIVFrms= 1.71E-03 DT(ND)= 1.59E-02 T(ND)=1.9054E+02
 NST=    39 JCONV= 94 CHG=1.09E-02 dt0=3.75E+02 DIVF(1)= 3.27E-03 DIVFrms= 1.65E-03 DT(ND)= 6.23E-02 T(ND)=1.9060E+02
 NST=    40 JCONV= 94 CHG=1.54E-02 dt0=3.75E+02 DIVF(1)= 1.79E-02 DIVFrms= 6.27E-03 DT(ND)= 3.40E-01 T(ND)=1.9094E+02
 NST=    41 JCONV= 94 CHG=9.32E-03 dt0=5.63E+02 DIVF(1)=-1.27E-03 DIVFrms= 3.11E-03 DT(ND)=-2.43E-02 T(ND)=1.9092E+02
 NST=    42 JCONV= 94 CHG=6.59E-03 dt0=8.45E+02 DIVF(1)=-1.70E-02 DIVFrms= 1.39E-02 DT(ND)=-3.24E-01 T(ND)=1.9059E+02
 NST=    43 JCONV= 94 CHG=3.38E-02 dt0=4.22E+02 DIVF(1)=-1.04E-03 DIVFrms= 5.63E-03 DT(ND)=-1.98E-02 T(ND)=1.9057E+02
 NST=    44 JCONV= 94 CHG=1.02E-02 dt0=4.22E+02 DIVF(1)= 4.93E-05 DIVFrms= 1.78E-03 DT(ND)= 9.39E-04 T(ND)=1.9057E+02
 NST=    45 JCONV= 94 CHG=5.21E-03 dt0=6.34E+02 DIVF(1)= 9.14E-03 DIVFrms= 7.33E-03 DT(ND)= 1.74E-01 T(ND)=1.9075E+02
 NST=    46 JCONV= 94 CHG=1.26E-02 dt0=6.34E+02 DIVF(1)=-1.19E-02 DIVFrms= 2.33E-03 DT(ND)=-2.26E-01 T(ND)=1.9052E+02
 NST=    47 JCONV= 94 CHG=5.17E-03 dt0=9.50E+02 DIVF(1)= 8.58E-03 DIVFrms= 5.13E-03 DT(ND)= 1.64E-01 T(ND)=1.9068E+02
 NST=    48 JCONV= 94 CHG=1.25E-02 dt0=9.50E+02 DIVF(1)= 6.89E-03 DIVFrms= 3.06E-03 DT(ND)= 1.31E-01 T(ND)=1.9082E+02
 NST=    49 JCONV= 94 CHG=2.35E-02 dt0=4.75E+02 DIVF(1)= 5.88E-03 DIVFrms= 3.08E-03 DT(ND)= 1.12E-01 T(ND)=1.9093E+02
 NST=    50 JCONV= 94 CHG=9.44E-03 dt0=7.13E+02 DIVF(1)=-1.15E-02 DIVFrms= 7.66E-03 DT(ND)=-2.20E-01 T(ND)=1.9071E+02
 NST=    51 JCONV= 93 CHG=1.66E-02 dt0=7.13E+02 DIVF(1)= 8.05E-04 DIVFrms= 1.10E-02 DT(ND)= 1.54E-02 T(ND)=1.9072E+02
 NST=    52 JCONV= 93 CHG=4.41E-03 dt0=1.07E+03 DIVF(1)=-1.88E-03 DIVFrms= 5.16E-03 DT(ND)=-3.59E-02 T(ND)=1.9069E+02
 NST=    53 JCONV= 93 CHG=2.11E-02 dt0=5.35E+02 DIVF(1)=-5.66E-03 DIVFrms= 4.59E-03 DT(ND)=-1.08E-01 T(ND)=1.9058E+02
 NST=    54 JCONV= 94 CHG=1.50E-02 dt0=5.35E+02 DIVF(1)= 3.62E-03 DIVFrms= 2.46E-03 DT(ND)= 6.90E-02 T(ND)=1.9065E+02
 NST=    55 JCONV= 94 CHG=3.79E-03 dt0=8.02E+02 DIVF(1)= 1.09E-03 DIVFrms= 4.11E-03 DT(ND)= 2.08E-02 T(ND)=1.9067E+02
 NST=    56 JCONV= 94 CHG=2.21E-02 dt0=4.01E+02 DIVF(1)=-2.77E-03 DIVFrms= 5.39E-03 DT(ND)=-5.29E-02 T(ND)=1.9062E+02
 NST=    57 JCONV= 94 CHG=2.37E-02 dt0=2.00E+02 DIVF(1)= 6.08E-03 DIVFrms= 4.27E-03 DT(ND)= 1.16E-01 T(ND)=1.9073E+02
 NST=    58 JCONV= 94 CHG=6.51E-03 dt0=3.01E+02 DIVF(1)=-5.74E-03 DIVFrms= 2.25E-03 DT(ND)=-1.09E-01 T(ND)=1.9062E+02
 NST=    59 JCONV= 94 CHG=5.93E-03 dt0=4.51E+02 DIVF(1)=-2.68E-03 DIVFrms= 2.36E-03 DT(ND)=-5.12E-02 T(ND)=1.9057E+02
 NST=    60 JCONV= 94 CHG=3.40E-03 dt0=6.77E+02 DIVF(1)= 5.62E-03 DIVFrms= 2.22E-03 DT(ND)= 1.07E-01 T(ND)=1.9068E+02
 NST=    61 JCONV= 94 CHG=2.10E-02 dt0=3.38E+02 DIVF(1)= 1.07E-02 DIVFrms= 4.82E-03 DT(ND)= 2.04E-01 T(ND)=1.9088E+02
 NST=    62 JCONV= 94 CHG=6.87E-03 dt0=5.07E+02 DIVF(1)=-1.62E-02 DIVFrms= 5.97E-03 DT(ND)=-3.10E-01 T(ND)=1.9057E+02
 NST=    63 JCONV= 94 CHG=5.53E-03 dt0=7.61E+02 DIVF(1)=-4.13E-03 DIVFrms= 1.45E-03 DT(ND)=-7.88E-02 T(ND)=1.9049E+02
 NST=    64 JCONV= 94 CHG=1.22E-02 dt0=7.61E+02 DIVF(1)=-8.28E-04 DIVFrms= 2.46E-03 DT(ND)=-1.58E-02 T(ND)=1.9048E+02
 NST=    65 JCONV= 94 CHG=3.29E-03 dt0=1.14E+03 DIVF(1)= 3.12E-03 DIVFrms= 2.89E-03 DT(ND)= 5.94E-02 T(ND)=1.9054E+02
 NST=    66 JCONV=  2 CHG=6.92E-02 dt0=5.71E+02 DIVF(1)= 1.24E-02 DIVFrms= 1.24E-02 DT(ND)= 2.37E-01 T(ND)=1.9077E+02
 NST=    67 JCONV=  2 CHG=2.05E-02 dt0=2.85E+02 DIVF(1)=-1.03E-04 DIVFrms= 1.03E-04 DT(ND)=-1.96E-03 T(ND)=1.9077E+02
 NST=    68 JCONV=  2 CHG=1.01E-02 dt0=2.85E+02 DIVF(1)=-5.12E-03 DIVFrms= 5.12E-03 DT(ND)=-9.76E-02 T(ND)=1.9067E+02
 NST=    69 JCONV= 94 CHG=6.61E-03 dt0=4.28E+02 DIVF(1)= 8.21E-03 DIVFrms= 9.79E-03 DT(ND)= 1.57E-01 T(ND)=1.9083E+02
 NST=    70 JCONV= 94 CHG=1.29E-02 dt0=4.28E+02 DIVF(1)= 7.03E-03 DIVFrms= 1.03E-02 DT(ND)= 1.34E-01 T(ND)=1.9097E+02
 NST=    71 JCONV= 94 CHG=1.25E-02 dt0=4.28E+02 DIVF(1)=-4.35E-03 DIVFrms= 1.19E-02 DT(ND)=-8.31E-02 T(ND)=1.9088E+02
 NST=    72 JCONV= 94 CHG=1.92E-02 dt0=4.28E+02 DIVF(1)= 7.15E-03 DIVFrms= 1.42E-02 DT(ND)= 1.36E-01 T(ND)=1.9102E+02
 NST=    73 JCONV= 94 CHG=1.38E-02 dt0=4.28E+02 DIVF(1)=-1.13E-02 DIVFrms= 1.00E-02 DT(ND)=-2.15E-01 T(ND)=1.9080E+02
 NST=    74 JCONV= 93 CHG=1.45E-02 dt0=4.28E+02 DIVF(1)= 1.43E-02 DIVFrms= 1.27E-02 DT(ND)= 2.74E-01 T(ND)=1.9108E+02
 NST=    75 JCONV= 93 CHG=1.83E-02 dt0=4.28E+02 DIVF(1)= 3.37E-03 DIVFrms= 4.91E-03 DT(ND)= 6.43E-02 T(ND)=1.9114E+02
 NST=    76 JCONV= 93 CHG=6.42E-03 dt0=6.42E+02 DIVF(1)=-6.42E-03 DIVFrms= 1.37E-02 DT(ND)=-1.23E-01 T(ND)=1.9102E+02
 NST=    77 JCONV= 93 CHG=4.16E-03 dt0=9.63E+02 DIVF(1)=-3.09E-03 DIVFrms= 7.12E-03 DT(ND)=-5.90E-02 T(ND)=1.9096E+02
 NST=    78 JCONV= 94 CHG=2.34E-02 dt0=4.82E+02 DIVF(1)= 6.23E-04 DIVFrms= 1.08E-02 DT(ND)= 1.19E-02 T(ND)=1.9097E+02
 NST=    79 JCONV= 94 CHG=8.62E-03 dt0=7.22E+02 DIVF(1)=-8.40E-03 DIVFrms= 3.11E-03 DT(ND)=-1.60E-01 T(ND)=1.9081E+02
 NST=    80 JCONV= 94 CHG=1.90E-02 dt0=7.22E+02 DIVF(1)=-7.24E-03 DIVFrms= 6.65E-03 DT(ND)=-1.38E-01 T(ND)=1.9067E+02
 NST=    81 JCONV=  2 CHG=2.51E-02 dt0=3.61E+02 DIVF(1)= 4.92E-03 DIVFrms= 4.92E-03 DT(ND)= 9.37E-02 T(ND)=1.9077E+02
 NST=    82 JCONV= 94 CHG=4.20E-03 dt0=5.42E+02 DIVF(1)= 1.13E-03 DIVFrms= 2.24E-03 DT(ND)= 2.16E-02 T(ND)=1.9079E+02
 NST=    83 JCONV= 94 CHG=3.09E-03 dt0=8.13E+02 DIVF(1)=-7.74E-03 DIVFrms= 5.38E-03 DT(ND)=-1.48E-01 T(ND)=1.9064E+02
 NST=    84 JCONV= 94 CHG=9.74E-03 dt0=1.22E+03 DIVF(1)= 7.69E-03 DIVFrms= 3.14E-03 DT(ND)= 1.47E-01 T(ND)=1.9079E+02
 NST=    85 JCONV= 94 CHG=1.41E-02 dt0=1.22E+03 DIVF(1)= 7.74E-03 DIVFrms= 1.95E-03 DT(ND)= 1.48E-01 T(ND)=1.9093E+02
 NST=    86 JCONV= 94 CHG=1.15E-02 dt0=1.22E+03 DIVF(1)=-9.54E-04 DIVFrms= 3.91E-03 DT(ND)=-1.82E-02 T(ND)=1.9092E+02
 NST=    87 JCONV= 94 CHG=1.93E-02 dt0=1.22E+03 DIVF(1)=-1.95E-03 DIVFrms= 6.92E-03 DT(ND)=-3.72E-02 T(ND)=1.9088E+02
 NST=    88 JCONV= 94 CHG=4.34E-02 dt0=6.10E+02 DIVF(1)=-1.03E-02 DIVFrms= 3.03E-03 DT(ND)=-1.96E-01 T(ND)=1.9068E+02
 NST=    89 JCONV= 94 CHG=3.35E-02 dt0=3.05E+02 DIVF(1)= 1.25E-02 DIVFrms= 1.00E-02 DT(ND)= 2.39E-01 T(ND)=1.9092E+02
 NST=    90 JCONV= 94 CHG=4.70E-03 dt0=4.57E+02 DIVF(1)=-2.15E-03 DIVFrms= 2.09E-02 DT(ND)=-4.10E-02 T(ND)=1.9088E+02
 NST=    91 JCONV= 94 CHG=1.31E-02 dt0=4.57E+02 DIVF(1)= 7.97E-03 DIVFrms= 4.05E-03 DT(ND)= 1.52E-01 T(ND)=1.9103E+02
 NST=    92 JCONV= 94 CHG=9.13E-03 dt0=6.86E+02 DIVF(1)=-8.37E-03 DIVFrms= 6.39E-03 DT(ND)=-1.60E-01 T(ND)=1.9087E+02
 NST=    93 JCONV= 94 CHG=3.94E-02 dt0=3.43E+02 DIVF(1)= 1.74E-02 DIVFrms= 8.12E-03 DT(ND)= 3.33E-01 T(ND)=1.9121E+02
 NST=    94 JCONV= 94 CHG=7.54E-03 dt0=5.14E+02 DIVF(1)=-1.45E-02 DIVFrms= 1.56E-02 DT(ND)=-2.77E-01 T(ND)=1.9093E+02
 NST=    95 JCONV= 94 CHG=1.36E-02 dt0=5.14E+02 DIVF(1)= 6.45E-03 DIVFrms= 3.80E-03 DT(ND)= 1.23E-01 T(ND)=1.9105E+02
 NST=    96 JCONV= 94 CHG=1.26E-02 dt0=5.14E+02 DIVF(1)= 2.38E-03 DIVFrms= 6.29E-03 DT(ND)= 4.54E-02 T(ND)=1.9110E+02
 NST=    97 JCONV= 94 CHG=1.03E-02 dt0=5.14E+02 DIVF(1)=-1.19E-02 DIVFrms= 1.78E-02 DT(ND)=-2.27E-01 T(ND)=1.9087E+02
 NST=    98 JCONV= 94 CHG=4.34E-03 dt0=7.71E+02 DIVF(1)= 6.65E-04 DIVFrms= 1.13E-02 DT(ND)= 1.27E-02 T(ND)=1.9088E+02
 NST=    99 JCONV= 94 CHG=6.93E-03 dt0=1.16E+03 DIVF(1)=-6.83E-04 DIVFrms= 1.70E-03 DT(ND)=-1.30E-02 T(ND)=1.9087E+02
 NST=   100 JCONV= 94 CHG=8.68E-03 dt0=1.74E+03 DIVF(1)=-4.41E-03 DIVFrms= 8.62E-03 DT(ND)=-8.41E-02 T(ND)=1.9079E+02
 NST=   101 JCONV=  2 CHG=6.66E-02 dt0=8.68E+02 DIVF(1)= 1.14E-02 DIVFrms= 1.14E-02 DT(ND)= 2.17E-01 T(ND)=1.9100E+02
 NST=   102 JCONV=  2 CHG=2.29E-02 dt0=4.34E+02 DIVF(1)=-1.09E-02 DIVFrms= 1.09E-02 DT(ND)=-2.09E-01 T(ND)=1.9079E+02
 NST=   103 JCONV=  2 CHG=2.59E-03 dt0=6.51E+02 DIVF(1)=-8.90E-03 DIVFrms= 8.90E-03 DT(ND)=-1.70E-01 T(ND)=1.9062E+02
 NST=   104 JCONV= 94 CHG=8.53E-03 dt0=9.76E+02 DIVF(1)= 3.96E-03 DIVFrms= 4.09E-03 DT(ND)= 7.54E-02 T(ND)=1.9070E+02
 NST=   105 JCONV= 94 CHG=1.46E-02 dt0=9.76E+02 DIVF(1)=-1.88E-03 DIVFrms= 2.88E-03 DT(ND)=-3.58E-02 T(ND)=1.9066E+02
 NST=   106 JCONV=  2 CHG=4.44E-02 dt0=4.88E+02 DIVF(1)= 5.19E-04 DIVFrms= 5.19E-04 DT(ND)= 9.89E-03 T(ND)=1.9067E+02
 NST=   107 JCONV=  2 CHG=1.56E-02 dt0=4.88E+02 DIVF(1)=-9.20E-03 DIVFrms= 9.20E-03 DT(ND)=-1.75E-01 T(ND)=1.9050E+02
 NST=   108 JCONV= 94 CHG=1.14E-02 dt0=4.88E+02 DIVF(1)= 1.51E-02 DIVFrms= 3.01E-03 DT(ND)= 2.87E-01 T(ND)=1.9079E+02
 NST=   109 JCONV= 94 CHG=7.69E-03 dt0=7.32E+02 DIVF(1)=-2.20E-02 DIVFrms= 1.12E-02 DT(ND)=-4.19E-01 T(ND)=1.9037E+02
 NST=   110 JCONV= 94 CHG=3.36E-03 dt0=1.10E+03 DIVF(1)= 8.01E-06 DIVFrms= 3.63E-03 DT(ND)= 1.53E-04 T(ND)=1.9037E+02
 NST=   111 JCONV=  2 CHG=3.47E-02 dt0=5.49E+02 DIVF(1)= 5.42E-03 DIVFrms= 5.42E-03 DT(ND)= 1.03E-01 T(ND)=1.9047E+02
 NST=   112 JCONV= 94 CHG=1.17E-02 dt0=5.49E+02 DIVF(1)= 3.87E-03 DIVFrms= 1.98E-03 DT(ND)= 7.37E-02 T(ND)=1.9054E+02
 NST=   113 JCONV= 94 CHG=4.04E-03 dt0=8.24E+02 DIVF(1)= 7.02E-03 DIVFrms= 6.52E-03 DT(ND)= 1.34E-01 T(ND)=1.9068E+02
 NST=   114 JCONV= 94 CHG=9.25E-03 dt0=1.24E+03 DIVF(1)=-1.22E-03 DIVFrms= 5.26E-03 DT(ND)=-2.33E-02 T(ND)=1.9065E+02
 NST=   115 JCONV= 94 CHG=2.54E-02 dt0=6.18E+02 DIVF(1)=-7.08E-03 DIVFrms= 2.06E-03 DT(ND)=-1.35E-01 T(ND)=1.9052E+02
 NST=   116 JCONV= 94 CHG=1.20E-02 dt0=6.18E+02 DIVF(1)= 1.23E-02 DIVFrms= 6.77E-03 DT(ND)= 2.34E-01 T(ND)=1.9075E+02
 NST=   117 JCONV= 94 CHG=8.61E-03 dt0=9.27E+02 DIVF(1)=-2.44E-03 DIVFrms= 2.64E-03 DT(ND)=-4.65E-02 T(ND)=1.9071E+02
 NST=   118 JCONV= 94 CHG=1.07E-02 dt0=9.27E+02 DIVF(1)=-8.52E-03 DIVFrms= 2.40E-03 DT(ND)=-1.62E-01 T(ND)=1.9054E+02
 NST=   119 JCONV= 94 CHG=1.55E-02 dt0=9.27E+02 DIVF(1)=-7.21E-03 DIVFrms= 1.86E-03 DT(ND)=-1.37E-01 T(ND)=1.9041E+02
 NST=   120 JCONV= 94 CHG=6.35E-03 dt0=1.39E+03 DIVF(1)= 7.78E-03 DIVFrms= 2.60E-03 DT(ND)= 1.48E-01 T(ND)=1.9055E+02
 NST=   121 JCONV= 94 CHG=2.73E-02 dt0=6.95E+02 DIVF(1)= 5.69E-03 DIVFrms= 2.02E-03 DT(ND)= 1.08E-01 T(ND)=1.9066E+02
 NST=   122 JCONV= 94 CHG=1.33E-02 dt0=6.95E+02 DIVF(1)= 4.09E-03 DIVFrms= 6.27E-03 DT(ND)= 7.80E-02 T(ND)=1.9074E+02
 NST=   123 JCONV= 94 CHG=8.94E-03 dt0=1.04E+03 DIVF(1)=-6.62E-03 DIVFrms= 3.87E-03 DT(ND)=-1.26E-01 T(ND)=1.9061E+02
 NST=   124 JCONV= 94 CHG=6.98E-03 dt0=1.56E+03 DIVF(1)= 1.52E-03 DIVFrms= 2.70E-03 DT(ND)= 2.90E-02 T(ND)=1.9064E+02
 NST=   125 JCONV= 94 CHG=2.30E-02 dt0=7.82E+02 DIVF(1)=-3.35E-03 DIVFrms= 2.50E-03 DT(ND)=-6.39E-02 T(ND)=1.9058E+02
 NST=   126 JCONV= 94 CHG=7.42E-03 dt0=1.17E+03 DIVF(1)= 4.35E-03 DIVFrms= 3.79E-03 DT(ND)= 8.28E-02 T(ND)=1.9066E+02
 NST=   127 JCONV= 94 CHG=1.09E-02 dt0=1.17E+03 DIVF(1)=-3.47E-03 DIVFrms= 2.20E-03 DT(ND)=-6.61E-02 T(ND)=1.9060E+02
 NST=   128 JCONV= 94 CHG=7.59E-03 dt0=1.76E+03 DIVF(1)=-2.31E-03 DIVFrms= 6.02E-03 DT(ND)=-4.40E-02 T(ND)=1.9055E+02
 NST=   129 JCONV=  2 CHG=7.34E-02 dt0=8.80E+02 DIVF(1)= 6.85E-03 DIVFrms= 6.85E-03 DT(ND)= 1.31E-01 T(ND)=1.9068E+02
 NST=   130 JCONV=  2 CHG=2.11E-02 dt0=4.40E+02 DIVF(1)=-1.35E-02 DIVFrms= 1.35E-02 DT(ND)=-2.57E-01 T(ND)=1.9043E+02
 NST=   131 JCONV=  2 CHG=7.46E-03 dt0=6.60E+02 DIVF(1)=-4.21E-03 DIVFrms= 4.21E-03 DT(ND)=-8.02E-02 T(ND)=1.9035E+02
 NST=   132 JCONV= 94 CHG=2.20E-02 dt0=3.30E+02 DIVF(1)= 1.02E-02 DIVFrms= 3.36E-03 DT(ND)= 1.94E-01 T(ND)=1.9054E+02
 NST=   133 JCONV= 94 CHG=6.33E-03 dt0=4.95E+02 DIVF(1)= 4.71E-03 DIVFrms= 8.32E-03 DT(ND)= 8.98E-02 T(ND)=1.9063E+02
 NST=   134 JCONV= 94 CHG=4.84E-03 dt0=7.42E+02 DIVF(1)= 4.68E-03 DIVFrms= 5.22E-03 DT(ND)= 8.92E-02 T(ND)=1.9072E+02
 NST=   135 JCONV= 94 CHG=1.57E-02 dt0=7.42E+02 DIVF(1)= 2.67E-03 DIVFrms= 4.08E-03 DT(ND)= 5.08E-02 T(ND)=1.9077E+02
 NST=   136 JCONV= 94 CHG=9.75E-03 dt0=1.11E+03 DIVF(1)=-6.67E-03 DIVFrms= 4.84E-03 DT(ND)=-1.27E-01 T(ND)=1.9064E+02
 NST=   137 JCONV= 94 CHG=1.15E-02 dt0=1.11E+03 DIVF(1)=-5.00E-03 DIVFrms= 3.97E-03 DT(ND)=-9.53E-02 T(ND)=1.9055E+02
 NST=   138 JCONV= 94 CHG=1.83E-02 dt0=1.11E+03 DIVF(1)= 7.39E-03 DIVFrms= 7.16E-03 DT(ND)= 1.41E-01 T(ND)=1.9069E+02
 NST=   139 JCONV= 94 CHG=1.21E-02 dt0=1.11E+03 DIVF(1)=-1.03E-02 DIVFrms= 3.25E-03 DT(ND)=-1.95E-01 T(ND)=1.9049E+02
 NST=   140 JCONV=  2 CHG=1.82E-02 dt0=1.11E+03 DIVF(1)= 5.22E-03 DIVFrms= 5.22E-03 DT(ND)= 9.95E-02 T(ND)=1.9059E+02
 NST=   141 JCONV=  2 CHG=1.85E-02 dt0=1.11E+03 DIVF(1)=-4.00E-03 DIVFrms= 4.00E-03 DT(ND)=-7.62E-02 T(ND)=1.9052E+02
 NST=   142 JCONV= 94 CHG=3.44E-02 dt0=5.57E+02 DIVF(1)= 1.23E-02 DIVFrms= 4.84E-03 DT(ND)= 2.35E-01 T(ND)=1.9075E+02
 NST=   143 JCONV= 94 CHG=1.41E-02 dt0=5.57E+02 DIVF(1)= 5.33E-03 DIVFrms= 4.21E-03 DT(ND)= 1.02E-01 T(ND)=1.9085E+02
 NST=   144 JCONV= 94 CHG=6.22E-03 dt0=8.35E+02 DIVF(1)=-9.75E-03 DIVFrms= 5.76E-03 DT(ND)=-1.86E-01 T(ND)=1.9067E+02
 NST=   145 JCONV= 94 CHG=8.73E-03 dt0=1.25E+03 DIVF(1)= 7.42E-03 DIVFrms= 2.82E-03 DT(ND)= 1.42E-01 T(ND)=1.9081E+02
 NST=   146 JCONV= 94 CHG=1.43E-02 dt0=1.25E+03 DIVF(1)=-6.28E-03 DIVFrms= 5.81E-03 DT(ND)=-1.20E-01 T(ND)=1.9069E+02
 NST=   147 JCONV= 94 CHG=2.22E-02 dt0=6.26E+02 DIVF(1)=-4.11E-03 DIVFrms= 3.05E-03 DT(ND)=-7.84E-02 T(ND)=1.9061E+02
 NST=   148 JCONV= 94 CHG=8.78E-03 dt0=9.39E+02 DIVF(1)= 3.69E-03 DIVFrms= 2.77E-03 DT(ND)= 7.04E-02 T(ND)=1.9068E+02
 NST=   149 JCONV= 94 CHG=1.40E-02 dt0=9.39E+02 DIVF(1)= 7.85E-03 DIVFrms= 2.61E-03 DT(ND)= 1.50E-01 T(ND)=1.9083E+02
 NST=   150 JCONV= 94 CHG=6.08E-03 dt0=1.41E+03 DIVF(1)=-6.00E-03 DIVFrms= 3.62E-03 DT(ND)=-1.14E-01 T(ND)=1.9072E+02

 TIME= 1.693E+05  TIME IN DAYS = 1.960E+00

 PLANETARY ALBEDO:  ALBP = 0.2824

  J     P         ALT         T        CONVEC       DT          TOLD        FH20       FSAVE       TCOOL       THEAT
  1 1.0763E-04 2.4207E+01 2.3762E+02  0.00E+00  -3.3046E+00  2.4093E+02  1.9193E-08  1.9903E-08 -3.0392E+02  2.5145E-04
  2 1.2463E-04 2.3697E+01 2.3375E+02  0.00E+00  -6.5161E-01  2.3506E+02  1.9193E-08  1.9903E-08 -5.9928E+01  2.5159E-04
  3 1.4414E-04 2.3201E+01 2.2852E+02  0.00E+00   6.6896E-01  2.2790E+02  1.9193E-08  1.9903E-08  6.1522E+01  2.5176E-04
  4 1.6653E-04 2.2721E+01 2.2215E+02  0.00E+00   8.2979E-01  2.2171E+02  1.9193E-08  1.9903E-08  7.6314E+01  2.5191E-04
  5 1.9218E-04 2.2258E+01 2.1561E+02  0.00E+00  -1.3155E+00  2.1625E+02  1.9193E-08  1.9903E-08 -1.2099E+02  2.5204E-04
  6 2.2153E-04 2.1812E+01 2.0981E+02  0.00E+00  -5.3034E-01  2.1055E+02  1.9193E-08  1.9903E-08 -4.8774E+01  2.5218E-04
  7 2.5508E-04 2.1381E+01 2.0460E+02  0.00E+00  -7.3153E-01  2.0502E+02  1.9193E-08  1.9903E-08 -6.7278E+01  2.5231E-04
  8 2.9339E-04 2.0963E+01 1.9988E+02  0.00E+00  -1.6408E-01  1.9999E+02  1.9193E-08  1.9903E-08 -1.5090E+01  2.5243E-04
  9 3.3707E-04 2.0558E+01 1.9576E+02  0.00E+00  -2.0247E-02  1.9561E+02  1.9193E-08  1.9903E-08 -1.8623E+00  2.5254E-04
 10 3.8683E-04 2.0164E+01 1.9193E+02  0.00E+00   3.7849E-01  1.9166E+02  1.9193E-08  1.9903E-08  3.4809E+01  2.5263E-04
 11 4.4345E-04 1.9781E+01 1.8836E+02  0.00E+00  -1.5916E-01  1.8822E+02  1.9193E-08  1.9903E-08 -1.4638E+01  2.5271E-04
 12 5.0778E-04 1.9408E+01 1.8536E+02  0.00E+00  -2.8041E-02  1.8531E+02  1.9193E-08  1.9903E-08 -2.5791E+00  2.5278E-04
 13 5.8080E-04 1.9043E+01 1.8286E+02  0.00E+00   3.8423E-02  1.8277E+02  1.9193E-08  1.9903E-08  3.5334E+00  2.5284E-04
 14 6.6358E-04 1.8685E+01 1.8067E+02  0.00E+00  -2.8228E-02  1.8059E+02  1.9193E-08  1.9903E-08 -2.5963E+00  2.5289E-04
 15 7.5731E-04 1.8335E+01 1.7884E+02  0.00E+00  -1.2677E-02  1.7877E+02  1.9193E-08  1.9903E-08 -1.1661E+00  2.5293E-04
 16 8.6333E-04 1.7990E+01 1.7736E+02  0.00E+00  -1.4262E-02  1.7730E+02  1.9193E-08  1.9903E-08 -1.3119E+00  2.5297E-04
 17 9.8310E-04 1.7652E+01 1.7615E+02  0.00E+00   1.9405E-03  1.7610E+02  1.9193E-08  1.9903E-08  1.7821E-01  2.5299E-04
 18 1.1182E-03 1.7318E+01 1.7518E+02  0.00E+00   3.6495E-05  1.7513E+02  1.9193E-08  1.9903E-08  3.0794E-03  2.7700E-04
 19 1.2705E-03 1.6988E+01 1.7441E+02  0.00E+00  -2.3586E-03  1.7437E+02  1.9193E-08  1.9903E-08 -2.1722E-01  3.0449E-04
 20 1.4420E-03 1.6663E+01 1.7380E+02  0.00E+00  -1.5491E-04  1.7377E+02  1.9193E-08  1.9903E-08 -1.4579E-02  3.3173E-04
 21 1.6347E-03 1.6342E+01 1.7333E+02  0.00E+00  -6.7750E-04  1.7330E+02  1.9193E-08  1.9903E-08 -6.2667E-02  3.5872E-04
 22 1.8512E-03 1.6024E+01 1.7297E+02  0.00E+00  -1.6077E-04  1.7295E+02  1.9193E-08  1.9903E-08 -1.5171E-02  3.8548E-04
 23 2.0939E-03 1.5710E+01 1.7269E+02  0.00E+00  -8.0129E-05  1.7268E+02  1.9193E-08  1.9903E-08 -7.7813E-03  4.1199E-04
 24 2.3659E-03 1.5399E+01 1.7249E+02  0.00E+00  -1.5913E-04  1.7248E+02  1.9193E-08  1.9903E-08 -1.5073E-02  4.3825E-04
 25 2.6703E-03 1.5091E+01 1.7234E+02  0.00E+00  -1.3336E-04  1.7233E+02  1.9193E-08  1.9903E-08 -1.2729E-02  4.6427E-04
 26 3.0105E-03 1.4786E+01 1.7223E+02  0.00E+00  -8.1397E-05  1.7222E+02  1.9193E-08  1.9903E-08 -7.9760E-03  4.9004E-04
 27 3.3902E-03 1.4484E+01 1.7215E+02  0.00E+00  -1.1956E-04  1.7215E+02  1.9193E-08  1.9903E-08 -1.1511E-02  5.1556E-04
 28 3.8135E-03 1.4185E+01 1.7210E+02  0.00E+00  -1.1787E-04  1.7209E+02  1.9193E-08  1.9903E-08 -1.1381E-02  5.4083E-04
 29 4.2850E-03 1.3889E+01 1.7206E+02  0.00E+00  -1.2473E-04  1.7205E+02  1.9193E-08  1.9903E-08 -1.2037E-02  5.6585E-04
 30 4.8094E-03 1.3596E+01 1.7203E+02  0.00E+00  -1.3136E-04  1.7203E+02  1.9193E-08  1.9903E-08 -1.2672E-02  5.9062E-04
 31 5.3920E-03 1.3306E+01 1.7201E+02  0.00E+00  -1.3648E-04  1.7201E+02  1.9193E-08  1.9903E-08 -1.3167E-02  6.1514E-04
 32 6.0385E-03 1.3019E+01 1.7200E+02  0.00E+00  -1.4177E-04  1.7200E+02  1.9193E-08  1.9903E-08 -1.3678E-02  6.3939E-04
 33 6.7549E-03 1.2734E+01 1.7199E+02  0.00E+00  -1.4676E-04  1.7199E+02  1.9193E-08  1.9903E-08 -1.4161E-02  6.6339E-04
 34 7.5479E-03 1.2452E+01 1.7198E+02  0.00E+00  -1.5171E-04  1.7198E+02  1.9193E-08  1.9903E-08 -1.4639E-02  6.8712E-04
 35 8.4247E-03 1.2173E+01 1.7198E+02  0.00E+00  -1.5624E-04  1.7198E+02  1.9193E-08  1.9903E-08 -1.5080E-02  7.1059E-04
 36 9.3928E-03 1.1897E+01 1.7198E+02  0.00E+00  -1.6039E-04  1.7198E+02  1.9193E-08  1.9903E-08 -1.5484E-02  7.3378E-04
 37 1.0461E-02 1.1624E+01 1.7198E+02  0.00E+00  -1.6331E-04  1.7198E+02  1.9193E-08  1.9903E-08 -1.5811E-02  7.9197E-04
 38 1.1637E-02 1.1354E+01 1.7197E+02  0.00E+00  -1.6500E-04  1.7197E+02  1.9193E-08  1.9903E-08 -1.6070E-02  8.9542E-04
 39 1.2931E-02 1.1086E+01 1.7197E+02  0.00E+00  -1.6651E-04  1.7197E+02  1.9193E-08  1.9903E-08 -1.6311E-02  9.9764E-04
 40 1.4353E-02 1.0821E+01 1.7197E+02  0.00E+00  -1.6786E-04  1.7197E+02  1.9193E-08  1.9903E-08 -1.6536E-02  1.0986E-03
 41 1.5914E-02 1.0559E+01 1.7197E+02  0.00E+00  -1.6902E-04  1.7197E+02  1.9193E-08  1.9903E-08 -1.6742E-02  1.1983E-03
 42 1.7624E-02 1.0300E+01 1.7197E+02  0.00E+00  -1.6999E-04  1.7197E+02  1.9193E-08  1.9903E-08 -1.6931E-02  1.2966E-03
 43 1.9498E-02 1.0044E+01 1.7197E+02  0.00E+00  -1.7078E-04  1.7197E+02  1.9193E-08  1.9903E-08 -1.7100E-02  1.3936E-03
 44 2.1546E-02 9.7906E+00 1.7197E+02  0.00E+00  -1.7139E-04  1.7197E+02  1.9193E-08  1.9903E-08 -1.7251E-02  1.4891E-03
 45 2.3783E-02 9.5399E+00 1.7197E+02  0.00E+00  -1.7180E-04  1.7197E+02  1.9193E-08  1.9903E-08 -1.7383E-02  1.5831E-03
 46 2.6222E-02 9.2921E+00 1.7197E+02  0.00E+00  -1.7202E-04  1.7197E+02  1.9193E-08  1.9903E-08 -1.7496E-02  1.6755E-03
 47 2.8880E-02 9.0471E+00 1.7197E+02  0.00E+00  -1.7205E-04  1.7197E+02  1.9193E-08  1.9903E-08 -1.7589E-02  1.7663E-03
 48 3.1773E-02 8.8049E+00 1.7197E+02  0.00E+00  -1.7187E-04  1.7197E+02  1.9193E-08  1.9903E-08 -1.7662E-02  1.8554E-03
 49 3.4915E-02 8.5655E+00 1.7197E+02  0.00E+00  -1.7150E-04  1.7197E+02  1.9193E-08  1.9903E-08 -1.7715E-02  1.9426E-03
 50 3.8327E-02 8.3290E+00 1.7197E+02  0.00E+00  -1.7092E-04  1.7197E+02  1.9193E-08  1.9903E-08 -1.7747E-02  2.0279E-03
 51 4.2024E-02 8.0952E+00 1.7197E+02  0.00E+00  -1.7013E-04  1.7197E+02  1.9193E-08  1.9903E-08 -1.7757E-02  2.1112E-03
 52 4.6028E-02 7.8643E+00 1.7197E+02  0.00E+00  -1.6912E-04  1.7197E+02  1.9193E-08  1.9903E-08 -1.7746E-02  2.1923E-03
 53 5.0356E-02 7.6362E+00 1.7197E+02  0.00E+00  -1.6789E-04  1.7197E+02  1.9193E-08  1.9903E-08 -1.7712E-02  2.2711E-03
 54 5.5031E-02 7.4110E+00 1.7197E+02  0.00E+00  -1.6644E-04  1.7197E+02  1.9193E-08  1.9903E-08 -1.7655E-02  2.3476E-03
 55 6.0072E-02 7.1885E+00 1.7197E+02  0.00E+00  -1.6476E-04  1.7197E+02  1.9193E-08  1.9903E-08 -1.7574E-02  2.4214E-03
 56 6.5502E-02 6.9689E+00 1.7197E+02  0.00E+00  -1.6283E-04  1.7197E+02  1.9193E-08  1.9903E-08 -1.7468E-02  2.4925E-03
 57 7.1344E-02 6.7521E+00 1.7197E+02  0.00E+00  -1.6066E-04  1.7197E+02  1.9193E-08  1.9903E-08 -1.7337E-02  2.5608E-03
 58 7.7621E-02 6.5381E+00 1.7197E+02  0.00E+00  -1.5824E-04  1.7197E+02  1.9193E-08  1.9903E-08 -1.7179E-02  2.6259E-03
 59 8.4356E-02 6.3270E+00 1.7197E+02  0.00E+00  -1.5556E-04  1.7197E+02  1.9193E-08  1.9903E-08 -1.6994E-02  2.6879E-03
 60 9.1574E-02 6.1186E+00 1.7198E+02  0.00E+00  -1.5261E-04  1.7198E+02  1.9193E-08  1.9903E-08 -1.6782E-02  2.7464E-03
 61 9.9298E-02 5.9131E+00 1.7198E+02  0.00E+00  -1.4940E-04  1.7198E+02  1.9193E-08  1.9903E-08 -1.6541E-02  2.8013E-03
 62 1.0755E-01 5.7104E+00 1.7198E+02  0.00E+00  -1.4314E-04  1.7198E+02  1.9193E-08  1.9903E-08 -1.6143E-02  2.9784E-03
 63 1.1637E-01 5.5106E+00 1.7198E+02  0.00E+00  -1.3695E-04  1.7198E+02  1.9193E-08  1.9903E-08 -1.5752E-02  3.1578E-03
 64 1.2576E-01 5.3135E+00 1.7198E+02  0.00E+00  -1.3110E-04  1.7198E+02  1.9193E-08  1.9903E-08 -1.5385E-02  3.3280E-03
 65 1.3577E-01 5.1193E+00 1.7198E+02  0.00E+00  -1.2561E-04  1.7198E+02  1.9193E-08  1.9903E-08 -1.5041E-02  3.4884E-03
 66 1.4640E-01 4.9279E+00 1.7198E+02  0.00E+00  -1.2047E-04  1.7198E+02  1.9193E-08  1.9903E-08 -1.4718E-02  3.6385E-03
 67 1.5770E-01 4.7393E+00 1.7198E+02  0.00E+00  -1.1566E-04  1.7198E+02  1.9193E-08  1.9903E-08 -1.4415E-02  3.7777E-03
 68 1.6967E-01 4.5535E+00 1.7198E+02  0.00E+00  -1.1119E-04  1.7198E+02  1.9193E-08  1.9903E-08 -1.4131E-02  3.9055E-03
 69 1.8236E-01 4.3706E+00 1.7198E+02  0.00E+00  -1.0704E-04  1.7198E+02  1.9193E-08  1.9903E-08 -1.3866E-02  4.0214E-03
 70 1.9577E-01 4.1905E+00 1.7198E+02  0.00E+00  -1.0320E-04  1.7198E+02  1.9193E-08  1.9903E-08 -1.3616E-02  4.1249E-03
 71 2.0994E-01 4.0131E+00 1.7198E+02  0.00E+00  -9.9660E-05  1.7198E+02  1.9193E-08  1.9903E-08 -1.3381E-02  4.2157E-03
 72 2.2488E-01 3.8387E+00 1.7198E+02  0.00E+00  -9.6403E-05  1.7198E+02  1.9193E-08  1.9903E-08 -1.3159E-02  4.2935E-03
 73 2.4062E-01 3.6670E+00 1.7199E+02  0.00E+00  -9.3416E-05  1.7199E+02  1.9193E-08  1.9903E-08 -1.2949E-02  4.3580E-03
 74 2.5717E-01 3.4982E+00 1.7199E+02  0.00E+00  -9.0682E-05  1.7199E+02  1.9193E-08  1.9903E-08 -1.2749E-02  4.4093E-03
 75 2.7456E-01 3.3321E+00 1.7199E+02  0.00E+00  -8.8185E-05  1.7199E+02  1.9193E-08  1.9903E-08 -1.2557E-02  4.4472E-03
 76 2.9279E-01 3.1689E+00 1.7200E+02  0.00E+00  -8.5905E-05  1.7200E+02  1.9193E-08  1.9903E-08 -1.2372E-02  4.4720E-03
 77 3.1189E-01 3.0085E+00 1.7200E+02  0.00E+00  -8.4470E-05  1.7200E+02  1.9193E-08  1.9903E-08 -1.2252E-02  4.4839E-03
 78 3.3187E-01 2.8510E+00 1.7201E+02  0.00E+00  -8.2569E-05  1.7201E+02  1.9193E-08  1.9903E-08 -1.2077E-02  4.4833E-03
 79 3.5273E-01 2.6962E+00 1.7202E+02  0.00E+00  -8.0825E-05  1.7202E+02  1.9193E-08  1.9903E-08 -1.1904E-02  4.4708E-03
 80 3.7449E-01 2.5443E+00 1.7203E+02  0.00E+00  -7.9217E-05  1.7203E+02  1.9193E-08  1.9903E-08 -1.1732E-02  4.4470E-03
 81 3.9715E-01 2.3951E+00 1.7205E+02  0.00E+00  -7.7725E-05  1.7205E+02  1.9193E-08  1.9903E-08 -1.1561E-02  4.4127E-03
 82 4.2071E-01 2.2488E+00 1.7207E+02  0.00E+00  -7.6324E-05  1.7207E+02  1.9193E-08  1.9903E-08 -1.1388E-02  4.3689E-03
 83 4.4518E-01 2.1053E+00 1.7210E+02  0.00E+00  -7.4989E-05  1.7210E+02  1.9193E-08  1.9903E-08 -1.1213E-02  4.3164E-03
 84 4.7054E-01 1.9645E+00 1.7214E+02  0.00E+00  -7.3692E-05  1.7213E+02  1.9193E-08  1.9903E-08 -1.1034E-02  4.2564E-03
 85 4.9679E-01 1.8266E+00 1.7218E+02  0.00E+00  -7.2393E-05  1.7218E+02  1.9193E-08  1.9903E-08 -1.0848E-02  4.1900E-03
 86 5.2393E-01 1.6914E+00 1.7223E+02  0.00E+00  -7.1040E-05  1.7223E+02  1.9193E-08  1.9903E-08 -1.0652E-02  4.1184E-03
 87 5.5194E-01 1.5591E+00 1.7229E+02  0.00E+00  -6.9543E-05  1.7229E+02  1.9193E-08  1.9903E-08 -1.0439E-02  4.0428E-03
 88 5.8080E-01 1.4295E+00 1.7237E+02  0.00E+00  -6.7750E-05  1.7236E+02  1.9193E-08  1.9903E-08 -1.0195E-02  3.9644E-03
 89 6.1048E-01 1.3027E+00 1.7245E+02  0.00E+00  -6.5696E-05  1.7244E+02  1.9193E-08  1.9903E-08 -9.9264E-03  3.8844E-03
 90 6.4098E-01 1.1786E+00 1.7255E+02  0.00E+00  -6.4172E-05  1.7255E+02  1.9193E-08  1.9903E-08 -9.7057E-03  3.8040E-03
 91 6.7224E-01 1.0573E+00 1.7272E+02  0.00E+00  -1.1449E-01  1.7277E+02  1.9307E-08  1.9903E-08 -9.6814E-03  3.7264E-03
 92 7.0425E-01 9.3861E-01 1.7303E+02  0.00E+00  -1.1449E-01  1.7314E+02  1.9765E-08  1.9903E-08 -1.1104E-02  3.6617E-03
 93 7.3696E-01 8.2216E-01 1.7460E+02  0.00E+00  -1.1449E-01  1.7472E+02  2.6007E-08  1.9903E-08 -1.6993E-02  3.6697E-03
 94 7.7034E-01 7.0731E-01 1.7685E+02  1.00E+00  -1.1449E-01  1.7697E+02  3.8916E-08  1.9903E-08 -2.8152E-02  3.7721E-03
 95 8.0433E-01 5.9392E-01 1.7908E+02  1.00E+00  -1.1449E-01  1.7919E+02  5.7326E-08  1.9903E-08 -4.4425E-02  3.9635E-03
 96 8.3888E-01 4.8207E-01 1.8127E+02  1.00E+00  -1.1449E-01  1.8139E+02  8.3170E-08  2.9247E-08 -6.6672E-02  4.2709E-03
 97 8.7395E-01 3.7187E-01 1.8343E+02  1.00E+00  -1.1449E-01  1.8355E+02  1.1890E-07  4.2328E-08 -9.6485E-02  4.7329E-03
 98 9.0948E-01 2.6340E-01 1.8556E+02  1.00E+00  -1.1449E-01  1.8567E+02  1.6757E-07  6.0362E-08 -1.3505E-01  5.3974E-03
 99 9.4540E-01 1.5675E-01 1.8765E+02  1.00E+00  -1.1449E-01  1.8776E+02  2.3290E-07  8.4856E-08 -1.8332E-01  6.3226E-03
100 9.8164E-01 5.2014E-02 1.8970E+02  1.00E+00  -1.1449E-01  1.8981E+02  3.1939E-07  1.1764E-07 -2.3746E-01  7.5803E-03
101 1.0000E+00 0.0000E+00 1.9072E+02  1.00E+00  -1.1449E-01  1.9083E+02  3.7261E-07  1.3798E-07  0.0000E+00  0.0000E+00

 FCO2
  1.17E-07 1.17E-07 1.17E-07 1.17E-07 1.17E-07 1.17E-07 1.17E-07 1.17E-07 1.17E-07 1.17E-07
  1.17E-07 1.17E-07 1.17E-07 1.17E-07 1.17E-07 1.17E-07 1.17E-07 1.17E-07 1.17E-07 1.17E-07
  1.17E-07 1.17E-07 1.17E-07 1.17E-07 1.17E-07 1.17E-07 1.17E-07 1.17E-07 1.17E-07 1.17E-07
  1.17E-07 1.17E-07 1.17E-07 1.17E-07 1.17E-07 1.17E-07 1.17E-07 1.17E-07 1.17E-07 1.17E-07
  1.17E-07 1.17E-07 1.17E-07 1.17E-07 1.17E-07 1.17E-07 1.17E-07 1.17E-07 1.17E-07 1.17E-07
  1.17E-07 1.17E-07 1.17E-07 1.17E-07 1.17E-07 1.17E-07 1.17E-07 1.17E-07 1.17E-07 1.17E-07
  1.17E-07 1.17E-07 1.17E-07 1.17E-07 1.17E-07 1.17E-07 1.17E-07 1.17E-07 1.17E-07 1.17E-07
  1.17E-07 1.17E-07 1.17E-07 1.17E-07 1.17E-07 1.17E-07 1.17E-07 1.17E-07 1.17E-07 1.17E-07
  1.17E-07 1.17E-07 1.17E-07 1.17E-07 1.17E-07 1.17E-07 1.17E-07 1.17E-07 1.17E-07 1.17E-07
  1.17E-07 1.17E-07 1.17E-07 1.17E-07 1.17E-07 1.17E-07 1.17E-07 1.17E-07 1.17E-07 1.17E-07
  1.17E-07

  J    PF         ALT       FTOTAL       FTIR       FDNIR       FUPIR       FTSOL       FDNSOL       FUPSOL       DIVF
  1 1.0000E-04 2.4207E+01 -4.5030E+02 -7.5055E+04  0.0000E+00  7.5055E+04  7.4605E+04  1.0397E+05  2.9367E+04 -5.9995E-03
  2 1.1585E-04 2.3697E+01 -1.6254E+02 -7.4767E+04  1.3347E+01  7.4781E+04  7.4605E+04  1.0397E+05  2.9367E+04 -2.1736E-03
  3 1.3407E-04 2.3201E+01 -9.7380E+01 -7.4702E+04 -2.7112E+02  7.4431E+04  7.4605E+04  1.0397E+05  2.9367E+04 -1.3083E-03
  4 1.5497E-04 2.2721E+01 -1.7411E+02 -7.4779E+04 -2.0090E+02  7.4578E+04  7.4605E+04  1.0397E+05  2.9367E+04 -2.3346E-03
  5 1.7894E-04 2.2258E+01 -2.8316E+02 -7.4888E+04 -2.2341E+02  7.4665E+04  7.4605E+04  1.0397E+05  2.9367E+04 -3.7924E-03
  6 2.0639E-04 2.1812E+01 -8.5295E+01 -7.4690E+04 -1.2986E+02  7.4560E+04  7.4605E+04  1.0397E+05  2.9367E+04 -1.1440E-03
  7 2.3778E-04 2.1381E+01  5.8848E+00 -7.4599E+04 -7.6740E+01  7.4522E+04  7.4605E+04  1.0397E+05  2.9367E+04  7.8966E-05
  8 2.7364E-04 2.0963E+01  1.4949E+02 -7.4455E+04 -1.4583E+00  7.4454E+04  7.4605E+04  1.0397E+05  2.9367E+04  2.0078E-03
  9 3.1456E-04 2.0558E+01  1.8623E+02 -7.4419E+04  4.4738E+00  7.4423E+04  7.4605E+04  1.0397E+05  2.9367E+04  2.5022E-03
 10 3.6120E-04 2.0164E+01  1.9139E+02 -7.4414E+04  6.7503E-01  7.4414E+04  7.4605E+04  1.0397E+05  2.9367E+04  2.5719E-03
 11 4.1429E-04 1.9781E+01  8.1532E+01 -7.4523E+04 -8.7757E+01  7.4436E+04  7.4605E+04  1.0397E+05  2.9367E+04  1.0953E-03
 12 4.7466E-04 1.9408E+01  1.3404E+02 -7.4471E+04 -6.0125E+01  7.4411E+04  7.4605E+04  1.0397E+05  2.9367E+04  1.8014E-03
 13 5.4321E-04 1.9043E+01  1.4455E+02 -7.4460E+04 -5.8137E+01  7.4402E+04  7.4605E+04  1.0397E+05  2.9367E+04  1.9428E-03
 14 6.2098E-04 1.8685E+01  1.2822E+02 -7.4477E+04 -7.4217E+01  7.4402E+04  7.4605E+04  1.0397E+05  2.9367E+04  1.7234E-03
 15 7.0909E-04 1.8335E+01  1.4181E+02 -7.4463E+04 -7.5552E+01  7.4388E+04  7.4605E+04  1.0397E+05  2.9366E+04  1.9063E-03
 16 8.0881E-04 1.7990E+01  1.4871E+02 -7.4456E+04 -7.7104E+01  7.4379E+04  7.4605E+04  1.0397E+05  2.9366E+04  1.9993E-03
 17 9.2152E-04 1.7652E+01  1.5749E+02 -7.4447E+04 -7.6184E+01  7.4371E+04  7.4605E+04  1.0397E+05  2.9366E+04  2.1176E-03
 18 1.0488E-03 1.7318E+01  1.5614E+02 -7.4449E+04 -7.7666E+01  7.4371E+04  7.4605E+04  1.0397E+05  2.9366E+04  2.0994E-03
 19 1.1923E-03 1.6988E+01  1.5611E+02 -7.4449E+04 -7.8233E+01  7.4371E+04  7.4605E+04  1.0397E+05  2.9366E+04  2.0991E-03
 20 1.3539E-03 1.6663E+01  1.5819E+02 -7.4447E+04 -7.7922E+01  7.4369E+04  7.4605E+04  1.0397E+05  2.9366E+04  2.1271E-03
 21 1.5357E-03 1.6342E+01  1.5834E+02 -7.4447E+04 -7.8044E+01  7.4369E+04  7.4605E+04  1.0397E+05  2.9366E+04  2.1292E-03
 22 1.7401E-03 1.6024E+01  1.5910E+02 -7.4446E+04 -7.8001E+01  7.4368E+04  7.4605E+04  1.0397E+05  2.9366E+04  2.1393E-03
 23 1.9694E-03 1.5710E+01  1.5930E+02 -7.4446E+04 -7.8041E+01  7.4368E+04  7.4605E+04  1.0397E+05  2.9366E+04  2.1421E-03
 24 2.2264E-03 1.5399E+01  1.5941E+02 -7.4445E+04 -7.7846E+01  7.4368E+04  7.4605E+04  1.0397E+05  2.9366E+04  2.1436E-03
 25 2.5142E-03 1.5091E+01  1.5966E+02 -7.4445E+04 -7.7762E+01  7.4367E+04  7.4605E+04  1.0397E+05  2.9366E+04  2.1469E-03
 26 2.8361E-03 1.4786E+01  1.5990E+02 -7.4445E+04 -7.7550E+01  7.4367E+04  7.4605E+04  1.0397E+05  2.9365E+04  2.1501E-03
 27 3.1956E-03 1.4484E+01  1.6006E+02 -7.4445E+04 -7.7362E+01  7.4367E+04  7.4605E+04  1.0397E+05  2.9365E+04  2.1522E-03
 28 3.5966E-03 1.4185E+01  1.6032E+02 -7.4445E+04 -7.7087E+01  7.4367E+04  7.4605E+04  1.0397E+05  2.9365E+04  2.1558E-03
 29 4.0435E-03 1.3889E+01  1.6061E+02 -7.4444E+04 -7.6776E+01  7.4367E+04  7.4605E+04  1.0397E+05  2.9365E+04  2.1596E-03
 30 4.5409E-03 1.3596E+01  1.6094E+02 -7.4444E+04 -7.6408E+01  7.4367E+04  7.4605E+04  1.0397E+05  2.9365E+04  2.1642E-03
 31 5.0938E-03 1.3306E+01  1.6134E+02 -7.4443E+04 -7.5978E+01  7.4367E+04  7.4605E+04  1.0397E+05  2.9364E+04  2.1695E-03
 32 5.7077E-03 1.3019E+01  1.6180E+02 -7.4443E+04 -7.5479E+01  7.4368E+04  7.4605E+04  1.0397E+05  2.9364E+04  2.1756E-03
 33 6.3884E-03 1.2734E+01  1.6232E+02 -7.4442E+04 -7.4904E+01  7.4368E+04  7.4605E+04  1.0397E+05  2.9364E+04  2.1827E-03
 34 7.1424E-03 1.2452E+01  1.6293E+02 -7.4442E+04 -7.4242E+01  7.4368E+04  7.4605E+04  1.0397E+05  2.9363E+04  2.1908E-03
 35 7.9765E-03 1.2173E+01  1.6362E+02 -7.4441E+04 -7.3485E+01  7.4368E+04  7.4605E+04  1.0397E+05  2.9363E+04  2.2001E-03
 36 8.8981E-03 1.1897E+01  1.6440E+02 -7.4440E+04 -7.2623E+01  7.4368E+04  7.4605E+04  1.0397E+05  2.9363E+04  2.2107E-03
 37 9.9151E-03 1.1624E+01  1.6529E+02 -7.4439E+04 -7.1646E+01  7.4368E+04  7.4605E+04  1.0397E+05  2.9362E+04  2.2227E-03
 38 1.1036E-02 1.1354E+01  1.6629E+02 -7.4438E+04 -7.0542E+01  7.4368E+04  7.4605E+04  1.0397E+05  2.9362E+04  2.2361E-03
 39 1.2270E-02 1.1086E+01  1.6740E+02 -7.4437E+04 -6.9301E+01  7.4368E+04  7.4605E+04  1.0397E+05  2.9361E+04  2.2510E-03
 40 1.3627E-02 1.0821E+01  1.6864E+02 -7.4436E+04 -6.7908E+01  7.4368E+04  7.4604E+04  1.0396E+05  2.9360E+04  2.2676E-03
 41 1.5117E-02 1.0559E+01  1.7000E+02 -7.4434E+04 -6.6349E+01  7.4368E+04  7.4604E+04  1.0396E+05  2.9360E+04  2.2860E-03
 42 1.6752E-02 1.0300E+01  1.7151E+02 -7.4433E+04 -6.4609E+01  7.4368E+04  7.4604E+04  1.0396E+05  2.9359E+04  2.3062E-03
 43 1.8543E-02 1.0044E+01  1.7317E+02 -7.4431E+04 -6.2672E+01  7.4368E+04  7.4604E+04  1.0396E+05  2.9358E+04  2.3286E-03
 44 2.0502E-02 9.7906E+00  1.7500E+02 -7.4429E+04 -6.0521E+01  7.4368E+04  7.4604E+04  1.0396E+05  2.9357E+04  2.3531E-03
 45 2.2643E-02 9.5399E+00  1.7700E+02 -7.4427E+04 -5.8138E+01  7.4369E+04  7.4604E+04  1.0396E+05  2.9356E+04  2.3800E-03
 46 2.4980E-02 9.2921E+00  1.7919E+02 -7.4424E+04 -5.5505E+01  7.4369E+04  7.4604E+04  1.0396E+05  2.9355E+04  2.4095E-03
 47 2.7527E-02 9.0471E+00  1.8158E+02 -7.4422E+04 -5.2602E+01  7.4369E+04  7.4603E+04  1.0396E+05  2.9354E+04  2.4416E-03
 48 3.0300E-02 8.8049E+00  1.8418E+02 -7.4419E+04 -4.9411E+01  7.4369E+04  7.4603E+04  1.0396E+05  2.9352E+04  2.4766E-03
 49 3.3316E-02 8.5655E+00  1.8701E+02 -7.4416E+04 -4.5909E+01  7.4370E+04  7.4603E+04  1.0395E+05  2.9351E+04  2.5146E-03
 50 3.6592E-02 8.3290E+00  1.9008E+02 -7.4412E+04 -4.2076E+01  7.4370E+04  7.4602E+04  1.0395E+05  2.9349E+04  2.5558E-03
 51 4.0144E-02 8.0952E+00  1.9339E+02 -7.4408E+04 -3.7892E+01  7.4371E+04  7.4602E+04  1.0395E+05  2.9348E+04  2.6004E-03
 52 4.3993E-02 7.8643E+00  1.9696E+02 -7.4404E+04 -3.3333E+01  7.4371E+04  7.4601E+04  1.0395E+05  2.9346E+04  2.6484E-03
 53 4.8157E-02 7.6362E+00  2.0081E+02 -7.4400E+04 -2.8380E+01  7.4372E+04  7.4601E+04  1.0394E+05  2.9344E+04  2.7001E-03
 54 5.2656E-02 7.4110E+00  2.0493E+02 -7.4395E+04 -2.3010E+01  7.4372E+04  7.4600E+04  1.0394E+05  2.9342E+04  2.7555E-03
 55 5.7512E-02 7.1885E+00  2.0934E+02 -7.4390E+04 -1.7202E+01  7.4373E+04  7.4600E+04  1.0394E+05  2.9339E+04  2.8147E-03
 56 6.2746E-02 6.9689E+00  2.1405E+02 -7.4385E+04 -1.0935E+01  7.4374E+04  7.4599E+04  1.0394E+05  2.9337E+04  2.8780E-03
 57 6.8380E-02 6.7521E+00  2.1905E+02 -7.4379E+04 -4.1912E+00  7.4375E+04  7.4598E+04  1.0393E+05  2.9334E+04  2.9453E-03
 58 7.4437E-02 6.5381E+00  2.2436E+02 -7.4373E+04  3.0491E+00  7.4376E+04  7.4597E+04  1.0393E+05  2.9331E+04  3.0166E-03
 59 8.0941E-02 6.3270E+00  2.2998E+02 -7.4366E+04  1.0802E+01  7.4377E+04  7.4596E+04  1.0392E+05  2.9328E+04  3.0921E-03
 60 8.7915E-02 6.1186E+00  2.3590E+02 -7.4359E+04  1.9084E+01  7.4378E+04  7.4595E+04  1.0392E+05  2.9325E+04  3.1716E-03
 61 9.5384E-02 5.9131E+00  2.4212E+02 -7.4352E+04  2.7907E+01  7.4379E+04  7.4594E+04  1.0392E+05  2.9322E+04  3.2552E-03
 62 1.0337E-01 5.7104E+00  2.4863E+02 -7.4344E+04  3.7283E+01  7.4381E+04  7.4592E+04  1.0391E+05  2.9318E+04  3.3427E-03
 63 1.1191E-01 5.5106E+00  2.5530E+02 -7.4336E+04  4.7195E+01  7.4383E+04  7.4591E+04  1.0390E+05  2.9314E+04  3.4322E-03
 64 1.2101E-01 5.3135E+00  2.6210E+02 -7.4327E+04  5.7669E+01  7.4385E+04  7.4589E+04  1.0390E+05  2.9310E+04  3.5236E-03
 65 1.3071E-01 5.1193E+00  2.6904E+02 -7.4318E+04  6.8734E+01  7.4387E+04  7.4587E+04  1.0389E+05  2.9305E+04  3.6167E-03
 66 1.4102E-01 4.9279E+00  2.7611E+02 -7.4309E+04  8.0421E+01  7.4389E+04  7.4585E+04  1.0389E+05  2.9300E+04  3.7117E-03
 67 1.5199E-01 4.7393E+00  2.8332E+02 -7.4299E+04  9.2761E+01  7.4392E+04  7.4583E+04  1.0388E+05  2.9295E+04  3.8084E-03
 68 1.6362E-01 4.5535E+00  2.9066E+02 -7.4289E+04  1.0579E+02  7.4395E+04  7.4580E+04  1.0387E+05  2.9290E+04  3.9070E-03
 69 1.7595E-01 4.3706E+00  2.9814E+02 -7.4279E+04  1.1954E+02  7.4399E+04  7.4577E+04  1.0386E+05  2.9284E+04  4.0073E-03
 70 1.8900E-01 4.1905E+00  3.0576E+02 -7.4268E+04  1.3404E+02  7.4402E+04  7.4574E+04  1.0385E+05  2.9278E+04  4.1096E-03
 71 2.0279E-01 4.0131E+00  3.1353E+02 -7.4257E+04  1.4933E+02  7.4407E+04  7.4571E+04  1.0384E+05  2.9271E+04  4.2137E-03
 72 2.1734E-01 3.8387E+00  3.2144E+02 -7.4246E+04  1.6545E+02  7.4411E+04  7.4567E+04  1.0383E+05  2.9265E+04  4.3198E-03
 73 2.3268E-01 3.6670E+00  3.2951E+02 -7.4234E+04  1.8242E+02  7.4416E+04  7.4563E+04  1.0382E+05  2.9257E+04  4.4280E-03
 74 2.4883E-01 3.4982E+00  3.3774E+02 -7.4221E+04  2.0029E+02  7.4422E+04  7.4559E+04  1.0381E+05  2.9250E+04  4.5382E-03
 75 2.6580E-01 3.3321E+00  3.4614E+02 -7.4208E+04  2.1909E+02  7.4428E+04  7.4555E+04  1.0380E+05  2.9242E+04  4.6507E-03
 76 2.8361E-01 3.1689E+00  3.5471E+02 -7.4195E+04  2.3884E+02  7.4434E+04  7.4550E+04  1.0378E+05  2.9234E+04  4.7654E-03
 77 3.0228E-01 3.0085E+00  3.6346E+02 -7.4181E+04  2.5959E+02  7.4441E+04  7.4545E+04  1.0377E+05  2.9225E+04  4.8825E-03
 78 3.2181E-01 2.8510E+00  3.7247E+02 -7.4167E+04  2.8144E+02  7.4449E+04  7.4540E+04  1.0376E+05  2.9216E+04  5.0030E-03
 79 3.4224E-01 2.6962E+00  3.8167E+02 -7.4153E+04  3.0435E+02  7.4457E+04  7.4534E+04  1.0374E+05  2.9207E+04  5.1260E-03
 80 3.6355E-01 2.5443E+00  3.9107E+02 -7.4138E+04  3.2833E+02  7.4466E+04  7.4529E+04  1.0373E+05  2.9197E+04  5.2517E-03
 81 3.8576E-01 2.3951E+00  4.0067E+02 -7.4122E+04  3.5341E+02  7.4476E+04  7.4523E+04  1.0371E+05  2.9187E+04  5.3799E-03
 82 4.0887E-01 2.2488E+00  4.1047E+02 -7.4106E+04  3.7960E+02  7.4486E+04  7.4517E+04  1.0369E+05  2.9176E+04  5.5108E-03
 83 4.3289E-01 2.1053E+00  4.2048E+02 -7.4090E+04  4.0693E+02  7.4497E+04  7.4511E+04  1.0368E+05  2.9165E+04  5.6442E-03
 84 4.5781E-01 1.9645E+00  4.3067E+02 -7.4073E+04  4.3539E+02  7.4509E+04  7.4504E+04  1.0366E+05  2.9154E+04  5.7802E-03
 85 4.8362E-01 1.8266E+00  4.4105E+02 -7.4057E+04  4.6501E+02  7.4522E+04  7.4498E+04  1.0364E+05  2.9142E+04  5.9185E-03
 86 5.1033E-01 1.6914E+00  4.5160E+02 -7.4039E+04  4.9579E+02  7.4535E+04  7.4491E+04  1.0362E+05  2.9130E+04  6.0589E-03
 87 5.3790E-01 1.5591E+00  4.6229E+02 -7.4022E+04  5.2773E+02  7.4550E+04  7.4484E+04  1.0360E+05  2.9118E+04  6.2012E-03
 88 5.6634E-01 1.4295E+00  4.7309E+02 -7.4004E+04  5.6082E+02  7.4565E+04  7.4477E+04  1.0358E+05  2.9105E+04  6.3446E-03
 89 5.9562E-01 1.3027E+00  4.8391E+02 -7.3987E+04  5.9504E+02  7.4582E+04  7.4471E+04  1.0356E+05  2.9092E+04  6.4883E-03
 90 6.2572E-01 1.1786E+00  4.9470E+02 -7.3969E+04  6.3039E+02  7.4599E+04  7.4464E+04  1.0354E+05  2.9078E+04  6.6315E-03
 91 6.5660E-01 1.0573E+00  5.0552E+02 -7.3951E+04  6.6695E+02  7.4618E+04  7.4457E+04  1.0352E+05  2.9064E+04  6.7747E-03
 92 6.8825E-01 9.3861E-01  5.1670E+02 -7.3933E+04  7.0507E+02  7.4638E+04  7.4450E+04  1.0350E+05  2.9050E+04  6.9228E-03
 93 7.2062E-01 8.2216E-01  5.3100E+02 -7.3912E+04  7.4697E+02  7.4659E+04  7.4443E+04  1.0348E+05  2.9036E+04  7.1123E-03
 94 7.5367E-01 7.0731E-01  5.5713E+02 -7.3878E+04  8.0146E+02  7.4680E+04  7.4435E+04  1.0346E+05  2.9021E+04  7.4603E-03
 95 7.8737E-01 5.9392E-01  6.0590E+02 -7.3822E+04  8.7998E+02  7.4702E+04  7.4428E+04  1.0343E+05  2.9006E+04  8.1108E-03
 96 8.2165E-01 4.8207E-01  6.8826E+02 -7.3732E+04  9.9381E+02  7.4725E+04  7.4420E+04  1.0341E+05  2.8991E+04  9.2106E-03
 97 8.5648E-01 3.7187E-01  8.1732E+02 -7.3594E+04  1.1559E+03  7.4749E+04  7.4411E+04  1.0339E+05  2.8976E+04  1.0934E-02
 98 8.9179E-01 2.6340E-01  1.0098E+03 -7.3391E+04  1.3822E+03  7.4773E+04  7.4401E+04  1.0336E+05  2.8961E+04  1.3504E-02
 99 9.2752E-01 1.5675E-01  1.2850E+03 -7.3105E+04  1.6904E+03  7.4795E+04  7.4390E+04  1.0334E+05  2.8946E+04  1.7181E-02
100 9.6361E-01 5.2014E-02  1.6646E+03 -7.2711E+04  2.0985E+03  7.4810E+04  7.4376E+04  1.0331E+05  2.8932E+04  2.2252E-02
101 1.0000E+00 0.0000E+00  2.1618E+03 -7.2198E+04  2.6173E+03  7.4815E+04  7.4360E+04  1.0328E+05  2.8918E+04  2.8895E-02
 
