 
    OUTPUT FILES FOR THE Sun  
 
 Solar Constant= 0.323   F_CH4= 1.0000E-60  F_CO2= 9.5300E-01  F_O2= 1.0000E-60  F_N2= 1.0000E+00  IO3 =  0   IUP=  1
 ICONSERV= 0  FAC= 4.0  ND=101  SRFALB= 0.200  G= 373.0  IMW= 0

 FNO2 = 1.000E-60
 
 NST=     1 JCONV=  0 CHG=0.00E+00 dt0=5.00E+03 DIVF(1)= 0.00E+00 DIVFrms= 0.00E+00 DT(ND)= 0.00E+00 T(ND)=2.5000E+02

 TIME= 5.000E+03  TIME IN DAYS = 5.787E-02

 PLANETARY ALBEDO:  ALBP = 0.2782

  J     P         ALT         T        CONVEC       DT          TOLD        FH20       FSAVE       TCOOL       THEAT
  1 5.3818E-05 8.1881E+01 1.6700E+02  0.00E+00   0.0000E+00  1.6700E+02  1.0000E-30  1.0000E-30  0.0000E+00  0.0000E+00
  2 6.2316E-05 8.0620E+01 1.6700E+02  0.00E+00   0.0000E+00  1.6700E+02  1.0000E-30  1.0000E-30  0.0000E+00  0.0000E+00
  3 7.2076E-05 7.9369E+01 1.6700E+02  0.00E+00   0.0000E+00  1.6700E+02  1.0000E-30  1.0000E-30  0.0000E+00  0.0000E+00
  4 8.3271E-05 7.8128E+01 1.6700E+02  0.00E+00   0.0000E+00  1.6700E+02  1.0000E-30  1.0000E-30  0.0000E+00  0.0000E+00
  5 9.6099E-05 7.6896E+01 1.6700E+02  0.00E+00   0.0000E+00  1.6700E+02  1.0000E-30  1.0000E-30  0.0000E+00  0.0000E+00
  6 1.1078E-04 7.5673E+01 1.6700E+02  0.00E+00   0.0000E+00  1.6700E+02  1.0000E-30  1.0000E-30  0.0000E+00  0.0000E+00
  7 1.2756E-04 7.4460E+01 1.6700E+02  0.00E+00   0.0000E+00  1.6700E+02  1.0000E-30  1.0000E-30  0.0000E+00  0.0000E+00
  8 1.4672E-04 7.3257E+01 1.6700E+02  0.00E+00   0.0000E+00  1.6700E+02  1.0000E-30  1.0000E-30  0.0000E+00  0.0000E+00
  9 1.6857E-04 7.2063E+01 1.6700E+02  0.00E+00   0.0000E+00  1.6700E+02  1.0000E-30  1.0000E-30  0.0000E+00  0.0000E+00
 10 1.9346E-04 7.0879E+01 1.6700E+02  0.00E+00   0.0000E+00  1.6700E+02  1.0000E-30  1.0000E-30  0.0000E+00  0.0000E+00
 11 2.2178E-04 6.9704E+01 1.6700E+02  0.00E+00   0.0000E+00  1.6700E+02  1.0000E-30  1.0000E-30  0.0000E+00  0.0000E+00
 12 2.5396E-04 6.8539E+01 1.6700E+02  0.00E+00   0.0000E+00  1.6700E+02  1.0000E-30  1.0000E-30  0.0000E+00  0.0000E+00
 13 2.9048E-04 6.7384E+01 1.6700E+02  0.00E+00   0.0000E+00  1.6700E+02  1.0000E-30  1.0000E-30  0.0000E+00  0.0000E+00
 14 3.3189E-04 6.6238E+01 1.6700E+02  0.00E+00   0.0000E+00  1.6700E+02  1.0000E-30  1.0000E-30  0.0000E+00  0.0000E+00
 15 3.7878E-04 6.5101E+01 1.6700E+02  0.00E+00   0.0000E+00  1.6700E+02  1.0000E-30  1.0000E-30  0.0000E+00  0.0000E+00
 16 4.3182E-04 6.3975E+01 1.6700E+02  0.00E+00   0.0000E+00  1.6700E+02  1.0000E-30  1.0000E-30  0.0000E+00  0.0000E+00
 17 4.9173E-04 6.2857E+01 1.6700E+02  0.00E+00   0.0000E+00  1.6700E+02  1.0000E-30  1.0000E-30  0.0000E+00  0.0000E+00
 18 5.5934E-04 6.1750E+01 1.6700E+02  0.00E+00   0.0000E+00  1.6700E+02  1.0000E-30  1.0000E-30  0.0000E+00  0.0000E+00
 19 6.3553E-04 6.0651E+01 1.6700E+02  0.00E+00   0.0000E+00  1.6700E+02  1.0000E-30  1.0000E-30  0.0000E+00  0.0000E+00
 20 7.2130E-04 5.9563E+01 1.6700E+02  0.00E+00   0.0000E+00  1.6700E+02  1.0000E-30  1.0000E-30  0.0000E+00  0.0000E+00
 21 8.1773E-04 5.8484E+01 1.6700E+02  0.00E+00   0.0000E+00  1.6700E+02  1.0000E-30  1.0000E-30  0.0000E+00  0.0000E+00
 22 9.2603E-04 5.7414E+01 1.6700E+02  0.00E+00   0.0000E+00  1.6700E+02  1.0000E-30  1.0000E-30  0.0000E+00  0.0000E+00
 23 1.0475E-03 5.6355E+01 1.6700E+02  0.00E+00   0.0000E+00  1.6700E+02  1.0000E-30  1.0000E-30  0.0000E+00  0.0000E+00
 24 1.1836E-03 5.5304E+01 1.6700E+02  0.00E+00   0.0000E+00  1.6700E+02  1.0000E-30  1.0000E-30  0.0000E+00  0.0000E+00
 25 1.3359E-03 5.4263E+01 1.6700E+02  0.00E+00   0.0000E+00  1.6700E+02  1.0000E-30  1.0000E-30  0.0000E+00  0.0000E+00
 26 1.5061E-03 5.3232E+01 1.6700E+02  0.00E+00   0.0000E+00  1.6700E+02  1.0000E-30  1.0000E-30  0.0000E+00  0.0000E+00
 27 1.6961E-03 5.2211E+01 1.6700E+02  0.00E+00   0.0000E+00  1.6700E+02  1.0000E-30  1.0000E-30  0.0000E+00  0.0000E+00
 28 1.9079E-03 5.1199E+01 1.6700E+02  0.00E+00   0.0000E+00  1.6700E+02  1.0000E-30  1.0000E-30  0.0000E+00  0.0000E+00
 29 2.1438E-03 5.0196E+01 1.6700E+02  0.00E+00   0.0000E+00  1.6700E+02  1.0000E-30  1.0000E-30  0.0000E+00  0.0000E+00
 30 2.4063E-03 4.9203E+01 1.6700E+02  0.00E+00   0.0000E+00  1.6700E+02  1.0000E-30  1.0000E-30  0.0000E+00  0.0000E+00
 31 2.6978E-03 4.8220E+01 1.6700E+02  0.00E+00   0.0000E+00  1.6700E+02  1.0000E-30  1.0000E-30  0.0000E+00  0.0000E+00
 32 3.0213E-03 4.7246E+01 1.6700E+02  0.00E+00   0.0000E+00  1.6700E+02  1.0000E-30  1.0000E-30  0.0000E+00  0.0000E+00
 33 3.3798E-03 4.6282E+01 1.6700E+02  0.00E+00   0.0000E+00  1.6700E+02  1.0000E-30  1.0000E-30  0.0000E+00  0.0000E+00
 34 3.7767E-03 4.5327E+01 1.6700E+02  0.00E+00   0.0000E+00  1.6700E+02  1.0000E-30  1.0000E-30  0.0000E+00  0.0000E+00
 35 4.2154E-03 4.4382E+01 1.6700E+02  0.00E+00   0.0000E+00  1.6700E+02  1.0000E-30  1.0000E-30  0.0000E+00  0.0000E+00
 36 4.7000E-03 4.3446E+01 1.6700E+02  0.00E+00   0.0000E+00  1.6700E+02  1.0000E-30  1.0000E-30  0.0000E+00  0.0000E+00
 37 5.2343E-03 4.2520E+01 1.6700E+02  0.00E+00   0.0000E+00  1.6700E+02  1.0000E-30  1.0000E-30  0.0000E+00  0.0000E+00
 38 5.8230E-03 4.1604E+01 1.6700E+02  0.00E+00   0.0000E+00  1.6700E+02  1.0000E-30  1.0000E-30  0.0000E+00  0.0000E+00
 39 6.4707E-03 4.0697E+01 1.6700E+02  0.00E+00   0.0000E+00  1.6700E+02  1.0000E-30  1.0000E-30  0.0000E+00  0.0000E+00
 40 7.1824E-03 3.9800E+01 1.6700E+02  0.00E+00   0.0000E+00  1.6700E+02  1.0000E-30  1.0000E-30  0.0000E+00  0.0000E+00
 41 7.9635E-03 3.8912E+01 1.6700E+02  0.00E+00   0.0000E+00  1.6700E+02  1.0000E-30  1.0000E-30  0.0000E+00  0.0000E+00
 42 8.8198E-03 3.8034E+01 1.6700E+02  0.00E+00   0.0000E+00  1.6700E+02  1.0000E-30  1.0000E-30  0.0000E+00  0.0000E+00
 43 9.7573E-03 3.7165E+01 1.6700E+02  0.00E+00   0.0000E+00  1.6700E+02  1.0000E-30  1.0000E-30  0.0000E+00  0.0000E+00
 44 1.0782E-02 3.6306E+01 1.6700E+02  0.00E+00   0.0000E+00  1.6700E+02  1.0000E-30  1.0000E-30  0.0000E+00  0.0000E+00
 45 1.1902E-02 3.5456E+01 1.6700E+02  0.00E+00   0.0000E+00  1.6700E+02  1.0000E-30  1.0000E-30  0.0000E+00  0.0000E+00
 46 1.3123E-02 3.4617E+01 1.6700E+02  0.00E+00   0.0000E+00  1.6700E+02  1.0000E-30  1.0000E-30  0.0000E+00  0.0000E+00
 47 1.4454E-02 3.3786E+01 1.6700E+02  0.00E+00   0.0000E+00  1.6700E+02  1.0000E-30  1.0000E-30  0.0000E+00  0.0000E+00
 48 1.5901E-02 3.2965E+01 1.6700E+02  0.00E+00   0.0000E+00  1.6700E+02  1.0000E-30  1.0000E-30  0.0000E+00  0.0000E+00
 49 1.7475E-02 3.2154E+01 1.6700E+02  0.00E+00   0.0000E+00  1.6700E+02  1.0000E-30  1.0000E-30  0.0000E+00  0.0000E+00
 50 1.9182E-02 3.1352E+01 1.6700E+02  0.00E+00   0.0000E+00  1.6700E+02  1.0000E-30  1.0000E-30  0.0000E+00  0.0000E+00
 51 2.1033E-02 3.0560E+01 1.6700E+02  0.00E+00   0.0000E+00  1.6700E+02  1.0000E-30  1.0000E-30  0.0000E+00  0.0000E+00
 52 2.3037E-02 2.9778E+01 1.6700E+02  0.00E+00   0.0000E+00  1.6700E+02  1.0000E-30  1.0000E-30  0.0000E+00  0.0000E+00
 53 2.5204E-02 2.9005E+01 1.6700E+02  0.00E+00   0.0000E+00  1.6700E+02  1.0000E-30  1.0000E-30  0.0000E+00  0.0000E+00
 54 2.7544E-02 2.8241E+01 1.6700E+02  0.00E+00   0.0000E+00  1.6700E+02  1.0000E-30  1.0000E-30  0.0000E+00  0.0000E+00
 55 3.0068E-02 2.7487E+01 1.6700E+02  0.00E+00   0.0000E+00  1.6700E+02  1.0000E-30  1.0000E-30  0.0000E+00  0.0000E+00
 56 3.2786E-02 2.6743E+01 1.6700E+02  0.00E+00   0.0000E+00  1.6700E+02  1.0000E-30  1.0000E-30  0.0000E+00  0.0000E+00
 57 3.5711E-02 2.6008E+01 1.6700E+02  0.00E+00   0.0000E+00  1.6700E+02  1.0000E-30  1.0000E-30  0.0000E+00  0.0000E+00
 58 3.8853E-02 2.5283E+01 1.6700E+02  0.00E+00   0.0000E+00  1.6700E+02  1.0000E-30  1.0000E-30  0.0000E+00  0.0000E+00
 59 4.2225E-02 2.4568E+01 1.6700E+02  0.00E+00   0.0000E+00  1.6700E+02  1.0000E-30  1.0000E-30  0.0000E+00  0.0000E+00
 60 4.5839E-02 2.3862E+01 1.6700E+02  0.00E+00   0.0000E+00  1.6700E+02  1.0000E-30  1.0000E-30  0.0000E+00  0.0000E+00
 61 4.9706E-02 2.3165E+01 1.6700E+02  0.00E+00   0.0000E+00  1.6700E+02  1.0000E-30  1.0000E-30  0.0000E+00  0.0000E+00
 62 5.3840E-02 2.2478E+01 1.6700E+02  0.00E+00   0.0000E+00  1.6700E+02  1.0000E-30  1.0000E-30  0.0000E+00  0.0000E+00
 63 5.8252E-02 2.1801E+01 1.6700E+02  0.00E+00   0.0000E+00  1.6700E+02  1.0000E-30  1.0000E-30  0.0000E+00  0.0000E+00
 64 6.2957E-02 2.1133E+01 1.6700E+02  0.00E+00   0.0000E+00  1.6700E+02  1.0000E-30  1.0000E-30  0.0000E+00  0.0000E+00
 65 6.7965E-02 2.0475E+01 1.6700E+02  0.00E+00   0.0000E+00  1.6700E+02  1.0000E-30  1.0000E-30  0.0000E+00  0.0000E+00
 66 7.3290E-02 1.9826E+01 1.6700E+02  0.00E+00   0.0000E+00  1.6700E+02  1.0000E-30  1.0000E-30  0.0000E+00  0.0000E+00
 67 7.8945E-02 1.9186E+01 1.6727E+02  3.00E+00   0.0000E+00  1.6727E+02  1.0000E-30  1.0000E-30  0.0000E+00  0.0000E+00
 68 8.4942E-02 1.8555E+01 1.6792E+02  3.00E+00   0.0000E+00  1.6792E+02  1.0000E-30  1.0000E-30  0.0000E+00  0.0000E+00
 69 9.1293E-02 1.7930E+01 1.6858E+02  3.00E+00   0.0000E+00  1.6858E+02  1.0000E-30  1.0000E-30  0.0000E+00  0.0000E+00
 70 9.8009E-02 1.7313E+01 1.6922E+02  3.00E+00   0.0000E+00  1.6922E+02  1.0000E-30  1.0000E-30  0.0000E+00  0.0000E+00
 71 1.0510E-01 1.6704E+01 1.6987E+02  3.00E+00   0.0000E+00  1.6987E+02  1.0000E-30  1.0000E-30  0.0000E+00  0.0000E+00
 72 1.1258E-01 1.6100E+01 1.7302E+02  1.00E+00   0.0000E+00  1.7302E+02  1.0000E-30  1.0000E-30  0.0000E+00  0.0000E+00
 73 1.2046E-01 1.5495E+01 1.7616E+02  1.00E+00   0.0000E+00  1.7616E+02  1.0000E-30  1.0000E-30  0.0000E+00  0.0000E+00
 74 1.2875E-01 1.4890E+01 1.7930E+02  1.00E+00   0.0000E+00  1.7930E+02  1.0000E-30  1.0000E-30  0.0000E+00  0.0000E+00
 75 1.3746E-01 1.4283E+01 1.8242E+02  1.00E+00   0.0000E+00  1.8242E+02  1.0000E-30  1.0000E-30  0.0000E+00  0.0000E+00
 76 1.4659E-01 1.3677E+01 1.8552E+02  1.00E+00   0.0000E+00  1.8552E+02  1.0000E-30  1.0000E-30  0.0000E+00  0.0000E+00
 77 1.5615E-01 1.3072E+01 1.8861E+02  1.00E+00   0.0000E+00  1.8861E+02  1.0000E-30  1.0000E-30  0.0000E+00  0.0000E+00
 78 1.6616E-01 1.2467E+01 1.9169E+02  1.00E+00   0.0000E+00  1.9169E+02  1.0000E-30  1.0000E-30  0.0000E+00  0.0000E+00
 79 1.7660E-01 1.1863E+01 1.9474E+02  1.00E+00   0.0000E+00  1.9474E+02  1.0000E-30  1.0000E-30  0.0000E+00  0.0000E+00
 80 1.8750E-01 1.1261E+01 1.9776E+02  1.00E+00   0.0000E+00  1.9776E+02  1.0000E-30  1.0000E-30  0.0000E+00  0.0000E+00
 81 1.9885E-01 1.0662E+01 2.0077E+02  1.00E+00   0.0000E+00  2.0077E+02  1.0000E-30  1.0000E-30  0.0000E+00  0.0000E+00
 82 2.1065E-01 1.0064E+01 2.0374E+02  1.00E+00   0.0000E+00  2.0374E+02  1.0000E-30  1.0000E-30  0.0000E+00  0.0000E+00
 83 2.2290E-01 9.4702E+00 2.0669E+02  1.00E+00   0.0000E+00  2.0669E+02  1.0000E-30  1.0000E-30  0.0000E+00  0.0000E+00
 84 2.3560E-01 8.8793E+00 2.0960E+02  1.00E+00   0.0000E+00  2.0960E+02  1.0000E-30  1.0000E-30  0.0000E+00  0.0000E+00
 85 2.4875E-01 8.2922E+00 2.1248E+02  1.00E+00   0.0000E+00  2.1248E+02  1.0000E-30  1.0000E-30  0.0000E+00  0.0000E+00
 86 2.6234E-01 7.7093E+00 2.1532E+02  1.00E+00   0.0000E+00  2.1532E+02  1.0000E-30  1.0000E-30  0.0000E+00  0.0000E+00
 87 2.7636E-01 7.1311E+00 2.1812E+02  1.00E+00   0.0000E+00  2.1812E+02  1.0000E-30  1.0000E-30  0.0000E+00  0.0000E+00
 88 2.9082E-01 6.5580E+00 2.2087E+02  1.00E+00   0.0000E+00  2.2087E+02  1.0000E-30  1.0000E-30  0.0000E+00  0.0000E+00
 89 3.0568E-01 5.9905E+00 2.2357E+02  1.00E+00   0.0000E+00  2.2357E+02  1.0000E-30  1.0000E-30  0.0000E+00  0.0000E+00
 90 3.2095E-01 5.4289E+00 2.2622E+02  1.00E+00   0.0000E+00  2.2622E+02  1.0000E-30  1.0000E-30  0.0000E+00  0.0000E+00
 91 3.3661E-01 4.8737E+00 2.2882E+02  1.00E+00   0.0000E+00  2.2882E+02  1.0000E-30  1.0000E-30  0.0000E+00  0.0000E+00
 92 3.5264E-01 4.3253E+00 2.3135E+02  1.00E+00   0.0000E+00  2.3135E+02  1.0000E-30  1.0000E-30  0.0000E+00  0.0000E+00
 93 3.6902E-01 3.7843E+00 2.3382E+02  1.00E+00   0.0000E+00  2.3382E+02  1.0000E-30  1.0000E-30  0.0000E+00  0.0000E+00
 94 3.8574E-01 3.2510E+00 2.3623E+02  1.00E+00   0.0000E+00  2.3623E+02  1.0000E-30  1.0000E-30  0.0000E+00  0.0000E+00
 95 4.0276E-01 2.7258E+00 2.3856E+02  1.00E+00   0.0000E+00  2.3856E+02  1.0000E-30  1.0000E-30  0.0000E+00  0.0000E+00
 96 4.2007E-01 2.2092E+00 2.4081E+02  1.00E+00   0.0000E+00  2.4081E+02  1.0000E-30  1.0000E-30  0.0000E+00  0.0000E+00
 97 4.3763E-01 1.7016E+00 2.4299E+02  1.00E+00   0.0000E+00  2.4299E+02  1.0000E-30  1.0000E-30  0.0000E+00  0.0000E+00
 98 4.5543E-01 1.2034E+00 2.4509E+02  1.00E+00   0.0000E+00  2.4509E+02  1.0000E-30  1.0000E-30  0.0000E+00  0.0000E+00
 99 4.7342E-01 7.1508E-01 2.4711E+02  1.00E+00   0.0000E+00  2.4711E+02  1.0000E-30  1.0000E-30  0.0000E+00  0.0000E+00
100 4.9157E-01 2.3692E-01 2.4905E+02  1.00E+00   0.0000E+00  2.4905E+02  1.0000E-30  1.0000E-30  0.0000E+00  0.0000E+00
101 5.0076E-01 0.0000E+00 2.5000E+02  1.00E+00   0.0000E+00  2.5000E+02  1.0000E-30  1.0000E-30  0.0000E+00  0.0000E+00
  J     P         ALT         T        CONVEC       DT          TOLD        FH20       FSAVE       TCOOL       THEAT

 FCO2
  9.39E-01 9.39E-01 9.39E-01 9.39E-01 9.39E-01 9.39E-01 9.39E-01 9.39E-01 9.39E-01 9.39E-01
  9.39E-01 9.39E-01 9.39E-01 9.39E-01 9.39E-01 9.39E-01 9.39E-01 9.39E-01 9.39E-01 9.39E-01
  9.39E-01 9.39E-01 9.39E-01 9.39E-01 9.39E-01 9.39E-01 9.39E-01 9.39E-01 9.39E-01 9.39E-01
  9.39E-01 9.39E-01 9.39E-01 9.39E-01 9.39E-01 9.39E-01 9.39E-01 9.39E-01 9.39E-01 9.39E-01
  9.39E-01 9.39E-01 9.39E-01 9.39E-01 9.39E-01 9.39E-01 9.39E-01 9.39E-01 9.39E-01 9.39E-01
  9.39E-01 9.39E-01 9.39E-01 9.39E-01 9.39E-01 9.39E-01 9.39E-01 9.39E-01 9.39E-01 9.39E-01
  9.39E-01 9.39E-01 9.39E-01 9.39E-01 9.39E-01 9.39E-01 9.39E-01 9.39E-01 9.40E-01 9.40E-01
  9.53E-01 9.53E-01 9.53E-01 9.53E-01 9.53E-01 9.53E-01 9.53E-01 9.53E-01 9.53E-01 9.53E-01
  9.53E-01 9.53E-01 9.53E-01 9.53E-01 9.53E-01 9.53E-01 9.53E-01 9.53E-01 9.53E-01 9.53E-01
  9.53E-01 9.53E-01 9.53E-01 9.53E-01 9.53E-01 9.53E-01 9.53E-01 9.53E-01 9.53E-01 9.53E-01
  9.53E-01

  J    PF         ALT       FTOTAL       FTIR       FDNIR       FUPIR       FTSOL       FDNSOL       FUPSOL       DIVF
  1 5.0000E-05 8.1881E+01 -5.5776E+04 -1.3492E+05  0.0000E+00  1.3492E+05  7.9146E+04  1.0965E+05  3.0502E+04  0.0000E+00
  2 5.7927E-05 8.0620E+01 -5.5625E+04 -1.3473E+05  1.8916E+02  1.3492E+05  7.9107E+04  1.0961E+05  3.0502E+04  0.0000E+00
  3 6.7037E-05 7.9369E+01 -5.5587E+04 -1.3466E+05  2.6313E+02  1.3492E+05  7.9072E+04  1.0957E+05  3.0502E+04  0.0000E+00
  4 7.7493E-05 7.8128E+01 -5.5554E+04 -1.3459E+05  3.2825E+02  1.3492E+05  7.9040E+04  1.0954E+05  3.0502E+04  0.0000E+00
  5 8.9480E-05 7.6896E+01 -5.5518E+04 -1.3453E+05  3.9216E+02  1.3492E+05  7.9011E+04  1.0951E+05  3.0501E+04  0.0000E+00
  6 1.0321E-04 7.5673E+01 -5.5477E+04 -1.3446E+05  4.5786E+02  1.3492E+05  7.8987E+04  1.0949E+05  3.0501E+04  0.0000E+00
  7 1.1891E-04 7.4460E+01 -5.5415E+04 -1.3438E+05  5.4206E+02  1.3492E+05  7.8965E+04  1.0947E+05  3.0500E+04  0.0000E+00
  8 1.3684E-04 7.3257E+01 -5.5331E+04 -1.3427E+05  6.4712E+02  1.3492E+05  7.8944E+04  1.0944E+05  3.0500E+04  0.0000E+00
  9 1.5731E-04 7.2063E+01 -5.5233E+04 -1.3416E+05  7.6460E+02  1.3492E+05  7.8924E+04  1.0942E+05  3.0499E+04  0.0000E+00
 10 1.8064E-04 7.0879E+01 -5.5134E+04 -1.3404E+05  8.8461E+02  1.3492E+05  7.8903E+04  1.0940E+05  3.0498E+04  0.0000E+00
 11 2.0719E-04 6.9704E+01 -5.5041E+04 -1.3392E+05  9.9998E+02  1.3492E+05  7.8881E+04  1.0938E+05  3.0498E+04  0.0000E+00
 12 2.3739E-04 6.8539E+01 -5.4957E+04 -1.3381E+05  1.1092E+03  1.3492E+05  7.8855E+04  1.0935E+05  3.0497E+04  0.0000E+00
 13 2.7168E-04 6.7384E+01 -5.4880E+04 -1.3371E+05  1.2162E+03  1.3492E+05  7.8825E+04  1.0932E+05  3.0496E+04  0.0000E+00
 14 3.1058E-04 6.6238E+01 -5.4805E+04 -1.3360E+05  1.3267E+03  1.3492E+05  7.8790E+04  1.0928E+05  3.0494E+04  0.0000E+00
 15 3.5466E-04 6.5101E+01 -5.4726E+04 -1.3348E+05  1.4443E+03  1.3492E+05  7.8752E+04  1.0924E+05  3.0493E+04  0.0000E+00
 16 4.0455E-04 6.3975E+01 -5.4643E+04 -1.3335E+05  1.5693E+03  1.3492E+05  7.8710E+04  1.0920E+05  3.0492E+04  0.0000E+00
 17 4.6093E-04 6.2857E+01 -5.4557E+04 -1.3322E+05  1.6989E+03  1.3492E+05  7.8666E+04  1.0916E+05  3.0490E+04  0.0000E+00
 18 5.2459E-04 6.1750E+01 -5.4470E+04 -1.3309E+05  1.8290E+03  1.3492E+05  7.8622E+04  1.0911E+05  3.0488E+04  0.0000E+00
 19 5.9638E-04 6.0651E+01 -5.4386E+04 -1.3297E+05  1.9553E+03  1.3492E+05  7.8581E+04  1.0907E+05  3.0486E+04  0.0000E+00
 20 6.7725E-04 5.9563E+01 -5.4305E+04 -1.3285E+05  2.0742E+03  1.3492E+05  7.8543E+04  1.0903E+05  3.0483E+04  0.0000E+00
 21 7.6822E-04 5.8484E+01 -5.4229E+04 -1.3274E+05  2.1836E+03  1.3492E+05  7.8509E+04  1.0899E+05  3.0481E+04  0.0000E+00
 22 8.7044E-04 5.7414E+01 -5.4160E+04 -1.3264E+05  2.2832E+03  1.3492E+05  7.8479E+04  1.0896E+05  3.0478E+04  0.0000E+00
 23 9.8517E-04 5.6355E+01 -5.4097E+04 -1.3255E+05  2.3745E+03  1.3492E+05  7.8451E+04  1.0892E+05  3.0474E+04  0.0000E+00
 24 1.1138E-03 5.5304E+01 -5.4029E+04 -1.3245E+05  2.4709E+03  1.3492E+05  7.8423E+04  1.0889E+05  3.0470E+04  0.0000E+00
 25 1.2578E-03 5.4263E+01 -5.3942E+04 -1.3233E+05  2.5877E+03  1.3492E+05  7.8393E+04  1.0886E+05  3.0466E+04  0.0000E+00
 26 1.4188E-03 5.3232E+01 -5.3839E+04 -1.3220E+05  2.7234E+03  1.3492E+05  7.8360E+04  1.0882E+05  3.0461E+04  0.0000E+00
 27 1.5987E-03 5.2211E+01 -5.3723E+04 -1.3205E+05  2.8766E+03  1.3492E+05  7.8323E+04  1.0878E+05  3.0456E+04  0.0000E+00
 28 1.7994E-03 5.1199E+01 -5.3600E+04 -1.3188E+05  3.0419E+03  1.3492E+05  7.8281E+04  1.0873E+05  3.0450E+04  0.0000E+00
 29 2.0230E-03 5.0196E+01 -5.3478E+04 -1.3171E+05  3.2111E+03  1.3492E+05  7.8234E+04  1.0868E+05  3.0443E+04  0.0000E+00
 30 2.2719E-03 4.9203E+01 -5.3365E+04 -1.3155E+05  3.3766E+03  1.3492E+05  7.8182E+04  1.0862E+05  3.0435E+04  0.0000E+00
 31 2.5486E-03 4.8220E+01 -5.3264E+04 -1.3139E+05  3.5336E+03  1.3492E+05  7.8126E+04  1.0855E+05  3.0427E+04  0.0000E+00
 32 2.8557E-03 4.7246E+01 -5.3175E+04 -1.3124E+05  3.6808E+03  1.3492E+05  7.8069E+04  1.0849E+05  3.0418E+04  0.0000E+00
 33 3.1964E-03 4.6282E+01 -5.3095E+04 -1.3110E+05  3.8200E+03  1.3492E+05  7.8010E+04  1.0842E+05  3.0408E+04  0.0000E+00
 34 3.5737E-03 4.5327E+01 -5.3020E+04 -1.3097E+05  3.9542E+03  1.3493E+05  7.7952E+04  1.0835E+05  3.0396E+04  0.0000E+00
 35 3.9911E-03 4.4382E+01 -5.2944E+04 -1.3084E+05  4.0866E+03  1.3493E+05  7.7896E+04  1.0828E+05  3.0384E+04  0.0000E+00
 36 4.4523E-03 4.3446E+01 -5.2865E+04 -1.3071E+05  4.2196E+03  1.3493E+05  7.7843E+04  1.0821E+05  3.0370E+04  0.0000E+00
 37 4.9613E-03 4.2520E+01 -5.2782E+04 -1.3057E+05  4.3540E+03  1.3493E+05  7.7793E+04  1.0815E+05  3.0355E+04  0.0000E+00
 38 5.5224E-03 4.1604E+01 -5.2696E+04 -1.3044E+05  4.4895E+03  1.3493E+05  7.7745E+04  1.0808E+05  3.0338E+04  0.0000E+00
 39 6.1400E-03 4.0697E+01 -5.2610E+04 -1.3031E+05  4.6248E+03  1.3493E+05  7.7698E+04  1.0802E+05  3.0320E+04  0.0000E+00
 40 6.8191E-03 3.9800E+01 -5.2526E+04 -1.3018E+05  4.7584E+03  1.3493E+05  7.7650E+04  1.0795E+05  3.0299E+04  0.0000E+00
 41 7.5650E-03 3.8912E+01 -5.2448E+04 -1.3005E+05  4.8888E+03  1.3494E+05  7.7600E+04  1.0788E+05  3.0277E+04  0.0000E+00
 42 8.3831E-03 3.8034E+01 -5.2378E+04 -1.2992E+05  5.0150E+03  1.3494E+05  7.7547E+04  1.0780E+05  3.0253E+04  0.0000E+00
 43 9.2793E-03 3.7165E+01 -5.2315E+04 -1.2981E+05  5.1367E+03  1.3494E+05  7.7492E+04  1.0772E+05  3.0226E+04  0.0000E+00
 44 1.0260E-02 3.6306E+01 -5.2259E+04 -1.2969E+05  5.2542E+03  1.3495E+05  7.7434E+04  1.0763E+05  3.0197E+04  0.0000E+00
 45 1.1332E-02 3.5456E+01 -5.2195E+04 -1.2957E+05  5.3838E+03  1.3495E+05  7.7374E+04  1.0754E+05  3.0165E+04  0.0000E+00
 46 1.2501E-02 3.4617E+01 -5.2120E+04 -1.2943E+05  5.5257E+03  1.3496E+05  7.7313E+04  1.0744E+05  3.0130E+04  0.0000E+00
 47 1.3776E-02 3.3786E+01 -5.2040E+04 -1.2929E+05  5.6760E+03  1.3497E+05  7.7251E+04  1.0734E+05  3.0092E+04  0.0000E+00
 48 1.5165E-02 3.2965E+01 -5.1956E+04 -1.2914E+05  5.8332E+03  1.3498E+05  7.7188E+04  1.0724E+05  3.0051E+04  0.0000E+00
 49 1.6674E-02 3.2154E+01 -5.1868E+04 -1.2899E+05  5.9968E+03  1.3499E+05  7.7124E+04  1.0713E+05  3.0007E+04  0.0000E+00
 50 1.8314E-02 3.1352E+01 -5.1779E+04 -1.2884E+05  6.1654E+03  1.3500E+05  7.7060E+04  1.0702E+05  2.9958E+04  0.0000E+00
 51 2.0092E-02 3.0560E+01 -5.1691E+04 -1.2869E+05  6.3361E+03  1.3502E+05  7.6995E+04  1.0690E+05  2.9906E+04  0.0000E+00
 52 2.2019E-02 2.9778E+01 -5.1609E+04 -1.2854E+05  6.5054E+03  1.3504E+05  7.6928E+04  1.0678E+05  2.9850E+04  0.0000E+00
 53 2.4103E-02 2.9005E+01 -5.1536E+04 -1.2840E+05  6.6702E+03  1.3507E+05  7.6860E+04  1.0665E+05  2.9789E+04  0.0000E+00
 54 2.6355E-02 2.8241E+01 -5.1476E+04 -1.2827E+05  6.8285E+03  1.3510E+05  7.6790E+04  1.0651E+05  2.9723E+04  0.0000E+00
 55 2.8786E-02 2.7487E+01 -5.1431E+04 -1.2815E+05  6.9799E+03  1.3513E+05  7.6717E+04  1.0637E+05  2.9652E+04  0.0000E+00
 56 3.1406E-02 2.6743E+01 -5.1401E+04 -1.2804E+05  7.1261E+03  1.3517E+05  7.6640E+04  1.0622E+05  2.9576E+04  0.0000E+00
 57 3.4227E-02 2.6008E+01 -5.1385E+04 -1.2794E+05  7.2698E+03  1.3521E+05  7.6557E+04  1.0605E+05  2.9494E+04  0.0000E+00
 58 3.7259E-02 2.5283E+01 -5.1382E+04 -1.2785E+05  7.4147E+03  1.3526E+05  7.6467E+04  1.0587E+05  2.9407E+04  0.0000E+00
 59 4.0515E-02 2.4568E+01 -5.1389E+04 -1.2776E+05  7.5644E+03  1.3532E+05  7.6371E+04  1.0568E+05  2.9313E+04  0.0000E+00
 60 4.4007E-02 2.3862E+01 -5.1405E+04 -1.2767E+05  7.7225E+03  1.3539E+05  7.6266E+04  1.0548E+05  2.9213E+04  0.0000E+00
 61 4.7746E-02 2.3165E+01 -5.1428E+04 -1.2758E+05  7.8912E+03  1.3547E+05  7.6154E+04  1.0526E+05  2.9106E+04  0.0000E+00
 62 5.1746E-02 2.2478E+01 -5.1457E+04 -1.2749E+05  8.0722E+03  1.3556E+05  7.6035E+04  1.0503E+05  2.8992E+04  0.0000E+00
 63 5.6018E-02 2.1801E+01 -5.1494E+04 -1.2740E+05  8.2661E+03  1.3567E+05  7.5910E+04  1.0478E+05  2.8871E+04  0.0000E+00
 64 6.0576E-02 2.1133E+01 -5.1539E+04 -1.2732E+05  8.4729E+03  1.3579E+05  7.5780E+04  1.0452E+05  2.8742E+04  0.0000E+00
 65 6.5431E-02 2.0475E+01 -5.1596E+04 -1.2724E+05  8.6922E+03  1.3594E+05  7.5647E+04  1.0425E+05  2.8606E+04  0.0000E+00
 66 7.0597E-02 1.9826E+01 -5.1674E+04 -1.2719E+05  8.9230E+03  1.3611E+05  7.5511E+04  1.0397E+05  2.8461E+04  0.0000E+00
 67 7.6087E-02 1.9186E+01 -5.1776E+04 -1.2715E+05  9.2163E+03  1.3637E+05  7.5375E+04  1.0368E+05  2.8308E+04  0.0000E+00
 68 8.1912E-02 1.8555E+01 -5.1882E+04 -1.2712E+05  9.6072E+03  1.3673E+05  7.5239E+04  1.0339E+05  2.8146E+04  0.0000E+00
 69 8.8085E-02 1.7930E+01 -5.1989E+04 -1.2709E+05  1.0027E+04  1.3712E+05  7.5105E+04  1.0308E+05  2.7975E+04  0.0000E+00
 70 9.4617E-02 1.7313E+01 -5.2121E+04 -1.2709E+05  1.0469E+04  1.3756E+05  7.4973E+04  1.0277E+05  2.7796E+04  0.0000E+00
 71 1.0152E-01 1.6704E+01 -5.2342E+04 -1.2718E+05  1.0930E+04  1.3812E+05  7.4843E+04  1.0245E+05  2.7606E+04  0.0000E+00
 72 1.0881E-01 1.6100E+01 -5.2561E+04 -1.2728E+05  1.1994E+04  1.3927E+05  7.4717E+04  1.0212E+05  2.7406E+04  0.0000E+00
 73 1.1649E-01 1.5495E+01 -5.2693E+04 -1.2729E+05  1.3267E+04  1.4055E+05  7.4593E+04  1.0179E+05  2.7196E+04  0.0000E+00
 74 1.2457E-01 1.4890E+01 -5.2801E+04 -1.2727E+05  1.4678E+04  1.4195E+05  7.4471E+04  1.0145E+05  2.6976E+04  0.0000E+00
 75 1.3307E-01 1.4283E+01 -5.2877E+04 -1.2723E+05  1.6238E+04  1.4346E+05  7.4349E+04  1.0110E+05  2.6746E+04  0.0000E+00
 76 1.4199E-01 1.3677E+01 -5.2913E+04 -1.2714E+05  1.7958E+04  1.4510E+05  7.4227E+04  1.0073E+05  2.6506E+04  0.0000E+00
 77 1.5134E-01 1.3072E+01 -5.2902E+04 -1.2700E+05  1.9848E+04  1.4685E+05  7.4101E+04  1.0036E+05  2.6255E+04  0.0000E+00
 78 1.6112E-01 1.2467E+01 -5.2835E+04 -1.2681E+05  2.1916E+04  1.4872E+05  7.3972E+04  9.9966E+04  2.5994E+04  0.0000E+00
 79 1.7135E-01 1.1863E+01 -5.2703E+04 -1.2654E+05  2.4168E+04  1.5071E+05  7.3839E+04  9.9561E+04  2.5723E+04  0.0000E+00
 80 1.8202E-01 1.1261E+01 -5.2498E+04 -1.2620E+05  2.6606E+04  1.5280E+05  7.3699E+04  9.9140E+04  2.5441E+04  0.0000E+00
 81 1.9314E-01 1.0662E+01 -5.2208E+04 -1.2576E+05  2.9231E+04  1.5499E+05  7.3554E+04  9.8702E+04  2.5149E+04  0.0000E+00
 82 2.0472E-01 1.0064E+01 -5.1811E+04 -1.2521E+05  3.2042E+04  1.5726E+05  7.3402E+04  9.8248E+04  2.4846E+04  0.0000E+00
 83 2.1675E-01 9.4702E+00 -5.1177E+04 -1.2442E+05  3.5334E+04  1.5976E+05  7.3246E+04  9.7779E+04  2.4533E+04  0.0000E+00
 84 2.2922E-01 8.8793E+00 -5.0386E+04 -1.2347E+05  3.9005E+04  1.6248E+05  7.3085E+04  9.7296E+04  2.4210E+04  0.0000E+00
 85 2.4215E-01 8.2922E+00 -4.9509E+04 -1.2243E+05  4.2968E+04  1.6540E+05  7.2921E+04  9.6799E+04  2.3878E+04  0.0000E+00
 86 2.5552E-01 7.7093E+00 -4.8574E+04 -1.2133E+05  4.7175E+04  1.6850E+05  7.2755E+04  9.6290E+04  2.3535E+04  0.0000E+00
 87 2.6933E-01 7.1311E+00 -4.7585E+04 -1.2017E+05  5.1612E+04  1.7178E+05  7.2587E+04  9.5771E+04  2.3183E+04  0.0000E+00
 88 2.8358E-01 6.5580E+00 -4.6539E+04 -1.1896E+05  5.6269E+04  1.7523E+05  7.2419E+04  9.5241E+04  2.2822E+04  0.0000E+00
 89 2.9824E-01 5.9905E+00 -4.5456E+04 -1.1771E+05  6.1063E+04  1.7877E+05  7.2249E+04  9.4702E+04  2.2453E+04  0.0000E+00
 90 3.1331E-01 5.4289E+00 -4.4292E+04 -1.1637E+05  6.6060E+04  1.8243E+05  7.2079E+04  9.4153E+04  2.2075E+04  0.0000E+00
 91 3.2878E-01 4.8737E+00 -4.3071E+04 -1.1498E+05  7.1223E+04  1.8620E+05  7.1906E+04  9.3595E+04  2.1689E+04  0.0000E+00
 92 3.4463E-01 4.3253E+00 -4.1814E+04 -1.1355E+05  7.6470E+04  1.9002E+05  7.1733E+04  9.3028E+04  2.1295E+04  0.0000E+00
 93 3.6084E-01 3.7843E+00 -4.0483E+04 -1.1204E+05  8.1857E+04  1.9390E+05  7.1558E+04  9.2453E+04  2.0895E+04  0.0000E+00
 94 3.7739E-01 3.2510E+00 -3.9094E+04 -1.1048E+05  8.7305E+04  1.9778E+05  7.1382E+04  9.1871E+04  2.0489E+04  0.0000E+00
 95 3.9427E-01 2.7258E+00 -3.7605E+04 -1.0881E+05  9.2860E+04  2.0167E+05  7.1205E+04  9.1281E+04  2.0077E+04  0.0000E+00
 96 4.1144E-01 2.2092E+00 -3.6036E+04 -1.0706E+05  9.8451E+04  2.0551E+05  7.1027E+04  9.0687E+04  1.9660E+04  0.0000E+00
 97 4.2888E-01 1.7016E+00 -3.4355E+04 -1.0520E+05  1.0407E+05  2.0927E+05  7.0848E+04  9.0087E+04  1.9239E+04  0.0000E+00
 98 4.4657E-01 1.2034E+00 -3.2502E+04 -1.0317E+05  1.0971E+05  2.1288E+05  7.0669E+04  8.9484E+04  1.8815E+04  0.0000E+00
 99 4.6446E-01 7.1508E-01 -3.0376E+04 -1.0087E+05  1.1539E+05  2.1626E+05  7.0490E+04  8.8878E+04  1.8388E+04  0.0000E+00
100 4.8254E-01 2.3692E-01 -2.7727E+04 -9.8038E+04  1.2105E+05  2.1909E+05  7.0311E+04  8.8271E+04  1.7961E+04  0.0000E+00
101 5.0076E-01 0.0000E+00 -2.4728E+04 -9.4860E+04  1.2548E+05  2.2034E+05  7.0131E+04  8.7664E+04  1.7533E+04  0.0000E+00
 
