 
    OUTPUT FILES FOR THE Sun  
 
 Solar Constant= 0.950   F_CH4= 1.0000E-60  F_CO2= 2.4786E-01  F_O2= 2.1000E-01  F_N2= 5.4214E-01  IO3 =  1   IUP=  0
 ICONSERV= 1  FAC= 4.0  ND=101  SRFALB= 0.663  G= 980.0  IMW= 1

 FNO2 = 1.000E-60
 
 NST=     1 JCONV= 87 CHG=1.38E-03 dt0=7.50E+03 DIVF(1)= 1.01E-03 DIVFrms= 4.05E-03 DT(ND)= 3.57E-02 T(ND)=2.6996E+02

 TIME= 5.000E+03  TIME IN DAYS = 5.787E-02

 PLANETARY ALBEDO:  ALBP = 0.5245

  J     P         ALT         T        CONVEC       DT          TOLD        FH20       FSAVE       TCOOL       THEAT
  1 5.4293E-05 5.3066E+01 2.2078E+02  0.00E+00  -1.0860E+00  2.2187E+02  1.8966E-06  1.7651E-06 -5.8420E+02  5.8418E+02
  2 6.3977E-05 5.2154E+01 2.1193E+02  0.00E+00  -2.9341E-01  2.1222E+02  1.8966E-06  1.7651E-06 -1.3661E+02  1.0654E+02
  3 7.5293E-05 5.1274E+01 2.0816E+02  0.00E+00   9.4060E-02  2.0807E+02  1.8966E-06  1.7651E-06 -8.9787E+01  8.6691E+01
  4 8.8502E-05 5.0412E+01 2.0676E+02  0.00E+00  -1.2268E-01  2.0688E+02  1.8966E-06  1.7651E-06 -7.6545E+01  7.8623E+01
  5 1.0390E-04 4.9563E+01 2.0513E+02  0.00E+00  -9.4435E-02  2.0522E+02  1.8966E-06  1.7651E-06 -6.6115E+01  7.0504E+01
  6 1.2182E-04 4.8730E+01 2.0248E+02  0.00E+00  -9.6051E-03  2.0249E+02  1.8966E-06  1.7651E-06 -6.0845E+01  6.2331E+01
  7 1.4266E-04 4.7915E+01 1.9910E+02  0.00E+00   2.9976E-02  1.9907E+02  1.8966E-06  1.7651E-06 -5.3784E+01  5.4267E+01
  8 1.6685E-04 4.7120E+01 1.9546E+02  0.00E+00  -1.1452E-02  1.9547E+02  1.8966E-06  1.7651E-06 -4.7021E+01  4.6494E+01
  9 1.9490E-04 4.6347E+01 1.9198E+02  0.00E+00  -5.5622E-02  1.9204E+02  1.8966E-06  1.7651E-06 -4.0613E+01  3.9203E+01
 10 2.2739E-04 4.5592E+01 1.8897E+02  0.00E+00  -8.2785E-02  1.8905E+02  1.8966E-06  1.7651E-06 -3.4476E+01  3.2569E+01
 11 2.6496E-04 4.4854E+01 1.8659E+02  0.00E+00  -1.0051E-01  1.8669E+02  1.8966E-06  1.7651E-06 -2.8743E+01  2.6732E+01
 12 3.0836E-04 4.4130E+01 1.8492E+02  0.00E+00  -9.6138E-02  1.8501E+02  1.8966E-06  1.7651E-06 -2.3928E+01  2.1825E+01
 13 3.5841E-04 4.3417E+01 1.8394E+02  0.00E+00  -7.9078E-02  1.8402E+02  1.8966E-06  1.7651E-06 -1.9947E+01  1.8282E+01
 14 4.1608E-04 4.2712E+01 1.8353E+02  0.00E+00  -6.3138E-02  1.8359E+02  1.8966E-06  1.7651E-06 -1.6843E+01  1.5719E+01
 15 4.8242E-04 4.2014E+01 1.8352E+02  0.00E+00  -4.5409E-02  1.8357E+02  1.8966E-06  1.7651E-06 -1.4617E+01  1.3905E+01
 16 5.5864E-04 4.1322E+01 1.8376E+02  0.00E+00  -2.9772E-02  1.8379E+02  1.8966E-06  1.7651E-06 -1.3068E+01  1.2696E+01
 17 6.4610E-04 4.0634E+01 1.8414E+02  0.00E+00  -1.6331E-02  1.8416E+02  1.8966E-06  1.7651E-06 -1.2132E+01  1.1936E+01
 18 7.4632E-04 3.9951E+01 1.8459E+02  0.00E+00  -2.2708E-03  1.8459E+02  1.8966E-06  1.7651E-06 -1.1523E+01  1.1474E+01
 19 8.6101E-04 3.9272E+01 1.8505E+02  0.00E+00   1.4867E-02  1.8504E+02  1.8966E-06  1.7651E-06 -1.1055E+01  1.1172E+01
 20 9.9210E-04 3.8597E+01 1.8538E+02  0.00E+00  -2.2102E-02  1.8541E+02  1.8966E-06  1.7651E-06 -1.0304E+01  1.0978E+01
 21 1.1417E-03 3.7927E+01 1.8565E+02  0.00E+00  -4.7743E-02  1.8570E+02  1.8966E-06  1.7651E-06 -1.2661E+01  1.1972E+01
 22 1.3123E-03 3.7262E+01 1.8612E+02  0.00E+00  -4.1024E-02  1.8616E+02  1.8966E-06  1.7651E-06 -1.3995E+01  1.2723E+01
 23 1.5064E-03 3.6600E+01 1.8697E+02  0.00E+00  -3.1097E-02  1.8700E+02  1.8966E-06  1.7651E-06 -1.4242E+01  1.3050E+01
 24 1.7271E-03 3.5941E+01 1.8820E+02  0.00E+00  -1.6489E-02  1.8822E+02  1.8966E-06  1.7651E-06 -1.3585E+01  1.2947E+01
 25 1.9777E-03 3.5283E+01 1.8964E+02  0.00E+00  -2.2622E-03  1.8964E+02  1.8966E-06  1.7651E-06 -1.2431E+01  1.2466E+01
 26 2.2619E-03 3.4626E+01 1.9108E+02  0.00E+00   1.1990E-02  1.9107E+02  1.8966E-06  1.7651E-06 -1.1267E+01  1.1705E+01
 27 2.5836E-03 3.3971E+01 1.9238E+02  0.00E+00   2.0850E-02  1.9236E+02  1.8966E-06  1.7651E-06 -1.0120E+01  1.0778E+01
 28 2.9475E-03 3.3318E+01 1.9347E+02  0.00E+00   2.0406E-02  1.9345E+02  1.8966E-06  1.7651E-06 -9.1659E+00  9.7835E+00
 29 3.3584E-03 3.2667E+01 1.9434E+02  0.00E+00   1.4807E-02  1.9433E+02  1.8966E-06  1.7651E-06 -8.3514E+00  8.7377E+00
 30 3.8218E-03 3.2020E+01 1.9508E+02  0.00E+00   1.0990E-02  1.9507E+02  1.8966E-06  1.7651E-06 -7.6070E+00  7.7141E+00
 31 4.3438E-03 3.1377E+01 1.9576E+02  0.00E+00   5.9122E-03  1.9575E+02  1.8966E-06  1.7651E-06 -6.7931E+00  6.8136E+00
 32 4.9309E-03 3.0738E+01 1.9642E+02  0.00E+00   2.4829E-03  1.9642E+02  1.8966E-06  1.7651E-06 -6.0970E+00  6.0420E+00
 33 5.5904E-03 3.0103E+01 1.9710E+02  0.00E+00   4.4605E-03  1.9709E+02  1.8966E-06  1.7651E-06 -5.4353E+00  5.4001E+00
 34 6.3302E-03 2.9473E+01 1.9777E+02  0.00E+00   6.7342E-03  1.9776E+02  1.8966E-06  1.7651E-06 -4.7840E+00  4.8826E+00
 35 7.1590E-03 2.8846E+01 1.9841E+02  0.00E+00   1.1566E-02  1.9840E+02  1.8966E-06  1.7651E-06 -4.2990E+00  4.4727E+00
 36 8.0863E-03 2.8224E+01 1.9898E+02  0.00E+00   1.6743E-02  1.9896E+02  1.8966E-06  1.7651E-06 -3.8319E+00  4.1439E+00
 37 9.1222E-03 2.7607E+01 1.9944E+02  0.00E+00   1.7875E-02  1.9942E+02  1.8966E-06  1.7651E-06 -3.4647E+00  3.8645E+00
 38 1.0278E-02 2.6995E+01 1.9974E+02  0.00E+00   8.4465E-03  1.9973E+02  1.8966E-06  1.7651E-06 -3.2006E+00  3.6094E+00
 39 1.1566E-02 2.6389E+01 1.9993E+02  0.00E+00   3.6847E-04  1.9993E+02  1.8966E-06  1.7651E-06 -3.2931E+00  3.3616E+00
 40 1.2999E-02 2.5788E+01 2.0009E+02  0.00E+00  -2.4827E-03  2.0009E+02  1.8966E-06  1.7651E-06 -3.2506E+00  3.0946E+00
 41 1.4592E-02 2.5193E+01 2.0027E+02  0.00E+00  -5.1314E-03  2.0028E+02  1.8966E-06  1.7651E-06 -3.0473E+00  2.8238E+00
 42 1.6359E-02 2.4605E+01 2.0053E+02  0.00E+00  -6.5237E-03  2.0053E+02  1.8966E-06  1.7651E-06 -2.7588E+00  2.5583E+00
 43 1.8318E-02 2.4021E+01 2.0084E+02  0.00E+00  -7.7877E-03  2.0084E+02  1.8966E-06  1.7651E-06 -2.4346E+00  2.3083E+00
 44 2.0485E-02 2.3443E+01 2.0120E+02  0.00E+00  -5.9825E-03  2.0120E+02  1.8966E-06  1.7651E-06 -2.2050E+00  2.0824E+00
 45 2.2881E-02 2.2871E+01 2.0159E+02  0.00E+00  -5.2379E-03  2.0159E+02  1.8966E-06  1.7651E-06 -1.9339E+00  1.8858E+00
 46 2.5525E-02 2.2304E+01 2.0200E+02  0.00E+00  -3.7094E-03  2.0200E+02  1.8966E-06  1.7651E-06 -1.7923E+00  1.7201E+00
 47 2.8438E-02 2.1742E+01 2.0243E+02  0.00E+00  -1.5315E-03  2.0243E+02  1.8966E-06  1.7651E-06 -1.6191E+00  1.5835E+00
 48 3.1645E-02 2.1185E+01 2.0287E+02  0.00E+00  -8.9826E-04  2.0287E+02  1.8966E-06  1.7651E-06 -1.4732E+00  1.4711E+00
 49 3.5170E-02 2.0634E+01 2.0331E+02  0.00E+00   1.7548E-03  2.0331E+02  1.8966E-06  1.7651E-06 -1.3783E+00  1.3752E+00
 50 3.9039E-02 2.0088E+01 2.0374E+02  0.00E+00   4.2000E-03  2.0374E+02  1.8966E-06  1.7651E-06 -1.2224E+00  1.2908E+00
 51 4.3280E-02 1.9548E+01 2.0416E+02  0.00E+00   7.2221E-03  2.0415E+02  1.8966E-06  1.7651E-06 -1.1070E+00  1.2126E+00
 52 4.7922E-02 1.9012E+01 2.0453E+02  0.00E+00   1.0270E-02  2.0452E+02  1.8966E-06  1.7651E-06 -9.5411E-01  1.1364E+00
 53 5.2995E-02 1.8483E+01 2.0483E+02  0.00E+00   1.1707E-02  2.0482E+02  1.8966E-06  1.7651E-06 -8.2213E-01  1.0599E+00
 54 5.8533E-02 1.7960E+01 2.0506E+02  0.00E+00   1.3100E-02  2.0504E+02  1.8966E-06  1.7651E-06 -7.3499E-01  9.8172E-01
 55 6.4568E-02 1.7442E+01 2.0519E+02  0.00E+00   1.3573E-02  2.0518E+02  1.8966E-06  1.7651E-06 -6.4258E-01  9.0148E-01
 56 7.1138E-02 1.6931E+01 2.0523E+02  0.00E+00   1.2620E-02  2.0522E+02  1.8966E-06  1.7651E-06 -5.7487E-01  8.1931E-01
 57 7.8278E-02 1.6426E+01 2.0518E+02  0.00E+00   1.0822E-02  2.0517E+02  1.8966E-06  1.7651E-06 -5.2668E-01  7.3574E-01
 58 8.6028E-02 1.5929E+01 2.0506E+02  0.00E+00   8.7724E-03  2.0505E+02  1.8966E-06  1.7651E-06 -4.9375E-01  6.5152E-01
 59 9.4428E-02 1.5438E+01 2.0486E+02  0.00E+00   6.2141E-03  2.0486E+02  1.8966E-06  1.7651E-06 -4.5538E-01  5.6889E-01
 60 1.0352E-01 1.4954E+01 2.0463E+02  0.00E+00   3.6381E-03  2.0462E+02  1.8966E-06  1.7651E-06 -4.5248E-01  5.1277E-01
 61 1.1334E-01 1.4478E+01 2.0436E+02  0.00E+00   1.0931E-03  2.0436E+02  1.8966E-06  1.7651E-06 -4.7080E-01  4.8875E-01
 62 1.2395E-01 1.4008E+01 2.0408E+02  0.00E+00  -1.0520E-03  2.0408E+02  1.8966E-06  1.7651E-06 -4.8452E-01  4.5785E-01
 63 1.3537E-01 1.3546E+01 2.0379E+02  0.00E+00  -3.1814E-03  2.0380E+02  1.8966E-06  1.7651E-06 -4.7697E-01  4.2275E-01
 64 1.4767E-01 1.3091E+01 2.0352E+02  0.00E+00  -5.0231E-03  2.0353E+02  1.8966E-06  1.7651E-06 -4.7682E-01  3.8742E-01
 65 1.6088E-01 1.2643E+01 2.0328E+02  0.00E+00  -6.2268E-03  2.0328E+02  1.8966E-06  1.7651E-06 -4.7040E-01  3.5471E-01
 66 1.7506E-01 1.2202E+01 2.0307E+02  0.00E+00  -6.6855E-03  2.0308E+02  1.8966E-06  1.7651E-06 -4.5811E-01  3.2622E-01
 67 1.9024E-01 1.1768E+01 2.0291E+02  0.00E+00  -7.0276E-03  2.0292E+02  1.8966E-06  1.7651E-06 -4.2868E-01  3.0238E-01
 68 2.0649E-01 1.1341E+01 2.0281E+02  0.00E+00  -7.0502E-03  2.0282E+02  1.8966E-06  1.7651E-06 -4.0850E-01  2.8286E-01
 69 2.2385E-01 1.0920E+01 2.0276E+02  0.00E+00  -6.5819E-03  2.0276E+02  1.8966E-06  1.7651E-06 -3.8537E-01  2.6690E-01
 70 2.4237E-01 1.0506E+01 2.0277E+02  0.00E+00  -5.8934E-03  2.0277E+02  1.8966E-06  1.7651E-06 -3.6002E-01  2.5361E-01
 71 2.6209E-01 1.0098E+01 2.0284E+02  0.00E+00  -5.0728E-03  2.0284E+02  1.8966E-06  1.7651E-06 -3.3320E-01  2.4212E-01
 72 2.8306E-01 9.6965E+00 2.0297E+02  0.00E+00  -4.2564E-03  2.0298E+02  1.8966E-06  1.7651E-06 -3.0568E-01  2.3169E-01
 73 3.0533E-01 9.3012E+00 2.0317E+02  0.00E+00  -2.9815E-03  2.0317E+02  1.8966E-06  1.7651E-06 -2.8338E-01  2.2200E-01
 74 3.2894E-01 8.9120E+00 2.0343E+02  0.00E+00  -1.4379E-03  2.0343E+02  1.8966E-06  1.7651E-06 -2.4971E-01  2.1462E-01
 75 3.5393E-01 8.5287E+00 2.0374E+02  0.00E+00   1.3653E-04  2.0374E+02  1.8966E-06  1.7651E-06 -2.1375E-01  2.0899E-01
 76 3.8036E-01 8.1513E+00 2.0411E+02  0.00E+00   2.1025E-03  2.0411E+02  1.8966E-06  1.7651E-06 -1.7722E-01  2.0322E-01
 77 4.0824E-01 7.7798E+00 2.0453E+02  0.00E+00   4.4533E-03  2.0452E+02  1.8966E-06  1.7651E-06 -1.3159E-01  1.9718E-01
 78 4.3763E-01 7.4140E+00 2.0495E+02  0.00E+00  -1.8413E-02  2.0497E+02  1.8966E-06  1.7919E-06 -7.9601E-02  1.9102E-01
 79 4.6854E-01 7.0539E+00 2.0549E+02  0.00E+00   5.9200E-02  2.0543E+02  1.9373E-06  1.8991E-06 -1.5821E-02  1.8507E-01
 80 5.0102E-01 6.6994E+00 2.0609E+02  0.00E+00  -1.5134E-02  2.0611E+02  2.1000E-06  2.1021E-06  2.8447E-02  1.7955E-01
 81 5.3508E-01 6.3495E+00 2.0782E+02  0.00E+00   7.6070E-03  2.0781E+02  2.6900E-06  2.6944E-06 -4.4361E-02  1.7581E-01
 82 5.7075E-01 6.0020E+00 2.1129E+02  0.00E+00  -3.4114E-03  2.1129E+02  4.3854E-06  4.3994E-06 -2.3542E-01  1.7647E-01
 83 6.0804E-01 5.6553E+00 2.1500E+02  0.00E+00  -1.4994E-02  2.1502E+02  7.2617E-06  7.2960E-06 -4.4049E-01  1.8140E-01
 84 6.4695E-01 5.3095E+00 2.1869E+02  0.00E+00  -2.4985E-02  2.1872E+02  1.1787E-05  1.1857E-05 -6.2237E-01  1.9062E-01
 85 6.8750E-01 4.9649E+00 2.2236E+02  0.00E+00  -3.3341E-02  2.2239E+02  1.8763E-05  1.8892E-05 -7.8086E-01  2.0473E-01
 86 7.2969E-01 4.6218E+00 2.2599E+02  0.00E+00  -3.5811E-02  2.2603E+02  2.9317E-05  2.9523E-05 -9.1077E-01  2.2522E-01
 87 7.7349E-01 4.2804E+00 2.2959E+02  1.00E+00  -3.5000E-02  2.2962E+02  4.4960E-05  4.5265E-05 -1.0070E+00  2.5307E-01
 88 8.1891E-01 3.9411E+00 2.3314E+02  1.00E+00  -3.3428E-02  2.3317E+02  6.7669E-05  6.8109E-05 -1.0677E+00  2.8438E-01
 89 8.6592E-01 3.6041E+00 2.3663E+02  1.00E+00  -3.1096E-02  2.3666E+02  9.9972E-05  1.0058E-04 -1.0685E+00  3.1052E-01
 90 9.1448E-01 3.2698E+00 2.4006E+02  1.00E+00  -2.8006E-02  2.4008E+02  1.4499E-04  1.4582E-04 -1.0462E+00  3.2545E-01
 91 9.6457E-01 2.9384E+00 2.4341E+02  1.00E+00  -2.4162E-02  2.4343E+02  2.0645E-04  2.0752E-04 -1.0116E+00  3.3291E-01
 92 1.0161E+00 2.6104E+00 2.4667E+02  1.00E+00  -1.9581E-02  2.4669E+02  2.8862E-04  2.8997E-04 -1.0189E+00  3.5889E-01
 93 1.0691E+00 2.2860E+00 2.4984E+02  1.00E+00  -1.4304E-02  2.4986E+02  3.9622E-04  3.9785E-04 -1.0748E+00  3.9484E-01
 94 1.1235E+00 1.9655E+00 2.5291E+02  1.00E+00  -8.4112E-03  2.5291E+02  5.3426E-04  5.3614E-04 -1.1095E+00  4.2542E-01
 95 1.1791E+00 1.6493E+00 2.5586E+02  1.00E+00  -2.0245E-03  2.5586E+02  7.0778E-04  7.0983E-04 -1.0784E+00  4.5042E-01
 96 1.2360E+00 1.3378E+00 2.5870E+02  1.00E+00   4.6943E-03  2.5869E+02  9.2166E-04  9.2375E-04 -9.7386E-01  4.7278E-01
 97 1.2940E+00 1.0311E+00 2.6141E+02  1.00E+00   1.1555E-02  2.6140E+02  1.1803E-03  1.1823E-03 -8.3925E-01  4.9267E-01
 98 1.3530E+00 7.2970E-01 2.6401E+02  1.00E+00   1.8347E-02  2.6399E+02  1.4876E-03  1.4892E-03 -7.2294E-01  5.1358E-01
 99 1.4130E+00 4.3384E-01 2.6647E+02  1.00E+00   2.4848E-02  2.6645E+02  1.8464E-03  1.8475E-03 -7.3992E-01  5.4133E-01
100 1.4738E+00 1.4382E-01 2.6882E+02  1.00E+00   3.0827E-02  2.6879E+02  2.2590E-03  2.2592E-03 -7.4052E-01  5.8421E-01
101 1.5047E+00 0.0000E+00 2.6996E+02  1.00E+00   3.5750E-02  2.6992E+02  2.4882E-03  2.4875E-03 -1.2156E+00  3.3545E+00

 FCO2
  2.48E-01 2.48E-01 2.48E-01 2.48E-01 2.48E-01 2.48E-01 2.48E-01 2.48E-01 2.48E-01 2.48E-01
  2.48E-01 2.48E-01 2.48E-01 2.48E-01 2.48E-01 2.48E-01 2.48E-01 2.48E-01 2.48E-01 2.48E-01
  2.48E-01 2.48E-01 2.48E-01 2.48E-01 2.48E-01 2.48E-01 2.48E-01 2.48E-01 2.48E-01 2.48E-01
  2.48E-01 2.48E-01 2.48E-01 2.48E-01 2.48E-01 2.48E-01 2.48E-01 2.48E-01 2.48E-01 2.48E-01
  2.48E-01 2.48E-01 2.48E-01 2.48E-01 2.48E-01 2.48E-01 2.48E-01 2.48E-01 2.48E-01 2.48E-01
  2.48E-01 2.48E-01 2.48E-01 2.48E-01 2.48E-01 2.48E-01 2.48E-01 2.48E-01 2.48E-01 2.48E-01
  2.48E-01 2.48E-01 2.48E-01 2.48E-01 2.48E-01 2.48E-01 2.48E-01 2.48E-01 2.48E-01 2.48E-01
  2.48E-01 2.48E-01 2.48E-01 2.48E-01 2.48E-01 2.48E-01 2.48E-01 2.48E-01 2.48E-01 2.48E-01
  2.48E-01 2.48E-01 2.48E-01 2.48E-01 2.48E-01 2.48E-01 2.48E-01 2.48E-01 2.48E-01 2.48E-01
  2.48E-01 2.48E-01 2.48E-01 2.48E-01 2.48E-01 2.48E-01 2.48E-01 2.48E-01 2.48E-01 2.48E-01
  2.48E-01

  J    PF         ALT       FTOTAL       FTIR       FDNIR       FUPIR       FTSOL       FDNSOL       FUPSOL       DIVF
  1 5.0000E-05 5.3066E+01  1.5515E+02 -1.5343E+05  0.0000E+00  1.5343E+05  1.5359E+05  3.2300E+05  1.6941E+05  1.0112E-03
  2 5.8955E-05 5.2154E+01  1.5516E+02 -1.5287E+05  4.6141E+02  1.5333E+05  1.5302E+05  3.2243E+05  1.6941E+05  1.0120E-03
  3 6.9426E-05 5.1274E+01  1.8912E+02 -1.5271E+05  5.6313E+02  1.5328E+05  1.5290E+05  3.2231E+05  1.6941E+05  1.2339E-03
  4 8.1656E-05 5.0412E+01  1.9320E+02 -1.5259E+05  6.4471E+02  1.5324E+05  1.5279E+05  3.2219E+05  1.6941E+05  1.2608E-03
  5 9.5921E-05 4.9563E+01  1.9001E+02 -1.5248E+05  7.1820E+02  1.5319E+05  1.5267E+05  3.2207E+05  1.6941E+05  1.2403E-03
  6 1.1254E-04 4.8730E+01  1.8216E+02 -1.5236E+05  7.8185E+02  1.5314E+05  1.5254E+05  3.2195E+05  1.6941E+05  1.1895E-03
  7 1.3187E-04 4.7915E+01  1.7908E+02 -1.5223E+05  8.4485E+02  1.5308E+05  1.5241E+05  3.2182E+05  1.6941E+05  1.1699E-03
  8 1.5433E-04 4.7120E+01  1.7792E+02 -1.5210E+05  9.0979E+02  1.5301E+05  1.5228E+05  3.2169E+05  1.6941E+05  1.1628E-03
  9 1.8039E-04 4.6347E+01  1.7939E+02 -1.5197E+05  9.8101E+02  1.5295E+05  1.5215E+05  3.2156E+05  1.6941E+05  1.1728E-03
 10 2.1059E-04 4.5592E+01  1.8394E+02 -1.5184E+05  1.0619E+03  1.5290E+05  1.5202E+05  3.2143E+05  1.6940E+05  1.2030E-03
 11 2.4554E-04 4.4854E+01  1.9106E+02 -1.5171E+05  1.1534E+03  1.5286E+05  1.5190E+05  3.2131E+05  1.6940E+05  1.2498E-03
 12 2.8593E-04 4.4130E+01  1.9972E+02 -1.5159E+05  1.2549E+03  1.5284E+05  1.5179E+05  3.2119E+05  1.6940E+05  1.3067E-03
 13 3.3255E-04 4.3417E+01  2.1017E+02 -1.5147E+05  1.3659E+03  1.5283E+05  1.5168E+05  3.2108E+05  1.6940E+05  1.3751E-03
 14 3.8629E-04 4.2712E+01  2.1970E+02 -1.5135E+05  1.4849E+03  1.5284E+05  1.5157E+05  3.2098E+05  1.6940E+05  1.4375E-03
 15 4.4816E-04 4.2014E+01  2.2711E+02 -1.5124E+05  1.6108E+03  1.5285E+05  1.5147E+05  3.2087E+05  1.6940E+05  1.4858E-03
 16 5.1929E-04 4.1322E+01  2.3251E+02 -1.5113E+05  1.7440E+03  1.5288E+05  1.5137E+05  3.2077E+05  1.6940E+05  1.5209E-03
 17 6.0096E-04 4.0634E+01  2.3575E+02 -1.5102E+05  1.8858E+03  1.5290E+05  1.5125E+05  3.2065E+05  1.6940E+05  1.5418E-03
 18 6.9462E-04 3.9951E+01  2.3770E+02 -1.5090E+05  2.0390E+03  1.5294E+05  1.5114E+05  3.2053E+05  1.6940E+05  1.5542E-03
 19 8.0187E-04 3.9272E+01  2.3826E+02 -1.5077E+05  2.2051E+03  1.5297E+05  1.5100E+05  3.2040E+05  1.6940E+05  1.5575E-03
 20 9.2452E-04 3.8597E+01  2.3672E+02 -1.5062E+05  2.3855E+03  1.5301E+05  1.5086E+05  3.2025E+05  1.6940E+05  1.5471E-03
 21 1.0646E-03 3.7927E+01  2.2666E+02 -1.5047E+05  2.5791E+03  1.5305E+05  1.5069E+05  3.2009E+05  1.6939E+05  1.4810E-03
 22 1.2244E-03 3.7262E+01  2.3840E+02 -1.5025E+05  2.8599E+03  1.5311E+05  1.5049E+05  3.1988E+05  1.6939E+05  1.5570E-03
 23 1.4064E-03 3.6600E+01  2.6310E+02 -1.4998E+05  3.2323E+03  1.5321E+05  1.5024E+05  3.1964E+05  1.6939E+05  1.7172E-03
 24 1.6135E-03 3.5941E+01  2.8943E+02 -1.4967E+05  3.6819E+03  1.5335E+05  1.4996E+05  3.1935E+05  1.6939E+05  1.8874E-03
 25 1.8488E-03 3.5283E+01  3.0547E+02 -1.4932E+05  4.1813E+03  1.5351E+05  1.4963E+05  3.1902E+05  1.6939E+05  1.9900E-03
 26 2.1157E-03 3.4626E+01  3.0448E+02 -1.4897E+05  4.7019E+03  1.5367E+05  1.4927E+05  3.1867E+05  1.6940E+05  1.9813E-03
 27 2.4182E-03 3.3971E+01  2.9032E+02 -1.4861E+05  5.2278E+03  1.5383E+05  1.4890E+05  3.1830E+05  1.6940E+05  1.8872E-03
 28 2.7604E-03 3.3318E+01  2.6624E+02 -1.4824E+05  5.7472E+03  1.5398E+05  1.4850E+05  3.1791E+05  1.6940E+05  1.7290E-03
 29 3.1472E-03 3.2667E+01  2.4069E+02 -1.4786E+05  6.2628E+03  1.5412E+05  1.4810E+05  3.1751E+05  1.6941E+05  1.5617E-03
 30 3.5837E-03 3.2020E+01  2.2264E+02 -1.4747E+05  6.7824E+03  1.5425E+05  1.4769E+05  3.1711E+05  1.6942E+05  1.4434E-03
 31 4.0757E-03 3.1377E+01  2.1700E+02 -1.4707E+05  7.3127E+03  1.5438E+05  1.4728E+05  3.1671E+05  1.6943E+05  1.4057E-03
 32 4.6295E-03 3.0738E+01  2.1579E+02 -1.4666E+05  7.8484E+03  1.5451E+05  1.4688E+05  3.1631E+05  1.6944E+05  1.3966E-03
 33 5.2519E-03 3.0103E+01  2.1946E+02 -1.4626E+05  8.3924E+03  1.5465E+05  1.4648E+05  3.1592E+05  1.6945E+05  1.4191E-03
 34 5.9507E-03 2.9473E+01  2.2209E+02 -1.4585E+05  8.9382E+03  1.5479E+05  1.4607E+05  3.1553E+05  1.6946E+05  1.4348E-03
 35 6.7340E-03 2.8846E+01  2.1381E+02 -1.4545E+05  9.4729E+03  1.5492E+05  1.4566E+05  3.1514E+05  1.6948E+05  1.3801E-03
 36 7.6109E-03 2.8224E+01  1.9748E+02 -1.4504E+05  9.9977E+03  1.5504E+05  1.4524E+05  3.1474E+05  1.6950E+05  1.2737E-03
 37 8.5913E-03 2.7607E+01  1.6467E+02 -1.4464E+05  1.0501E+04  1.5514E+05  1.4481E+05  3.1433E+05  1.6952E+05  1.0614E-03
 38 9.6860E-03 2.6995E+01  1.1773E+02 -1.4423E+05  1.0986E+04  1.5522E+05  1.4435E+05  3.1390E+05  1.6955E+05  7.5850E-04
 39 1.0907E-02 2.6389E+01  6.4209E+01 -1.4382E+05  1.1467E+04  1.5528E+05  1.4388E+05  3.1346E+05  1.6958E+05  4.1350E-04
 40 1.2266E-02 2.5788E+01  5.4232E+01 -1.4333E+05  1.2012E+04  1.5535E+05  1.4339E+05  3.1300E+05  1.6961E+05  3.4910E-04
 41 1.3777E-02 2.5193E+01  7.9516E+01 -1.4281E+05  1.2622E+04  1.5543E+05  1.4289E+05  3.1253E+05  1.6964E+05  5.1159E-04
 42 1.5455E-02 2.4605E+01  1.1976E+02 -1.4226E+05  1.3277E+04  1.5554E+05  1.4238E+05  3.1206E+05  1.6968E+05  7.7000E-04
 43 1.7316E-02 2.4021E+01  1.5981E+02 -1.4171E+05  1.3956E+04  1.5566E+05  1.4187E+05  3.1158E+05  1.6971E+05  1.0266E-03
 44 1.9377E-02 2.3443E+01  1.8774E+02 -1.4117E+05  1.4641E+04  1.5581E+05  1.4136E+05  3.1110E+05  1.6975E+05  1.2049E-03
 45 2.1657E-02 2.2871E+01  2.1773E+02 -1.4063E+05  1.5345E+04  1.5598E+05  1.4085E+05  3.1063E+05  1.6978E+05  1.3959E-03
 46 2.4174E-02 2.2304E+01  2.3072E+02 -1.4011E+05  1.6045E+04  1.5615E+05  1.4034E+05  3.1015E+05  1.6982E+05  1.4775E-03
 47 2.6950E-02 2.1742E+01  2.5224E+02 -1.3957E+05  1.6770E+04  1.5634E+05  1.3983E+05  3.0967E+05  1.6985E+05  1.6134E-03
 48 3.0008E-02 2.1185E+01  2.6392E+02 -1.3904E+05  1.7501E+04  1.5654E+05  1.3931E+05  3.0919E+05  1.6988E+05  1.6860E-03
 49 3.3372E-02 2.0634E+01  2.6470E+02 -1.3851E+05  1.8236E+04  1.5675E+05  1.3877E+05  3.0868E+05  1.6991E+05  1.6887E-03
 50 3.7066E-02 2.0088E+01  2.6593E+02 -1.3796E+05  1.8989E+04  1.5695E+05  1.3823E+05  3.0816E+05  1.6994E+05  1.6943E-03
 51 4.1118E-02 1.9548E+01  2.3614E+02 -1.3743E+05  1.9721E+04  1.5715E+05  1.3767E+05  3.0762E+05  1.6996E+05  1.5026E-03
 52 4.5556E-02 1.9012E+01  1.8579E+02 -1.3690E+05  2.0436E+04  1.5734E+05  1.3709E+05  3.0706E+05  1.6997E+05  1.1808E-03
 53 5.0410E-02 1.8483E+01  9.0658E+01 -1.3640E+05  2.1099E+04  1.5750E+05  1.3649E+05  3.0648E+05  1.6999E+05  5.7560E-04
 54 5.5712E-02 1.7960E+01 -4.4871E+01 -1.3594E+05  2.1702E+04  1.5764E+05  1.3589E+05  3.0588E+05  1.6999E+05 -2.8465E-04
 55 6.1496E-02 1.7442E+01 -1.9829E+02 -1.3548E+05  2.2262E+04  1.5774E+05  1.3528E+05  3.0526E+05  1.6998E+05 -1.2570E-03
 56 6.7795E-02 1.6931E+01 -3.7364E+02 -1.3504E+05  2.2766E+04  1.5781E+05  1.3467E+05  3.0464E+05  1.6997E+05 -2.3677E-03
 57 7.4646E-02 1.6426E+01 -5.5372E+02 -1.3462E+05  2.3225E+04  1.5784E+05  1.3407E+05  3.0400E+05  1.6994E+05 -3.5080E-03
 58 8.2088E-02 1.5929E+01 -7.2099E+02 -1.3420E+05  2.3652E+04  1.5785E+05  1.3348E+05  3.0337E+05  1.6989E+05 -4.5676E-03
 59 9.0159E-02 1.5438E+01 -8.5790E+02 -1.3377E+05  2.4062E+04  1.5783E+05  1.3291E+05  3.0275E+05  1.6984E+05 -5.4355E-03
 60 9.8900E-02 1.4954E+01 -9.6457E+02 -1.3334E+05  2.4453E+04  1.5779E+05  1.3238E+05  3.0213E+05  1.6976E+05 -6.1128E-03
 61 1.0835E-01 1.4478E+01 -1.0258E+03 -1.3288E+05  2.4868E+04  1.5775E+05  1.3186E+05  3.0152E+05  1.6966E+05 -6.5030E-03
 62 1.1856E-01 1.4008E+01 -1.0455E+03 -1.3237E+05  2.5347E+04  1.5771E+05  1.3132E+05  3.0088E+05  1.6956E+05 -6.6294E-03
 63 1.2957E-01 1.3546E+01 -1.0140E+03 -1.3179E+05  2.5900E+04  1.5769E+05  1.3078E+05  3.0023E+05  1.6945E+05 -6.4301E-03
 64 1.4143E-01 1.3091E+01 -9.4490E+02 -1.3118E+05  2.6510E+04  1.5769E+05  1.3024E+05  2.9956E+05  1.6933E+05 -5.9919E-03
 65 1.5418E-01 1.2643E+01 -8.2242E+02 -1.3053E+05  2.7198E+04  1.5773E+05  1.2971E+05  2.9890E+05  1.6919E+05 -5.2141E-03
 66 1.6787E-01 1.2202E+01 -6.5226E+02 -1.2984E+05  2.7967E+04  1.5781E+05  1.2919E+05  2.9823E+05  1.6905E+05 -4.1333E-03
 67 1.8255E-01 1.1768E+01 -4.4428E+02 -1.2912E+05  2.8814E+04  1.5793E+05  1.2867E+05  2.9756E+05  1.6889E+05 -2.8131E-03
 68 1.9826E-01 1.1341E+01 -2.3107E+02 -1.2839E+05  2.9705E+04  1.5810E+05  1.2816E+05  2.9688E+05  1.6872E+05 -1.4615E-03
 69 2.1506E-01 1.0920E+01 -4.3395E+00 -1.2766E+05  3.0665E+04  1.5832E+05  1.2765E+05  2.9619E+05  1.6853E+05 -2.7410E-05
 70 2.3300E-01 1.0506E+01  2.2386E+02 -1.2691E+05  3.1689E+04  1.5860E+05  1.2714E+05  2.9547E+05  1.6834E+05  1.4114E-03
 71 2.5211E-01 1.0098E+01  4.4233E+02 -1.2617E+05  3.2773E+04  1.5895E+05  1.2662E+05  2.9474E+05  1.6812E+05  2.7829E-03
 72 2.7245E-01 9.6965E+00  6.4136E+02 -1.2545E+05  3.3913E+04  1.5936E+05  1.2609E+05  2.9398E+05  1.6789E+05  4.0246E-03
 73 2.9407E-01 9.3012E+00  8.1317E+02 -1.2474E+05  3.5103E+04  1.5984E+05  1.2555E+05  2.9320E+05  1.6765E+05  5.0874E-03
 74 3.1701E-01 8.9120E+00  9.6441E+02 -1.2404E+05  3.6378E+04  1.6042E+05  1.2500E+05  2.9239E+05  1.6738E+05  6.0119E-03
 75 3.4131E-01 8.5287E+00  1.0561E+03 -1.2339E+05  3.7695E+04  1.6108E+05  1.2444E+05  2.9155E+05  1.6711E+05  6.5560E-03
 76 3.6702E-01 8.1513E+00  1.0692E+03 -1.2280E+05  3.9048E+04  1.6184E+05  1.2386E+05  2.9068E+05  1.6682E+05  6.6065E-03
 77 3.9418E-01 7.7798E+00  9.9334E+02 -1.2228E+05  4.0473E+04  1.6275E+05  1.2327E+05  2.8978E+05  1.6651E+05  6.1034E-03
 78 4.2281E-01 7.4140E+00  7.9146E+02 -1.2187E+05  4.1920E+04  1.6379E+05  1.2266E+05  2.8886E+05  1.6619E+05  4.8320E-03
 79 4.5296E-01 7.0539E+00  4.3024E+02 -1.2162E+05  4.3388E+04  1.6500E+05  1.2205E+05  2.8790E+05  1.6586E+05  2.6075E-03
 80 4.8466E-01 6.6994E+00 -1.4670E+02 -1.2156E+05  4.5030E+04  1.6659E+05  1.2141E+05  2.8693E+05  1.6551E+05 -8.8062E-04
 81 5.1793E-01 6.3495E+00 -8.9114E+02 -1.2166E+05  4.7327E+04  1.6899E+05  1.2077E+05  2.8592E+05  1.6515E+05 -5.2733E-03
 82 5.5280E-01 6.0020E+00 -1.3845E+03 -1.2150E+05  5.0998E+04  1.7249E+05  1.2011E+05  2.8489E+05  1.6478E+05 -8.0265E-03
 83 5.8928E-01 5.6553E+00 -1.1527E+03 -1.2057E+05  5.6009E+04  1.7658E+05  1.1942E+05  2.8381E+05  1.6439E+05 -6.5278E-03
 84 6.2739E-01 5.3095E+00 -8.6416E+01 -1.1876E+05  6.2375E+04  1.8113E+05  1.1867E+05  2.8266E+05  1.6399E+05 -4.7708E-04
 85 6.6713E-01 4.9649E+00  1.7696E+03 -1.1608E+05  7.0016E+04  1.8610E+05  1.1785E+05  2.8144E+05  1.6358E+05  9.5088E-03
 86 7.0850E-01 4.6218E+00  4.3524E+03 -1.1258E+05  7.8949E+04  1.9153E+05  1.1693E+05  2.8010E+05  1.6316E+05  2.2724E-02
 87 7.5150E-01 4.2804E+00  7.5520E+03 -1.0833E+05  8.9100E+04  1.9743E+05  1.1588E+05  2.7861E+05  1.6273E+05  3.8251E-02
 88 7.9613E-01 3.9411E+00  1.1209E+04 -1.0345E+05  1.0028E+05  2.0373E+05  1.1466E+05  2.7695E+05  1.6229E+05  5.5019E-02
 89 8.4235E-01 3.6041E+00  1.5151E+04 -9.8073E+04  1.1238E+05  2.1046E+05  1.1322E+05  2.7507E+05  1.6185E+05  7.1992E-02
 90 8.9015E-01 3.2698E+00  1.9102E+04 -9.2504E+04  1.2502E+05  2.1752E+05  1.1161E+05  2.7300E+05  1.6140E+05  8.7817E-02
 91 9.3949E-01 2.9384E+00  2.2986E+04 -8.6866E+04  1.3806E+05  2.2493E+05  1.0985E+05  2.7080E+05  1.6095E+05  1.0220E-01
 92 9.9033E-01 2.6104E+00  2.6761E+04 -8.1240E+04  1.5132E+05  2.3256E+05  1.0800E+05  2.6851E+05  1.6051E+05  1.1507E-01
 93 1.0426E+00 2.2860E+00  3.0542E+04 -7.5403E+04  1.6495E+05  2.4036E+05  1.0594E+05  2.6603E+05  1.6008E+05  1.2707E-01
 94 1.0963E+00 1.9655E+00  3.4547E+04 -6.9072E+04  1.7922E+05  2.4829E+05  1.0362E+05  2.6330E+05  1.5968E+05  1.3914E-01
 95 1.1513E+00 1.6493E+00  3.8682E+04 -6.2366E+04  1.9404E+05  2.5641E+05  1.0105E+05  2.6037E+05  1.5932E+05  1.5086E-01
 96 1.2076E+00 1.3378E+00  4.2570E+04 -5.5689E+04  2.0898E+05  2.6467E+05  9.8259E+04  2.5727E+05  1.5901E+05  1.6084E-01
 97 1.2651E+00 1.0311E+00  4.5741E+04 -4.9527E+04  2.2343E+05  2.7296E+05  9.5267E+04  2.5405E+05  1.5879E+05  1.6757E-01
 98 1.3236E+00 7.2970E-01  4.7978E+04 -4.4109E+04  2.3707E+05  2.8118E+05  9.2087E+04  2.5076E+05  1.5867E+05  1.7063E-01
 99 1.3831E+00 4.3384E-01  4.9354E+04 -3.9358E+04  2.4972E+05  2.8908E+05  8.8712E+04  2.4743E+05  1.5872E+05  1.7073E-01
100 1.4435E+00 1.4382E-01  5.0680E+04 -3.4417E+04  2.6174E+05  2.9615E+05  8.5098E+04  2.4409E+05  1.5900E+05  1.7113E-01
101 1.5047E+00 0.0000E+00  5.1738E+04 -2.9406E+04  2.7000E+05  2.9941E+05  8.1144E+04  2.4078E+05  1.5964E+05  1.7280E-01
 
 NST=     2 JCONV= 86 CHG=2.54E-03 dt0=1.00E+04 DIVF(1)= 1.24E-03 DIVFrms= 3.34E-03 DT(ND)= 3.42E-02 T(ND)=2.6999E+02
 NST=     3 JCONV= 85 CHG=2.18E-03 dt0=1.00E+04 DIVF(1)= 6.84E-04 DIVFrms= 3.05E-03 DT(ND)= 3.43E-02 T(ND)=2.7003E+02
 NST=     4 JCONV= 85 CHG=6.86E-04 dt0=1.00E+04 DIVF(1)= 3.44E-04 DIVFrms= 3.19E-03 DT(ND)= 1.89E-02 T(ND)=2.7004E+02
 NST=     5 JCONV= 85 CHG=6.31E-04 dt0=1.00E+04 DIVF(1)= 8.31E-04 DIVFrms= 3.02E-03 DT(ND)= 1.09E-02 T(ND)=2.7006E+02
 NST=     6 JCONV= 85 CHG=4.59E-04 dt0=1.00E+04 DIVF(1)= 4.67E-04 DIVFrms= 3.13E-03 DT(ND)= 6.34E-03 T(ND)=2.7006E+02
 NST=     7 JCONV= 84 CHG=5.03E-04 dt0=1.00E+04 DIVF(1)= 8.96E-04 DIVFrms= 3.00E-03 DT(ND)= 3.62E-03 T(ND)=2.7007E+02
 NST=     8 JCONV= 84 CHG=2.98E-04 dt0=1.00E+04 DIVF(1)= 4.62E-04 DIVFrms= 3.11E-03 DT(ND)= 2.02E-03 T(ND)=2.7007E+02
 NST=     9 JCONV= 84 CHG=4.18E-04 dt0=1.00E+04 DIVF(1)= 8.92E-04 DIVFrms= 2.96E-03 DT(ND)= 9.99E-04 T(ND)=2.7007E+02
 NST=    10 JCONV= 84 CHG=2.89E-04 dt0=1.00E+04 DIVF(1)= 5.06E-04 DIVFrms= 3.06E-03 DT(ND)= 2.71E-04 T(ND)=2.7007E+02
 NST=    11 JCONV= 84 CHG=3.93E-04 dt0=1.00E+04 DIVF(1)= 5.63E-04 DIVFrms= 3.04E-03 DT(ND)=-2.13E-04 T(ND)=2.7007E+02
 NST=    12 JCONV= 84 CHG=2.98E-04 dt0=1.00E+04 DIVF(1)= 5.41E-04 DIVFrms= 3.02E-03 DT(ND)=-5.34E-04 T(ND)=2.7007E+02
 NST=    13 JCONV= 84 CHG=3.85E-04 dt0=1.00E+04 DIVF(1)= 9.73E-04 DIVFrms= 2.89E-03 DT(ND)=-7.20E-04 T(ND)=2.7007E+02
 NST=    14 JCONV= 84 CHG=3.14E-04 dt0=1.00E+04 DIVF(1)= 5.72E-04 DIVFrms= 2.98E-03 DT(ND)=-8.19E-04 T(ND)=2.7007E+02
 NST=    15 JCONV= 84 CHG=3.69E-04 dt0=1.00E+04 DIVF(1)= 7.77E-04 DIVFrms= 2.92E-03 DT(ND)=-8.71E-04 T(ND)=2.7007E+02
 NST=    16 JCONV= 84 CHG=3.18E-04 dt0=1.00E+04 DIVF(1)= 7.51E-04 DIVFrms= 2.91E-03 DT(ND)=-9.19E-04 T(ND)=2.7006E+02
 NST=    17 JCONV= 84 CHG=3.72E-04 dt0=1.00E+04 DIVF(1)= 7.96E-04 DIVFrms= 2.89E-03 DT(ND)=-9.37E-04 T(ND)=2.7006E+02
 NST=    18 JCONV= 84 CHG=3.23E-04 dt0=1.00E+04 DIVF(1)= 7.68E-04 DIVFrms= 2.87E-03 DT(ND)=-9.54E-04 T(ND)=2.7006E+02
 NST=    19 JCONV= 84 CHG=3.59E-04 dt0=1.00E+04 DIVF(1)= 8.08E-04 DIVFrms= 2.86E-03 DT(ND)=-9.53E-04 T(ND)=2.7006E+02
 NST=    20 JCONV= 84 CHG=7.67E-04 dt0=1.00E+04 DIVF(1)= 7.81E-04 DIVFrms= 2.84E-03 DT(ND)=-9.59E-04 T(ND)=2.7006E+02
 NST=    21 JCONV= 84 CHG=5.85E-04 dt0=1.00E+04 DIVF(1)= 8.17E-04 DIVFrms= 2.83E-03 DT(ND)=-9.51E-04 T(ND)=2.7006E+02
 NST=    22 JCONV= 84 CHG=2.08E-04 dt0=1.00E+04 DIVF(1)= 7.87E-04 DIVFrms= 2.81E-03 DT(ND)=-9.53E-04 T(ND)=2.7006E+02
 NST=    23 JCONV= 84 CHG=3.99E-04 dt0=1.00E+04 DIVF(1)= 4.12E-04 DIVFrms= 3.08E-03 DT(ND)=-9.75E-04 T(ND)=2.7006E+02
 NST=    24 JCONV= 84 CHG=7.47E-04 dt0=1.00E+04 DIVF(1)= 7.02E-04 DIVFrms= 2.80E-03 DT(ND)=-9.96E-04 T(ND)=2.7006E+02
 NST=    25 JCONV= 84 CHG=5.83E-04 dt0=1.00E+04 DIVF(1)= 4.13E-04 DIVFrms= 3.05E-03 DT(ND)=-9.85E-04 T(ND)=2.7006E+02
 NST=    26 JCONV= 84 CHG=2.10E-04 dt0=1.00E+04 DIVF(1)= 7.03E-04 DIVFrms= 2.77E-03 DT(ND)=-9.95E-04 T(ND)=2.7006E+02
 NST=    27 JCONV= 84 CHG=3.96E-04 dt0=1.00E+04 DIVF(1)= 4.13E-04 DIVFrms= 3.02E-03 DT(ND)=-9.80E-04 T(ND)=2.7005E+02
 NST=    28 JCONV= 84 CHG=7.49E-04 dt0=1.00E+04 DIVF(1)= 6.67E-04 DIVFrms= 2.74E-03 DT(ND)=-9.88E-04 T(ND)=2.7005E+02
 NST=    29 JCONV= 84 CHG=5.80E-04 dt0=1.00E+04 DIVF(1)= 3.72E-04 DIVFrms= 3.01E-03 DT(ND)=-9.73E-04 T(ND)=2.7005E+02
 NST=    30 JCONV= 84 CHG=2.17E-04 dt0=1.00E+04 DIVF(1)= 3.43E-04 DIVFrms= 2.98E-03 DT(ND)=-9.81E-04 T(ND)=2.7005E+02
 NST=    31 JCONV= 84 CHG=3.96E-04 dt0=1.00E+04 DIVF(1)= 6.93E-04 DIVFrms= 2.69E-03 DT(ND)=-9.84E-04 T(ND)=2.7005E+02
 NST=    32 JCONV= 84 CHG=7.50E-04 dt0=1.00E+04 DIVF(1)= 2.36E-04 DIVFrms= 2.99E-03 DT(ND)=-9.78E-04 T(ND)=2.7005E+02
 NST=    33 JCONV= 84 CHG=5.82E-04 dt0=1.00E+04 DIVF(1)= 2.65E-04 DIVFrms= 2.96E-03 DT(ND)=-9.72E-04 T(ND)=2.7005E+02
 NST=    34 JCONV= 84 CHG=2.19E-04 dt0=1.00E+04 DIVF(1)= 2.28E-04 DIVFrms= 2.95E-03 DT(ND)=-9.86E-04 T(ND)=2.7005E+02
 NST=    35 JCONV= 84 CHG=4.01E-04 dt0=1.00E+04 DIVF(1)= 6.07E-04 DIVFrms= 2.60E-03 DT(ND)=-9.84E-04 T(ND)=2.7005E+02
 NST=    36 JCONV= 84 CHG=7.52E-04 dt0=1.00E+04 DIVF(1)= 2.32E-04 DIVFrms= 2.89E-03 DT(ND)=-9.71E-04 T(ND)=2.7005E+02
 NST=    37 JCONV= 84 CHG=5.75E-04 dt0=1.00E+04 DIVF(1)= 4.14E-04 DIVFrms= 2.81E-03 DT(ND)=-9.54E-04 T(ND)=2.7004E+02
 NST=    38 JCONV= 84 CHG=2.18E-04 dt0=1.00E+04 DIVF(1)= 3.84E-04 DIVFrms= 2.80E-03 DT(ND)=-9.60E-04 T(ND)=2.7004E+02
 NST=    39 JCONV= 84 CHG=3.99E-04 dt0=1.00E+04 DIVF(1)= 4.08E-04 DIVFrms= 2.78E-03 DT(ND)=-9.53E-04 T(ND)=2.7004E+02
 NST=    40 JCONV= 84 CHG=7.55E-04 dt0=1.00E+04 DIVF(1)= 3.71E-04 DIVFrms= 2.77E-03 DT(ND)=-9.56E-04 T(ND)=2.7004E+02
 NST=    41 JCONV= 84 CHG=5.80E-04 dt0=1.00E+04 DIVF(1)= 4.07E-04 DIVFrms= 2.75E-03 DT(ND)=-9.47E-04 T(ND)=2.7004E+02
 NST=    42 JCONV= 84 CHG=2.17E-04 dt0=1.00E+04 DIVF(1)= 3.66E-04 DIVFrms= 2.73E-03 DT(ND)=-9.48E-04 T(ND)=2.7004E+02
 NST=    43 JCONV= 84 CHG=3.95E-04 dt0=1.00E+04 DIVF(1)= 4.05E-04 DIVFrms= 2.71E-03 DT(ND)=-9.38E-04 T(ND)=2.7004E+02
 NST=    44 JCONV= 84 CHG=7.57E-04 dt0=1.00E+04 DIVF(1)= 3.64E-04 DIVFrms= 2.69E-03 DT(ND)=-9.39E-04 T(ND)=2.7004E+02
 NST=    45 JCONV= 84 CHG=5.75E-04 dt0=1.00E+04 DIVF(1)= 4.00E-04 DIVFrms= 2.67E-03 DT(ND)=-9.28E-04 T(ND)=2.7004E+02
 NST=    46 JCONV= 84 CHG=2.11E-04 dt0=1.00E+04 DIVF(1)= 3.62E-04 DIVFrms= 2.66E-03 DT(ND)=-9.28E-04 T(ND)=2.7004E+02
 NST=    47 JCONV= 84 CHG=3.96E-04 dt0=1.00E+04 DIVF(1)= 4.05E-04 DIVFrms= 2.62E-03 DT(ND)=-9.17E-04 T(ND)=2.7004E+02
 NST=    48 JCONV= 84 CHG=7.55E-04 dt0=1.00E+04 DIVF(1)= 3.69E-04 DIVFrms= 2.61E-03 DT(ND)=-9.17E-04 T(ND)=2.7003E+02
 NST=    49 JCONV= 84 CHG=5.72E-04 dt0=1.00E+04 DIVF(1)= 3.96E-04 DIVFrms= 2.60E-03 DT(ND)=-9.06E-04 T(ND)=2.7003E+02
 NST=    50 JCONV= 84 CHG=2.14E-04 dt0=1.00E+04 DIVF(1)= 5.10E-04 DIVFrms= 2.54E-03 DT(ND)=-9.00E-04 T(ND)=2.7003E+02
 NST=    51 JCONV= 84 CHG=4.00E-04 dt0=1.00E+04 DIVF(1)= 5.40E-04 DIVFrms= 2.53E-03 DT(ND)=-8.85E-04 T(ND)=2.7003E+02
 NST=    52 JCONV= 84 CHG=7.56E-04 dt0=1.00E+04 DIVF(1)= 5.04E-04 DIVFrms= 2.52E-03 DT(ND)=-8.81E-04 T(ND)=2.7003E+02
 NST=    53 JCONV= 84 CHG=5.72E-04 dt0=1.00E+04 DIVF(1)= 5.31E-04 DIVFrms= 2.50E-03 DT(ND)=-8.67E-04 T(ND)=2.7003E+02
 NST=    54 JCONV= 84 CHG=2.14E-04 dt0=1.00E+04 DIVF(1)= 4.93E-04 DIVFrms= 2.50E-03 DT(ND)=-8.65E-04 T(ND)=2.7003E+02
 NST=    55 JCONV= 84 CHG=3.92E-04 dt0=1.00E+04 DIVF(1)= 5.23E-04 DIVFrms= 2.48E-03 DT(ND)=-8.54E-04 T(ND)=2.7003E+02
 NST=    56 JCONV= 84 CHG=7.59E-04 dt0=1.00E+04 DIVF(1)= 2.02E-04 DIVFrms= 2.86E-03 DT(ND)=-8.55E-04 T(ND)=2.7003E+02
 NST=    57 JCONV= 84 CHG=5.80E-04 dt0=1.00E+04 DIVF(1)= 5.06E-04 DIVFrms= 2.46E-03 DT(ND)=-8.61E-04 T(ND)=2.7003E+02
 NST=    58 JCONV= 84 CHG=2.18E-04 dt0=1.00E+04 DIVF(1)= 1.86E-04 DIVFrms= 2.84E-03 DT(ND)=-8.67E-04 T(ND)=2.7003E+02
 NST=    59 JCONV= 84 CHG=3.85E-04 dt0=1.00E+04 DIVF(1)= 5.01E-04 DIVFrms= 2.42E-03 DT(ND)=-8.67E-04 T(ND)=2.7002E+02
 NST=    60 JCONV= 84 CHG=7.56E-04 dt0=1.00E+04 DIVF(1)= 1.90E-04 DIVFrms= 2.79E-03 DT(ND)=-8.67E-04 T(ND)=2.7002E+02
 NST=    61 JCONV= 84 CHG=5.82E-04 dt0=1.00E+04 DIVF(1)= 4.96E-04 DIVFrms= 2.39E-03 DT(ND)=-8.63E-04 T(ND)=2.7002E+02
 NST=    62 JCONV= 84 CHG=2.16E-04 dt0=1.00E+04 DIVF(1)= 1.75E-04 DIVFrms= 2.77E-03 DT(ND)=-8.61E-04 T(ND)=2.7002E+02
 NST=    63 JCONV= 84 CHG=3.90E-04 dt0=1.00E+04 DIVF(1)= 4.85E-04 DIVFrms= 2.37E-03 DT(ND)=-8.56E-04 T(ND)=2.7002E+02
 NST=    64 JCONV= 84 CHG=7.55E-04 dt0=1.00E+04 DIVF(1)= 1.64E-04 DIVFrms= 2.75E-03 DT(ND)=-8.53E-04 T(ND)=2.7002E+02
 NST=    65 JCONV= 84 CHG=5.77E-04 dt0=1.00E+04 DIVF(1)= 4.77E-04 DIVFrms= 2.33E-03 DT(ND)=-8.47E-04 T(ND)=2.7002E+02
 NST=    66 JCONV= 84 CHG=2.17E-04 dt0=1.00E+04 DIVF(1)= 1.53E-04 DIVFrms= 2.72E-03 DT(ND)=-8.44E-04 T(ND)=2.7002E+02
 NST=    67 JCONV= 84 CHG=3.97E-04 dt0=1.00E+04 DIVF(1)= 1.82E-04 DIVFrms= 2.70E-03 DT(ND)=-8.40E-04 T(ND)=2.7002E+02
 NST=    68 JCONV= 84 CHG=7.54E-04 dt0=1.00E+04 DIVF(1)= 4.24E-04 DIVFrms= 2.31E-03 DT(ND)=-8.51E-04 T(ND)=2.7002E+02
 NST=    69 JCONV= 84 CHG=5.76E-04 dt0=1.00E+04 DIVF(1)= 9.42E-05 DIVFrms= 2.72E-03 DT(ND)=-8.36E-04 T(ND)=2.7002E+02
 NST=    70 JCONV= 84 CHG=2.21E-04 dt0=1.00E+04 DIVF(1)= 5.54E-05 DIVFrms= 2.72E-03 DT(ND)=-8.41E-04 T(ND)=2.7002E+02
 NST=    71 JCONV= 84 CHG=3.93E-04 dt0=1.00E+04 DIVF(1)= 3.65E-04 DIVFrms= 2.29E-03 DT(ND)=-8.41E-04 T(ND)=2.7001E+02
 NST=    72 JCONV= 84 CHG=7.56E-04 dt0=1.00E+04 DIVF(1)=-2.29E-05 DIVFrms= 2.75E-03 DT(ND)=-8.36E-04 T(ND)=2.7001E+02
 NST=    73 JCONV= 84 CHG=5.79E-04 dt0=1.00E+04 DIVF(1)= 4.54E-06 DIVFrms= 2.72E-03 DT(ND)=-8.29E-04 T(ND)=2.7001E+02
 NST=    74 JCONV= 84 CHG=2.14E-04 dt0=1.00E+04 DIVF(1)=-3.26E-05 DIVFrms= 2.71E-03 DT(ND)=-8.41E-04 T(ND)=2.7001E+02
 NST=    75 JCONV= 84 CHG=3.86E-04 dt0=1.00E+04 DIVF(1)= 2.79E-04 DIVFrms= 2.26E-03 DT(ND)=-8.39E-04 T(ND)=2.7001E+02
 NST=    76 JCONV= 84 CHG=7.59E-04 dt0=1.00E+04 DIVF(1)=-4.54E-05 DIVFrms= 2.70E-03 DT(ND)=-8.29E-04 T(ND)=2.7001E+02
 NST=    77 JCONV= 84 CHG=5.81E-04 dt0=1.00E+04 DIVF(1)=-1.64E-05 DIVFrms= 2.68E-03 DT(ND)=-8.19E-04 T(ND)=2.7001E+02
 NST=    78 JCONV= 84 CHG=2.16E-04 dt0=1.00E+04 DIVF(1)=-1.39E-04 DIVFrms= 2.72E-03 DT(ND)=-8.31E-04 T(ND)=2.7001E+02
 NST=    79 JCONV= 84 CHG=3.96E-04 dt0=1.00E+04 DIVF(1)=-1.11E-04 DIVFrms= 2.71E-03 DT(ND)=-8.30E-04 T(ND)=2.7001E+02
 NST=    80 JCONV= 84 CHG=7.54E-04 dt0=1.00E+04 DIVF(1)=-1.52E-04 DIVFrms= 2.71E-03 DT(ND)=-8.37E-04 T(ND)=2.7001E+02
 NST=    81 JCONV= 84 CHG=5.76E-04 dt0=1.00E+04 DIVF(1)=-1.28E-04 DIVFrms= 2.70E-03 DT(ND)=-8.31E-04 T(ND)=2.7001E+02
 NST=    82 JCONV= 84 CHG=2.19E-04 dt0=1.00E+04 DIVF(1)=-1.61E-04 DIVFrms= 2.69E-03 DT(ND)=-8.35E-04 T(ND)=2.7001E+02
 NST=    83 JCONV= 84 CHG=3.92E-04 dt0=1.00E+04 DIVF(1)= 1.50E-04 DIVFrms= 2.22E-03 DT(ND)=-8.25E-04 T(ND)=2.7000E+02
 NST=    84 JCONV= 84 CHG=7.60E-04 dt0=1.00E+04 DIVF(1)=-1.76E-04 DIVFrms= 2.69E-03 DT(ND)=-8.11E-04 T(ND)=2.7000E+02
 NST=    85 JCONV= 84 CHG=5.83E-04 dt0=1.00E+04 DIVF(1)=-1.46E-04 DIVFrms= 2.67E-03 DT(ND)=-7.99E-04 T(ND)=2.7000E+02
 NST=    86 JCONV= 84 CHG=2.18E-04 dt0=1.00E+04 DIVF(1)=-2.19E-04 DIVFrms= 2.68E-03 DT(ND)=-8.54E-04 T(ND)=2.7000E+02
 NST=    87 JCONV= 84 CHG=3.94E-04 dt0=1.00E+04 DIVF(1)=-1.91E-04 DIVFrms= 2.67E-03 DT(ND)=-8.27E-04 T(ND)=2.7000E+02
 NST=    88 JCONV= 84 CHG=7.54E-04 dt0=1.00E+04 DIVF(1)=-2.31E-04 DIVFrms= 2.67E-03 DT(ND)=-8.24E-04 T(ND)=2.7000E+02
 NST=    89 JCONV= 84 CHG=5.79E-04 dt0=1.00E+04 DIVF(1)=-2.64E-04 DIVFrms= 2.70E-03 DT(ND)=-8.14E-04 T(ND)=2.7000E+02
 NST=    90 JCONV= 84 CHG=2.21E-04 dt0=1.00E+04 DIVF(1)=-3.06E-04 DIVFrms= 2.70E-03 DT(ND)=-8.16E-04 T(ND)=2.7000E+02
 NST=    91 JCONV= 84 CHG=3.90E-04 dt0=1.00E+04 DIVF(1)=-2.79E-04 DIVFrms= 2.69E-03 DT(ND)=-8.07E-04 T(ND)=2.7000E+02
 NST=    92 JCONV= 84 CHG=7.57E-04 dt0=1.00E+04 DIVF(1)=-3.15E-04 DIVFrms= 2.67E-03 DT(ND)=-8.09E-04 T(ND)=2.7000E+02
 NST=    93 JCONV= 84 CHG=5.78E-04 dt0=1.00E+04 DIVF(1)=-2.87E-04 DIVFrms= 2.63E-03 DT(ND)=-7.99E-04 T(ND)=2.7000E+02
 NST=    94 JCONV= 84 CHG=2.21E-04 dt0=1.00E+04 DIVF(1)=-3.30E-04 DIVFrms= 2.64E-03 DT(ND)=-8.01E-04 T(ND)=2.7000E+02
 NST=    95 JCONV= 84 CHG=3.95E-04 dt0=1.00E+04 DIVF(1)=-1.43E-04 DIVFrms= 2.50E-03 DT(ND)=-7.84E-04 T(ND)=2.6999E+02
 NST=    96 JCONV= 84 CHG=7.50E-04 dt0=1.00E+04 DIVF(1)=-1.83E-04 DIVFrms= 2.50E-03 DT(ND)=-7.79E-04 T(ND)=2.6999E+02
 NST=    97 JCONV= 84 CHG=5.79E-04 dt0=1.00E+04 DIVF(1)=-1.59E-04 DIVFrms= 2.49E-03 DT(ND)=-7.63E-04 T(ND)=2.6999E+02
 NST=    98 JCONV= 84 CHG=2.18E-04 dt0=1.00E+04 DIVF(1)=-2.00E-04 DIVFrms= 2.49E-03 DT(ND)=-7.61E-04 T(ND)=2.6999E+02
 NST=    99 JCONV= 84 CHG=3.92E-04 dt0=1.00E+04 DIVF(1)=-1.73E-04 DIVFrms= 2.48E-03 DT(ND)=-7.50E-04 T(ND)=2.6999E+02
 NST=   100 JCONV= 84 CHG=7.58E-04 dt0=1.00E+04 DIVF(1)=-2.13E-04 DIVFrms= 2.48E-03 DT(ND)=-7.50E-04 T(ND)=2.6999E+02
 NST=   101 JCONV= 84 CHG=5.80E-04 dt0=1.00E+04 DIVF(1)=-1.88E-04 DIVFrms= 2.47E-03 DT(ND)=-7.39E-04 T(ND)=2.6999E+02
 NST=   102 JCONV= 84 CHG=2.14E-04 dt0=1.00E+04 DIVF(1)=-2.30E-04 DIVFrms= 2.47E-03 DT(ND)=-7.41E-04 T(ND)=2.6999E+02
 NST=   103 JCONV= 84 CHG=3.93E-04 dt0=1.00E+04 DIVF(1)=-2.03E-04 DIVFrms= 2.46E-03 DT(ND)=-7.32E-04 T(ND)=2.6999E+02
 NST=   104 JCONV= 84 CHG=7.60E-04 dt0=1.00E+04 DIVF(1)=-2.42E-04 DIVFrms= 2.46E-03 DT(ND)=-7.33E-04 T(ND)=2.6999E+02
 NST=   105 JCONV= 84 CHG=5.77E-04 dt0=1.00E+04 DIVF(1)=-2.18E-04 DIVFrms= 2.45E-03 DT(ND)=-7.24E-04 T(ND)=2.6999E+02
 NST=   106 JCONV= 84 CHG=2.15E-04 dt0=1.00E+04 DIVF(1)=-2.55E-04 DIVFrms= 2.43E-03 DT(ND)=-7.26E-04 T(ND)=2.6999E+02
 NST=   107 JCONV= 84 CHG=3.94E-04 dt0=1.00E+04 DIVF(1)=-2.27E-04 DIVFrms= 2.42E-03 DT(ND)=-7.17E-04 T(ND)=2.6999E+02
 NST=   108 JCONV= 84 CHG=7.57E-04 dt0=1.00E+04 DIVF(1)=-2.66E-04 DIVFrms= 2.42E-03 DT(ND)=-7.19E-04 T(ND)=2.6999E+02
 NST=   109 JCONV= 84 CHG=5.78E-04 dt0=1.00E+04 DIVF(1)=-3.63E-04 DIVFrms= 2.49E-03 DT(ND)=-7.12E-04 T(ND)=2.6998E+02
 NST=   110 JCONV= 84 CHG=2.18E-04 dt0=1.00E+04 DIVF(1)=-4.02E-04 DIVFrms= 2.47E-03 DT(ND)=-7.17E-04 T(ND)=2.6998E+02
 NST=   111 JCONV= 84 CHG=3.98E-04 dt0=1.00E+04 DIVF(1)=-3.70E-04 DIVFrms= 2.46E-03 DT(ND)=-7.10E-04 T(ND)=2.6998E+02
 NST=   112 JCONV= 84 CHG=7.59E-04 dt0=1.00E+04 DIVF(1)=-4.13E-04 DIVFrms= 2.46E-03 DT(ND)=-7.13E-04 T(ND)=2.6998E+02
 NST=   113 JCONV= 84 CHG=5.77E-04 dt0=1.00E+04 DIVF(1)=-3.89E-04 DIVFrms= 2.45E-03 DT(ND)=-7.04E-04 T(ND)=2.6998E+02
 NST=   114 JCONV= 84 CHG=2.17E-04 dt0=1.00E+04 DIVF(1)=-4.26E-04 DIVFrms= 2.45E-03 DT(ND)=-7.07E-04 T(ND)=2.6998E+02
 NST=   115 JCONV= 84 CHG=3.97E-04 dt0=1.00E+04 DIVF(1)=-4.02E-04 DIVFrms= 2.44E-03 DT(ND)=-6.99E-04 T(ND)=2.6998E+02
 NST=   116 JCONV= 84 CHG=7.58E-04 dt0=1.00E+04 DIVF(1)=-4.37E-04 DIVFrms= 2.45E-03 DT(ND)=-7.01E-04 T(ND)=2.6998E+02
 NST=   117 JCONV= 84 CHG=5.74E-04 dt0=1.00E+04 DIVF(1)=-4.16E-04 DIVFrms= 2.44E-03 DT(ND)=-6.93E-04 T(ND)=2.6998E+02
 NST=   118 JCONV= 84 CHG=2.14E-04 dt0=1.00E+04 DIVF(1)=-6.91E-04 DIVFrms= 3.03E-03 DT(ND)=-6.96E-04 T(ND)=2.6998E+02
 NST=   119 JCONV= 84 CHG=3.90E-04 dt0=1.00E+04 DIVF(1)=-4.31E-04 DIVFrms= 2.44E-03 DT(ND)=-7.01E-04 T(ND)=2.6998E+02
 NST=   120 JCONV= 84 CHG=7.58E-04 dt0=1.00E+04 DIVF(1)=-7.11E-04 DIVFrms= 3.03E-03 DT(ND)=-7.08E-04 T(ND)=2.6998E+02
 NST=   121 JCONV= 84 CHG=5.78E-04 dt0=1.00E+04 DIVF(1)=-4.50E-04 DIVFrms= 2.43E-03 DT(ND)=-7.08E-04 T(ND)=2.6998E+02
 NST=   122 JCONV= 84 CHG=2.17E-04 dt0=1.00E+04 DIVF(1)=-7.27E-04 DIVFrms= 3.03E-03 DT(ND)=-7.10E-04 T(ND)=2.6998E+02
 NST=   123 JCONV= 84 CHG=3.97E-04 dt0=1.00E+04 DIVF(1)=-4.59E-04 DIVFrms= 2.42E-03 DT(ND)=-7.08E-04 T(ND)=2.6997E+02
 NST=   124 JCONV= 84 CHG=7.54E-04 dt0=1.00E+04 DIVF(1)=-7.34E-04 DIVFrms= 3.01E-03 DT(ND)=-7.08E-04 T(ND)=2.6997E+02
 NST=   125 JCONV= 84 CHG=5.77E-04 dt0=1.00E+04 DIVF(1)=-4.75E-04 DIVFrms= 2.41E-03 DT(ND)=-7.03E-04 T(ND)=2.6997E+02
 NST=   126 JCONV= 84 CHG=2.20E-04 dt0=1.00E+04 DIVF(1)=-7.52E-04 DIVFrms= 3.01E-03 DT(ND)=-7.03E-04 T(ND)=2.6997E+02
 NST=   127 JCONV= 84 CHG=3.95E-04 dt0=1.00E+04 DIVF(1)=-4.91E-04 DIVFrms= 2.41E-03 DT(ND)=-6.99E-04 T(ND)=2.6997E+02
 NST=   128 JCONV= 84 CHG=7.53E-04 dt0=1.00E+04 DIVF(1)=-7.51E-04 DIVFrms= 2.97E-03 DT(ND)=-6.98E-04 T(ND)=2.6997E+02
 NST=   129 JCONV= 84 CHG=5.77E-04 dt0=1.00E+04 DIVF(1)=-4.92E-04 DIVFrms= 2.37E-03 DT(ND)=-6.92E-04 T(ND)=2.6997E+02
 NST=   130 JCONV= 84 CHG=2.19E-04 dt0=1.00E+04 DIVF(1)=-7.69E-04 DIVFrms= 2.97E-03 DT(ND)=-6.91E-04 T(ND)=2.6997E+02
 NST=   131 JCONV= 84 CHG=3.92E-04 dt0=1.00E+04 DIVF(1)=-5.07E-04 DIVFrms= 2.37E-03 DT(ND)=-6.86E-04 T(ND)=2.6997E+02
 NST=   132 JCONV= 84 CHG=7.55E-04 dt0=1.00E+04 DIVF(1)=-7.82E-04 DIVFrms= 2.97E-03 DT(ND)=-6.85E-04 T(ND)=2.6997E+02
 NST=   133 JCONV= 84 CHG=5.76E-04 dt0=1.00E+04 DIVF(1)=-5.24E-04 DIVFrms= 2.36E-03 DT(ND)=-6.80E-04 T(ND)=2.6997E+02
 NST=   134 JCONV= 84 CHG=2.23E-04 dt0=1.00E+04 DIVF(1)=-8.00E-04 DIVFrms= 2.97E-03 DT(ND)=-6.80E-04 T(ND)=2.6997E+02
 NST=   135 JCONV= 84 CHG=3.92E-04 dt0=1.00E+04 DIVF(1)=-5.38E-04 DIVFrms= 2.36E-03 DT(ND)=-6.75E-04 T(ND)=2.6997E+02
 NST=   136 JCONV= 84 CHG=7.57E-04 dt0=1.00E+04 DIVF(1)=-8.14E-04 DIVFrms= 2.97E-03 DT(ND)=-6.75E-04 T(ND)=2.6997E+02
 NST=   137 JCONV= 84 CHG=5.85E-04 dt0=1.00E+04 DIVF(1)=-5.55E-04 DIVFrms= 2.35E-03 DT(ND)=-6.70E-04 T(ND)=2.6996E+02
 NST=   138 JCONV= 84 CHG=2.19E-04 dt0=1.00E+04 DIVF(1)=-8.32E-04 DIVFrms= 2.96E-03 DT(ND)=-6.69E-04 T(ND)=2.6996E+02
 NST=   139 JCONV= 84 CHG=3.95E-04 dt0=1.00E+04 DIVF(1)=-5.70E-04 DIVFrms= 2.35E-03 DT(ND)=-6.65E-04 T(ND)=2.6996E+02
 NST=   140 JCONV= 84 CHG=7.59E-04 dt0=1.00E+04 DIVF(1)=-8.45E-04 DIVFrms= 2.96E-03 DT(ND)=-6.64E-04 T(ND)=2.6996E+02
 NST=   141 JCONV= 84 CHG=5.77E-04 dt0=1.00E+04 DIVF(1)=-5.80E-04 DIVFrms= 2.32E-03 DT(ND)=-6.59E-04 T(ND)=2.6996E+02
 NST=   142 JCONV= 84 CHG=2.18E-04 dt0=1.00E+04 DIVF(1)=-8.58E-04 DIVFrms= 2.93E-03 DT(ND)=-6.58E-04 T(ND)=2.6996E+02
 NST=   143 JCONV= 84 CHG=3.92E-04 dt0=1.00E+04 DIVF(1)=-5.95E-04 DIVFrms= 2.31E-03 DT(ND)=-6.53E-04 T(ND)=2.6996E+02
 NST=   144 JCONV= 84 CHG=7.52E-04 dt0=1.00E+04 DIVF(1)=-9.21E-04 DIVFrms= 2.98E-03 DT(ND)=-6.54E-04 T(ND)=2.6996E+02
 NST=   145 JCONV= 84 CHG=5.79E-04 dt0=1.00E+04 DIVF(1)=-6.61E-04 DIVFrms= 2.36E-03 DT(ND)=-6.50E-04 T(ND)=2.6996E+02
 NST=   146 JCONV= 84 CHG=2.18E-04 dt0=1.00E+04 DIVF(1)=-9.39E-04 DIVFrms= 2.98E-03 DT(ND)=-6.50E-04 T(ND)=2.6996E+02
 NST=   147 JCONV= 84 CHG=3.94E-04 dt0=1.00E+04 DIVF(1)=-9.11E-04 DIVFrms= 2.97E-03 DT(ND)=-6.47E-04 T(ND)=2.6996E+02
 NST=   148 JCONV= 84 CHG=7.57E-04 dt0=1.00E+04 DIVF(1)=-7.19E-04 DIVFrms= 2.37E-03 DT(ND)=-6.59E-04 T(ND)=2.6996E+02
 NST=   149 JCONV= 84 CHG=5.79E-04 dt0=1.00E+04 DIVF(1)=-9.30E-04 DIVFrms= 2.97E-03 DT(ND)=-6.45E-04 T(ND)=2.6996E+02
 NST=   150 JCONV= 84 CHG=2.20E-04 dt0=1.00E+04 DIVF(1)=-9.71E-04 DIVFrms= 2.97E-03 DT(ND)=-6.51E-04 T(ND)=2.6996E+02
 NST=   151 JCONV= 84 CHG=3.96E-04 dt0=1.00E+04 DIVF(1)=-7.12E-04 DIVFrms= 2.36E-03 DT(ND)=-6.50E-04 T(ND)=2.6996E+02
 NST=   152 JCONV= 84 CHG=7.58E-04 dt0=1.00E+04 DIVF(1)=-9.84E-04 DIVFrms= 2.96E-03 DT(ND)=-6.46E-04 T(ND)=2.6996E+02
 NST=   153 JCONV= 84 CHG=5.80E-04 dt0=1.00E+04 DIVF(1)=-9.59E-04 DIVFrms= 2.95E-03 DT(ND)=-6.39E-04 T(ND)=2.6995E+02
 NST=   154 JCONV= 84 CHG=2.15E-04 dt0=1.00E+04 DIVF(1)=-8.83E-04 DIVFrms= 2.43E-03 DT(ND)=-6.52E-04 T(ND)=2.6995E+02
 NST=   155 JCONV= 84 CHG=3.97E-04 dt0=1.00E+04 DIVF(1)=-9.76E-04 DIVFrms= 2.95E-03 DT(ND)=-6.36E-04 T(ND)=2.6995E+02
 NST=   156 JCONV= 84 CHG=7.55E-04 dt0=1.00E+04 DIVF(1)=-1.13E-03 DIVFrms= 3.05E-03 DT(ND)=-6.44E-04 T(ND)=2.6995E+02
 NST=   157 JCONV= 84 CHG=5.74E-04 dt0=1.00E+04 DIVF(1)=-8.72E-04 DIVFrms= 2.42E-03 DT(ND)=-6.43E-04 T(ND)=2.6995E+02
 NST=   158 JCONV= 84 CHG=2.20E-04 dt0=1.00E+04 DIVF(1)=-1.15E-03 DIVFrms= 3.06E-03 DT(ND)=-6.41E-04 T(ND)=2.6995E+02
 NST=   159 JCONV= 84 CHG=3.90E-04 dt0=1.00E+04 DIVF(1)=-1.12E-03 DIVFrms= 3.04E-03 DT(ND)=-6.36E-04 T(ND)=2.6995E+02
 NST=   160 JCONV= 84 CHG=7.56E-04 dt0=1.00E+04 DIVF(1)=-8.90E-04 DIVFrms= 2.38E-03 DT(ND)=-6.45E-04 T(ND)=2.6995E+02
 NST=   161 JCONV= 84 CHG=5.80E-04 dt0=1.00E+04 DIVF(1)=-1.10E-03 DIVFrms= 3.01E-03 DT(ND)=-6.29E-04 T(ND)=2.6995E+02
 NST=   162 JCONV= 84 CHG=2.15E-04 dt0=1.00E+04 DIVF(1)=-1.14E-03 DIVFrms= 3.00E-03 DT(ND)=-6.34E-04 T(ND)=2.6995E+02
 NST=   163 JCONV= 84 CHG=3.90E-04 dt0=1.00E+04 DIVF(1)=-8.80E-04 DIVFrms= 2.37E-03 DT(ND)=-6.32E-04 T(ND)=2.6995E+02
 NST=   164 JCONV= 84 CHG=7.53E-04 dt0=1.00E+04 DIVF(1)=-1.15E-03 DIVFrms= 3.01E-03 DT(ND)=-6.28E-04 T(ND)=2.6995E+02
 NST=   165 JCONV= 84 CHG=5.75E-04 dt0=1.00E+04 DIVF(1)=-1.12E-03 DIVFrms= 2.98E-03 DT(ND)=-6.21E-04 T(ND)=2.6995E+02
 NST=   166 JCONV= 84 CHG=2.18E-04 dt0=1.00E+04 DIVF(1)=-7.85E-04 DIVFrms= 2.24E-03 DT(ND)=-6.24E-04 T(ND)=2.6995E+02
 NST=   167 JCONV= 84 CHG=3.91E-04 dt0=1.00E+04 DIVF(1)=-9.82E-04 DIVFrms= 2.85E-03 DT(ND)=-6.04E-04 T(ND)=2.6995E+02
 NST=   168 JCONV= 84 CHG=7.54E-04 dt0=1.00E+04 DIVF(1)=-1.02E-03 DIVFrms= 2.85E-03 DT(ND)=-6.03E-04 T(ND)=2.6994E+02
 NST=   169 JCONV= 84 CHG=5.79E-04 dt0=1.00E+04 DIVF(1)=-8.90E-04 DIVFrms= 2.33E-03 DT(ND)=-6.02E-04 T(ND)=2.6994E+02
 NST=   170 JCONV= 84 CHG=2.14E-04 dt0=1.00E+04 DIVF(1)=-1.16E-03 DIVFrms= 2.94E-03 DT(ND)=-5.99E-04 T(ND)=2.6994E+02
 NST=   171 JCONV= 84 CHG=3.92E-04 dt0=1.00E+04 DIVF(1)=-1.13E-03 DIVFrms= 2.92E-03 DT(ND)=-5.93E-04 T(ND)=2.6994E+02
 NST=   172 JCONV= 84 CHG=7.56E-04 dt0=1.00E+04 DIVF(1)=-1.17E-03 DIVFrms= 2.93E-03 DT(ND)=-6.04E-04 T(ND)=2.6994E+02
 NST=   173 JCONV= 84 CHG=5.73E-04 dt0=1.00E+04 DIVF(1)=-9.10E-04 DIVFrms= 2.30E-03 DT(ND)=-6.02E-04 T(ND)=2.6994E+02
 NST=   174 JCONV= 84 CHG=2.14E-04 dt0=1.00E+04 DIVF(1)=-1.18E-03 DIVFrms= 2.94E-03 DT(ND)=-5.96E-04 T(ND)=2.6994E+02
 NST=   175 JCONV= 84 CHG=3.91E-04 dt0=1.00E+04 DIVF(1)=-1.15E-03 DIVFrms= 2.93E-03 DT(ND)=-5.89E-04 T(ND)=2.6994E+02
 NST=   176 JCONV= 84 CHG=7.53E-04 dt0=1.00E+04 DIVF(1)=-1.19E-03 DIVFrms= 2.93E-03 DT(ND)=-5.99E-04 T(ND)=2.6994E+02
 NST=   177 JCONV= 84 CHG=5.80E-04 dt0=1.00E+04 DIVF(1)=-9.39E-04 DIVFrms= 2.30E-03 DT(ND)=-5.95E-04 T(ND)=2.6994E+02
 NST=   178 JCONV= 84 CHG=2.17E-04 dt0=1.00E+04 DIVF(1)=-1.21E-03 DIVFrms= 2.94E-03 DT(ND)=-5.90E-04 T(ND)=2.6994E+02
 NST=   179 JCONV= 84 CHG=3.94E-04 dt0=1.00E+04 DIVF(1)=-1.18E-03 DIVFrms= 2.93E-03 DT(ND)=-5.82E-04 T(ND)=2.6994E+02
 NST=   180 JCONV= 84 CHG=7.60E-04 dt0=1.00E+04 DIVF(1)=-1.22E-03 DIVFrms= 2.93E-03 DT(ND)=-5.92E-04 T(ND)=2.6994E+02
 NST=   181 JCONV= 84 CHG=5.76E-04 dt0=1.00E+04 DIVF(1)=-9.65E-04 DIVFrms= 2.27E-03 DT(ND)=-5.88E-04 T(ND)=2.6994E+02
 NST=   182 JCONV= 84 CHG=2.14E-04 dt0=1.00E+04 DIVF(1)=-1.24E-03 DIVFrms= 2.92E-03 DT(ND)=-5.82E-04 T(ND)=2.6994E+02
 NST=   183 JCONV= 84 CHG=3.98E-04 dt0=1.00E+04 DIVF(1)=-1.21E-03 DIVFrms= 2.90E-03 DT(ND)=-5.74E-04 T(ND)=2.6994E+02
 NST=   184 JCONV= 84 CHG=7.53E-04 dt0=1.00E+04 DIVF(1)=-1.24E-03 DIVFrms= 2.87E-03 DT(ND)=-5.83E-04 T(ND)=2.6994E+02
 NST=   185 JCONV= 84 CHG=5.71E-04 dt0=1.00E+04 DIVF(1)=-1.21E-03 DIVFrms= 2.87E-03 DT(ND)=-5.80E-04 T(ND)=2.6993E+02
 NST=   186 JCONV= 84 CHG=2.14E-04 dt0=1.00E+04 DIVF(1)=-1.02E-03 DIVFrms= 2.25E-03 DT(ND)=-5.86E-04 T(ND)=2.6993E+02
 NST=   187 JCONV= 84 CHG=3.91E-04 dt0=1.00E+04 DIVF(1)=-1.23E-03 DIVFrms= 2.88E-03 DT(ND)=-5.68E-04 T(ND)=2.6993E+02
 NST=   188 JCONV= 84 CHG=7.61E-04 dt0=1.00E+04 DIVF(1)=-1.36E-03 DIVFrms= 2.97E-03 DT(ND)=-5.73E-04 T(ND)=2.6993E+02
 NST=   189 JCONV= 84 CHG=5.69E-04 dt0=1.00E+04 DIVF(1)=-1.34E-03 DIVFrms= 2.96E-03 DT(ND)=-5.72E-04 T(ND)=2.6993E+02
 NST=   190 JCONV= 84 CHG=2.15E-04 dt0=1.00E+04 DIVF(1)=-1.38E-03 DIVFrms= 2.97E-03 DT(ND)=-5.83E-04 T(ND)=2.6993E+02
 NST=   191 JCONV= 84 CHG=3.98E-04 dt0=1.00E+04 DIVF(1)=-1.12E-03 DIVFrms= 2.33E-03 DT(ND)=-5.79E-04 T(ND)=2.6993E+02
 NST=   192 JCONV= 84 CHG=7.54E-04 dt0=1.00E+04 DIVF(1)=-1.39E-03 DIVFrms= 2.99E-03 DT(ND)=-5.72E-04 T(ND)=2.6993E+02
 NST=   193 JCONV= 84 CHG=5.79E-04 dt0=1.00E+04 DIVF(1)=-1.36E-03 DIVFrms= 2.96E-03 DT(ND)=-5.64E-04 T(ND)=2.6993E+02
 NST=   194 JCONV= 84 CHG=2.16E-04 dt0=1.00E+04 DIVF(1)=-1.41E-03 DIVFrms= 2.97E-03 DT(ND)=-5.74E-04 T(ND)=2.6993E+02
 NST=   195 JCONV= 84 CHG=3.95E-04 dt0=1.00E+04 DIVF(1)=-1.38E-03 DIVFrms= 2.96E-03 DT(ND)=-5.72E-04 T(ND)=2.6993E+02
 NST=   196 JCONV= 84 CHG=7.53E-04 dt0=1.00E+04 DIVF(1)=-1.19E-03 DIVFrms= 2.34E-03 DT(ND)=-5.78E-04 T(ND)=2.6993E+02
 NST=   197 JCONV= 84 CHG=5.76E-04 dt0=1.00E+04 DIVF(1)=-1.39E-03 DIVFrms= 2.98E-03 DT(ND)=-5.59E-04 T(ND)=2.6993E+02
 NST=   198 JCONV= 84 CHG=2.20E-04 dt0=1.00E+04 DIVF(1)=-1.43E-03 DIVFrms= 2.98E-03 DT(ND)=-5.62E-04 T(ND)=2.6993E+02
 NST=   199 JCONV= 84 CHG=3.94E-04 dt0=1.00E+04 DIVF(1)=-1.40E-03 DIVFrms= 2.95E-03 DT(ND)=-5.60E-04 T(ND)=2.6993E+02
 NST=   200 JCONV= 84 CHG=7.57E-04 dt0=1.00E+04 DIVF(1)=-1.44E-03 DIVFrms= 2.96E-03 DT(ND)=-5.69E-04 T(ND)=2.6993E+02
 NST=   201 JCONV= 84 CHG=5.75E-04 dt0=1.00E+04 DIVF(1)=-1.18E-03 DIVFrms= 2.31E-03 DT(ND)=-5.64E-04 T(ND)=2.6993E+02
 NST=   202 JCONV= 84 CHG=2.15E-04 dt0=1.00E+04 DIVF(1)=-1.46E-03 DIVFrms= 2.98E-03 DT(ND)=-5.57E-04 T(ND)=2.6993E+02
 NST=   203 JCONV= 84 CHG=3.93E-04 dt0=1.00E+04 DIVF(1)=-1.42E-03 DIVFrms= 2.96E-03 DT(ND)=-5.48E-04 T(ND)=2.6992E+02
 NST=   204 JCONV= 84 CHG=7.57E-04 dt0=1.00E+04 DIVF(1)=-1.46E-03 DIVFrms= 2.96E-03 DT(ND)=-5.58E-04 T(ND)=2.6992E+02
 NST=   205 JCONV= 84 CHG=5.80E-04 dt0=1.00E+04 DIVF(1)=-1.44E-03 DIVFrms= 2.95E-03 DT(ND)=-5.55E-04 T(ND)=2.6992E+02
 NST=   206 JCONV= 84 CHG=2.16E-04 dt0=1.00E+04 DIVF(1)=-1.47E-03 DIVFrms= 2.94E-03 DT(ND)=-5.62E-04 T(ND)=2.6992E+02
 NST=   207 JCONV= 84 CHG=3.92E-04 dt0=1.00E+04 DIVF(1)=-1.22E-03 DIVFrms= 2.30E-03 DT(ND)=-5.56E-04 T(ND)=2.6992E+02
 NST=   208 JCONV= 84 CHG=7.58E-04 dt0=1.00E+04 DIVF(1)=-1.49E-03 DIVFrms= 2.96E-03 DT(ND)=-5.48E-04 T(ND)=2.6992E+02
 NST=   209 JCONV= 84 CHG=5.77E-04 dt0=1.00E+04 DIVF(1)=-1.46E-03 DIVFrms= 2.93E-03 DT(ND)=-5.39E-04 T(ND)=2.6992E+02
 NST=   210 JCONV= 84 CHG=2.21E-04 dt0=1.00E+04 DIVF(1)=-1.50E-03 DIVFrms= 2.94E-03 DT(ND)=-5.48E-04 T(ND)=2.6992E+02
 NST=   211 JCONV= 84 CHG=3.95E-04 dt0=1.00E+04 DIVF(1)=-1.46E-03 DIVFrms= 2.91E-03 DT(ND)=-5.45E-04 T(ND)=2.6992E+02
 NST=   212 JCONV= 84 CHG=7.52E-04 dt0=1.00E+04 DIVF(1)=-1.50E-03 DIVFrms= 2.92E-03 DT(ND)=-5.52E-04 T(ND)=2.6992E+02
 NST=   213 JCONV= 84 CHG=5.81E-04 dt0=1.00E+04 DIVF(1)=-1.25E-03 DIVFrms= 2.27E-03 DT(ND)=-5.45E-04 T(ND)=2.6992E+02
 NST=   214 JCONV= 84 CHG=2.16E-04 dt0=1.00E+04 DIVF(1)=-1.52E-03 DIVFrms= 2.94E-03 DT(ND)=-5.38E-04 T(ND)=2.6992E+02
 NST=   215 JCONV= 84 CHG=3.93E-04 dt0=1.00E+04 DIVF(1)=-1.49E-03 DIVFrms= 2.91E-03 DT(ND)=-5.29E-04 T(ND)=2.6992E+02
 NST=   216 JCONV= 84 CHG=7.54E-04 dt0=1.00E+04 DIVF(1)=-1.53E-03 DIVFrms= 2.92E-03 DT(ND)=-5.38E-04 T(ND)=2.6992E+02
 NST=   217 JCONV= 84 CHG=5.77E-04 dt0=1.00E+04 DIVF(1)=-1.49E-03 DIVFrms= 2.88E-03 DT(ND)=-5.35E-04 T(ND)=2.6992E+02
 NST=   218 JCONV= 84 CHG=2.20E-04 dt0=1.00E+04 DIVF(1)=-1.53E-03 DIVFrms= 2.89E-03 DT(ND)=-5.42E-04 T(ND)=2.6992E+02
 NST=   219 JCONV= 84 CHG=3.95E-04 dt0=1.00E+04 DIVF(1)=-1.27E-03 DIVFrms= 2.24E-03 DT(ND)=-5.36E-04 T(ND)=2.6992E+02
 NST=   220 JCONV= 84 CHG=7.59E-04 dt0=1.00E+04 DIVF(1)=-1.54E-03 DIVFrms= 2.91E-03 DT(ND)=-5.28E-04 T(ND)=2.6992E+02
 NST=   221 JCONV= 84 CHG=5.78E-04 dt0=1.00E+04 DIVF(1)=-1.51E-03 DIVFrms= 2.88E-03 DT(ND)=-5.19E-04 T(ND)=2.6991E+02
 NST=   222 JCONV= 84 CHG=2.15E-04 dt0=1.00E+04 DIVF(1)=-1.55E-03 DIVFrms= 2.89E-03 DT(ND)=-5.28E-04 T(ND)=2.6991E+02
 NST=   223 JCONV= 84 CHG=3.96E-04 dt0=1.00E+04 DIVF(1)=-1.52E-03 DIVFrms= 2.88E-03 DT(ND)=-5.26E-04 T(ND)=2.6991E+02
 NST=   224 JCONV= 84 CHG=7.59E-04 dt0=1.00E+04 DIVF(1)=-1.56E-03 DIVFrms= 2.89E-03 DT(ND)=-5.33E-04 T(ND)=2.6991E+02
 NST=   225 JCONV= 84 CHG=5.75E-04 dt0=1.00E+04 DIVF(1)=-1.54E-03 DIVFrms= 2.89E-03 DT(ND)=-5.28E-04 T(ND)=2.6991E+02
 NST=   226 JCONV= 84 CHG=2.16E-04 dt0=1.00E+04 DIVF(1)=-1.35E-03 DIVFrms= 2.26E-03 DT(ND)=-5.33E-04 T(ND)=2.6991E+02
 NST=   227 JCONV= 84 CHG=3.95E-04 dt0=1.00E+04 DIVF(1)=-1.55E-03 DIVFrms= 2.91E-03 DT(ND)=-5.14E-04 T(ND)=2.6991E+02
 NST=   228 JCONV= 84 CHG=7.54E-04 dt0=1.00E+04 DIVF(1)=-1.58E-03 DIVFrms= 2.90E-03 DT(ND)=-5.16E-04 T(ND)=2.6991E+02
 NST=   229 JCONV= 84 CHG=5.79E-04 dt0=1.00E+04 DIVF(1)=-1.55E-03 DIVFrms= 2.89E-03 DT(ND)=-5.14E-04 T(ND)=2.6991E+02
 NST=   230 JCONV= 84 CHG=2.21E-04 dt0=1.00E+04 DIVF(1)=-1.60E-03 DIVFrms= 2.90E-03 DT(ND)=-5.23E-04 T(ND)=2.6991E+02
 NST=   231 JCONV= 84 CHG=3.93E-04 dt0=1.00E+04 DIVF(1)=-1.56E-03 DIVFrms= 2.89E-03 DT(ND)=-5.19E-04 T(ND)=2.6991E+02
 NST=   232 JCONV= 84 CHG=3.23E-04 dt0=1.00E+04 DIVF(1)=-1.61E-03 DIVFrms= 2.90E-03 DT(ND)=-5.25E-04 T(ND)=2.6991E+02
 NST=   233 JCONV= 84 CHG=3.52E-04 dt0=1.00E+04 DIVF(1)=-1.35E-03 DIVFrms= 2.25E-03 DT(ND)=-5.19E-04 T(ND)=2.6991E+02
 NST=   234 JCONV= 84 CHG=7.78E-04 dt0=1.00E+04 DIVF(1)=-1.62E-03 DIVFrms= 2.92E-03 DT(ND)=-5.11E-04 T(ND)=2.6991E+02
 NST=   235 JCONV= 84 CHG=5.70E-04 dt0=1.00E+04 DIVF(1)=-1.59E-03 DIVFrms= 2.90E-03 DT(ND)=-5.02E-04 T(ND)=2.6991E+02
 NST=   236 JCONV= 84 CHG=2.16E-04 dt0=1.00E+04 DIVF(1)=-1.62E-03 DIVFrms= 2.90E-03 DT(ND)=-5.11E-04 T(ND)=2.6991E+02
 NST=   237 JCONV= 84 CHG=3.96E-04 dt0=1.00E+04 DIVF(1)=-1.60E-03 DIVFrms= 2.90E-03 DT(ND)=-5.09E-04 T(ND)=2.6991E+02
 NST=   238 JCONV= 84 CHG=3.23E-04 dt0=1.00E+04 DIVF(1)=-1.63E-03 DIVFrms= 2.90E-03 DT(ND)=-5.16E-04 T(ND)=2.6991E+02
 NST=   239 JCONV= 84 CHG=3.51E-04 dt0=1.00E+04 DIVF(1)=-1.61E-03 DIVFrms= 2.90E-03 DT(ND)=-5.11E-04 T(ND)=2.6991E+02
 NST=   240 JCONV= 84 CHG=7.74E-04 dt0=1.00E+04 DIVF(1)=-1.64E-03 DIVFrms= 2.89E-03 DT(ND)=-5.17E-04 T(ND)=2.6991E+02
 NST=   241 JCONV= 84 CHG=5.72E-04 dt0=1.00E+04 DIVF(1)=-1.39E-03 DIVFrms= 2.25E-03 DT(ND)=-5.09E-04 T(ND)=2.6990E+02
 NST=   242 JCONV= 84 CHG=2.17E-04 dt0=1.00E+04 DIVF(1)=-1.66E-03 DIVFrms= 2.91E-03 DT(ND)=-5.02E-04 T(ND)=2.6990E+02
 NST=   243 JCONV= 84 CHG=3.88E-04 dt0=1.00E+04 DIVF(1)=-1.63E-03 DIVFrms= 2.89E-03 DT(ND)=-4.93E-04 T(ND)=2.6990E+02
 NST=   244 JCONV= 84 CHG=3.25E-04 dt0=1.00E+04 DIVF(1)=-1.66E-03 DIVFrms= 2.89E-03 DT(ND)=-5.02E-04 T(ND)=2.6990E+02
 NST=   245 JCONV= 84 CHG=3.54E-04 dt0=1.00E+04 DIVF(1)=-1.63E-03 DIVFrms= 2.88E-03 DT(ND)=-5.00E-04 T(ND)=2.6990E+02
 NST=   246 JCONV= 84 CHG=7.74E-04 dt0=1.00E+04 DIVF(1)=-1.67E-03 DIVFrms= 2.90E-03 DT(ND)=-5.07E-04 T(ND)=2.6990E+02
 NST=   247 JCONV= 84 CHG=5.72E-04 dt0=1.00E+04 DIVF(1)=-1.65E-03 DIVFrms= 2.89E-03 DT(ND)=-5.01E-04 T(ND)=2.6990E+02
 NST=   248 JCONV= 84 CHG=2.17E-04 dt0=1.00E+04 DIVF(1)=-1.69E-03 DIVFrms= 2.90E-03 DT(ND)=-5.07E-04 T(ND)=2.6990E+02
 NST=   249 JCONV= 84 CHG=3.96E-04 dt0=1.00E+04 DIVF(1)=-1.43E-03 DIVFrms= 2.26E-03 DT(ND)=-5.01E-04 T(ND)=2.6990E+02
 NST=   250 JCONV= 84 CHG=7.52E-04 dt0=1.00E+04 DIVF(1)=-1.70E-03 DIVFrms= 2.92E-03 DT(ND)=-4.93E-04 T(ND)=2.6990E+02
 NST=   251 JCONV= 84 CHG=5.74E-04 dt0=1.00E+04 DIVF(1)=-1.66E-03 DIVFrms= 2.89E-03 DT(ND)=-4.84E-04 T(ND)=2.6990E+02
 NST=   252 JCONV= 84 CHG=2.19E-04 dt0=1.00E+04 DIVF(1)=-1.71E-03 DIVFrms= 2.90E-03 DT(ND)=-4.93E-04 T(ND)=2.6990E+02
 NST=   253 JCONV= 84 CHG=3.95E-04 dt0=1.00E+04 DIVF(1)=-1.67E-03 DIVFrms= 2.89E-03 DT(ND)=-4.91E-04 T(ND)=2.6990E+02
 NST=   254 JCONV= 84 CHG=7.54E-04 dt0=1.00E+04 DIVF(1)=-1.71E-03 DIVFrms= 2.90E-03 DT(ND)=-4.98E-04 T(ND)=2.6990E+02
 NST=   255 JCONV= 84 CHG=5.77E-04 dt0=1.00E+04 DIVF(1)=-1.69E-03 DIVFrms= 2.89E-03 DT(ND)=-4.93E-04 T(ND)=2.6990E+02
 NST=   256 JCONV= 84 CHG=2.20E-04 dt0=1.00E+04 DIVF(1)=-1.73E-03 DIVFrms= 2.91E-03 DT(ND)=-4.99E-04 T(ND)=2.6990E+02
 NST=   257 JCONV= 84 CHG=3.92E-04 dt0=1.00E+04 DIVF(1)=-1.47E-03 DIVFrms= 2.26E-03 DT(ND)=-4.93E-04 T(ND)=2.6990E+02
 NST=   258 JCONV= 84 CHG=3.28E-04 dt0=1.00E+04 DIVF(1)=-1.74E-03 DIVFrms= 2.93E-03 DT(ND)=-4.85E-04 T(ND)=2.6990E+02
 NST=   259 JCONV= 84 CHG=3.52E-04 dt0=1.00E+04 DIVF(1)=-1.56E-03 DIVFrms= 2.76E-03 DT(ND)=-4.69E-04 T(ND)=2.6990E+02
 NST=   260 JCONV= 84 CHG=7.70E-04 dt0=1.00E+04 DIVF(1)=-1.59E-03 DIVFrms= 2.77E-03 DT(ND)=-4.72E-04 T(ND)=2.6990E+02
 NST=   261 JCONV= 84 CHG=5.69E-04 dt0=1.00E+04 DIVF(1)=-1.57E-03 DIVFrms= 2.76E-03 DT(ND)=-4.63E-04 T(ND)=2.6989E+02
 NST=   262 JCONV= 84 CHG=2.17E-04 dt0=1.00E+04 DIVF(1)=-1.61E-03 DIVFrms= 2.77E-03 DT(ND)=-4.66E-04 T(ND)=2.6989E+02
 NST=   263 JCONV= 84 CHG=3.91E-04 dt0=1.00E+04 DIVF(1)=-1.69E-03 DIVFrms= 2.87E-03 DT(ND)=-4.76E-04 T(ND)=2.6989E+02
 NST=   264 JCONV= 84 CHG=3.29E-04 dt0=1.00E+04 DIVF(1)=-1.73E-03 DIVFrms= 2.88E-03 DT(ND)=-4.90E-04 T(ND)=2.6989E+02
 NST=   265 JCONV= 84 CHG=3.51E-04 dt0=1.00E+04 DIVF(1)=-1.71E-03 DIVFrms= 2.87E-03 DT(ND)=-4.84E-04 T(ND)=2.6989E+02
 NST=   266 JCONV= 84 CHG=7.68E-04 dt0=1.00E+04 DIVF(1)=-1.52E-03 DIVFrms= 2.25E-03 DT(ND)=-4.87E-04 T(ND)=2.6989E+02
 NST=   267 JCONV= 84 CHG=5.74E-04 dt0=1.00E+04 DIVF(1)=-1.72E-03 DIVFrms= 2.90E-03 DT(ND)=-4.67E-04 T(ND)=2.6989E+02
 NST=   268 JCONV= 84 CHG=2.25E-04 dt0=1.00E+04 DIVF(1)=-1.75E-03 DIVFrms= 2.89E-03 DT(ND)=-4.69E-04 T(ND)=2.6989E+02
 NST=   269 JCONV= 84 CHG=3.92E-04 dt0=1.00E+04 DIVF(1)=-1.72E-03 DIVFrms= 2.87E-03 DT(ND)=-4.66E-04 T(ND)=2.6989E+02
 NST=   270 JCONV= 84 CHG=3.26E-04 dt0=1.00E+04 DIVF(1)=-1.76E-03 DIVFrms= 2.88E-03 DT(ND)=-4.75E-04 T(ND)=2.6989E+02
 NST=   271 JCONV= 84 CHG=3.49E-04 dt0=1.00E+04 DIVF(1)=-1.73E-03 DIVFrms= 2.88E-03 DT(ND)=-4.71E-04 T(ND)=2.6989E+02
 NST=   272 JCONV= 84 CHG=7.71E-04 dt0=1.00E+04 DIVF(1)=-1.76E-03 DIVFrms= 2.87E-03 DT(ND)=-4.77E-04 T(ND)=2.6989E+02
 NST=   273 JCONV= 84 CHG=5.71E-04 dt0=1.00E+04 DIVF(1)=-1.73E-03 DIVFrms= 2.84E-03 DT(ND)=-4.71E-04 T(ND)=2.6989E+02
 NST=   274 JCONV= 84 CHG=2.13E-04 dt0=1.00E+04 DIVF(1)=-1.77E-03 DIVFrms= 2.85E-03 DT(ND)=-4.76E-04 T(ND)=2.6989E+02
 NST=   275 JCONV= 84 CHG=3.93E-04 dt0=1.00E+04 DIVF(1)=-1.52E-03 DIVFrms= 2.21E-03 DT(ND)=-4.69E-04 T(ND)=2.6989E+02
 NST=   276 JCONV= 84 CHG=3.29E-04 dt0=1.00E+04 DIVF(1)=-1.79E-03 DIVFrms= 2.88E-03 DT(ND)=-4.61E-04 T(ND)=2.6989E+02
 NST=   277 JCONV= 84 CHG=3.53E-04 dt0=1.00E+04 DIVF(1)=-1.75E-03 DIVFrms= 2.85E-03 DT(ND)=-4.52E-04 T(ND)=2.6989E+02
 NST=   278 JCONV= 84 CHG=7.68E-04 dt0=1.00E+04 DIVF(1)=-1.78E-03 DIVFrms= 2.85E-03 DT(ND)=-4.61E-04 T(ND)=2.6989E+02
 NST=   279 JCONV= 84 CHG=5.71E-04 dt0=1.00E+04 DIVF(1)=-1.76E-03 DIVFrms= 2.84E-03 DT(ND)=-4.59E-04 T(ND)=2.6989E+02
 NST=   280 JCONV= 84 CHG=2.18E-04 dt0=1.00E+04 DIVF(1)=-1.80E-03 DIVFrms= 2.85E-03 DT(ND)=-4.66E-04 T(ND)=2.6989E+02
 NST=   281 JCONV= 84 CHG=3.92E-04 dt0=1.00E+04 DIVF(1)=-1.77E-03 DIVFrms= 2.85E-03 DT(ND)=-4.62E-04 T(ND)=2.6989E+02
 NST=   282 JCONV= 84 CHG=3.31E-04 dt0=1.00E+04 DIVF(1)=-1.81E-03 DIVFrms= 2.86E-03 DT(ND)=-4.68E-04 T(ND)=2.6988E+02
 NST=   283 JCONV= 84 CHG=3.52E-04 dt0=1.00E+04 DIVF(1)=-1.75E-03 DIVFrms= 2.81E-03 DT(ND)=-4.61E-04 T(ND)=2.6988E+02
 NST=   284 JCONV= 84 CHG=7.69E-04 dt0=1.00E+04 DIVF(1)=-1.56E-03 DIVFrms= 2.19E-03 DT(ND)=-4.65E-04 T(ND)=2.6988E+02
 NST=   285 JCONV= 84 CHG=5.70E-04 dt0=1.00E+04 DIVF(1)=-1.77E-03 DIVFrms= 2.83E-03 DT(ND)=-4.45E-04 T(ND)=2.6988E+02
 NST=   286 JCONV= 84 CHG=2.15E-04 dt0=1.00E+04 DIVF(1)=-1.80E-03 DIVFrms= 2.82E-03 DT(ND)=-4.48E-04 T(ND)=2.6988E+02
 NST=   287 JCONV= 84 CHG=3.91E-04 dt0=1.00E+04 DIVF(1)=-1.63E-03 DIVFrms= 2.67E-03 DT(ND)=-4.40E-04 T(ND)=2.6988E+02
 NST=   288 JCONV= 84 CHG=3.23E-04 dt0=1.00E+04 DIVF(1)=-1.67E-03 DIVFrms= 2.68E-03 DT(ND)=-4.44E-04 T(ND)=2.6988E+02
 NST=   289 JCONV= 84 CHG=3.51E-04 dt0=1.00E+04 DIVF(1)=-1.63E-03 DIVFrms= 2.67E-03 DT(ND)=-4.36E-04 T(ND)=2.6988E+02
 NST=   290 JCONV= 84 CHG=7.78E-04 dt0=1.00E+04 DIVF(1)=-1.67E-03 DIVFrms= 2.68E-03 DT(ND)=-4.40E-04 T(ND)=2.6988E+02
 NST=   291 JCONV= 84 CHG=5.75E-04 dt0=1.00E+04 DIVF(1)=-1.65E-03 DIVFrms= 2.67E-03 DT(ND)=-4.33E-04 T(ND)=2.6988E+02
 NST=   292 JCONV= 84 CHG=2.20E-04 dt0=1.00E+04 DIVF(1)=-1.69E-03 DIVFrms= 2.68E-03 DT(ND)=-4.37E-04 T(ND)=2.6988E+02
 NST=   293 JCONV= 84 CHG=3.90E-04 dt0=1.00E+04 DIVF(1)=-1.65E-03 DIVFrms= 2.67E-03 DT(ND)=-4.31E-04 T(ND)=2.6988E+02
 NST=   294 JCONV= 84 CHG=3.26E-04 dt0=1.00E+04 DIVF(1)=-1.47E-03 DIVFrms= 2.06E-03 DT(ND)=-4.35E-04 T(ND)=2.6988E+02
 NST=   295 JCONV= 84 CHG=3.54E-04 dt0=1.00E+04 DIVF(1)=-1.66E-03 DIVFrms= 2.70E-03 DT(ND)=-4.16E-04 T(ND)=2.6988E+02
 NST=   296 JCONV= 84 CHG=7.72E-04 dt0=1.00E+04 DIVF(1)=-1.70E-03 DIVFrms= 2.69E-03 DT(ND)=-4.18E-04 T(ND)=2.6988E+02
 NST=   297 JCONV= 84 CHG=5.72E-04 dt0=1.00E+04 DIVF(1)=-1.66E-03 DIVFrms= 2.67E-03 DT(ND)=-4.16E-04 T(ND)=2.6988E+02
 NST=   298 JCONV= 84 CHG=2.17E-04 dt0=1.00E+04 DIVF(1)=-1.70E-03 DIVFrms= 2.68E-03 DT(ND)=-4.25E-04 T(ND)=2.6988E+02
 NST=   299 JCONV= 84 CHG=3.88E-04 dt0=1.00E+04 DIVF(1)=-1.68E-03 DIVFrms= 2.68E-03 DT(ND)=-4.22E-04 T(ND)=2.6988E+02
 NST=   300 JCONV= 84 CHG=3.28E-04 dt0=1.00E+04 DIVF(1)=-1.71E-03 DIVFrms= 2.68E-03 DT(ND)=-4.28E-04 T(ND)=2.6988E+02

 TIME= 2.992E+06  TIME IN DAYS = 3.464E+01

 PLANETARY ALBEDO:  ALBP = 0.5248

  J     P         ALT         T        CONVEC       DT          TOLD        FH20       FSAVE       TCOOL       THEAT
  1 5.4293E-05 5.3132E+01 2.2081E+02  0.00E+00  -5.1511E-01  2.2133E+02  1.2176E-06  1.7651E-06 -5.7578E+02  5.8432E+02
  2 6.3977E-05 5.2222E+01 2.1079E+02  0.00E+00  -1.1183E-03  2.1079E+02  1.2176E-06  1.7651E-06 -1.2558E+02  1.0661E+02
  3 7.5293E-05 5.1347E+01 2.0707E+02  0.00E+00   6.7873E-02  2.0700E+02  1.2176E-06  1.7651E-06 -8.6345E+01  8.6732E+01
  4 8.8502E-05 5.0489E+01 2.0615E+02  0.00E+00   3.3296E-02  2.0611E+02  1.2176E-06  1.7651E-06 -7.6693E+01  7.8650E+01
  5 1.0390E-04 4.9642E+01 2.0476E+02  0.00E+00   1.1345E-02  2.0475E+02  1.2176E-06  1.7651E-06 -6.5834E+01  7.0519E+01
  6 1.2182E-04 4.8809E+01 2.0217E+02  0.00E+00   5.4814E-03  2.0216E+02  1.2176E-06  1.7651E-06 -6.2087E+01  6.2340E+01
  7 1.4266E-04 4.7996E+01 1.9876E+02  0.00E+00   4.4273E-03  1.9875E+02  1.2176E-06  1.7651E-06 -5.4175E+01  5.4274E+01
  8 1.6685E-04 4.7203E+01 1.9499E+02  0.00E+00   3.7141E-03  1.9499E+02  1.2176E-06  1.7651E-06 -4.6558E+01  4.6503E+01
  9 1.9490E-04 4.6432E+01 1.9134E+02  0.00E+00   2.8012E-03  1.9134E+02  1.2176E-06  1.7651E-06 -3.9431E+01  3.9215E+01
 10 2.2739E-04 4.5680E+01 1.8815E+02  0.00E+00   2.0243E-03  1.8815E+02  1.2176E-06  1.7651E-06 -3.2819E+01  3.2582E+01
 11 2.6496E-04 4.4945E+01 1.8564E+02  0.00E+00   1.5160E-03  1.8564E+02  1.2176E-06  1.7651E-06 -2.6921E+01  2.6744E+01
 12 3.0836E-04 4.4225E+01 1.8393E+02  0.00E+00   1.1928E-03  1.8392E+02  1.2176E-06  1.7651E-06 -2.2106E+01  2.1835E+01
 13 3.5841E-04 4.3515E+01 1.8297E+02  0.00E+00   9.6226E-04  1.8297E+02  1.2176E-06  1.7651E-06 -1.8418E+01  1.8290E+01
 14 4.1608E-04 4.2815E+01 1.8263E+02  0.00E+00   7.7396E-04  1.8263E+02  1.2176E-06  1.7651E-06 -1.5753E+01  1.5725E+01
 15 4.8242E-04 4.2120E+01 1.8272E+02  0.00E+00   6.2007E-04  1.8272E+02  1.2176E-06  1.7651E-06 -1.3850E+01  1.3910E+01
 16 5.5864E-04 4.1430E+01 1.8307E+02  0.00E+00   5.0356E-04  1.8307E+02  1.2176E-06  1.7651E-06 -1.2595E+01  1.2699E+01
 17 6.4610E-04 4.0745E+01 1.8356E+02  0.00E+00   4.2681E-04  1.8356E+02  1.2176E-06  1.7651E-06 -1.1853E+01  1.1939E+01
 18 7.4632E-04 4.0064E+01 1.8415E+02  0.00E+00   3.8664E-04  1.8415E+02  1.2176E-06  1.7651E-06 -1.1695E+01  1.1476E+01
 19 8.6101E-04 3.9386E+01 1.8475E+02  0.00E+00   3.7382E-04  1.8475E+02  1.2176E-06  1.7651E-06 -1.1186E+01  1.1173E+01
 20 9.9210E-04 3.8712E+01 1.8507E+02  0.00E+00   3.8503E-04  1.8507E+02  1.2176E-06  1.7651E-06 -1.0078E+01  1.0979E+01
 21 1.1417E-03 3.8044E+01 1.8525E+02  0.00E+00   4.1269E-04  1.8525E+02  1.2176E-06  1.7651E-06 -1.1998E+01  1.1974E+01
 22 1.3123E-03 3.7380E+01 1.8568E+02  0.00E+00   4.4813E-04  1.8568E+02  1.2176E-06  1.7651E-06 -1.3109E+01  1.2725E+01
 23 1.5064E-03 3.6720E+01 1.8660E+02  0.00E+00   4.8696E-04  1.8660E+02  1.2176E-06  1.7651E-06 -1.3457E+01  1.3052E+01
 24 1.7271E-03 3.6062E+01 1.8802E+02  0.00E+00   5.2725E-04  1.8802E+02  1.2176E-06  1.7651E-06 -1.3192E+01  1.2947E+01
 25 1.9777E-03 3.5404E+01 1.8971E+02  0.00E+00   5.6990E-04  1.8971E+02  1.2176E-06  1.7651E-06 -1.2425E+01  1.2465E+01
 26 2.2619E-03 3.4746E+01 1.9142E+02  0.00E+00   6.1506E-04  1.9142E+02  1.2176E-06  1.7651E-06 -1.1566E+01  1.1702E+01
 27 2.5836E-03 3.4089E+01 1.9293E+02  0.00E+00   6.6296E-04  1.9293E+02  1.2176E-06  1.7651E-06 -1.0519E+01  1.0775E+01
 28 2.9475E-03 3.3434E+01 1.9414E+02  0.00E+00   7.0868E-04  1.9414E+02  1.2176E-06  1.7651E-06 -9.6201E+00  9.7802E+00
 29 3.3584E-03 3.2781E+01 1.9507E+02  0.00E+00   7.5658E-04  1.9507E+02  1.2176E-06  1.7651E-06 -8.6673E+00  8.7345E+00
 30 3.8218E-03 3.2132E+01 1.9581E+02  0.00E+00   7.9732E-04  1.9581E+02  1.2176E-06  1.7651E-06 -7.6788E+00  7.7112E+00
 31 4.3438E-03 3.1486E+01 1.9647E+02  0.00E+00   8.4371E-04  1.9647E+02  1.2176E-06  1.7651E-06 -6.8803E+00  6.8111E+00
 32 4.9309E-03 3.0845E+01 1.9715E+02  0.00E+00   8.7956E-04  1.9715E+02  1.2176E-06  1.7651E-06 -6.1497E+00  6.0397E+00
 33 5.5904E-03 3.0208E+01 1.9788E+02  0.00E+00   9.5123E-04  1.9787E+02  1.2176E-06  1.7651E-06 -5.4313E+00  5.3979E+00
 34 6.3302E-03 2.9575E+01 1.9863E+02  0.00E+00   9.5073E-04  1.9863E+02  1.2176E-06  1.7651E-06 -4.9168E+00  4.8804E+00
 35 7.1590E-03 2.8945E+01 1.9939E+02  0.00E+00   1.0575E-03  1.9939E+02  1.2176E-06  1.7651E-06 -4.5152E+00  4.4704E+00
 36 8.0863E-03 2.8320E+01 2.0008E+02  0.00E+00   1.0778E-03  2.0008E+02  1.2176E-06  1.7651E-06 -4.1638E+00  4.1415E+00
 37 9.1222E-03 2.7699E+01 2.0058E+02  0.00E+00   1.1391E-03  2.0058E+02  1.2176E-06  1.7651E-06 -3.7063E+00  3.8620E+00
 38 1.0278E-02 2.7084E+01 2.0082E+02  0.00E+00   1.7112E-03  2.0082E+02  1.2176E-06  1.7651E-06 -3.3424E+00  3.6072E+00
 39 1.1566E-02 2.6474E+01 2.0086E+02  0.00E+00   1.7951E-04  2.0086E+02  1.2176E-06  1.7651E-06 -3.3300E+00  3.3597E+00
 40 1.2999E-02 2.5871E+01 2.0083E+02  0.00E+00   2.2956E-03  2.0083E+02  1.2176E-06  1.7651E-06 -3.1555E+00  3.0931E+00
 41 1.4592E-02 2.5275E+01 2.0085E+02  0.00E+00  -1.7837E-03  2.0085E+02  1.2176E-06  1.7651E-06 -2.9043E+00  2.8225E+00
 42 1.6359E-02 2.4684E+01 2.0100E+02  0.00E+00  -1.2562E-03  2.0100E+02  1.2176E-06  1.7651E-06 -2.6865E+00  2.5571E+00
 43 1.8318E-02 2.4100E+01 2.0130E+02  0.00E+00   1.5833E-03  2.0130E+02  1.2176E-06  1.7651E-06 -2.3331E+00  2.3072E+00
 44 2.0485E-02 2.3520E+01 2.0171E+02  0.00E+00   2.6657E-03  2.0171E+02  1.2176E-06  1.7651E-06 -2.0267E+00  2.0812E+00
 45 2.2881E-02 2.2946E+01 2.0220E+02  0.00E+00   2.9462E-03  2.0220E+02  1.2176E-06  1.7651E-06 -1.8485E+00  1.8846E+00
 46 2.5525E-02 2.2377E+01 2.0276E+02  0.00E+00   3.0445E-03  2.0275E+02  1.2176E-06  1.7651E-06 -1.6517E+00  1.7187E+00
 47 2.8438E-02 2.1813E+01 2.0338E+02  0.00E+00   3.1458E-03  2.0337E+02  1.2176E-06  1.7651E-06 -1.5649E+00  1.5820E+00
 48 3.1645E-02 2.1253E+01 2.0408E+02  0.00E+00   3.3059E-03  2.0407E+02  1.2176E-06  1.7651E-06 -1.4857E+00  1.4694E+00
 49 3.5170E-02 2.0698E+01 2.0485E+02  0.00E+00   3.5609E-03  2.0484E+02  1.2176E-06  1.7651E-06 -1.3598E+00  1.3732E+00
 50 3.9039E-02 2.0148E+01 2.0567E+02  0.00E+00   3.9002E-03  2.0566E+02  1.2176E-06  1.7651E-06 -1.2860E+00  1.2887E+00
 51 4.3280E-02 1.9602E+01 2.0650E+02  0.00E+00   4.2753E-03  2.0650E+02  1.2176E-06  1.7651E-06 -1.1994E+00  1.2102E+00
 52 4.7922E-02 1.9060E+01 2.0730E+02  0.00E+00   4.6243E-03  2.0729E+02  1.2176E-06  1.7651E-06 -1.1060E+00  1.1339E+00
 53 5.2995E-02 1.8523E+01 2.0798E+02  0.00E+00   4.9029E-03  2.0797E+02  1.2176E-06  1.7651E-06 -9.8526E-01  1.0573E+00
 54 5.8533E-02 1.7991E+01 2.0849E+02  0.00E+00   5.0928E-03  2.0848E+02  1.2176E-06  1.7651E-06 -9.0699E-01  9.7905E-01
 55 6.4568E-02 1.7465E+01 2.0877E+02  0.00E+00   5.1982E-03  2.0877E+02  1.2176E-06  1.7651E-06 -8.0825E-01  8.9884E-01
 56 7.1138E-02 1.6945E+01 2.0881E+02  0.00E+00   5.2276E-03  2.0880E+02  1.2176E-06  1.7651E-06 -7.2315E-01  8.1678E-01
 57 7.8278E-02 1.6431E+01 2.0859E+02  0.00E+00   5.1775E-03  2.0858E+02  1.2176E-06  1.7651E-06 -6.4948E-01  7.3337E-01
 58 8.6028E-02 1.5926E+01 2.0814E+02  0.00E+00   5.0305E-03  2.0814E+02  1.2176E-06  1.7651E-06 -5.8828E-01  6.4935E-01
 59 9.4428E-02 1.5428E+01 2.0751E+02  0.00E+00   4.7652E-03  2.0750E+02  1.2176E-06  1.7651E-06 -5.1910E-01  5.6693E-01
 60 1.0352E-01 1.4939E+01 2.0673E+02  0.00E+00   4.3656E-03  2.0673E+02  1.2176E-06  1.7651E-06 -4.7108E-01  5.1094E-01
 61 1.1334E-01 1.4458E+01 2.0586E+02  0.00E+00   3.8286E-03  2.0586E+02  1.2176E-06  1.7651E-06 -4.4701E-01  4.8695E-01
 62 1.2395E-01 1.3986E+01 2.0495E+02  0.00E+00   3.1860E-03  2.0494E+02  1.2176E-06  1.7651E-06 -4.2320E-01  4.5609E-01
 63 1.3537E-01 1.3523E+01 2.0404E+02  0.00E+00   2.4644E-03  2.0404E+02  1.2176E-06  1.7651E-06 -4.1309E-01  4.2103E-01
 64 1.4767E-01 1.3068E+01 2.0320E+02  0.00E+00   1.8139E-03  2.0320E+02  1.2176E-06  1.7651E-06 -3.8926E-01  3.8571E-01
 65 1.6088E-01 1.2621E+01 2.0247E+02  0.00E+00   1.0858E-03  2.0247E+02  1.2176E-06  1.7651E-06 -3.6360E-01  3.5300E-01
 66 1.7506E-01 1.2182E+01 2.0188E+02  0.00E+00   2.2240E-04  2.0188E+02  1.2176E-06  1.7651E-06 -3.3798E-01  3.2448E-01
 67 1.9024E-01 1.1751E+01 2.0144E+02  0.00E+00  -2.4190E-04  2.0144E+02  1.2176E-06  1.7651E-06 -3.2280E-01  3.0062E-01
 68 2.0649E-01 1.1327E+01 2.0118E+02  0.00E+00  -4.7970E-04  2.0118E+02  1.2176E-06  1.7651E-06 -3.0802E-01  2.8106E-01
 69 2.2385E-01 1.0909E+01 2.0109E+02  0.00E+00  -1.2495E-03  2.0109E+02  1.2176E-06  1.7651E-06 -2.9329E-01  2.6506E-01
 70 2.4237E-01 1.0499E+01 2.0117E+02  0.00E+00  -2.0273E-03  2.0117E+02  1.2176E-06  1.7651E-06 -2.7871E-01  2.5173E-01
 71 2.6209E-01 1.0094E+01 2.0139E+02  0.00E+00  -1.7286E-03  2.0139E+02  1.2176E-06  1.7651E-06 -2.6441E-01  2.4020E-01
 72 2.8306E-01 9.6950E+00 2.0172E+02  0.00E+00  -8.8537E-04  2.0173E+02  1.2176E-06  1.7651E-06 -2.5050E-01  2.2975E-01
 73 3.0533E-01 9.3020E+00 2.0215E+02  0.00E+00  -1.0878E-03  2.0216E+02  1.2176E-06  1.7651E-06 -2.3984E-01  2.2004E-01
 74 3.2894E-01 8.9145E+00 2.0263E+02  0.00E+00  -2.7927E-03  2.0264E+02  1.2381E-06  1.7651E-06 -2.1832E-01  2.1275E-01
 75 3.5393E-01 8.5325E+00 2.0313E+02  0.00E+00  -4.9520E-03  2.0313E+02  1.3203E-06  1.7651E-06 -2.0009E-01  2.0751E-01
 76 3.8036E-01 8.1560E+00 2.0378E+02  0.00E+00   6.0071E-04  2.0378E+02  1.4630E-06  1.7651E-06 -1.9727E-01  2.0246E-01
 77 4.0824E-01 7.7844E+00 2.0487E+02  0.00E+00  -7.9709E-04  2.0487E+02  1.7263E-06  1.7651E-06 -2.0449E-01  1.9760E-01
 78 4.3763E-01 7.4176E+00 2.0580E+02  0.00E+00  -7.4605E-04  2.0581E+02  1.9886E-06  1.7919E-06 -1.9903E-01  1.9258E-01
 79 4.6854E-01 7.0554E+00 2.0701E+02  0.00E+00   3.0001E-04  2.0701E+02  2.3754E-06  1.8991E-06 -1.8525E-01  1.8784E-01
 80 5.0102E-01 6.6979E+00 2.0812E+02  0.00E+00  -3.7106E-04  2.0812E+02  2.7965E-06  2.1021E-06 -1.8650E-01  1.8329E-01
 81 5.3508E-01 6.3444E+00 2.1009E+02  0.00E+00   1.6393E-03  2.1009E+02  3.7015E-06  2.6944E-06 -1.6616E-01  1.8032E-01
 82 5.7075E-01 5.9950E+00 2.1125E+02  0.00E+00   1.1802E-03  2.1125E+02  4.3626E-06  4.3994E-06 -1.6677E-01  1.7696E-01
 83 6.0804E-01 5.6486E+00 2.1461E+02  0.00E+00  -4.9265E-04  2.1461E+02  6.8952E-06  7.2960E-06 -3.6399E-01  1.8020E-01
 84 6.4695E-01 5.3034E+00 2.1831E+02  1.00E+00  -4.9912E-04  2.1831E+02  1.1220E-05  1.1857E-05 -5.6898E-01  1.8881E-01
 85 6.8750E-01 4.9595E+00 2.2198E+02  1.00E+00  -5.0516E-04  2.2198E+02  1.7905E-05  1.8892E-05 -7.3472E-01  2.0228E-01
 86 7.2969E-01 4.6169E+00 2.2562E+02  1.00E+00  -5.1060E-04  2.2562E+02  2.8036E-05  2.9523E-05 -8.7785E-01  2.2191E-01
 87 7.7349E-01 4.2761E+00 2.2922E+02  1.00E+00  -5.1524E-04  2.2922E+02  4.3083E-05  4.5265E-05 -9.8740E-01  2.4898E-01
 88 8.1891E-01 3.9373E+00 2.3278E+02  1.00E+00  -5.1883E-04  2.3278E+02  6.4989E-05  6.8109E-05 -1.0477E+00  2.8026E-01
 89 8.6592E-01 3.6008E+00 2.3628E+02  1.00E+00  -5.2113E-04  2.3628E+02  9.6248E-05  1.0058E-04 -1.0649E+00  3.0739E-01
 90 9.1448E-01 3.2670E+00 2.3973E+02  1.00E+00  -5.2188E-04  2.3973E+02  1.3996E-04  1.4582E-04 -1.0381E+00  3.2364E-01
 91 9.6457E-01 2.9361E+00 2.4309E+02  1.00E+00  -5.2087E-04  2.4309E+02  1.9984E-04  2.0752E-04 -1.0161E+00  3.3157E-01
 92 1.0161E+00 2.6085E+00 2.4638E+02  1.00E+00  -5.1794E-04  2.4638E+02  2.8020E-04  2.8997E-04 -1.0211E+00  3.5687E-01
 93 1.0691E+00 2.2844E+00 2.4957E+02  1.00E+00  -5.1301E-04  2.4957E+02  3.8582E-04  3.9785E-04 -1.0772E+00  3.9209E-01
 94 1.1235E+00 1.9643E+00 2.5266E+02  1.00E+00  -5.0610E-04  2.5266E+02  5.2181E-04  5.3614E-04 -1.1141E+00  4.2285E-01
 95 1.1791E+00 1.6484E+00 2.5564E+02  1.00E+00  -4.9732E-04  2.5564E+02  6.9336E-04  7.0983E-04 -1.0862E+00  4.4883E-01
 96 1.2360E+00 1.3370E+00 2.5850E+02  1.00E+00  -4.8690E-04  2.5850E+02  9.0548E-04  9.2375E-04 -9.8384E-01  4.7247E-01
 97 1.2940E+00 1.0306E+00 2.6125E+02  1.00E+00  -4.7511E-04  2.6125E+02  1.1628E-03  1.1823E-03 -8.4899E-01  4.9342E-01
 98 1.3530E+00 7.2939E-01 2.6386E+02  1.00E+00  -4.6230E-04  2.6386E+02  1.4691E-03  1.4892E-03 -7.3076E-01  5.1508E-01
 99 1.4130E+00 4.3368E-01 2.6636E+02  1.00E+00  -4.4880E-04  2.6636E+02  1.8276E-03  1.8475E-03 -7.4611E-01  5.4348E-01
100 1.4738E+00 1.4377E-01 2.6872E+02  1.00E+00  -4.3496E-04  2.6872E+02  2.2404E-03  2.2592E-03 -7.4646E-01  5.8726E-01
101 1.5047E+00 0.0000E+00 2.6988E+02  1.00E+00  -4.2794E-04  2.6988E+02  2.4714E-03  2.4875E-03 -1.2188E+00  3.3563E+00

 FCO2
  2.48E-01 2.48E-01 2.48E-01 2.48E-01 2.48E-01 2.48E-01 2.48E-01 2.48E-01 2.48E-01 2.48E-01
  2.48E-01 2.48E-01 2.48E-01 2.48E-01 2.48E-01 2.48E-01 2.48E-01 2.48E-01 2.48E-01 2.48E-01
  2.48E-01 2.48E-01 2.48E-01 2.48E-01 2.48E-01 2.48E-01 2.48E-01 2.48E-01 2.48E-01 2.48E-01
  2.48E-01 2.48E-01 2.48E-01 2.48E-01 2.48E-01 2.48E-01 2.48E-01 2.48E-01 2.48E-01 2.48E-01
  2.48E-01 2.48E-01 2.48E-01 2.48E-01 2.48E-01 2.48E-01 2.48E-01 2.48E-01 2.48E-01 2.48E-01
  2.48E-01 2.48E-01 2.48E-01 2.48E-01 2.48E-01 2.48E-01 2.48E-01 2.48E-01 2.48E-01 2.48E-01
  2.48E-01 2.48E-01 2.48E-01 2.48E-01 2.48E-01 2.48E-01 2.48E-01 2.48E-01 2.48E-01 2.48E-01
  2.48E-01 2.48E-01 2.48E-01 2.48E-01 2.48E-01 2.48E-01 2.48E-01 2.48E-01 2.48E-01 2.48E-01
  2.48E-01 2.48E-01 2.48E-01 2.48E-01 2.48E-01 2.48E-01 2.48E-01 2.48E-01 2.48E-01 2.48E-01
  2.48E-01 2.48E-01 2.48E-01 2.48E-01 2.48E-01 2.48E-01 2.48E-01 2.48E-01 2.48E-01 2.48E-01
  2.48E-01

  J    PF         ALT       FTOTAL       FTIR       FDNIR       FUPIR       FTSOL       FDNSOL       FUPSOL       DIVF
  1 5.0000E-05 5.3132E+01 -2.6280E+02 -1.5376E+05  0.0000E+00  1.5376E+05  1.5349E+05  3.2300E+05  1.6950E+05 -1.7092E-03
  2 5.8955E-05 5.2222E+01 -2.7108E+02 -1.5320E+05  4.5040E+02  1.5365E+05  1.5293E+05  3.2243E+05  1.6950E+05 -1.7643E-03
  3 6.9426E-05 5.1347E+01 -2.4967E+02 -1.5306E+05  5.4541E+02  1.5360E+05  1.5281E+05  3.2231E+05  1.6950E+05 -1.6255E-03
  4 8.1656E-05 5.0489E+01 -2.5018E+02 -1.5294E+05  6.2622E+02  1.5357E+05  1.5269E+05  3.2219E+05  1.6950E+05 -1.6291E-03
  5 9.5921E-05 4.9642E+01 -2.5319E+02 -1.5283E+05  7.0210E+02  1.5353E+05  1.5257E+05  3.2207E+05  1.6950E+05 -1.6491E-03
  6 1.1254E-04 4.8809E+01 -2.6155E+02 -1.5271E+05  7.6662E+02  1.5347E+05  1.5245E+05  3.2195E+05  1.6950E+05 -1.7042E-03
  7 1.3187E-04 4.7996E+01 -2.6208E+02 -1.5258E+05  8.3107E+02  1.5341E+05  1.5232E+05  3.2182E+05  1.6950E+05 -1.7084E-03
  8 1.5433E-04 4.7203E+01 -2.6232E+02 -1.5245E+05  8.9484E+02  1.5334E+05  1.5219E+05  3.2169E+05  1.6950E+05 -1.7107E-03
  9 1.8039E-04 4.6432E+01 -2.6216E+02 -1.5232E+05  9.6280E+02  1.5328E+05  1.5206E+05  3.2156E+05  1.6950E+05 -1.7103E-03
 10 2.1059E-04 4.5680E+01 -2.6147E+02 -1.5219E+05  1.0389E+03  1.5323E+05  1.5193E+05  3.2143E+05  1.6950E+05 -1.7064E-03
 11 2.4554E-04 4.4945E+01 -2.6058E+02 -1.5207E+05  1.1249E+03  1.5319E+05  1.5181E+05  3.2131E+05  1.6950E+05 -1.7010E-03
 12 2.8593E-04 4.4225E+01 -2.5982E+02 -1.5195E+05  1.2208E+03  1.5317E+05  1.5169E+05  3.2119E+05  1.6950E+05 -1.6962E-03
 13 3.3255E-04 4.3515E+01 -2.5847E+02 -1.5184E+05  1.3264E+03  1.5317E+05  1.5158E+05  3.2108E+05  1.6950E+05 -1.6875E-03
 14 3.8629E-04 4.2815E+01 -2.5774E+02 -1.5174E+05  1.4411E+03  1.5318E+05  1.5148E+05  3.2098E+05  1.6950E+05 -1.6826E-03
 15 4.4816E-04 4.2120E+01 -2.5756E+02 -1.5163E+05  1.5648E+03  1.5320E+05  1.5138E+05  3.2087E+05  1.6950E+05 -1.6812E-03
 16 5.1929E-04 4.1430E+01 -2.5801E+02 -1.5153E+05  1.6976E+03  1.5323E+05  1.5127E+05  3.2077E+05  1.6949E+05 -1.6838E-03
 17 6.0096E-04 4.0745E+01 -2.5891E+02 -1.5142E+05  1.8411E+03  1.5326E+05  1.5116E+05  3.2065E+05  1.6949E+05 -1.6894E-03
 18 6.9462E-04 4.0064E+01 -2.5977E+02 -1.5130E+05  1.9970E+03  1.5330E+05  1.5104E+05  3.2053E+05  1.6949E+05 -1.6945E-03
 19 8.0187E-04 3.9386E+01 -2.5726E+02 -1.5117E+05  2.1683E+03  1.5334E+05  1.5091E+05  3.2040E+05  1.6949E+05 -1.6778E-03
 20 9.2452E-04 3.8712E+01 -2.5710E+02 -1.5102E+05  2.3492E+03  1.5337E+05  1.5076E+05  3.2025E+05  1.6949E+05 -1.6763E-03
 21 1.0646E-03 3.8044E+01 -2.7055E+02 -1.5087E+05  2.5391E+03  1.5341E+05  1.5060E+05  3.2009E+05  1.6949E+05 -1.7636E-03
 22 1.2244E-03 3.7380E+01 -2.7015E+02 -1.5067E+05  2.8141E+03  1.5348E+05  1.5040E+05  3.1988E+05  1.6949E+05 -1.7601E-03
 23 1.4064E-03 3.6720E+01 -2.6270E+02 -1.5041E+05  3.1822E+03  1.5359E+05  1.5015E+05  3.1964E+05  1.6949E+05 -1.7103E-03
 24 1.6135E-03 3.6062E+01 -2.5374E+02 -1.5011E+05  3.6357E+03  1.5375E+05  1.4986E+05  3.1935E+05  1.6949E+05 -1.6503E-03
 25 1.8488E-03 3.5404E+01 -2.4759E+02 -1.4978E+05  4.1526E+03  1.5394E+05  1.4954E+05  3.1902E+05  1.6949E+05 -1.6084E-03
 26 2.1157E-03 3.4746E+01 -2.4872E+02 -1.4943E+05  4.7006E+03  1.5413E+05  1.4918E+05  3.1867E+05  1.6949E+05 -1.6137E-03
 27 2.4182E-03 3.4089E+01 -2.5313E+02 -1.4906E+05  5.2581E+03  1.5431E+05  1.4880E+05  3.1830E+05  1.6949E+05 -1.6403E-03
 28 2.7604E-03 3.3434E+01 -2.6250E+02 -1.4867E+05  5.8060E+03  1.5448E+05  1.4841E+05  3.1791E+05  1.6950E+05 -1.6993E-03
 29 3.1472E-03 3.2781E+01 -2.6912E+02 -1.4827E+05  6.3480E+03  1.5462E+05  1.4800E+05  3.1751E+05  1.6950E+05 -1.7406E-03
 30 3.5837E-03 3.2132E+01 -2.7226E+02 -1.4787E+05  6.8851E+03  1.5475E+05  1.4759E+05  3.1711E+05  1.6951E+05 -1.7594E-03
 31 4.0757E-03 3.1486E+01 -2.7397E+02 -1.4746E+05  7.4212E+03  1.5488E+05  1.4719E+05  3.1671E+05  1.6952E+05 -1.7689E-03
 32 4.6295E-03 3.0845E+01 -2.6986E+02 -1.4705E+05  7.9702E+03  1.5502E+05  1.4678E+05  3.1631E+05  1.6953E+05 -1.7408E-03
 33 5.2519E-03 3.0208E+01 -2.6252E+02 -1.4664E+05  8.5322E+03  1.5518E+05  1.4638E+05  3.1592E+05  1.6954E+05 -1.6918E-03
 34 5.9507E-03 2.9575E+01 -2.6002E+02 -1.4624E+05  9.0964E+03  1.5533E+05  1.4598E+05  3.1553E+05  1.6956E+05 -1.6739E-03
 35 6.7340E-03 2.8945E+01 -2.5696E+02 -1.4582E+05  9.6642E+03  1.5549E+05  1.4557E+05  3.1514E+05  1.6957E+05 -1.6526E-03
 36 7.6109E-03 2.8320E+01 -2.5274E+02 -1.4540E+05  1.0226E+04  1.5563E+05  1.4515E+05  3.1474E+05  1.6959E+05 -1.6240E-03
 37 8.5913E-03 2.7699E+01 -2.5040E+02 -1.4496E+05  1.0765E+04  1.5573E+05  1.4471E+05  3.1433E+05  1.6962E+05 -1.6079E-03
 38 9.6860E-03 2.7084E+01 -2.6869E+02 -1.4453E+05  1.1256E+04  1.5578E+05  1.4426E+05  3.1390E+05  1.6964E+05 -1.7248E-03
 39 1.0907E-02 2.6474E+01 -3.0338E+02 -1.4409E+05  1.1720E+04  1.5581E+05  1.4379E+05  3.1346E+05  1.6967E+05 -1.9471E-03
 40 1.2266E-02 2.5871E+01 -3.0771E+02 -1.4360E+05  1.2233E+04  1.5584E+05  1.4330E+05  3.1300E+05  1.6971E+05 -1.9746E-03
 41 1.3777E-02 2.5275E+01 -2.9758E+02 -1.4309E+05  1.2797E+04  1.5589E+05  1.4279E+05  3.1253E+05  1.6974E+05 -1.9089E-03
 42 1.5455E-02 2.4684E+01 -2.8285E+02 -1.4257E+05  1.3414E+04  1.5598E+05  1.4229E+05  3.1206E+05  1.6977E+05 -1.8133E-03
 43 1.7316E-02 2.4100E+01 -2.5699E+02 -1.4203E+05  1.4092E+04  1.5612E+05  1.4177E+05  3.1158E+05  1.6981E+05 -1.6461E-03
 44 1.9377E-02 2.3520E+01 -2.5125E+02 -1.4152E+05  1.4789E+04  1.5630E+05  1.4126E+05  3.1111E+05  1.6984E+05 -1.6074E-03
 45 2.1657E-02 2.2946E+01 -2.6461E+02 -1.4102E+05  1.5499E+04  1.5652E+05  1.4075E+05  3.1063E+05  1.6988E+05 -1.6906E-03
 46 2.4174E-02 2.2377E+01 -2.7436E+02 -1.4052E+05  1.6245E+04  1.5677E+05  1.4025E+05  3.1016E+05  1.6991E+05 -1.7501E-03
 47 2.6950E-02 2.1813E+01 -2.9434E+02 -1.4003E+05  1.7015E+04  1.5704E+05  1.3973E+05  3.0968E+05  1.6994E+05 -1.8743E-03
 48 3.0008E-02 2.1253E+01 -2.9992E+02 -1.3951E+05  1.7842E+04  1.5735E+05  1.3921E+05  3.0919E+05  1.6997E+05 -1.9060E-03
 49 3.3372E-02 2.0698E+01 -2.9403E+02 -1.3898E+05  1.8725E+04  1.5770E+05  1.3868E+05  3.0869E+05  1.7000E+05 -1.8644E-03
 50 3.7066E-02 2.0148E+01 -2.9937E+02 -1.3844E+05  1.9629E+04  1.5806E+05  1.3814E+05  3.0817E+05  1.7003E+05 -1.8940E-03
 51 4.1118E-02 1.9602E+01 -3.0054E+02 -1.3788E+05  2.0558E+04  1.5843E+05  1.3757E+05  3.0763E+05  1.7005E+05 -1.8969E-03
 52 4.5556E-02 1.9060E+01 -3.0571E+02 -1.3730E+05  2.1480E+04  1.5878E+05  1.3700E+05  3.0707E+05  1.7007E+05 -1.9253E-03
 53 5.0410E-02 1.8523E+01 -3.2029E+02 -1.3672E+05  2.2358E+04  1.5908E+05  1.3640E+05  3.0648E+05  1.7008E+05 -2.0134E-03
 54 5.5712E-02 1.7991E+01 -3.6140E+02 -1.3616E+05  2.3141E+04  1.5930E+05  1.3580E+05  3.0588E+05  1.7008E+05 -2.2686E-03
 55 6.1496E-02 1.7465E+01 -4.0628E+02 -1.3560E+05  2.3828E+04  1.5943E+05  1.3519E+05  3.0527E+05  1.7008E+05 -2.5484E-03
 56 6.7795E-02 1.6945E+01 -4.6774E+02 -1.3505E+05  2.4386E+04  1.5944E+05  1.3458E+05  3.0464E+05  1.7006E+05 -2.9337E-03
 57 7.4646E-02 1.6431E+01 -5.3683E+02 -1.3452E+05  2.4821E+04  1.5934E+05  1.3398E+05  3.0401E+05  1.7003E+05 -3.3692E-03
 58 8.2088E-02 1.5926E+01 -6.0406E+02 -1.3400E+05  2.5146E+04  1.5914E+05  1.3339E+05  3.0338E+05  1.6999E+05 -3.7957E-03
 59 9.0159E-02 1.5428E+01 -6.5713E+02 -1.3348E+05  2.5385E+04  1.5887E+05  1.3283E+05  3.0276E+05  1.6993E+05 -4.1363E-03
 60 9.8900E-02 1.4939E+01 -7.0212E+02 -1.3300E+05  2.5551E+04  1.5855E+05  1.3229E+05  3.0215E+05  1.6985E+05 -4.4285E-03
 61 1.0835E-01 1.4458E+01 -7.4267E+02 -1.3252E+05  2.5684E+04  1.5820E+05  1.3177E+05  3.0153E+05  1.6976E+05 -4.6945E-03
 62 1.1856E-01 1.3986E+01 -7.8654E+02 -1.3203E+05  2.5833E+04  1.5786E+05  1.3124E+05  3.0089E+05  1.6966E+05 -4.9826E-03
 63 1.2957E-01 1.3523E+01 -8.2548E+02 -1.3152E+05  2.6025E+04  1.5755E+05  1.3070E+05  3.0024E+05  1.6954E+05 -5.2395E-03
 64 1.4143E-01 1.3068E+01 -8.3559E+02 -1.3100E+05  2.6302E+04  1.5730E+05  1.3016E+05  2.9958E+05  1.6942E+05 -5.3121E-03
 65 1.5418E-01 1.2621E+01 -8.3072E+02 -1.3047E+05  2.6662E+04  1.5713E+05  1.2963E+05  2.9892E+05  1.6929E+05 -5.2870E-03
 66 1.6787E-01 1.2182E+01 -8.1514E+02 -1.2993E+05  2.7112E+04  1.5704E+05  1.2912E+05  2.9826E+05  1.6914E+05 -5.1905E-03
 67 1.8255E-01 1.1751E+01 -7.9386E+02 -1.2940E+05  2.7656E+04  1.5705E+05  1.2860E+05  2.9759E+05  1.6898E+05 -5.0547E-03
 68 1.9826E-01 1.1327E+01 -7.5644E+02 -1.2885E+05  2.8320E+04  1.5717E+05  1.2810E+05  2.9691E+05  1.6881E+05 -4.8128E-03
 69 2.1506E-01 1.0909E+01 -7.0782E+02 -1.2830E+05  2.9103E+04  1.5740E+05  1.2759E+05  2.9622E+05  1.6863E+05 -4.4969E-03
 70 2.3300E-01 1.0499E+01 -6.5350E+02 -1.2773E+05  3.0000E+04  1.5773E+05  1.2708E+05  2.9551E+05  1.6843E+05 -4.1431E-03
 71 2.5211E-01 1.0094E+01 -5.9815E+02 -1.2716E+05  3.0999E+04  1.5816E+05  1.2656E+05  2.9478E+05  1.6822E+05 -3.7819E-03
 72 2.7245E-01 9.6950E+00 -5.4529E+02 -1.2658E+05  3.2092E+04  1.5868E+05  1.2604E+05  2.9403E+05  1.6799E+05 -3.4365E-03
 73 2.9407E-01 9.3020E+00 -4.9712E+02 -1.2600E+05  3.3263E+04  1.5927E+05  1.2551E+05  2.9325E+05  1.6774E+05 -3.1213E-03
 74 3.1701E-01 8.9145E+00 -4.4834E+02 -1.2541E+05  3.4534E+04  1.5995E+05  1.2496E+05  2.9244E+05  1.6748E+05 -2.8031E-03
 75 3.4131E-01 8.5325E+00 -4.3380E+02 -1.2484E+05  3.5850E+04  1.6069E+05  1.2441E+05  2.9161E+05  1.6720E+05 -2.6996E-03
 76 3.6702E-01 8.1560E+00 -4.5430E+02 -1.2429E+05  3.7331E+04  1.6162E+05  1.2384E+05  2.9074E+05  1.6691E+05 -2.8109E-03
 77 3.9418E-01 7.7844E+00 -4.6944E+02 -1.2371E+05  3.9097E+04  1.6281E+05  1.2324E+05  2.8985E+05  1.6660E+05 -2.8834E-03
 78 4.2281E-01 7.4176E+00 -4.4824E+02 -1.2308E+05  4.0990E+04  1.6407E+05  1.2264E+05  2.8892E+05  1.6629E+05 -2.7319E-03
 79 4.5296E-01 7.0554E+00 -4.2734E+02 -1.2244E+05  4.3171E+04  1.6561E+05  1.2201E+05  2.8796E+05  1.6595E+05 -2.5804E-03
 80 4.8466E-01 6.6979E+00 -4.3618E+02 -1.2181E+05  4.5568E+04  1.6737E+05  1.2137E+05  2.8698E+05  1.6561E+05 -2.6060E-03
 81 5.1793E-01 6.3444E+00 -4.2470E+02 -1.2114E+05  4.8609E+04  1.6975E+05  1.2071E+05  2.8596E+05  1.6525E+05 -2.5019E-03
 82 5.5280E-01 5.9950E+00 -4.7791E+02 -1.2051E+05  5.1663E+04  1.7218E+05  1.2004E+05  2.8491E+05  1.6487E+05 -2.7757E-03
 83 5.8928E-01 5.6486E+00 -5.1802E+02 -1.1986E+05  5.6201E+04  1.7606E+05  1.1934E+05  2.8383E+05  1.6449E+05 -2.9423E-03
 84 6.2739E-01 5.3034E+00  2.3822E+02 -1.1836E+05  6.2174E+04  1.8053E+05  1.1860E+05  2.8269E+05  1.6409E+05  1.3195E-03
 85 6.6713E-01 4.9595E+00  1.8722E+03 -1.1592E+05  6.9570E+04  1.8549E+05  1.1779E+05  2.8147E+05  1.6368E+05  1.0093E-02
 86 7.0850E-01 4.6169E+00  4.2586E+03 -1.1262E+05  7.8232E+04  1.9085E+05  1.1688E+05  2.8014E+05  1.6326E+05  2.2314E-02
 87 7.5150E-01 4.2761E+00  7.3195E+03 -1.0853E+05  8.8162E+04  1.9669E+05  1.1585E+05  2.7867E+05  1.6283E+05  3.7214E-02
 88 7.9613E-01 3.9373E+00  1.0901E+04 -1.0374E+05  9.9244E+04  2.0298E+05  1.1464E+05  2.7702E+05  1.6239E+05  5.3703E-02
 89 8.4235E-01 3.6008E+00  1.4762E+04 -9.8465E+04  1.1119E+05  2.0966E+05  1.1323E+05  2.7517E+05  1.6194E+05  7.0412E-02
 90 8.9015E-01 3.2670E+00  1.8710E+04 -9.2916E+04  1.2382E+05  2.1673E+05  1.1163E+05  2.7312E+05  1.6149E+05  8.6328E-02
 91 9.3949E-01 2.9361E+00  2.2560E+04 -8.7322E+04  1.3679E+05  2.2411E+05  1.0988E+05  2.7093E+05  1.6105E+05  1.0066E-01
 92 9.9033E-01 2.6085E+00  2.6366E+04 -8.1672E+04  1.5009E+05  2.3176E+05  1.0804E+05  2.6864E+05  1.6060E+05  1.1376E-01
 93 1.0426E+00 2.2844E+00  3.0170E+04 -7.5824E+04  1.6377E+05  2.3960E+05  1.0599E+05  2.6617E+05  1.6018E+05  1.2592E-01
 94 1.0963E+00 1.9643E+00  3.4205E+04 -6.9480E+04  1.7810E+05  2.4758E+05  1.0369E+05  2.6346E+05  1.5977E+05  1.3816E-01
 95 1.1513E+00 1.6484E+00  3.8383E+04 -6.2747E+04  1.9301E+05  2.5576E+05  1.0113E+05  2.6054E+05  1.5941E+05  1.5008E-01
 96 1.2076E+00 1.3370E+00  4.2328E+04 -5.6023E+04  2.0806E+05  2.6409E+05  9.8351E+04  2.5745E+05  1.5910E+05  1.6028E-01
 97 1.2651E+00 1.0306E+00  4.5564E+04 -4.9797E+04  2.2266E+05  2.7246E+05  9.5361E+04  2.5423E+05  1.5887E+05  1.6723E-01
 98 1.3236E+00 7.2939E-01  4.7859E+04 -4.4317E+04  2.3644E+05  2.8076E+05  9.2176E+04  2.5093E+05  1.5876E+05  1.7046E-01
 99 1.3831E+00 4.3368E-01  4.9277E+04 -3.9515E+04  2.4923E+05  2.8875E+05  8.8791E+04  2.4759E+05  1.5880E+05  1.7066E-01
100 1.4435E+00 1.4377E-01  5.0630E+04 -3.4533E+04  2.6136E+05  2.9590E+05  8.5163E+04  2.4424E+05  1.5908E+05  1.7111E-01
101 1.5047E+00 0.0000E+00  5.1707E+04 -2.9482E+04  2.6973E+05  2.9921E+05  8.1189E+04  2.4092E+05  1.5973E+05  1.7281E-01
 
