 
    OUTPUT FILES FOR THE GJ581
 
 Solar Constant=   0.31   F_CH4= 1.0000E-60  F_CO2= 2.4138E-01  F_O2= 1.0000E-60  F_N2= 1.0000E+00  IO3 =  0   IUP=  0
 ICONSERV= 0  FAC= 4.0  ND=101  SRFALB= 0.200  G=2000.0  IMW= 0

 FNO2 = 1.000E-60
 
 NST=     1 JCONV= 13 CHG=3.62E-03 dt0=7.50E+03 DIVF(1)=-3.98E-05 DIVFrms= 1.07E-04 DT(ND)=-8.45E-04 T(ND)=2.1238E+02

 TIME= 5.000E+03  TIME IN DAYS = 5.787E-02

 PLANETARY ALBEDO:  ALBP = 0.1649

  J     P         ALT         T        CONVEC       DT          TOLD        FH20       FSAVE       TCOOL       THEAT
  1 1.0798E-04 2.0821E+01 1.7772E+02  0.00E+00  -3.8659E-03  1.7772E+02  1.5934E-07  1.6018E-07 -1.7612E+02  1.7605E+02
  2 1.2584E-04 2.0474E+01 1.7189E+02  0.00E+00  -6.2114E-01  1.7156E+02  1.5934E-07  1.6018E-07 -5.6517E+01  4.5784E+01
  3 1.4648E-04 2.0139E+01 1.6825E+02  0.00E+00  -8.7560E-02  1.6805E+02  1.5934E-07  1.6018E-07 -3.9224E+01  3.7710E+01
  4 1.7031E-04 1.9812E+01 1.6617E+02  0.00E+00  -6.6012E-03  1.6614E+02  1.5934E-07  1.6018E-07 -3.4145E+01  3.4031E+01
  5 1.9778E-04 1.9492E+01 1.6440E+02  0.00E+00   1.2316E-02  1.6441E+02  1.5934E-07  1.6018E-07 -3.0159E+01  3.0372E+01
  6 2.2942E-04 1.9177E+01 1.6260E+02  0.00E+00   1.3133E-02  1.6261E+02  1.5934E-07  1.6018E-07 -2.6479E+01  2.6706E+01
  7 2.6582E-04 1.8869E+01 1.6073E+02  0.00E+00   4.0320E-03  1.6073E+02  1.5934E-07  1.6018E-07 -2.3039E+01  2.3109E+01
  8 3.0763E-04 1.8566E+01 1.5884E+02  0.00E+00  -8.3887E-03  1.5883E+02  1.5934E-07  1.6018E-07 -1.9807E+01  1.9662E+01
  9 3.5560E-04 1.8269E+01 1.5702E+02  0.00E+00  -2.7891E-02  1.5700E+02  1.5934E-07  1.6018E-07 -1.6926E+01  1.6444E+01
 10 4.1057E-04 1.7978E+01 1.5538E+02  0.00E+00  -3.4129E-02  1.5535E+02  1.5934E-07  1.6018E-07 -1.4115E+01  1.3525E+01
 11 4.7350E-04 1.7692E+01 1.5399E+02  0.00E+00  -3.4867E-02  1.5396E+02  1.5934E-07  1.6018E-07 -1.1562E+01  1.0960E+01
 12 5.4543E-04 1.7410E+01 1.5288E+02  0.00E+00  -3.4451E-02  1.5284E+02  1.5934E-07  1.6018E-07 -9.3770E+00  8.7817E+00
 13 6.2757E-04 1.7133E+01 1.5205E+02  0.00E+00  -8.4467E-04  1.5200E+02  1.5934E-07  1.6018E-07 -7.5558E+00  6.9989E+00
 14 7.2123E-04 1.6859E+01 1.5145E+02  0.00E+00  -8.4467E-04  1.5141E+02  1.5934E-07  1.6018E-07 -6.0104E+00  5.5950E+00
 15 8.2791E-04 1.6589E+01 1.5103E+02  0.00E+00  -8.4467E-04  1.5100E+02  1.5934E-07  1.6018E-07 -4.8105E+00  4.5326E+00
 16 9.4927E-04 1.6321E+01 1.5074E+02  0.00E+00  -8.4467E-04  1.5072E+02  1.5934E-07  1.6018E-07 -3.8038E+00  3.7599E+00
 17 1.0872E-03 1.6056E+01 1.5054E+02  0.00E+00  -8.4467E-04  1.5051E+02  1.5934E-07  1.6018E-07 -3.7798E+00  3.5411E+00
 18 1.2436E-03 1.5794E+01 1.5047E+02  0.00E+00  -8.4467E-04  1.5042E+02  1.5934E-07  1.6018E-07 -4.0236E+00  3.5403E+00
 19 1.4210E-03 1.5534E+01 1.5062E+02  0.00E+00  -8.4467E-04  1.5055E+02  1.5934E-07  1.6018E-07 -4.2346E+00  3.5699E+00
 20 1.6217E-03 1.5275E+01 1.5106E+02  0.00E+00  -8.4467E-04  1.5097E+02  1.5934E-07  1.6018E-07 -4.4362E+00  3.6729E+00
 21 1.8487E-03 1.5018E+01 1.5181E+02  0.00E+00  -8.4467E-04  1.5174E+02  1.5934E-07  1.6018E-07 -4.5425E+00  3.8262E+00
 22 2.1050E-03 1.4761E+01 1.5287E+02  0.00E+00  -8.4467E-04  1.5282E+02  1.5934E-07  1.6018E-07 -4.4971E+00  3.9783E+00
 23 2.3940E-03 1.4505E+01 1.5416E+02  0.00E+00  -8.4467E-04  1.5413E+02  1.5934E-07  1.6018E-07 -4.3769E+00  4.0888E+00
 24 2.7195E-03 1.4249E+01 1.5558E+02  0.00E+00  -8.4467E-04  1.5558E+02  1.5934E-07  1.6018E-07 -4.1470E+00  4.1383E+00
 25 3.0858E-03 1.3993E+01 1.5703E+02  0.00E+00  -8.4467E-04  1.5705E+02  1.5934E-07  1.6018E-07 -3.9458E+00  4.1197E+00
 26 3.4972E-03 1.3737E+01 1.5840E+02  0.00E+00  -8.4467E-04  1.5843E+02  1.5934E-07  1.6018E-07 -3.6861E+00  4.0325E+00
 27 3.9590E-03 1.3481E+01 1.5962E+02  0.00E+00  -8.4467E-04  1.5967E+02  1.5934E-07  1.6018E-07 -3.4430E+00  3.8800E+00
 28 4.4766E-03 1.3226E+01 1.6067E+02  0.00E+00  -8.4467E-04  1.6072E+02  1.5934E-07  1.6018E-07 -3.2189E+00  3.6700E+00
 29 5.0559E-03 1.2972E+01 1.6153E+02  0.00E+00  -8.4467E-04  1.6157E+02  1.5934E-07  1.6018E-07 -3.0183E+00  3.4147E+00
 30 5.7035E-03 1.2719E+01 1.6221E+02  0.00E+00  -8.4467E-04  1.6225E+02  1.5934E-07  1.6018E-07 -2.8377E+00  3.1294E+00
 31 6.4267E-03 1.2467E+01 1.6276E+02  0.00E+00  -8.4467E-04  1.6278E+02  1.5934E-07  1.6018E-07 -2.5980E+00  2.8317E+00
 32 7.2332E-03 1.2218E+01 1.6321E+02  0.00E+00  -8.4467E-04  1.6323E+02  1.5934E-07  1.6018E-07 -2.4303E+00  2.5388E+00
 33 8.1314E-03 1.1970E+01 1.6360E+02  0.00E+00  -8.4467E-04  1.6361E+02  1.5934E-07  1.6018E-07 -2.1919E+00  2.2655E+00
 34 9.1305E-03 1.1723E+01 1.6396E+02  0.00E+00  -8.4467E-04  1.6396E+02  1.5934E-07  1.6018E-07 -1.9567E+00  2.0217E+00
 35 1.0241E-02 1.1479E+01 1.6430E+02  0.00E+00  -8.4467E-04  1.6430E+02  1.5934E-07  1.6018E-07 -1.8660E+00  1.8537E+00
 36 1.1472E-02 1.1237E+01 1.6466E+02  0.00E+00  -8.4467E-04  1.6464E+02  1.5934E-07  1.6018E-07 -1.9346E+00  1.8193E+00
 37 1.2837E-02 1.0997E+01 1.6505E+02  0.00E+00  -8.4467E-04  1.6504E+02  1.5934E-07  1.6018E-07 -1.8780E+00  1.7500E+00
 38 1.4348E-02 1.0758E+01 1.6549E+02  0.00E+00  -8.4467E-04  1.6549E+02  1.5934E-07  1.6018E-07 -1.6943E+00  1.6701E+00
 39 1.6017E-02 1.0522E+01 1.6595E+02  0.00E+00  -8.4467E-04  1.6596E+02  1.5934E-07  1.6018E-07 -1.5215E+00  1.5813E+00
 40 1.7861E-02 1.0287E+01 1.6641E+02  0.00E+00  -8.4467E-04  1.6641E+02  1.5934E-07  1.6018E-07 -1.4257E+00  1.4784E+00
 41 1.9893E-02 1.0054E+01 1.6685E+02  0.00E+00  -8.4467E-04  1.6685E+02  1.5934E-07  1.6018E-07 -1.3133E+00  1.3618E+00
 42 2.2131E-02 9.8231E+00 1.6729E+02  0.00E+00  -8.4467E-04  1.6729E+02  1.5934E-07  1.6018E-07 -1.2581E+00  1.2381E+00
 43 2.4592E-02 9.5941E+00 1.6775E+02  0.00E+00  -8.4467E-04  1.6774E+02  1.5934E-07  1.6018E-07 -1.1611E+00  1.1160E+00
 44 2.7295E-02 9.3669E+00 1.6823E+02  0.00E+00  -8.4467E-04  1.6822E+02  1.5934E-07  1.6018E-07 -1.0914E+00  1.0029E+00
 45 3.0260E-02 9.1416E+00 1.6876E+02  0.00E+00  -8.4467E-04  1.6875E+02  1.5934E-07  1.6018E-07 -9.7851E-01  9.0380E-01
 46 3.3508E-02 8.9181E+00 1.6934E+02  0.00E+00  -8.4467E-04  1.6933E+02  1.5934E-07  1.6018E-07 -8.9440E-01  8.2131E-01
 47 3.7062E-02 8.6963E+00 1.6996E+02  0.00E+00  -8.4467E-04  1.6995E+02  1.5934E-07  1.6018E-07 -7.8888E-01  7.5597E-01
 48 4.0945E-02 8.4763E+00 1.7060E+02  0.00E+00  -8.4467E-04  1.7060E+02  1.5934E-07  1.6018E-07 -7.2189E-01  7.0667E-01
 49 4.5183E-02 8.2580E+00 1.7128E+02  0.00E+00  -8.4467E-04  1.7127E+02  1.5934E-07  1.6018E-07 -6.6450E-01  6.7111E-01
 50 4.9801E-02 8.0414E+00 1.7196E+02  0.00E+00  -8.4467E-04  1.7196E+02  1.5934E-07  1.6018E-07 -6.0596E-01  6.4624E-01
 51 5.4827E-02 7.8266E+00 1.7264E+02  0.00E+00  -8.4467E-04  1.7264E+02  1.5934E-07  1.6018E-07 -5.8052E-01  6.2870E-01
 52 6.0291E-02 7.6135E+00 1.7332E+02  0.00E+00  -8.4467E-04  1.7333E+02  1.5934E-07  1.6018E-07 -5.5953E-01  6.1527E-01
 53 6.6223E-02 7.4022E+00 1.7399E+02  0.00E+00  -8.4467E-04  1.7400E+02  1.5934E-07  1.6018E-07 -5.2903E-01  6.0325E-01
 54 7.2653E-02 7.1927E+00 1.7465E+02  0.00E+00  -8.4467E-04  1.7466E+02  1.5934E-07  1.6018E-07 -5.1506E-01  5.9059E-01
 55 7.9616E-02 6.9850E+00 1.7529E+02  0.00E+00  -8.4467E-04  1.7530E+02  1.5934E-07  1.6018E-07 -4.9557E-01  5.7598E-01
 56 8.7144E-02 6.7793E+00 1.7592E+02  0.00E+00  -8.4467E-04  1.7592E+02  1.5934E-07  1.6018E-07 -4.6292E-01  5.5868E-01
 57 9.5274E-02 6.5755E+00 1.7652E+02  0.00E+00  -8.4467E-04  1.7652E+02  1.5934E-07  1.6018E-07 -4.4246E-01  5.3844E-01
 58 1.0404E-01 6.3736E+00 1.7709E+02  0.00E+00  -8.4467E-04  1.7710E+02  1.5934E-07  1.6018E-07 -4.2615E-01  5.3493E-01
 59 1.1348E-01 6.1738E+00 1.7763E+02  0.00E+00  -8.4467E-04  1.7765E+02  1.5934E-07  1.6018E-07 -4.0142E-01  5.4423E-01
 60 1.2364E-01 5.9761E+00 1.7813E+02  0.00E+00  -8.4467E-04  1.7815E+02  1.5934E-07  1.6018E-07 -3.7530E-01  5.4014E-01
 61 1.3455E-01 5.7806E+00 1.7858E+02  0.00E+00  -8.4467E-04  1.7859E+02  1.5934E-07  1.6018E-07 -3.3914E-01  5.2407E-01
 62 1.4625E-01 5.5873E+00 1.7896E+02  0.00E+00  -8.4467E-04  1.7898E+02  1.5934E-07  1.6018E-07 -3.0720E-01  4.9820E-01
 63 1.5878E-01 5.3963E+00 1.7928E+02  0.00E+00  -8.4467E-04  1.7930E+02  1.5934E-07  1.6018E-07 -2.8402E-01  4.6527E-01
 64 1.7219E-01 5.2077E+00 1.7954E+02  0.00E+00  -8.4467E-04  1.7956E+02  1.5934E-07  1.6018E-07 -2.6257E-01  4.2824E-01
 65 1.8651E-01 5.0215E+00 1.7975E+02  0.00E+00  -8.4467E-04  1.7976E+02  1.5934E-07  1.6018E-07 -2.4841E-01  3.8991E-01
 66 2.0180E-01 4.8379E+00 1.7991E+02  0.00E+00  -8.4467E-04  1.7992E+02  1.5934E-07  1.6018E-07 -2.3974E-01  3.5269E-01
 67 2.1808E-01 4.6568E+00 1.8004E+02  0.00E+00  -8.4467E-04  1.8004E+02  1.5934E-07  1.6018E-07 -2.3657E-01  3.1836E-01
 68 2.3539E-01 4.4783E+00 1.8015E+02  0.00E+00  -8.4467E-04  1.8015E+02  1.5934E-07  1.6018E-07 -2.3302E-01  2.8803E-01
 69 2.5379E-01 4.3025E+00 1.8025E+02  0.00E+00  -8.4467E-04  1.8025E+02  1.5934E-07  1.6018E-07 -2.3043E-01  2.6219E-01
 70 2.7332E-01 4.1292E+00 1.8036E+02  0.00E+00  -8.4467E-04  1.8036E+02  1.5934E-07  1.6018E-07 -2.2778E-01  2.4084E-01
 71 2.9400E-01 3.9586E+00 1.8047E+02  0.00E+00  -8.4467E-04  1.8047E+02  1.5934E-07  1.6018E-07 -2.2451E-01  2.2361E-01
 72 3.1588E-01 3.7905E+00 1.8061E+02  0.00E+00  -8.4467E-04  1.8060E+02  1.5934E-07  1.6018E-07 -2.2037E-01  2.0996E-01
 73 3.3899E-01 3.6250E+00 1.8076E+02  0.00E+00  -8.4467E-04  1.8075E+02  1.5934E-07  1.6018E-07 -2.1527E-01  1.9924E-01
 74 3.6337E-01 3.4622E+00 1.8093E+02  0.00E+00  -8.4467E-04  1.8093E+02  1.5934E-07  1.6018E-07 -2.0934E-01  1.9081E-01
 75 3.8906E-01 3.3018E+00 1.8113E+02  0.00E+00  -8.4467E-04  1.8112E+02  1.5934E-07  1.6018E-07 -2.0402E-01  1.8406E-01
 76 4.1607E-01 3.1440E+00 1.8135E+02  0.00E+00  -8.4467E-04  1.8134E+02  1.5934E-07  1.6018E-07 -1.9602E-01  1.7849E-01
 77 4.4445E-01 2.9888E+00 1.8159E+02  0.00E+00  -8.4467E-04  1.8159E+02  1.5934E-07  1.6018E-07 -1.8748E-01  1.7365E-01
 78 4.7421E-01 2.8361E+00 1.8185E+02  0.00E+00  -8.4467E-04  1.8185E+02  1.5934E-07  1.6018E-07 -1.7847E-01  1.6923E-01
 79 5.0538E-01 2.6858E+00 1.8213E+02  0.00E+00  -8.4467E-04  1.8213E+02  1.5934E-07  1.6018E-07 -1.7006E-01  1.6499E-01
 80 5.3797E-01 2.5381E+00 1.8242E+02  0.00E+00  -8.4467E-04  1.8242E+02  1.5934E-07  1.6018E-07 -1.5937E-01  1.6080E-01
 81 5.7200E-01 2.3929E+00 1.8273E+02  0.00E+00  -8.4467E-04  1.8273E+02  1.5934E-07  1.6018E-07 -1.4819E-01  1.5658E-01
 82 6.0747E-01 2.2502E+00 1.8305E+02  0.00E+00  -8.4467E-04  1.8304E+02  1.5934E-07  1.6018E-07 -1.3691E-01  1.5229E-01
 83 6.4440E-01 2.1100E+00 1.8337E+02  0.00E+00  -8.4467E-04  1.8337E+02  1.5937E-07  1.6018E-07 -1.2313E-01  1.4795E-01
 84 6.8277E-01 1.9723E+00 1.8369E+02  0.00E+00  -8.4467E-04  1.8369E+02  1.5952E-07  1.6018E-07 -1.0800E-01  1.4357E-01
 85 7.2260E-01 1.8372E+00 1.8401E+02  0.00E+00  -8.4467E-04  1.8401E+02  1.5982E-07  1.6018E-07 -9.0946E-02  1.3918E-01
 86 7.6386E-01 1.7046E+00 1.8433E+02  0.00E+00  -8.4467E-04  1.8433E+02  1.6008E-07  1.6018E-07 -6.9489E-02  1.3483E-01
 87 8.0653E-01 1.5745E+00 1.8463E+02  0.00E+00  -8.4467E-04  1.8463E+02  1.6018E-07  1.6018E-07 -4.4384E-02  1.3054E-01
 88 8.5061E-01 1.4470E+00 1.8499E+02  0.00E+00  -8.4467E-04  1.8499E+02  1.6179E-07  1.6151E-07 -1.4293E-02  1.2636E-01
 89 8.9605E-01 1.3220E+00 1.8545E+02  0.00E+00  -8.4467E-04  1.8545E+02  1.6681E-07  1.6684E-07  1.6453E-02  1.2232E-01
 90 9.4283E-01 1.1993E+00 1.8647E+02  0.00E+00  -8.4467E-04  1.8647E+02  1.9015E-07  1.9017E-07 -3.7739E-03  1.1850E-01
 91 9.9089E-01 1.0782E+00 1.8909E+02  0.00E+00  -8.4467E-04  1.8909E+02  2.8503E-07  2.8507E-07 -7.0596E-02  1.1513E-01
 92 1.0402E+00 9.5831E-01 1.9169E+02  0.00E+00  -8.4467E-04  1.9169E+02  4.2187E-07  4.2193E-07 -1.3742E-01  1.9050E-01
 93 1.0907E+00 8.3969E-01 1.9426E+02  0.00E+00  -8.4467E-04  1.9426E+02  6.1459E-07  6.1468E-07 -2.1613E-01  1.6625E-01
 94 1.1423E+00 7.2244E-01 1.9680E+02  0.00E+00  -8.4467E-04  1.9681E+02  8.8205E-07  8.8217E-07 -3.0357E-01  1.6369E-01
 95 1.1950E+00 6.0666E-01 1.9931E+02  0.00E+00  -8.4467E-04  1.9931E+02  1.2475E-06  1.2477E-06 -4.0539E-01  1.5145E-01
 96 1.2486E+00 4.9245E-01 2.0178E+02  0.00E+00  -8.4467E-04  2.0178E+02  1.7396E-06  1.7398E-06 -5.2112E-01  1.3727E-01
 97 1.3032E+00 3.7989E-01 2.0421E+02  0.00E+00  -8.4467E-04  2.0421E+02  2.3929E-06  2.3932E-06 -6.7099E-01  1.2733E-01
 98 1.3585E+00 2.6909E-01 2.0660E+02  0.00E+00  -8.4467E-04  2.0660E+02  3.2482E-06  3.2486E-06 -8.1534E-01  1.2261E-01
 99 1.4146E+00 1.6015E-01 2.0894E+02  0.00E+00  -8.4467E-04  2.0894E+02  4.3531E-06  4.3536E-06 -9.9711E-01  1.2193E-01
100 1.4713E+00 5.3143E-02 2.1124E+02  0.00E+00  -8.4467E-04  2.1124E+02  5.7618E-06  5.7624E-06 -1.1619E+00  1.2411E-01
101 1.5000E+00 0.0000E+00 2.1238E+02  0.00E+00  -8.4467E-04  2.1239E+02  6.6056E-06  6.6063E-06  0.0000E+00  0.0000E+00
  J     P         ALT         T        CONVEC       DT          TOLD        FH20       FSAVE       TCOOL       THEAT

 FCO2
  2.41E-01 2.41E-01 2.41E-01 2.41E-01 2.41E-01 2.41E-01 2.41E-01 2.41E-01 2.41E-01 2.41E-01
  2.41E-01 2.41E-01 2.41E-01 2.41E-01 2.41E-01 2.41E-01 2.41E-01 2.41E-01 2.41E-01 2.41E-01
  2.41E-01 2.41E-01 2.41E-01 2.41E-01 2.41E-01 2.41E-01 2.41E-01 2.41E-01 2.41E-01 2.41E-01
  2.41E-01 2.41E-01 2.41E-01 2.41E-01 2.41E-01 2.41E-01 2.41E-01 2.41E-01 2.41E-01 2.41E-01
  2.41E-01 2.41E-01 2.41E-01 2.41E-01 2.41E-01 2.41E-01 2.41E-01 2.41E-01 2.41E-01 2.41E-01
  2.41E-01 2.41E-01 2.41E-01 2.41E-01 2.41E-01 2.41E-01 2.41E-01 2.41E-01 2.41E-01 2.41E-01
  2.41E-01 2.41E-01 2.41E-01 2.41E-01 2.41E-01 2.41E-01 2.41E-01 2.41E-01 2.41E-01 2.41E-01
  2.41E-01 2.41E-01 2.41E-01 2.41E-01 2.41E-01 2.41E-01 2.41E-01 2.41E-01 2.41E-01 2.41E-01
  2.41E-01 2.41E-01 2.41E-01 2.41E-01 2.41E-01 2.41E-01 2.41E-01 2.41E-01 2.41E-01 2.41E-01
  2.41E-01 2.41E-01 2.41E-01 2.41E-01 2.41E-01 2.41E-01 2.41E-01 2.41E-01 2.41E-01 2.41E-01
  2.41E-01

  J    PF         ALT       FTOTAL       FTIR       FDNIR       FUPIR       FTSOL       FDNSOL       FUPSOL       DIVF
  1 1.0000E-04 2.0821E+01 -3.4534E+00 -8.6833E+04  0.0000E+00  8.6833E+04  8.6830E+04  1.0397E+05  1.7142E+04 -3.9770E-05
  2 1.1660E-04 2.0474E+01 -3.3942E+00 -8.6677E+04  1.2661E+02  8.6804E+04  8.6674E+04  1.0382E+05  1.7142E+04 -3.9102E-05
  3 1.3581E-04 2.0139E+01  7.5768E+00 -8.6620E+04  1.6419E+02  8.6784E+04  8.6627E+04  1.0377E+05  1.7142E+04  8.7307E-05
  4 1.5799E-04 1.9812E+01  9.3604E+00 -8.6573E+04  1.9402E+02  8.6767E+04  8.6583E+04  1.0372E+05  1.7142E+04  1.0788E-04
  5 1.8359E-04 1.9492E+01  9.5154E+00 -8.6527E+04  2.2324E+02  8.6750E+04  8.6536E+04  1.0368E+05  1.7142E+04  1.0969E-04
  6 2.1308E-04 1.9177E+01  9.1824E+00 -8.6480E+04  2.5206E+02  8.6732E+04  8.6489E+04  1.0363E+05  1.7142E+04  1.0587E-04
  7 2.4702E-04 1.8869E+01  8.7741E+00 -8.6432E+04  2.8067E+02  8.6713E+04  8.6441E+04  1.0358E+05  1.7142E+04  1.0119E-04
  8 2.8604E-04 1.8566E+01  8.6301E+00 -8.6384E+04  3.0949E+02  8.6694E+04  8.6393E+04  1.0353E+05  1.7142E+04  9.9547E-05
  9 3.3084E-04 1.8269E+01  8.9738E+00 -8.6338E+04  3.3893E+02  8.6676E+04  8.6347E+04  1.0349E+05  1.7142E+04  1.0353E-04
 10 3.8221E-04 1.7978E+01  1.0283E+01 -8.6292E+04  3.6948E+02  8.6661E+04  8.6302E+04  1.0344E+05  1.7142E+04  1.1866E-04
 11 4.4104E-04 1.7692E+01  1.2116E+01 -8.6248E+04  4.0074E+02  8.6648E+04  8.6260E+04  1.0340E+05  1.7142E+04  1.3983E-04
 12 5.0834E-04 1.7410E+01  1.4257E+01 -8.6207E+04  4.3223E+02  8.6639E+04  8.6221E+04  1.0336E+05  1.7141E+04  1.6456E-04
 13 5.8523E-04 1.7133E+01  1.6672E+01 -8.6169E+04  4.6366E+02  8.6632E+04  8.6185E+04  1.0333E+05  1.7141E+04  1.9245E-04
 14 6.7297E-04 1.6859E+01  1.9250E+01 -8.6134E+04  4.9480E+02  8.6628E+04  8.6153E+04  1.0329E+05  1.7141E+04  2.2222E-04
 15 7.7296E-04 1.6589E+01  2.1441E+01 -8.6102E+04  5.2510E+02  8.6627E+04  8.6123E+04  1.0326E+05  1.7141E+04  2.4752E-04
 16 8.8678E-04 1.6321E+01  2.3110E+01 -8.6073E+04  5.5475E+02  8.6628E+04  8.6096E+04  1.0324E+05  1.7141E+04  2.6677E-04
 17 1.0162E-03 1.6056E+01  2.3409E+01 -8.6047E+04  5.8376E+02  8.6631E+04  8.6070E+04  1.0321E+05  1.7141E+04  2.7022E-04
 18 1.1631E-03 1.5794E+01  2.5258E+01 -8.6018E+04  6.2073E+02  8.6639E+04  8.6043E+04  1.0318E+05  1.7141E+04  2.9154E-04
 19 1.3297E-03 1.5534E+01  2.9504E+01 -8.5982E+04  6.7180E+02  8.6654E+04  8.6012E+04  1.0315E+05  1.7141E+04  3.4048E-04
 20 1.5185E-03 1.5275E+01  3.6118E+01 -8.5940E+04  7.4013E+02  8.6680E+04  8.5976E+04  1.0312E+05  1.7141E+04  4.1668E-04
 21 1.7320E-03 1.5018E+01  4.4712E+01 -8.5890E+04  8.2820E+02  8.6719E+04  8.5935E+04  1.0308E+05  1.7141E+04  5.1559E-04
 22 1.9732E-03 1.4761E+01  5.3828E+01 -8.5833E+04  9.3649E+02  8.6769E+04  8.5886E+04  1.0303E+05  1.7141E+04  6.2036E-04
 23 2.2455E-03 1.4505E+01  6.1281E+01 -8.5768E+04  1.0624E+03  8.6830E+04  8.5829E+04  1.0297E+05  1.7140E+04  7.0576E-04
 24 2.5523E-03 1.4249E+01  6.5948E+01 -8.5697E+04  1.2030E+03  8.6900E+04  8.5763E+04  1.0290E+05  1.7140E+04  7.5889E-04
 25 2.8977E-03 1.3993E+01  6.6107E+01 -8.5621E+04  1.3524E+03  8.6974E+04  8.5687E+04  1.0283E+05  1.7140E+04  7.6008E-04
 26 3.2860E-03 1.3737E+01  6.2536E+01 -8.5540E+04  1.5076E+03  8.7048E+04  8.5603E+04  1.0274E+05  1.7140E+04  7.1840E-04
 27 3.7221E-03 1.3481E+01  5.4545E+01 -8.5455E+04  1.6629E+03  8.7118E+04  8.5510E+04  1.0265E+05  1.7140E+04  6.2611E-04
 28 4.2111E-03 1.3226E+01  4.3234E+01 -8.5366E+04  1.8157E+03  8.7182E+04  8.5409E+04  1.0255E+05  1.7139E+04  4.9590E-04
 29 4.7588E-03 1.2972E+01  3.0146E+01 -8.5273E+04  1.9650E+03  8.7238E+04  8.5303E+04  1.0244E+05  1.7139E+04  3.4556E-04
 30 5.3715E-03 1.2719E+01  1.7278E+01 -8.5175E+04  2.1116E+03  8.7286E+04  8.5192E+04  1.0233E+05  1.7139E+04  1.9794E-04
 31 6.0561E-03 1.2467E+01  6.6934E+00 -8.5072E+04  2.2574E+03  8.7329E+04  8.5079E+04  1.0222E+05  1.7138E+04  7.6645E-05
 32 6.8200E-03 1.2218E+01 -2.7718E+00 -8.4967E+04  2.4014E+03  8.7368E+04  8.4964E+04  1.0210E+05  1.7138E+04 -3.1726E-05
 33 7.6714E-03 1.1970E+01 -7.6714E+00 -8.4857E+04  2.5481E+03  8.7405E+04  8.4849E+04  1.0199E+05  1.7137E+04 -8.7768E-05
 34 8.6190E-03 1.1723E+01 -1.1368E+01 -8.4747E+04  2.6946E+03  8.7441E+04  8.4735E+04  1.0187E+05  1.7137E+04 -1.3000E-04
 35 9.6724E-03 1.1479E+01 -1.5003E+01 -8.4637E+04  2.8404E+03  8.7478E+04  8.4622E+04  1.0176E+05  1.7136E+04 -1.7150E-04
 36 1.0842E-02 1.1237E+01 -1.4236E+01 -8.4522E+04  2.9958E+03  8.7517E+04  8.4507E+04  1.0164E+05  1.7135E+04 -1.6267E-04
 37 1.2139E-02 1.0997E+01 -6.3016E+00 -8.4389E+04  3.1770E+03  8.7566E+04  8.4382E+04  1.0152E+05  1.7135E+04 -7.1965E-05
 38 1.3575E-02 1.0758E+01  3.4591E+00 -8.4245E+04  3.3771E+03  8.7623E+04  8.4249E+04  1.0138E+05  1.7134E+04  3.9477E-05
 39 1.5164E-02 1.0522E+01  5.5002E+00 -8.4103E+04  3.5823E+03  8.7685E+04  8.4108E+04  1.0124E+05  1.7133E+04  6.2727E-05
 40 1.6919E-02 1.0287E+01 -7.0711E-02 -8.3961E+04  3.7892E+03  8.7750E+04  8.3961E+04  1.0109E+05  1.7132E+04 -8.0582E-07
 41 1.8855E-02 1.0054E+01 -5.4899E+00 -8.3814E+04  4.0044E+03  8.7819E+04  8.3809E+04  1.0094E+05  1.7131E+04 -6.2515E-05
 42 2.0988E-02 9.8231E+00 -1.0980E+01 -8.3665E+04  4.2255E+03  8.7891E+04  8.3654E+04  1.0078E+05  1.7129E+04 -1.2492E-04
 43 2.3336E-02 9.5941E+00 -8.4849E+00 -8.3509E+04  4.4622E+03  8.7971E+04  8.3500E+04  1.0063E+05  1.7128E+04 -9.6451E-05
 44 2.5916E-02 9.3669E+00 -2.3045E+00 -8.3349E+04  4.7096E+03  8.8059E+04  8.3347E+04  1.0047E+05  1.7127E+04 -2.6169E-05
 45 2.8748E-02 9.1416E+00  1.1010E+01 -8.3185E+04  4.9737E+03  8.8159E+04  8.3196E+04  1.0032E+05  1.7125E+04  1.2489E-04
 46 3.1852E-02 8.9181E+00  2.3339E+01 -8.3024E+04  5.2454E+03  8.8269E+04  8.3047E+04  1.0017E+05  1.7123E+04  2.6440E-04
 47 3.5251E-02 8.6963E+00  3.6546E+01 -8.2862E+04  5.5286E+03  8.8391E+04  8.2899E+04  1.0002E+05  1.7121E+04  4.1346E-04
 48 3.8966E-02 8.4763E+00  4.3052E+01 -8.2706E+04  5.8142E+03  8.8520E+04  8.2749E+04  9.9868E+04  1.7119E+04  4.8635E-04
 49 4.3024E-02 8.2580E+00  4.6339E+01 -8.2550E+04  6.1082E+03  8.8658E+04  8.2597E+04  9.9713E+04  1.7117E+04  5.2267E-04
 50 4.7449E-02 8.0414E+00  4.4783E+01 -8.2394E+04  6.4100E+03  8.8804E+04  8.2439E+04  9.9553E+04  1.7114E+04  5.0429E-04
 51 5.2269E-02 7.8266E+00  3.4449E+01 -8.2238E+04  6.7141E+03  8.8952E+04  8.2273E+04  9.9384E+04  1.7112E+04  3.8727E-04
 52 5.7511E-02 7.6135E+00  2.1000E+01 -8.2076E+04  7.0288E+03  8.9105E+04  8.2097E+04  9.9206E+04  1.7109E+04  2.3568E-04
 53 6.3206E-02 7.4022E+00  4.0906E+00 -8.1907E+04  7.3545E+03  8.9261E+04  8.1911E+04  9.9016E+04  1.7105E+04  4.5828E-05
 54 6.9384E-02 7.1927E+00 -2.0342E+01 -8.1732E+04  7.6847E+03  8.9417E+04  8.1712E+04  9.8814E+04  1.7102E+04 -2.2749E-04
 55 7.6077E-02 6.9850E+00 -4.7288E+01 -8.1549E+04  8.0255E+03  8.9574E+04  8.1501E+04  9.8600E+04  1.7098E+04 -5.2792E-04
 56 8.3319E-02 6.7793E+00 -7.8336E+01 -8.1357E+04  8.3740E+03  8.9731E+04  8.1279E+04  9.8373E+04  1.7094E+04 -8.7301E-04
 57 9.1145E-02 6.5755E+00 -1.1830E+02 -8.1164E+04  8.7213E+03  8.9885E+04  8.1046E+04  9.8136E+04  1.7090E+04 -1.3162E-03
 58 9.9590E-02 6.3736E+00 -1.6154E+02 -8.0965E+04  9.0711E+03  9.0036E+04  8.0803E+04  9.7888E+04  1.7085E+04 -1.7942E-03
 59 1.0869E-01 6.1738E+00 -2.1438E+02 -8.0758E+04  9.4246E+03  9.0182E+04  8.0543E+04  9.7624E+04  1.7080E+04 -2.3771E-03
 60 1.1849E-01 5.9761E+00 -2.8904E+02 -8.0548E+04  9.7743E+03  9.0322E+04  8.0259E+04  9.7334E+04  1.7075E+04 -3.2001E-03
 61 1.2902E-01 5.7806E+00 -3.8170E+02 -8.0337E+04  1.0117E+04  9.0454E+04  7.9955E+04  9.7025E+04  1.7070E+04 -4.2198E-03
 62 1.4032E-01 5.5873E+00 -4.9329E+02 -8.0132E+04  1.0441E+04  9.0573E+04  7.9639E+04  9.6703E+04  1.7064E+04 -5.4463E-03
 63 1.5243E-01 5.3963E+00 -6.1686E+02 -7.9934E+04  1.0747E+04  9.0680E+04  7.9317E+04  9.6374E+04  1.7058E+04 -6.8025E-03
 64 1.6540E-01 5.2077E+00 -7.4240E+02 -7.9737E+04  1.1039E+04  9.0776E+04  7.8994E+04  9.6046E+04  1.7051E+04 -8.1784E-03
 65 1.7926E-01 5.0215E+00 -8.6509E+02 -7.9542E+04  1.1320E+04  9.0862E+04  7.8677E+04  9.5722E+04  1.7045E+04 -9.5209E-03
 66 1.9406E-01 4.8379E+00 -9.7697E+02 -7.9346E+04  1.1595E+04  9.0941E+04  7.8369E+04  9.5407E+04  1.7038E+04 -1.0743E-02
 67 2.0984E-01 4.6568E+00 -1.0722E+03 -7.9144E+04  1.1873E+04  9.1017E+04  7.8072E+04  9.5102E+04  1.7030E+04 -1.1780E-02
 68 2.2664E-01 4.4783E+00 -1.1456E+03 -7.8932E+04  1.2163E+04  9.1094E+04  7.7786E+04  9.4809E+04  1.7023E+04 -1.2576E-02
 69 2.4449E-01 4.3025E+00 -1.1981E+03 -7.8709E+04  1.2467E+04  9.1176E+04  7.7511E+04  9.4526E+04  1.7015E+04 -1.3140E-02
 70 2.6345E-01 4.1292E+00 -1.2303E+03 -7.8476E+04  1.2790E+04  9.1266E+04  7.7246E+04  9.4252E+04  1.7007E+04 -1.3480E-02
 71 2.8355E-01 3.9586E+00 -1.2443E+03 -7.8231E+04  1.3135E+04  9.1367E+04  7.6987E+04  9.3985E+04  1.6998E+04 -1.3619E-02
 72 3.0483E-01 3.7905E+00 -1.2433E+03 -7.7976E+04  1.3504E+04  9.1480E+04  7.6733E+04  9.3722E+04  1.6989E+04 -1.3591E-02
 73 3.2732E-01 3.6250E+00 -1.2307E+03 -7.7711E+04  1.3896E+04  9.1607E+04  7.6480E+04  9.3460E+04  1.6980E+04 -1.3435E-02
 74 3.5107E-01 3.4622E+00 -1.2104E+03 -7.7438E+04  1.4313E+04  9.1750E+04  7.6227E+04  9.3198E+04  1.6971E+04 -1.3192E-02
 75 3.7610E-01 3.3018E+00 -1.1856E+03 -7.7158E+04  1.4752E+04  9.1910E+04  7.5972E+04  9.2933E+04  1.6961E+04 -1.2900E-02
 76 4.0245E-01 3.1440E+00 -1.1575E+03 -7.6870E+04  1.5219E+04  9.2089E+04  7.5713E+04  9.2664E+04  1.6951E+04 -1.2569E-02
 77 4.3015E-01 2.9888E+00 -1.1315E+03 -7.6580E+04  1.5706E+04  9.2286E+04  7.5448E+04  9.2389E+04  1.6941E+04 -1.2261E-02
 78 4.5922E-01 2.8361E+00 -1.1100E+03 -7.6288E+04  1.6213E+04  9.2501E+04  7.5178E+04  9.2109E+04  1.6931E+04 -1.2000E-02
 79 4.8969E-01 2.6858E+00 -1.0950E+03 -7.5998E+04  1.6737E+04  9.2735E+04  7.4903E+04  9.1823E+04  1.6920E+04 -1.1807E-02
 80 5.2157E-01 2.5381E+00 -1.0863E+03 -7.5708E+04  1.7283E+04  9.2991E+04  7.4621E+04  9.1531E+04  1.6909E+04 -1.1682E-02
 81 5.5488E-01 2.3929E+00 -1.0889E+03 -7.5424E+04  1.7843E+04  9.3267E+04  7.4335E+04  9.1233E+04  1.6898E+04 -1.1675E-02
 82 5.8964E-01 2.2502E+00 -1.1045E+03 -7.5148E+04  1.8415E+04  9.3563E+04  7.4044E+04  9.0931E+04  1.6888E+04 -1.1805E-02
 83 6.2584E-01 2.1100E+00 -1.1343E+03 -7.4883E+04  1.9003E+04  9.3886E+04  7.3749E+04  9.0625E+04  1.6877E+04 -1.2082E-02
 84 6.6350E-01 1.9723E+00 -1.1843E+03 -7.4635E+04  1.9598E+04  9.4232E+04  7.3451E+04  9.0316E+04  1.6866E+04 -1.2568E-02
 85 7.0261E-01 1.8372E+00 -1.2587E+03 -7.4409E+04  2.0197E+04  9.4606E+04  7.3150E+04  9.0005E+04  1.6855E+04 -1.3305E-02
 86 7.4316E-01 1.7046E+00 -1.3634E+03 -7.4211E+04  2.0805E+04  9.5016E+04  7.2848E+04  8.9692E+04  1.6844E+04 -1.4350E-02
 87 7.8513E-01 1.5745E+00 -1.5103E+03 -7.4055E+04  2.1410E+04  9.5465E+04  7.2545E+04  8.9378E+04  1.6833E+04 -1.5820E-02
 88 8.2852E-01 1.4470E+00 -1.7104E+03 -7.3952E+04  2.2029E+04  9.5981E+04  7.2242E+04  8.9065E+04  1.6823E+04 -1.7821E-02
 89 8.7329E-01 1.3220E+00 -1.9791E+03 -7.3918E+04  2.2687E+04  9.6605E+04  7.1939E+04  8.8751E+04  1.6813E+04 -2.0487E-02
 90 9.1941E-01 1.1993E+00 -2.3219E+03 -7.3959E+04  2.3548E+04  9.7507E+04  7.1637E+04  8.8439E+04  1.6803E+04 -2.3813E-02
 91 9.6684E-01 1.0782E+00 -2.6136E+03 -7.3949E+04  2.5024E+04  9.8973E+04  7.1335E+04  8.8129E+04  1.6794E+04 -2.6407E-02
 92 1.0155E+00 9.5831E-01 -2.7299E+03 -7.3764E+04  2.6750E+04  1.0051E+05  7.1035E+04  8.7819E+04  1.6785E+04 -2.7160E-02
 93 1.0655E+00 8.3969E-01 -2.8723E+03 -7.3396E+04  2.8714E+04  1.0211E+05  7.0524E+04  8.7301E+04  1.6778E+04 -2.8129E-02
 94 1.1165E+00 7.2244E-01 -2.7353E+03 -7.2802E+04  3.0963E+04  1.0377E+05  7.0067E+04  8.6839E+04  1.6772E+04 -2.6360E-02
 95 1.1687E+00 6.0666E-01 -2.3424E+03 -7.1950E+04  3.3510E+04  1.0546E+05  6.9607E+04  8.6376E+04  1.6769E+04 -2.2211E-02
 96 1.2219E+00 4.9245E-01 -1.6143E+03 -7.0787E+04  3.6401E+04  1.0719E+05  6.9173E+04  8.5940E+04  1.6767E+04 -1.5061E-02
 97 1.2760E+00 3.7989E-01 -4.9322E+02 -6.9265E+04  3.9685E+04  1.0895E+05  6.8772E+04  8.5541E+04  1.6769E+04 -4.5270E-03
 98 1.3310E+00 2.6909E-01  1.1215E+03 -6.7273E+04  4.3490E+04  1.1076E+05  6.8394E+04  8.5168E+04  1.6774E+04  1.0125E-02
 99 1.3867E+00 1.6015E-01  3.2095E+03 -6.4815E+04  4.7705E+04  1.1252E+05  6.8024E+04  8.4807E+04  1.6783E+04  2.8524E-02
100 1.4431E+00 5.3143E-02  5.8815E+03 -6.1771E+04  5.2299E+04  1.1407E+05  6.7652E+04  8.4449E+04  1.6797E+04  5.1561E-02
101 1.5000E+00 0.0000E+00  9.0843E+03 -5.8185E+04  5.6596E+04  1.1478E+05  6.7269E+04  8.4086E+04  1.6817E+04  7.9144E-02
 
 NST=     2 JCONV= 83 CHG=5.98E-03 dt0=1.00E+04 DIVF(1)=-6.15E-05 DIVFrms= 6.01E-03 DT(ND)=-1.31E-03 T(ND)=2.1238E+02
 NST=     3 JCONV= 83 CHG=7.98E-03 dt0=1.00E+04 DIVF(1)=-5.61E-05 DIVFrms= 6.00E-03 DT(ND)=-1.19E-03 T(ND)=2.1238E+02
 NST=     4 JCONV= 83 CHG=7.60E-03 dt0=1.00E+04 DIVF(1)=-3.86E-05 DIVFrms= 5.99E-03 DT(ND)=-8.21E-04 T(ND)=2.1238E+02
 NST=     5 JCONV= 83 CHG=7.44E-03 dt0=1.00E+04 DIVF(1)=-3.53E-05 DIVFrms= 5.98E-03 DT(ND)=-7.50E-04 T(ND)=2.1238E+02
 NST=     6 JCONV= 83 CHG=7.30E-03 dt0=1.00E+04 DIVF(1)=-3.44E-05 DIVFrms= 5.98E-03 DT(ND)=-7.31E-04 T(ND)=2.1238E+02
 NST=     7 JCONV= 84 CHG=7.20E-03 dt0=1.00E+04 DIVF(1)=-3.54E-05 DIVFrms= 6.08E-03 DT(ND)=-7.51E-04 T(ND)=2.1238E+02
 NST=     8 JCONV= 84 CHG=7.19E-03 dt0=1.00E+04 DIVF(1)=-3.52E-05 DIVFrms= 6.08E-03 DT(ND)=-7.48E-04 T(ND)=2.1238E+02
 NST=     9 JCONV= 84 CHG=7.23E-03 dt0=1.00E+04 DIVF(1)=-3.63E-05 DIVFrms= 6.07E-03 DT(ND)=-7.72E-04 T(ND)=2.1238E+02
 NST=    10 JCONV= 84 CHG=7.25E-03 dt0=1.00E+04 DIVF(1)=-3.09E-05 DIVFrms= 6.06E-03 DT(ND)=-6.56E-04 T(ND)=2.1238E+02
 NST=    11 JCONV= 84 CHG=7.23E-03 dt0=1.00E+04 DIVF(1)=-3.22E-05 DIVFrms= 6.05E-03 DT(ND)=-6.84E-04 T(ND)=2.1238E+02
 NST=    12 JCONV= 84 CHG=7.31E-03 dt0=1.00E+04 DIVF(1)=-3.40E-05 DIVFrms= 6.05E-03 DT(ND)=-7.22E-04 T(ND)=2.1238E+02
 NST=    13 JCONV= 84 CHG=7.23E-03 dt0=1.00E+04 DIVF(1)=-2.68E-05 DIVFrms= 6.04E-03 DT(ND)=-5.70E-04 T(ND)=2.1238E+02
 NST=    14 JCONV= 85 CHG=7.18E-03 dt0=1.00E+04 DIVF(1)=-3.24E-05 DIVFrms= 6.15E-03 DT(ND)=-6.89E-04 T(ND)=2.1237E+02
 NST=    15 JCONV= 85 CHG=7.23E-03 dt0=1.00E+04 DIVF(1)=-3.55E-05 DIVFrms= 6.15E-03 DT(ND)=-7.55E-04 T(ND)=2.1237E+02
 NST=    16 JCONV= 85 CHG=7.27E-03 dt0=1.00E+04 DIVF(1)=-2.87E-05 DIVFrms= 6.14E-03 DT(ND)=-6.09E-04 T(ND)=2.1237E+02
 NST=    17 JCONV= 85 CHG=7.22E-03 dt0=1.00E+04 DIVF(1)=-3.07E-05 DIVFrms= 6.14E-03 DT(ND)=-6.52E-04 T(ND)=2.1237E+02
 NST=    18 JCONV= 85 CHG=7.13E-03 dt0=1.00E+04 DIVF(1)=-3.25E-05 DIVFrms= 6.13E-03 DT(ND)=-6.90E-04 T(ND)=2.1237E+02
 NST=    19 JCONV= 85 CHG=7.28E-03 dt0=1.00E+04 DIVF(1)=-3.61E-05 DIVFrms= 6.13E-03 DT(ND)=-7.67E-04 T(ND)=2.1237E+02
 NST=    20 JCONV= 86 CHG=7.26E-03 dt0=1.00E+04 DIVF(1)=-3.11E-05 DIVFrms= 6.24E-03 DT(ND)=-6.60E-04 T(ND)=2.1237E+02
 NST=    21 JCONV= 86 CHG=7.19E-03 dt0=1.00E+04 DIVF(1)=-4.46E-06 DIVFrms= 6.21E-03 DT(ND)=-9.46E-05 T(ND)=2.1237E+02
 NST=    22 JCONV= 86 CHG=7.27E-03 dt0=1.00E+04 DIVF(1)=-1.62E-05 DIVFrms= 6.21E-03 DT(ND)=-3.45E-04 T(ND)=2.1237E+02
 NST=    23 JCONV= 86 CHG=7.25E-03 dt0=1.00E+04 DIVF(1)=-2.17E-05 DIVFrms= 6.21E-03 DT(ND)=-4.61E-04 T(ND)=2.1237E+02
 NST=    24 JCONV= 87 CHG=7.19E-03 dt0=1.00E+04 DIVF(1)=-2.84E-05 DIVFrms= 6.35E-03 DT(ND)=-6.02E-04 T(ND)=2.1237E+02
 NST=    25 JCONV= 86 CHG=7.23E-03 dt0=1.00E+04 DIVF(1)=-2.73E-05 DIVFrms= 6.20E-03 DT(ND)=-5.80E-04 T(ND)=2.1237E+02
 NST=    26 JCONV= 86 CHG=7.27E-03 dt0=1.00E+04 DIVF(1)=-3.20E-05 DIVFrms= 6.19E-03 DT(ND)=-6.80E-04 T(ND)=2.1237E+02
 NST=    27 JCONV= 87 CHG=7.26E-03 dt0=1.00E+04 DIVF(1)=-2.91E-05 DIVFrms= 6.33E-03 DT(ND)=-6.18E-04 T(ND)=2.1237E+02
 NST=    28 JCONV= 87 CHG=7.19E-03 dt0=1.00E+04 DIVF(1)=-2.80E-05 DIVFrms= 6.32E-03 DT(ND)=-5.95E-04 T(ND)=2.1237E+02
 NST=    29 JCONV= 87 CHG=7.21E-03 dt0=1.00E+04 DIVF(1)=-2.98E-05 DIVFrms= 6.31E-03 DT(ND)=-6.32E-04 T(ND)=2.1237E+02
 NST=    30 JCONV= 87 CHG=7.27E-03 dt0=1.00E+04 DIVF(1)=-3.28E-05 DIVFrms= 6.31E-03 DT(ND)=-6.96E-04 T(ND)=2.1237E+02
 NST=    31 JCONV= 87 CHG=7.16E-03 dt0=1.00E+04 DIVF(1)=-3.17E-05 DIVFrms= 6.30E-03 DT(ND)=-6.74E-04 T(ND)=2.1236E+02
 NST=    32 JCONV= 87 CHG=7.24E-03 dt0=1.00E+04 DIVF(1)=-3.43E-05 DIVFrms= 6.29E-03 DT(ND)=-7.28E-04 T(ND)=2.1236E+02
 NST=    33 JCONV= 87 CHG=7.24E-03 dt0=1.00E+04 DIVF(1)=-3.69E-05 DIVFrms= 6.29E-03 DT(ND)=-7.83E-04 T(ND)=2.1236E+02
 NST=    34 JCONV= 87 CHG=7.22E-03 dt0=1.00E+04 DIVF(1)=-3.66E-05 DIVFrms= 6.28E-03 DT(ND)=-7.77E-04 T(ND)=2.1236E+02
 NST=    35 JCONV= 87 CHG=7.18E-03 dt0=1.00E+04 DIVF(1)=-3.74E-05 DIVFrms= 6.27E-03 DT(ND)=-7.95E-04 T(ND)=2.1236E+02
 NST=    36 JCONV= 87 CHG=7.27E-03 dt0=1.00E+04 DIVF(1)=-4.02E-05 DIVFrms= 6.27E-03 DT(ND)=-8.54E-04 T(ND)=2.1236E+02
 NST=    37 JCONV= 88 CHG=7.24E-03 dt0=1.00E+04 DIVF(1)=-3.60E-06 DIVFrms= 6.41E-03 DT(ND)=-7.64E-05 T(ND)=2.1236E+02
 NST=    38 JCONV= 87 CHG=7.19E-03 dt0=1.00E+04 DIVF(1)=-7.35E-06 DIVFrms= 6.23E-03 DT(ND)=-1.56E-04 T(ND)=2.1236E+02
 NST=    39 JCONV= 87 CHG=7.22E-03 dt0=1.00E+04 DIVF(1)=-1.35E-05 DIVFrms= 6.22E-03 DT(ND)=-2.87E-04 T(ND)=2.1236E+02
 NST=    40 JCONV= 87 CHG=7.26E-03 dt0=1.00E+04 DIVF(1)=-2.14E-05 DIVFrms= 6.22E-03 DT(ND)=-4.54E-04 T(ND)=2.1236E+02
 NST=    41 JCONV= 87 CHG=7.21E-03 dt0=1.00E+04 DIVF(1)=-2.17E-05 DIVFrms= 6.21E-03 DT(ND)=-4.61E-04 T(ND)=2.1236E+02
 NST=    42 JCONV= 87 CHG=7.25E-03 dt0=1.00E+04 DIVF(1)=-3.04E-05 DIVFrms= 6.21E-03 DT(ND)=-6.46E-04 T(ND)=2.1236E+02
 NST=    43 JCONV= 87 CHG=7.27E-03 dt0=1.00E+04 DIVF(1)=-3.00E-05 DIVFrms= 6.20E-03 DT(ND)=-6.36E-04 T(ND)=2.1236E+02
 NST=    44 JCONV= 87 CHG=7.20E-03 dt0=1.00E+04 DIVF(1)=-3.57E-05 DIVFrms= 6.20E-03 DT(ND)=-7.58E-04 T(ND)=2.1236E+02
 NST=    45 JCONV= 87 CHG=7.22E-03 dt0=1.00E+04 DIVF(1)=-7.41E-05 DIVFrms= 6.22E-03 DT(ND)=-1.57E-03 T(ND)=2.1236E+02
 NST=    46 JCONV= 88 CHG=7.21E-03 dt0=1.00E+04 DIVF(1)=-2.63E-05 DIVFrms= 6.35E-03 DT(ND)=-5.58E-04 T(ND)=2.1235E+02
 NST=    47 JCONV= 87 CHG=7.26E-03 dt0=1.00E+04 DIVF(1)=-3.01E-05 DIVFrms= 6.17E-03 DT(ND)=-6.39E-04 T(ND)=2.1235E+02
 NST=    48 JCONV= 87 CHG=7.29E-03 dt0=1.00E+04 DIVF(1)=-2.74E-05 DIVFrms= 6.16E-03 DT(ND)=-5.81E-04 T(ND)=2.1235E+02
 NST=    49 JCONV= 87 CHG=7.27E-03 dt0=1.00E+04 DIVF(1)=-2.93E-05 DIVFrms= 6.16E-03 DT(ND)=-6.22E-04 T(ND)=2.1235E+02
 NST=    50 JCONV= 87 CHG=7.16E-03 dt0=1.00E+04 DIVF(1)=-6.40E-06 DIVFrms= 6.13E-03 DT(ND)=-1.36E-04 T(ND)=2.1235E+02
 NST=    51 JCONV= 87 CHG=7.24E-03 dt0=1.00E+04 DIVF(1)=-1.60E-05 DIVFrms= 6.13E-03 DT(ND)=-3.41E-04 T(ND)=2.1235E+02
 NST=    52 JCONV= 87 CHG=7.21E-03 dt0=1.00E+04 DIVF(1)=-2.21E-05 DIVFrms= 6.13E-03 DT(ND)=-4.69E-04 T(ND)=2.1235E+02
 NST=    53 JCONV= 87 CHG=7.18E-03 dt0=1.00E+04 DIVF(1)=-2.64E-05 DIVFrms= 6.12E-03 DT(ND)=-5.60E-04 T(ND)=2.1235E+02
 NST=    54 JCONV= 88 CHG=7.19E-03 dt0=1.00E+04 DIVF(1)=-2.51E-05 DIVFrms= 6.28E-03 DT(ND)=-5.32E-04 T(ND)=2.1235E+02
 NST=    55 JCONV= 87 CHG=7.27E-03 dt0=1.00E+04 DIVF(1)=-2.31E-05 DIVFrms= 6.10E-03 DT(ND)=-4.90E-04 T(ND)=2.1235E+02
 NST=    56 JCONV= 87 CHG=7.22E-03 dt0=1.00E+04 DIVF(1)=-2.75E-05 DIVFrms= 6.09E-03 DT(ND)=-5.84E-04 T(ND)=2.1235E+02
 NST=    57 JCONV= 87 CHG=7.22E-03 dt0=1.00E+04 DIVF(1)=-2.99E-05 DIVFrms= 6.09E-03 DT(ND)=-6.35E-04 T(ND)=2.1235E+02
 NST=    58 JCONV= 87 CHG=7.24E-03 dt0=1.00E+04 DIVF(1)=-3.33E-05 DIVFrms= 6.09E-03 DT(ND)=-7.06E-04 T(ND)=2.1235E+02
 NST=    59 JCONV= 87 CHG=7.19E-03 dt0=1.00E+04 DIVF(1)=-3.55E-05 DIVFrms= 6.08E-03 DT(ND)=-7.53E-04 T(ND)=2.1235E+02
 NST=    60 JCONV= 88 CHG=7.25E-03 dt0=1.00E+04 DIVF(1)=-4.01E-05 DIVFrms= 6.24E-03 DT(ND)=-8.51E-04 T(ND)=2.1235E+02
 NST=    61 JCONV= 87 CHG=7.24E-03 dt0=1.00E+04 DIVF(1)=-3.18E-05 DIVFrms= 6.06E-03 DT(ND)=-6.76E-04 T(ND)=2.1235E+02
 NST=    62 JCONV= 87 CHG=7.25E-03 dt0=1.00E+04 DIVF(1)=-3.33E-05 DIVFrms= 6.06E-03 DT(ND)=-7.08E-04 T(ND)=2.1235E+02
 NST=    63 JCONV= 87 CHG=7.23E-03 dt0=1.00E+04 DIVF(1)=-3.75E-05 DIVFrms= 6.05E-03 DT(ND)=-7.96E-04 T(ND)=2.1234E+02
 NST=    64 JCONV= 88 CHG=7.22E-03 dt0=1.00E+04 DIVF(1)=-3.90E-05 DIVFrms= 6.21E-03 DT(ND)=-8.28E-04 T(ND)=2.1234E+02
 NST=    65 JCONV= 88 CHG=7.24E-03 dt0=1.00E+04 DIVF(1)=-3.39E-05 DIVFrms= 6.19E-03 DT(ND)=-7.19E-04 T(ND)=2.1234E+02
 NST=    66 JCONV= 88 CHG=7.26E-03 dt0=1.00E+04 DIVF(1)=-3.27E-05 DIVFrms= 6.18E-03 DT(ND)=-6.95E-04 T(ND)=2.1234E+02
 NST=    67 JCONV= 88 CHG=7.27E-03 dt0=1.00E+04 DIVF(1)=-3.20E-05 DIVFrms= 6.17E-03 DT(ND)=-6.79E-04 T(ND)=2.1234E+02
 NST=    68 JCONV= 88 CHG=7.19E-03 dt0=1.00E+04 DIVF(1)=-3.16E-05 DIVFrms= 6.17E-03 DT(ND)=-6.71E-04 T(ND)=2.1234E+02
 NST=    69 JCONV= 88 CHG=7.23E-03 dt0=1.00E+04 DIVF(1)=-1.38E-05 DIVFrms= 6.14E-03 DT(ND)=-2.93E-04 T(ND)=2.1234E+02
 NST=    70 JCONV= 88 CHG=7.17E-03 dt0=1.00E+04 DIVF(1)=-2.06E-05 DIVFrms= 6.14E-03 DT(ND)=-4.38E-04 T(ND)=2.1234E+02
 NST=    71 JCONV= 88 CHG=7.23E-03 dt0=1.00E+04 DIVF(1)=-2.72E-05 DIVFrms= 6.14E-03 DT(ND)=-5.78E-04 T(ND)=2.1234E+02
 NST=    72 JCONV= 88 CHG=7.19E-03 dt0=1.00E+04 DIVF(1)=-2.91E-05 DIVFrms= 6.13E-03 DT(ND)=-6.19E-04 T(ND)=2.1234E+02
 NST=    73 JCONV= 88 CHG=7.26E-03 dt0=1.00E+04 DIVF(1)=-3.28E-05 DIVFrms= 6.12E-03 DT(ND)=-6.96E-04 T(ND)=2.1234E+02
 NST=    74 JCONV= 89 CHG=7.26E-03 dt0=1.00E+04 DIVF(1)=-4.95E-05 DIVFrms= 6.34E-03 DT(ND)=-1.05E-03 T(ND)=2.1234E+02
 NST=    75 JCONV= 88 CHG=7.24E-03 dt0=1.00E+04 DIVF(1)=-4.03E-05 DIVFrms= 6.11E-03 DT(ND)=-8.55E-04 T(ND)=2.1234E+02
 NST=    76 JCONV= 83 CHG=7.24E-03 dt0=1.00E+04 DIVF(1)=-4.50E-05 DIVFrms= 5.53E-03 DT(ND)=-9.56E-04 T(ND)=2.1234E+02
 NST=    77 JCONV= 83 CHG=7.17E-03 dt0=1.00E+04 DIVF(1)=-3.99E-05 DIVFrms= 5.52E-03 DT(ND)=-8.46E-04 T(ND)=2.1233E+02
 NST=    78 JCONV= 83 CHG=7.21E-03 dt0=1.00E+04 DIVF(1)=-3.97E-05 DIVFrms= 5.52E-03 DT(ND)=-8.44E-04 T(ND)=2.1233E+02
 NST=    79 JCONV= 84 CHG=7.21E-03 dt0=1.00E+04 DIVF(1)=-3.09E-05 DIVFrms= 5.60E-03 DT(ND)=-6.56E-04 T(ND)=2.1233E+02
 NST=    80 JCONV= 84 CHG=7.29E-03 dt0=1.00E+04 DIVF(1)=-3.36E-05 DIVFrms= 5.60E-03 DT(ND)=-7.13E-04 T(ND)=2.1233E+02
 NST=    81 JCONV= 84 CHG=7.25E-03 dt0=1.00E+04 DIVF(1)=-3.31E-05 DIVFrms= 5.59E-03 DT(ND)=-7.03E-04 T(ND)=2.1233E+02
 NST=    82 JCONV= 84 CHG=7.21E-03 dt0=1.00E+04 DIVF(1)=-3.29E-05 DIVFrms= 5.59E-03 DT(ND)=-6.99E-04 T(ND)=2.1233E+02
 NST=    83 JCONV= 84 CHG=7.29E-03 dt0=1.00E+04 DIVF(1)=-3.38E-05 DIVFrms= 5.58E-03 DT(ND)=-7.18E-04 T(ND)=2.1233E+02
 NST=    84 JCONV= 84 CHG=7.27E-03 dt0=1.00E+04 DIVF(1)=-3.38E-05 DIVFrms= 5.58E-03 DT(ND)=-7.17E-04 T(ND)=2.1233E+02
 NST=    85 JCONV= 84 CHG=7.22E-03 dt0=1.00E+04 DIVF(1)=-2.59E-05 DIVFrms= 5.57E-03 DT(ND)=-5.49E-04 T(ND)=2.1233E+02
 NST=    86 JCONV= 85 CHG=7.25E-03 dt0=1.00E+04 DIVF(1)=-3.00E-05 DIVFrms= 5.66E-03 DT(ND)=-6.38E-04 T(ND)=2.1233E+02
 NST=    87 JCONV= 85 CHG=7.19E-03 dt0=1.00E+04 DIVF(1)=-3.28E-05 DIVFrms= 5.66E-03 DT(ND)=-6.97E-04 T(ND)=2.1233E+02
 NST=    88 JCONV= 85 CHG=7.26E-03 dt0=1.00E+04 DIVF(1)=-2.61E-05 DIVFrms= 5.65E-03 DT(ND)=-5.54E-04 T(ND)=2.1233E+02
 NST=    89 JCONV= 85 CHG=7.22E-03 dt0=1.00E+04 DIVF(1)=-2.86E-05 DIVFrms= 5.64E-03 DT(ND)=-6.08E-04 T(ND)=2.1233E+02
 NST=    90 JCONV= 85 CHG=7.18E-03 dt0=1.00E+04 DIVF(1)=-2.98E-05 DIVFrms= 5.64E-03 DT(ND)=-6.33E-04 T(ND)=2.1233E+02
 NST=    91 JCONV= 85 CHG=7.23E-03 dt0=1.00E+04 DIVF(1)=-3.09E-05 DIVFrms= 5.63E-03 DT(ND)=-6.57E-04 T(ND)=2.1233E+02
 NST=    92 JCONV= 86 CHG=7.21E-03 dt0=1.00E+04 DIVF(1)=-3.30E-05 DIVFrms= 5.74E-03 DT(ND)=-7.00E-04 T(ND)=2.1232E+02
 NST=    93 JCONV= 86 CHG=7.18E-03 dt0=1.00E+04 DIVF(1)=-3.37E-05 DIVFrms= 5.73E-03 DT(ND)=-7.16E-04 T(ND)=2.1232E+02
 NST=    94 JCONV= 86 CHG=7.19E-03 dt0=1.00E+04 DIVF(1)=-3.57E-05 DIVFrms= 5.73E-03 DT(ND)=-7.57E-04 T(ND)=2.1232E+02
 NST=    95 JCONV= 86 CHG=7.20E-03 dt0=1.00E+04 DIVF(1)=-3.57E-05 DIVFrms= 5.72E-03 DT(ND)=-7.57E-04 T(ND)=2.1232E+02
 NST=    96 JCONV= 87 CHG=7.25E-03 dt0=1.00E+04 DIVF(1)=-3.57E-05 DIVFrms= 5.84E-03 DT(ND)=-7.57E-04 T(ND)=2.1232E+02
 NST=    97 JCONV= 87 CHG=7.23E-03 dt0=1.00E+04 DIVF(1)=-3.41E-05 DIVFrms= 5.83E-03 DT(ND)=-7.24E-04 T(ND)=2.1232E+02
 NST=    98 JCONV= 91 CHG=7.27E-03 dt0=1.00E+04 DIVF(1)= 5.18E-06 DIVFrms= 6.78E-03 DT(ND)= 1.10E-04 T(ND)=2.1232E+02
 NST=    99 JCONV= 86 CHG=7.25E-03 dt0=1.00E+04 DIVF(1)=-2.64E-05 DIVFrms= 5.69E-03 DT(ND)=-5.60E-04 T(ND)=2.1232E+02
 NST=   100 JCONV= 86 CHG=7.20E-03 dt0=1.00E+04 DIVF(1)=-2.75E-05 DIVFrms= 5.68E-03 DT(ND)=-5.84E-04 T(ND)=2.1232E+02
 NST=   101 JCONV= 86 CHG=7.21E-03 dt0=1.00E+04 DIVF(1)=-3.20E-05 DIVFrms= 5.68E-03 DT(ND)=-6.80E-04 T(ND)=2.1232E+02
 NST=   102 JCONV= 87 CHG=7.27E-03 dt0=1.00E+04 DIVF(1)=-2.60E-05 DIVFrms= 5.80E-03 DT(ND)=-5.53E-04 T(ND)=2.1232E+02
 NST=   103 JCONV= 87 CHG=7.26E-03 dt0=1.00E+04 DIVF(1)=-2.81E-05 DIVFrms= 5.79E-03 DT(ND)=-5.96E-04 T(ND)=2.1232E+02
 NST=   104 JCONV= 87 CHG=7.17E-03 dt0=1.00E+04 DIVF(1)=-2.98E-05 DIVFrms= 5.79E-03 DT(ND)=-6.32E-04 T(ND)=2.1232E+02
 NST=   105 JCONV= 87 CHG=7.22E-03 dt0=1.00E+04 DIVF(1)=-3.00E-05 DIVFrms= 5.78E-03 DT(ND)=-6.38E-04 T(ND)=2.1232E+02
 NST=   106 JCONV= 87 CHG=7.19E-03 dt0=1.00E+04 DIVF(1)=-3.17E-05 DIVFrms= 5.78E-03 DT(ND)=-6.73E-04 T(ND)=2.1232E+02
 NST=   107 JCONV= 87 CHG=7.25E-03 dt0=1.00E+04 DIVF(1)=-3.22E-05 DIVFrms= 5.77E-03 DT(ND)=-6.84E-04 T(ND)=2.1232E+02
 NST=   108 JCONV= 88 CHG=7.25E-03 dt0=1.00E+04 DIVF(1)=-1.94E-05 DIVFrms= 5.91E-03 DT(ND)=-4.12E-04 T(ND)=2.1232E+02
 NST=   109 JCONV= 87 CHG=7.24E-03 dt0=1.00E+04 DIVF(1)=-1.67E-05 DIVFrms= 5.74E-03 DT(ND)=-3.55E-04 T(ND)=2.1231E+02
 NST=   110 JCONV= 87 CHG=7.28E-03 dt0=1.00E+04 DIVF(1)=-1.71E-05 DIVFrms= 5.73E-03 DT(ND)=-3.64E-04 T(ND)=2.1231E+02
 NST=   111 JCONV= 87 CHG=7.16E-03 dt0=1.00E+04 DIVF(1)=-1.85E-05 DIVFrms= 5.73E-03 DT(ND)=-3.93E-04 T(ND)=2.1231E+02
 NST=   112 JCONV= 87 CHG=7.23E-03 dt0=1.00E+04 DIVF(1)=-2.36E-05 DIVFrms= 5.72E-03 DT(ND)=-5.02E-04 T(ND)=2.1231E+02
 NST=   113 JCONV= 87 CHG=7.23E-03 dt0=1.00E+04 DIVF(1)=-2.57E-05 DIVFrms= 5.72E-03 DT(ND)=-5.45E-04 T(ND)=2.1231E+02
 NST=   114 JCONV= 87 CHG=7.22E-03 dt0=1.00E+04 DIVF(1)=-2.93E-05 DIVFrms= 5.72E-03 DT(ND)=-6.22E-04 T(ND)=2.1231E+02
 NST=   115 JCONV= 88 CHG=7.21E-03 dt0=1.00E+04 DIVF(1)=-3.36E-05 DIVFrms= 5.86E-03 DT(ND)=-7.12E-04 T(ND)=2.1231E+02
 NST=   116 JCONV= 87 CHG=7.24E-03 dt0=1.00E+04 DIVF(1)=-2.72E-05 DIVFrms= 5.70E-03 DT(ND)=-5.77E-04 T(ND)=2.1231E+02
 NST=   117 JCONV= 87 CHG=7.14E-03 dt0=1.00E+04 DIVF(1)=-2.86E-05 DIVFrms= 5.69E-03 DT(ND)=-6.07E-04 T(ND)=2.1231E+02
 NST=   118 JCONV= 87 CHG=7.24E-03 dt0=1.00E+04 DIVF(1)=-2.84E-05 DIVFrms= 5.69E-03 DT(ND)=-6.03E-04 T(ND)=2.1231E+02
 NST=   119 JCONV= 87 CHG=7.23E-03 dt0=1.00E+04 DIVF(1)=-3.21E-05 DIVFrms= 5.68E-03 DT(ND)=-6.81E-04 T(ND)=2.1231E+02
 NST=   120 JCONV= 87 CHG=7.22E-03 dt0=1.00E+04 DIVF(1)=-3.19E-05 DIVFrms= 5.68E-03 DT(ND)=-6.76E-04 T(ND)=2.1231E+02
 NST=   121 JCONV= 88 CHG=7.21E-03 dt0=1.00E+04 DIVF(1)=-2.38E-06 DIVFrms= 5.80E-03 DT(ND)=-5.06E-05 T(ND)=2.1231E+02
 NST=   122 JCONV= 87 CHG=7.25E-03 dt0=1.00E+04 DIVF(1)=-7.26E-07 DIVFrms= 5.64E-03 DT(ND)=-1.54E-05 T(ND)=2.1231E+02
 NST=   123 JCONV= 87 CHG=7.20E-03 dt0=1.00E+04 DIVF(1)=-1.32E-05 DIVFrms= 5.64E-03 DT(ND)=-2.81E-04 T(ND)=2.1231E+02
 NST=   124 JCONV= 87 CHG=7.23E-03 dt0=1.00E+04 DIVF(1)=-2.04E-05 DIVFrms= 5.64E-03 DT(ND)=-4.33E-04 T(ND)=2.1231E+02
 NST=   125 JCONV= 88 CHG=7.27E-03 dt0=1.00E+04 DIVF(1)=-2.13E-05 DIVFrms= 5.78E-03 DT(ND)=-4.53E-04 T(ND)=2.1231E+02
 NST=   126 JCONV= 87 CHG=7.23E-03 dt0=1.00E+04 DIVF(1)=-2.35E-05 DIVFrms= 5.63E-03 DT(ND)=-4.98E-04 T(ND)=2.1231E+02
 NST=   127 JCONV= 87 CHG=7.22E-03 dt0=1.00E+04 DIVF(1)=-2.67E-05 DIVFrms= 5.63E-03 DT(ND)=-5.66E-04 T(ND)=2.1231E+02
 NST=   128 JCONV= 88 CHG=7.18E-03 dt0=1.00E+04 DIVF(1)=-2.75E-05 DIVFrms= 5.77E-03 DT(ND)=-5.84E-04 T(ND)=2.1231E+02
 NST=   129 JCONV= 88 CHG=7.18E-03 dt0=1.00E+04 DIVF(1)=-2.85E-05 DIVFrms= 5.76E-03 DT(ND)=-6.05E-04 T(ND)=2.1231E+02
 NST=   130 JCONV= 88 CHG=7.29E-03 dt0=1.00E+04 DIVF(1)=-2.46E-05 DIVFrms= 5.75E-03 DT(ND)=-5.23E-04 T(ND)=2.1230E+02
 NST=   131 JCONV= 88 CHG=7.21E-03 dt0=1.00E+04 DIVF(1)=-2.78E-05 DIVFrms= 5.74E-03 DT(ND)=-5.91E-04 T(ND)=2.1230E+02
 NST=   132 JCONV= 88 CHG=7.26E-03 dt0=1.00E+04 DIVF(1)=-2.70E-05 DIVFrms= 5.73E-03 DT(ND)=-5.74E-04 T(ND)=2.1230E+02
 NST=   133 JCONV= 88 CHG=7.26E-03 dt0=1.00E+04 DIVF(1)=-7.39E-06 DIVFrms= 5.71E-03 DT(ND)=-1.57E-04 T(ND)=2.1230E+02
 NST=   134 JCONV= 88 CHG=7.21E-03 dt0=1.00E+04 DIVF(1)=-2.92E-06 DIVFrms= 5.71E-03 DT(ND)=-6.21E-05 T(ND)=2.1230E+02
 NST=   135 JCONV= 88 CHG=7.21E-03 dt0=1.00E+04 DIVF(1)=-1.38E-05 DIVFrms= 5.70E-03 DT(ND)=-2.94E-04 T(ND)=2.1230E+02
 NST=   136 JCONV= 88 CHG=7.22E-03 dt0=1.00E+04 DIVF(1)=-1.69E-05 DIVFrms= 5.70E-03 DT(ND)=-3.60E-04 T(ND)=2.1230E+02
 NST=   137 JCONV= 89 CHG=7.24E-03 dt0=1.00E+04 DIVF(1)=-3.65E-05 DIVFrms= 5.89E-03 DT(ND)=-7.75E-04 T(ND)=2.1230E+02
 NST=   138 JCONV= 88 CHG=7.22E-03 dt0=1.00E+04 DIVF(1)=-2.53E-05 DIVFrms= 5.69E-03 DT(ND)=-5.38E-04 T(ND)=2.1230E+02
 NST=   139 JCONV= 92 CHG=7.25E-03 dt0=1.00E+04 DIVF(1)= 5.88E-06 DIVFrms= 6.88E-03 DT(ND)= 1.25E-04 T(ND)=2.1230E+02
 NST=   140 JCONV= 83 CHG=7.23E-03 dt0=1.00E+04 DIVF(1)=-1.29E-05 DIVFrms= 5.17E-03 DT(ND)=-2.75E-04 T(ND)=2.1230E+02
 NST=   141 JCONV= 84 CHG=7.12E-03 dt0=1.00E+04 DIVF(1)=-1.28E-05 DIVFrms= 5.25E-03 DT(ND)=-2.73E-04 T(ND)=2.1230E+02
 NST=   142 JCONV= 92 CHG=7.25E-03 dt0=1.00E+04 DIVF(1)= 3.74E-06 DIVFrms= 6.86E-03 DT(ND)= 7.95E-05 T(ND)=2.1230E+02
 NST=   143 JCONV= 84 CHG=7.23E-03 dt0=1.00E+04 DIVF(1)=-1.20E-05 DIVFrms= 5.23E-03 DT(ND)=-2.54E-04 T(ND)=2.1230E+02
 NST=   144 JCONV= 84 CHG=7.21E-03 dt0=1.00E+04 DIVF(1)=-1.31E-05 DIVFrms= 5.23E-03 DT(ND)=-2.79E-04 T(ND)=2.1230E+02
 NST=   145 JCONV= 84 CHG=7.22E-03 dt0=1.00E+04 DIVF(1)=-1.93E-05 DIVFrms= 5.23E-03 DT(ND)=-4.10E-04 T(ND)=2.1230E+02
 NST=   146 JCONV= 84 CHG=7.18E-03 dt0=1.00E+04 DIVF(1)=-2.06E-05 DIVFrms= 5.23E-03 DT(ND)=-4.38E-04 T(ND)=2.1230E+02
 NST=   147 JCONV= 84 CHG=7.22E-03 dt0=1.00E+04 DIVF(1)=-2.73E-05 DIVFrms= 5.22E-03 DT(ND)=-5.80E-04 T(ND)=2.1230E+02
 NST=   148 JCONV= 84 CHG=7.16E-03 dt0=1.00E+04 DIVF(1)=-2.45E-05 DIVFrms= 5.22E-03 DT(ND)=-5.20E-04 T(ND)=2.1230E+02
 NST=   149 JCONV= 84 CHG=7.25E-03 dt0=1.00E+04 DIVF(1)=-2.66E-05 DIVFrms= 5.22E-03 DT(ND)=-5.64E-04 T(ND)=2.1230E+02
 NST=   150 JCONV= 85 CHG=7.22E-03 dt0=1.00E+04 DIVF(1)=-2.77E-05 DIVFrms= 5.29E-03 DT(ND)=-5.87E-04 T(ND)=2.1230E+02
 NST=   151 JCONV= 85 CHG=7.23E-03 dt0=1.00E+04 DIVF(1)=-2.91E-05 DIVFrms= 5.29E-03 DT(ND)=-6.18E-04 T(ND)=2.1230E+02
 NST=   152 JCONV= 85 CHG=7.22E-03 dt0=1.00E+04 DIVF(1)=-2.86E-05 DIVFrms= 5.28E-03 DT(ND)=-6.07E-04 T(ND)=2.1230E+02
 NST=   153 JCONV= 85 CHG=7.24E-03 dt0=1.00E+04 DIVF(1)=-2.87E-05 DIVFrms= 5.28E-03 DT(ND)=-6.10E-04 T(ND)=2.1230E+02
 NST=   154 JCONV= 85 CHG=7.28E-03 dt0=1.00E+04 DIVF(1)=-3.02E-05 DIVFrms= 5.27E-03 DT(ND)=-6.40E-04 T(ND)=2.1229E+02
 NST=   155 JCONV= 85 CHG=7.18E-03 dt0=1.00E+04 DIVF(1)=-2.84E-05 DIVFrms= 5.27E-03 DT(ND)=-6.02E-04 T(ND)=2.1229E+02
 NST=   156 JCONV= 85 CHG=7.26E-03 dt0=1.00E+04 DIVF(1)=-2.90E-05 DIVFrms= 5.26E-03 DT(ND)=-6.16E-04 T(ND)=2.1229E+02
 NST=   157 JCONV= 86 CHG=7.24E-03 dt0=1.00E+04 DIVF(1)=-2.93E-05 DIVFrms= 5.35E-03 DT(ND)=-6.21E-04 T(ND)=2.1229E+02
 NST=   158 JCONV= 86 CHG=7.28E-03 dt0=1.00E+04 DIVF(1)=-3.01E-05 DIVFrms= 5.35E-03 DT(ND)=-6.40E-04 T(ND)=2.1229E+02
 NST=   159 JCONV= 86 CHG=7.19E-03 dt0=1.00E+04 DIVF(1)=-3.01E-05 DIVFrms= 5.34E-03 DT(ND)=-6.39E-04 T(ND)=2.1229E+02
 NST=   160 JCONV= 86 CHG=7.16E-03 dt0=1.00E+04 DIVF(1)=-2.92E-05 DIVFrms= 5.34E-03 DT(ND)=-6.20E-04 T(ND)=2.1229E+02
 NST=   161 JCONV= 86 CHG=7.17E-03 dt0=1.00E+04 DIVF(1)=-2.95E-05 DIVFrms= 5.33E-03 DT(ND)=-6.27E-04 T(ND)=2.1229E+02
 NST=   162 JCONV= 87 CHG=7.25E-03 dt0=1.00E+04 DIVF(1)=-3.18E-05 DIVFrms= 5.44E-03 DT(ND)=-6.76E-04 T(ND)=2.1229E+02
 NST=   163 JCONV= 87 CHG=7.22E-03 dt0=1.00E+04 DIVF(1)=-2.26E-05 DIVFrms= 5.42E-03 DT(ND)=-4.80E-04 T(ND)=2.1229E+02
 NST=   164 JCONV= 87 CHG=7.20E-03 dt0=1.00E+04 DIVF(1)=-2.38E-05 DIVFrms= 5.41E-03 DT(ND)=-5.05E-04 T(ND)=2.1229E+02
 NST=   165 JCONV= 87 CHG=7.23E-03 dt0=1.00E+04 DIVF(1)=-2.47E-05 DIVFrms= 5.41E-03 DT(ND)=-5.25E-04 T(ND)=2.1229E+02
 NST=   166 JCONV= 87 CHG=7.26E-03 dt0=1.00E+04 DIVF(1)=-2.67E-05 DIVFrms= 5.40E-03 DT(ND)=-5.67E-04 T(ND)=2.1229E+02
 NST=   167 JCONV= 87 CHG=7.26E-03 dt0=1.00E+04 DIVF(1)=-2.63E-05 DIVFrms= 5.40E-03 DT(ND)=-5.58E-04 T(ND)=2.1229E+02
 NST=   168 JCONV= 87 CHG=7.23E-03 dt0=1.00E+04 DIVF(1)=-2.78E-05 DIVFrms= 5.39E-03 DT(ND)=-5.90E-04 T(ND)=2.1229E+02
 NST=   169 JCONV= 87 CHG=7.22E-03 dt0=1.00E+04 DIVF(1)=-2.80E-05 DIVFrms= 5.39E-03 DT(ND)=-5.95E-04 T(ND)=2.1229E+02
 NST=   170 JCONV= 88 CHG=7.25E-03 dt0=1.00E+04 DIVF(1)=-3.17E-05 DIVFrms= 5.52E-03 DT(ND)=-6.73E-04 T(ND)=2.1229E+02
 NST=   171 JCONV= 87 CHG=7.21E-03 dt0=1.00E+04 DIVF(1)=-1.10E-05 DIVFrms= 5.36E-03 DT(ND)=-2.33E-04 T(ND)=2.1229E+02
 NST=   172 JCONV= 87 CHG=7.23E-03 dt0=1.00E+04 DIVF(1)=-1.71E-05 DIVFrms= 5.36E-03 DT(ND)=-3.64E-04 T(ND)=2.1228E+02
 NST=   173 JCONV= 87 CHG=7.25E-03 dt0=1.00E+04 DIVF(1)=-2.05E-05 DIVFrms= 5.35E-03 DT(ND)=-4.36E-04 T(ND)=2.1228E+02
 NST=   174 JCONV= 87 CHG=7.21E-03 dt0=1.00E+04 DIVF(1)=-2.21E-05 DIVFrms= 5.35E-03 DT(ND)=-4.70E-04 T(ND)=2.1228E+02
 NST=   175 JCONV= 87 CHG=7.19E-03 dt0=1.00E+04 DIVF(1)=-2.40E-05 DIVFrms= 5.35E-03 DT(ND)=-5.09E-04 T(ND)=2.1228E+02
 NST=   176 JCONV= 88 CHG=7.23E-03 dt0=1.00E+04 DIVF(1)=-2.78E-05 DIVFrms= 5.48E-03 DT(ND)=-5.91E-04 T(ND)=2.1228E+02
 NST=   177 JCONV= 87 CHG=7.26E-03 dt0=1.00E+04 DIVF(1)=-2.35E-05 DIVFrms= 5.33E-03 DT(ND)=-4.98E-04 T(ND)=2.1228E+02
 NST=   178 JCONV= 87 CHG=7.18E-03 dt0=1.00E+04 DIVF(1)=-2.47E-05 DIVFrms= 5.33E-03 DT(ND)=-5.24E-04 T(ND)=2.1228E+02
 NST=   179 JCONV= 87 CHG=7.20E-03 dt0=1.00E+04 DIVF(1)=-2.67E-05 DIVFrms= 5.32E-03 DT(ND)=-5.67E-04 T(ND)=2.1228E+02
 NST=   180 JCONV= 87 CHG=7.25E-03 dt0=1.00E+04 DIVF(1)=-2.81E-05 DIVFrms= 5.32E-03 DT(ND)=-5.96E-04 T(ND)=2.1228E+02
 NST=   181 JCONV= 88 CHG=7.24E-03 dt0=1.00E+04 DIVF(1)=-3.03E-05 DIVFrms= 5.45E-03 DT(ND)=-6.42E-04 T(ND)=2.1228E+02
 NST=   182 JCONV= 87 CHG=7.19E-03 dt0=1.00E+04 DIVF(1)=-2.34E-05 DIVFrms= 5.30E-03 DT(ND)=-4.97E-04 T(ND)=2.1228E+02
 NST=   183 JCONV= 87 CHG=7.23E-03 dt0=1.00E+04 DIVF(1)=-2.74E-05 DIVFrms= 5.30E-03 DT(ND)=-5.82E-04 T(ND)=2.1228E+02
 NST=   184 JCONV= 88 CHG=7.22E-03 dt0=1.00E+04 DIVF(1)=-2.94E-05 DIVFrms= 5.43E-03 DT(ND)=-6.24E-04 T(ND)=2.1228E+02
 NST=   185 JCONV= 88 CHG=7.27E-03 dt0=1.00E+04 DIVF(1)=-2.55E-05 DIVFrms= 5.42E-03 DT(ND)=-5.41E-04 T(ND)=2.1228E+02
 NST=   186 JCONV= 88 CHG=7.21E-03 dt0=1.00E+04 DIVF(1)=-2.38E-05 DIVFrms= 5.41E-03 DT(ND)=-5.05E-04 T(ND)=2.1228E+02
 NST=   187 JCONV= 88 CHG=7.17E-03 dt0=1.00E+04 DIVF(1)=-2.44E-05 DIVFrms= 5.40E-03 DT(ND)=-5.18E-04 T(ND)=2.1228E+02
 NST=   188 JCONV= 88 CHG=7.24E-03 dt0=1.00E+04 DIVF(1)=-2.37E-05 DIVFrms= 5.39E-03 DT(ND)=-5.03E-04 T(ND)=2.1228E+02
 NST=   189 JCONV= 88 CHG=7.22E-03 dt0=1.00E+04 DIVF(1)=-1.92E-05 DIVFrms= 5.38E-03 DT(ND)=-4.07E-04 T(ND)=2.1228E+02
 NST=   190 JCONV= 88 CHG=7.21E-03 dt0=1.00E+04 DIVF(1)=-2.28E-05 DIVFrms= 5.38E-03 DT(ND)=-4.84E-04 T(ND)=2.1228E+02
 NST=   191 JCONV= 88 CHG=7.21E-03 dt0=1.00E+04 DIVF(1)=-2.49E-05 DIVFrms= 5.38E-03 DT(ND)=-5.28E-04 T(ND)=2.1227E+02
 NST=   192 JCONV= 88 CHG=7.24E-03 dt0=1.00E+04 DIVF(1)=-2.72E-05 DIVFrms= 5.37E-03 DT(ND)=-5.77E-04 T(ND)=2.1227E+02
 NST=   193 JCONV= 88 CHG=7.26E-03 dt0=1.00E+04 DIVF(1)=-2.72E-05 DIVFrms= 5.37E-03 DT(ND)=-5.77E-04 T(ND)=2.1227E+02
 NST=   194 JCONV= 89 CHG=7.24E-03 dt0=1.00E+04 DIVF(1)=-3.83E-05 DIVFrms= 5.54E-03 DT(ND)=-8.13E-04 T(ND)=2.1227E+02
 NST=   195 JCONV= 88 CHG=7.25E-03 dt0=1.00E+04 DIVF(1)=-2.84E-05 DIVFrms= 5.35E-03 DT(ND)=-6.04E-04 T(ND)=2.1227E+02
 NST=   196 JCONV= 84 CHG=7.23E-03 dt0=1.00E+04 DIVF(1)=-3.16E-05 DIVFrms= 4.98E-03 DT(ND)=-6.70E-04 T(ND)=2.1227E+02
 NST=   197 JCONV= 84 CHG=7.22E-03 dt0=1.00E+04 DIVF(1)=-3.08E-05 DIVFrms= 4.98E-03 DT(ND)=-6.54E-04 T(ND)=2.1227E+02
 NST=   198 JCONV= 84 CHG=7.24E-03 dt0=1.00E+04 DIVF(1)=-1.66E-05 DIVFrms= 4.96E-03 DT(ND)=-3.53E-04 T(ND)=2.1227E+02
 NST=   199 JCONV= 84 CHG=7.25E-03 dt0=1.00E+04 DIVF(1)=-1.89E-05 DIVFrms= 4.96E-03 DT(ND)=-4.01E-04 T(ND)=2.1227E+02
 NST=   200 JCONV= 84 CHG=7.27E-03 dt0=1.00E+04 DIVF(1)=-2.24E-05 DIVFrms= 4.96E-03 DT(ND)=-4.75E-04 T(ND)=2.1227E+02

 TIME= 1.992E+06  TIME IN DAYS = 2.306E+01

 PLANETARY ALBEDO:  ALBP = 0.1649

  J     P         ALT         T        CONVEC       DT          TOLD        FH20       FSAVE       TCOOL       THEAT
  1 1.0798E-04 2.0854E+01 1.7773E+02  0.00E+00   4.9354E-03  1.7772E+02  1.7539E-07  1.6018E-07 -1.7601E+02  1.7605E+02
  2 1.2584E-04 2.0507E+01 1.7156E+02  0.00E+00  -1.2477E+00  1.7156E+02  1.7539E-07  1.6018E-07 -5.6564E+01  4.5784E+01
  3 1.4648E-04 2.0173E+01 1.6805E+02  0.00E+00  -1.7246E-01  1.6806E+02  1.7539E-07  1.6018E-07 -3.9201E+01  3.7710E+01
  4 1.7031E-04 1.9846E+01 1.6615E+02  0.00E+00  -1.3331E-02  1.6615E+02  1.7539E-07  1.6018E-07 -3.4146E+01  3.4031E+01
  5 1.9778E-04 1.9526E+01 1.6442E+02  0.00E+00   2.4482E-02  1.6442E+02  1.7539E-07  1.6018E-07 -3.0160E+01  3.0372E+01
  6 2.2942E-04 1.9211E+01 1.6262E+02  0.00E+00   2.5473E-02  1.6262E+02  1.7539E-07  1.6018E-07 -2.6485E+01  2.6706E+01
  7 2.6582E-04 1.8902E+01 1.6074E+02  0.00E+00   8.2561E-03  1.6074E+02  1.7539E-07  1.6018E-07 -2.3037E+01  2.3109E+01
  8 3.0763E-04 1.8600E+01 1.5883E+02  0.00E+00  -1.4506E-02  1.5883E+02  1.7539E-07  1.6018E-07 -1.9787E+01  1.9662E+01
  9 3.5560E-04 1.8303E+01 1.5700E+02  0.00E+00  -5.3098E-02  1.5700E+02  1.7539E-07  1.6018E-07 -1.6903E+01  1.6444E+01
 10 4.1057E-04 1.8012E+01 1.5536E+02  0.00E+00  -6.7423E-02  1.5536E+02  1.7539E-07  1.6018E-07 -1.4107E+01  1.3525E+01
 11 4.7350E-04 1.7726E+01 1.5397E+02  0.00E+00  -6.9840E-02  1.5397E+02  1.7539E-07  1.6018E-07 -1.1563E+01  1.0960E+01
 12 5.4543E-04 1.7444E+01 1.5286E+02  0.00E+00  -6.9014E-02  1.5286E+02  1.7539E-07  1.6018E-07 -9.3779E+00  8.7816E+00
 13 6.2757E-04 1.7167E+01 1.5202E+02  0.00E+00  -6.4648E-02  1.5202E+02  1.7539E-07  1.6018E-07 -7.5574E+00  6.9988E+00
 14 7.2123E-04 1.6894E+01 1.5142E+02  0.00E+00  -4.8329E-02  1.5142E+02  1.7539E-07  1.6018E-07 -6.0125E+00  5.5949E+00
 15 8.2791E-04 1.6623E+01 1.5103E+02  0.00E+00  -3.2473E-02  1.5103E+02  1.7539E-07  1.6018E-07 -4.8131E+00  4.5325E+00
 16 9.4927E-04 1.6355E+01 1.5075E+02  0.00E+00  -5.4304E-03  1.5075E+02  1.7539E-07  1.6018E-07 -3.8067E+00  3.7598E+00
 17 1.0872E-03 1.6090E+01 1.5054E+02  0.00E+00  -2.8020E-02  1.5054E+02  1.7539E-07  1.6018E-07 -3.7831E+00  3.5410E+00
 18 1.2436E-03 1.5828E+01 1.5045E+02  0.00E+00  -5.6105E-02  1.5045E+02  1.7539E-07  1.6018E-07 -4.0250E+00  3.5402E+00
 19 1.4210E-03 1.5568E+01 1.5058E+02  0.00E+00  -7.6884E-02  1.5058E+02  1.7539E-07  1.6018E-07 -4.2341E+00  3.5698E+00
 20 1.6217E-03 1.5309E+01 1.5101E+02  0.00E+00  -9.0987E-02  1.5101E+02  1.7539E-07  1.6018E-07 -4.4590E+00  3.6728E+00
 21 1.8487E-03 1.5052E+01 1.5178E+02  0.00E+00  -8.2400E-02  1.5178E+02  1.7539E-07  1.6018E-07 -4.5380E+00  3.8261E+00
 22 2.1050E-03 1.4796E+01 1.5286E+02  0.00E+00  -6.0145E-02  1.5286E+02  1.7539E-07  1.6018E-07 -4.4979E+00  3.9782E+00
 23 2.3940E-03 1.4540E+01 1.5419E+02  0.00E+00  -3.3596E-02  1.5419E+02  1.7539E-07  1.6018E-07 -4.3790E+00  4.0887E+00
 24 2.7195E-03 1.4284E+01 1.5564E+02  0.00E+00  -1.3856E-03  1.5564E+02  1.7539E-07  1.6018E-07 -4.1501E+00  4.1382E+00
 25 3.0858E-03 1.4027E+01 1.5711E+02  0.00E+00   1.9715E-02  1.5711E+02  1.7539E-07  1.6018E-07 -3.9493E+00  4.1196E+00
 26 3.4972E-03 1.3771E+01 1.5850E+02  0.00E+00   3.9637E-02  1.5850E+02  1.7539E-07  1.6018E-07 -3.6899E+00  4.0324E+00
 27 3.9590E-03 1.3515E+01 1.5975E+02  0.00E+00   5.0106E-02  1.5975E+02  1.7539E-07  1.6018E-07 -3.4469E+00  3.8799E+00
 28 4.4766E-03 1.3260E+01 1.6080E+02  0.00E+00   5.1734E-02  1.6080E+02  1.7539E-07  1.6018E-07 -3.2229E+00  3.6699E+00
 29 5.0559E-03 1.3005E+01 1.6166E+02  0.00E+00   4.5381E-02  1.6166E+02  1.7539E-07  1.6018E-07 -3.0225E+00  3.4146E+00
 30 5.7035E-03 1.2752E+01 1.6234E+02  0.00E+00   3.3260E-02  1.6234E+02  1.7539E-07  1.6018E-07 -2.8419E+00  3.1293E+00
 31 6.4267E-03 1.2501E+01 1.6289E+02  0.00E+00   2.6550E-02  1.6289E+02  1.7539E-07  1.6018E-07 -2.6022E+00  2.8316E+00
 32 7.2332E-03 1.2250E+01 1.6334E+02  0.00E+00   1.2324E-02  1.6334E+02  1.7539E-07  1.6018E-07 -2.4322E+00  2.5387E+00
 33 8.1314E-03 1.2002E+01 1.6373E+02  0.00E+00   8.6116E-03  1.6373E+02  1.7539E-07  1.6018E-07 -2.1910E+00  2.2654E+00
 34 9.1305E-03 1.1756E+01 1.6409E+02  0.00E+00   1.5092E-03  1.6409E+02  1.7539E-07  1.6018E-07 -2.0086E+00  2.0216E+00
 35 1.0241E-02 1.1512E+01 1.6444E+02  0.00E+00  -1.0921E-03  1.6444E+02  1.7539E-07  1.6018E-07 -1.8630E+00  1.8536E+00
 36 1.1472E-02 1.1269E+01 1.6481E+02  0.00E+00  -1.3582E-02  1.6480E+02  1.7539E-07  1.6018E-07 -1.9365E+00  1.8192E+00
 37 1.2837E-02 1.1029E+01 1.6522E+02  0.00E+00  -1.5190E-02  1.6522E+02  1.7539E-07  1.6018E-07 -1.8811E+00  1.7498E+00
 38 1.4348E-02 1.0790E+01 1.6568E+02  0.00E+00  -3.2258E-03  1.6568E+02  1.7539E-07  1.6018E-07 -1.6978E+00  1.6700E+00
 39 1.6017E-02 1.0553E+01 1.6617E+02  0.00E+00   1.5607E-03  1.6617E+02  1.7539E-07  1.6018E-07 -1.5677E+00  1.5812E+00
 40 1.7861E-02 1.0318E+01 1.6665E+02  0.00E+00   6.5126E-03  1.6665E+02  1.7539E-07  1.6018E-07 -1.4220E+00  1.4783E+00
 41 1.9893E-02 1.0085E+01 1.6712E+02  0.00E+00   9.8672E-04  1.6712E+02  1.7539E-07  1.6018E-07 -1.3531E+00  1.3616E+00
 42 2.2131E-02 9.8534E+00 1.6759E+02  0.00E+00  -2.0882E-03  1.6758E+02  1.7539E-07  1.6018E-07 -1.2560E+00  1.2380E+00
 43 2.4592E-02 9.6239E+00 1.6807E+02  0.00E+00  -9.3636E-03  1.6807E+02  1.7539E-07  1.6018E-07 -1.1968E+00  1.1159E+00
 44 2.7295E-02 9.3963E+00 1.6859E+02  0.00E+00  -1.0119E-02  1.6859E+02  1.7539E-07  1.6018E-07 -1.0902E+00  1.0028E+00
 45 3.0260E-02 9.1705E+00 1.6915E+02  0.00E+00  -1.2150E-02  1.6915E+02  1.7539E-07  1.6018E-07 -1.0086E+00  9.0366E-01
 46 3.3508E-02 8.9464E+00 1.6977E+02  0.00E+00  -8.4835E-03  1.6977E+02  1.7539E-07  1.6018E-07 -8.9446E-01  8.2117E-01
 47 3.7062E-02 8.7241E+00 1.7042E+02  0.00E+00  -6.9230E-03  1.7042E+02  1.7539E-07  1.6018E-07 -8.1564E-01  7.5583E-01
 48 4.0945E-02 8.5034E+00 1.7111E+02  0.00E+00  -4.1709E-03  1.7111E+02  1.7539E-07  1.6018E-07 -7.4256E-01  7.0652E-01
 49 4.5183E-02 8.2844E+00 1.7182E+02  0.00E+00   4.5821E-04  1.7182E+02  1.7539E-07  1.6018E-07 -6.6701E-01  6.7096E-01
 50 4.9801E-02 8.0672E+00 1.7254E+02  0.00E+00   1.9074E-03  1.7254E+02  1.7539E-07  1.6018E-07 -6.2961E-01  6.4609E-01
 51 5.4827E-02 7.8516E+00 1.7326E+02  0.00E+00   3.2416E-03  1.7326E+02  1.7539E-07  1.6018E-07 -6.0054E-01  6.2855E-01
 52 6.0291E-02 7.6377E+00 1.7397E+02  0.00E+00   5.7550E-03  1.7397E+02  1.7539E-07  1.6018E-07 -5.6539E-01  6.1512E-01
 53 6.6223E-02 7.4256E+00 1.7467E+02  0.00E+00   5.9797E-03  1.7467E+02  1.7539E-07  1.6018E-07 -5.5142E-01  6.0309E-01
 54 7.2653E-02 7.2152E+00 1.7536E+02  0.00E+00   6.4940E-03  1.7536E+02  1.7539E-07  1.6018E-07 -5.3432E-01  5.9043E-01
 55 7.9616E-02 7.0067E+00 1.7603E+02  0.00E+00   7.3090E-03  1.7603E+02  1.7539E-07  1.6018E-07 -5.1266E-01  5.7581E-01
 56 8.7144E-02 6.8001E+00 1.7668E+02  0.00E+00   9.3113E-03  1.7668E+02  1.7539E-07  1.6018E-07 -4.7807E-01  5.5852E-01
 57 9.5274E-02 6.5954E+00 1.7731E+02  0.00E+00   9.5944E-03  1.7730E+02  1.7539E-07  1.6018E-07 -4.5538E-01  5.3828E-01
 58 1.0404E-01 6.3926E+00 1.7790E+02  0.00E+00   1.2066E-02  1.7790E+02  1.7539E-07  1.6018E-07 -4.3052E-01  5.3477E-01
 59 1.1348E-01 6.1919E+00 1.7846E+02  0.00E+00   1.4943E-02  1.7846E+02  1.7539E-07  1.6018E-07 -4.1496E-01  5.4406E-01
 60 1.2364E-01 5.9933E+00 1.7897E+02  0.00E+00   1.8398E-02  1.7897E+02  1.7539E-07  1.6018E-07 -3.8101E-01  5.3998E-01
 61 1.3455E-01 5.7968E+00 1.7943E+02  0.00E+00   1.9918E-02  1.7942E+02  1.7539E-07  1.6018E-07 -3.5181E-01  5.2391E-01
 62 1.4625E-01 5.6026E+00 1.7981E+02  0.00E+00   2.0827E-02  1.7981E+02  1.7539E-07  1.6018E-07 -3.1810E-01  4.9805E-01
 63 1.5878E-01 5.4107E+00 1.8013E+02  0.00E+00   1.9776E-02  1.8013E+02  1.7539E-07  1.6018E-07 -2.9428E-01  4.6514E-01
 64 1.7219E-01 5.2212E+00 1.8038E+02  0.00E+00   1.7995E-02  1.8038E+02  1.7539E-07  1.6018E-07 -2.7265E-01  4.2812E-01
 65 1.8651E-01 5.0342E+00 1.8058E+02  0.00E+00   1.5191E-02  1.8058E+02  1.7539E-07  1.6018E-07 -2.5856E-01  3.8982E-01
 66 2.0180E-01 4.8497E+00 1.8073E+02  0.00E+00   1.1878E-02  1.8072E+02  1.7539E-07  1.6018E-07 -2.4999E-01  3.5261E-01
 67 2.1808E-01 4.6678E+00 1.8084E+02  0.00E+00   8.4889E-03  1.8084E+02  1.7539E-07  1.6018E-07 -2.4495E-01  3.1830E-01
 68 2.3539E-01 4.4886E+00 1.8093E+02  0.00E+00   5.3438E-03  1.8093E+02  1.7539E-07  1.6018E-07 -2.4181E-01  2.8798E-01
 69 2.5379E-01 4.3119E+00 1.8101E+02  0.00E+00   2.4238E-03  1.8101E+02  1.7539E-07  1.6018E-07 -2.4122E-01  2.6216E-01
 70 2.7332E-01 4.1379E+00 1.8110E+02  0.00E+00   3.0269E-04  1.8109E+02  1.7539E-07  1.6018E-07 -2.3820E-01  2.4081E-01
 71 2.9400E-01 3.9666E+00 1.8119E+02  0.00E+00  -1.2746E-03  1.8119E+02  1.7539E-07  1.6018E-07 -2.3461E-01  2.2360E-01
 72 3.1588E-01 3.7979E+00 1.8130E+02  0.00E+00  -2.3351E-03  1.8130E+02  1.7539E-07  1.6018E-07 -2.3013E-01  2.0995E-01
 73 3.3899E-01 3.6318E+00 1.8143E+02  0.00E+00  -2.9419E-03  1.8143E+02  1.7539E-07  1.6018E-07 -2.2466E-01  1.9924E-01
 74 3.6337E-01 3.4683E+00 1.8159E+02  0.00E+00  -3.1727E-03  1.8159E+02  1.7539E-07  1.6018E-07 -2.1822E-01  1.9081E-01
 75 3.8906E-01 3.3074E+00 1.8177E+02  0.00E+00  -3.1074E-03  1.8177E+02  1.7539E-07  1.6018E-07 -2.1092E-01  1.8407E-01
 76 4.1607E-01 3.1491E+00 1.8197E+02  0.00E+00  -2.8313E-03  1.8197E+02  1.7539E-07  1.6018E-07 -2.0296E-01  1.7850E-01
 77 4.4445E-01 2.9933E+00 1.8220E+02  0.00E+00  -2.5636E-03  1.8219E+02  1.7539E-07  1.6018E-07 -1.9582E-01  1.7367E-01
 78 4.7421E-01 2.8401E+00 1.8244E+02  0.00E+00  -1.9574E-03  1.8244E+02  1.7539E-07  1.6018E-07 -1.8616E-01  1.6925E-01
 79 5.0538E-01 2.6894E+00 1.8271E+02  0.00E+00  -1.2817E-03  1.8271E+02  1.7539E-07  1.6018E-07 -1.7609E-01  1.6502E-01
 80 5.3797E-01 2.5412E+00 1.8299E+02  0.00E+00  -5.5046E-04  1.8299E+02  1.7539E-07  1.6018E-07 -1.6559E-01  1.6083E-01
 81 5.7200E-01 2.3955E+00 1.8329E+02  0.00E+00   1.2904E-04  1.8328E+02  1.7539E-07  1.6018E-07 -1.5549E-01  1.5661E-01
 82 6.0747E-01 2.2524E+00 1.8359E+02  0.00E+00   1.0842E-03  1.8359E+02  1.7539E-07  1.6018E-07 -1.4296E-01  1.5232E-01
 83 6.4440E-01 2.1118E+00 1.8390E+02  0.00E+00   2.1468E-03  1.8390E+02  1.7539E-07  1.6018E-07 -1.2943E-01  1.4798E-01
 84 6.8277E-01 1.9737E+00 1.8421E+02  0.00E+00  -4.7465E-04  1.8421E+02  1.7540E-07  1.6018E-07 -1.1504E-01  1.4360E-01
 85 7.2260E-01 1.8382E+00 1.8453E+02  0.00E+00  -4.7465E-04  1.8453E+02  1.7541E-07  1.6018E-07 -9.7754E-02  1.3922E-01
 86 7.6386E-01 1.7052E+00 1.8484E+02  0.00E+00  -4.7465E-04  1.8484E+02  1.7561E-07  1.6018E-07 -7.7882E-02  1.3487E-01
 87 8.0653E-01 1.5748E+00 1.8515E+02  0.00E+00  -4.7465E-04  1.8515E+02  1.7569E-07  1.6018E-07 -5.3645E-02  1.3059E-01
 88 8.5061E-01 1.4469E+00 1.8546E+02  0.00E+00  -4.7465E-04  1.8546E+02  1.7602E-07  1.6151E-07 -2.3272E-02  1.2640E-01
 89 8.9605E-01 1.3216E+00 1.8582E+02  0.00E+00  -4.7465E-04  1.8582E+02  1.7817E-07  1.6684E-07  1.8528E-02  1.2234E-01
 90 9.4283E-01 1.1988E+00 1.8643E+02  0.00E+00  -4.7465E-04  1.8643E+02  1.8881E-07  1.9017E-07  8.0147E-03  1.1849E-01
 91 9.9089E-01 1.0778E+00 1.8904E+02  0.00E+00  -4.7465E-04  1.8904E+02  2.8300E-07  2.8507E-07 -6.1705E-02  1.1510E-01
 92 1.0402E+00 9.5790E-01 1.9164E+02  1.00E+00  -4.7465E-04  1.9164E+02  4.1845E-07  4.2193E-07 -1.2823E-01  1.9047E-01
 93 1.0907E+00 8.3932E-01 1.9420E+02  0.00E+00  -4.7465E-04  1.9420E+02  6.0798E-07  6.1468E-07 -2.0608E-01  1.6619E-01
 94 1.1423E+00 7.2211E-01 1.9673E+02  1.00E+00  -4.7465E-04  1.9673E+02  8.7183E-07  8.8217E-07 -2.9336E-01  1.6360E-01
 95 1.1950E+00 6.0637E-01 1.9923E+02  1.00E+00  -4.7465E-04  1.9923E+02  1.2321E-06  1.2477E-06 -3.9508E-01  1.5134E-01
 96 1.2486E+00 4.9221E-01 2.0169E+02  1.00E+00  -4.7465E-04  2.0169E+02  1.7169E-06  1.7398E-06 -5.1088E-01  1.3713E-01
 97 1.3032E+00 3.7970E-01 2.0411E+02  1.00E+00  -4.7465E-04  2.0412E+02  2.3601E-06  2.3932E-06 -6.6066E-01  1.2716E-01
 98 1.3585E+00 2.6896E-01 2.0650E+02  1.00E+00  -4.7465E-04  2.0650E+02  3.2018E-06  3.2486E-06 -8.0523E-01  1.2239E-01
 99 1.4146E+00 1.6006E-01 2.0884E+02  1.00E+00  -4.7465E-04  2.0884E+02  4.2884E-06  4.3536E-06 -9.8704E-01  1.2165E-01
100 1.4713E+00 5.3114E-02 2.1113E+02  1.00E+00  -4.7465E-04  2.1113E+02  5.6733E-06  5.7624E-06 -1.1519E+00  1.2376E-01
101 1.5000E+00 0.0000E+00 2.1227E+02  1.00E+00  -4.7465E-04  2.1227E+02  6.5026E-06  6.6063E-06  0.0000E+00  0.0000E+00
  J     P         ALT         T        CONVEC       DT          TOLD        FH20       FSAVE       TCOOL       THEAT

 FCO2
  2.41E-01 2.41E-01 2.41E-01 2.41E-01 2.41E-01 2.41E-01 2.41E-01 2.41E-01 2.41E-01 2.41E-01
  2.41E-01 2.41E-01 2.41E-01 2.41E-01 2.41E-01 2.41E-01 2.41E-01 2.41E-01 2.41E-01 2.41E-01
  2.41E-01 2.41E-01 2.41E-01 2.41E-01 2.41E-01 2.41E-01 2.41E-01 2.41E-01 2.41E-01 2.41E-01
  2.41E-01 2.41E-01 2.41E-01 2.41E-01 2.41E-01 2.41E-01 2.41E-01 2.41E-01 2.41E-01 2.41E-01
  2.41E-01 2.41E-01 2.41E-01 2.41E-01 2.41E-01 2.41E-01 2.41E-01 2.41E-01 2.41E-01 2.41E-01
  2.41E-01 2.41E-01 2.41E-01 2.41E-01 2.41E-01 2.41E-01 2.41E-01 2.41E-01 2.41E-01 2.41E-01
  2.41E-01 2.41E-01 2.41E-01 2.41E-01 2.41E-01 2.41E-01 2.41E-01 2.41E-01 2.41E-01 2.41E-01
  2.41E-01 2.41E-01 2.41E-01 2.41E-01 2.41E-01 2.41E-01 2.41E-01 2.41E-01 2.41E-01 2.41E-01
  2.41E-01 2.41E-01 2.41E-01 2.41E-01 2.41E-01 2.41E-01 2.41E-01 2.41E-01 2.41E-01 2.41E-01
  2.41E-01 2.41E-01 2.41E-01 2.41E-01 2.41E-01 2.41E-01 2.41E-01 2.41E-01 2.41E-01 2.41E-01
  2.41E-01

  J    PF         ALT       FTOTAL       FTIR       FDNIR       FUPIR       FTSOL       FDNSOL       FUPSOL       DIVF
  1 1.0000E-04 2.0854E+01 -1.9416E+00 -8.6831E+04  0.0000E+00  8.6831E+04  8.6830E+04  1.0397E+05  1.7142E+04 -2.2360E-05
  2 1.1660E-04 2.0507E+01 -1.9794E+00 -8.6675E+04  1.2655E+02  8.6802E+04  8.6673E+04  1.0382E+05  1.7142E+04 -2.2803E-05
  3 1.3581E-04 2.0173E+01  9.0393E+00 -8.6618E+04  1.6415E+02  8.6782E+04  8.6627E+04  1.0377E+05  1.7142E+04  1.0416E-04
  4 1.5799E-04 1.9846E+01  1.0796E+01 -8.6571E+04  1.9397E+02  8.6765E+04  8.6582E+04  1.0372E+05  1.7142E+04  1.2443E-04
  5 1.8359E-04 1.9526E+01  1.0952E+01 -8.6525E+04  2.2320E+02  8.6748E+04  8.6536E+04  1.0368E+05  1.7142E+04  1.2625E-04
  6 2.1308E-04 1.9211E+01  1.0621E+01 -8.6478E+04  2.5203E+02  8.6730E+04  8.6488E+04  1.0363E+05  1.7142E+04  1.2247E-04
  7 2.4702E-04 1.8902E+01  1.0225E+01 -8.6430E+04  2.8066E+02  8.6711E+04  8.6440E+04  1.0358E+05  1.7142E+04  1.1793E-04
  8 2.8604E-04 1.8600E+01  1.0078E+01 -8.6383E+04  3.0947E+02  8.6692E+04  8.6393E+04  1.0353E+05  1.7142E+04  1.1625E-04
  9 3.3084E-04 1.8303E+01  1.0375E+01 -8.6336E+04  3.3888E+02  8.6675E+04  8.6346E+04  1.0349E+05  1.7142E+04  1.1970E-04
 10 3.8221E-04 1.8012E+01  1.1621E+01 -8.6290E+04  3.6945E+02  8.6659E+04  8.6301E+04  1.0344E+05  1.7142E+04  1.3410E-04
 11 4.4104E-04 1.7726E+01  1.3432E+01 -8.6246E+04  4.0075E+02  8.6647E+04  8.6259E+04  1.0340E+05  1.7142E+04  1.5502E-04
 12 5.0834E-04 1.7444E+01  1.5576E+01 -8.6205E+04  4.3230E+02  8.6637E+04  8.6220E+04  1.0336E+05  1.7142E+04  1.7979E-04
 13 5.8523E-04 1.7167E+01  1.7996E+01 -8.6167E+04  4.6378E+02  8.6631E+04  8.6185E+04  1.0333E+05  1.7142E+04  2.0773E-04
 14 6.7297E-04 1.6894E+01  2.0581E+01 -8.6132E+04  4.9498E+02  8.6627E+04  8.6152E+04  1.0329E+05  1.7142E+04  2.3758E-04
 15 7.7296E-04 1.6623E+01  2.2783E+01 -8.6100E+04  5.2535E+02  8.6625E+04  8.6123E+04  1.0326E+05  1.7142E+04  2.6301E-04
 16 8.8678E-04 1.6355E+01  2.4467E+01 -8.6071E+04  5.5509E+02  8.6626E+04  8.6096E+04  1.0324E+05  1.7142E+04  2.8244E-04
 17 1.0162E-03 1.6090E+01  2.4787E+01 -8.6045E+04  5.8419E+02  8.6629E+04  8.6070E+04  1.0321E+05  1.7142E+04  2.8613E-04
 18 1.1631E-03 1.5828E+01  2.6662E+01 -8.6016E+04  6.2127E+02  8.6637E+04  8.6043E+04  1.0318E+05  1.7142E+04  3.0775E-04
 19 1.3297E-03 1.5568E+01  3.0920E+01 -8.5981E+04  6.7247E+02  8.6653E+04  8.6011E+04  1.0315E+05  1.7141E+04  3.5683E-04
 20 1.5185E-03 1.5309E+01  3.7530E+01 -8.5938E+04  7.4098E+02  8.6679E+04  8.5976E+04  1.0312E+05  1.7141E+04  4.3298E-04
 21 1.7320E-03 1.5052E+01  4.6381E+01 -8.5888E+04  8.2998E+02  8.6718E+04  8.5935E+04  1.0308E+05  1.7141E+04  5.3485E-04
 22 1.9732E-03 1.4796E+01  5.5441E+01 -8.5830E+04  9.3859E+02  8.6769E+04  8.5886E+04  1.0303E+05  1.7141E+04  6.3894E-04
 23 2.2455E-03 1.4540E+01  6.2907E+01 -8.5766E+04  1.0649E+03  8.6831E+04  8.5829E+04  1.0297E+05  1.7141E+04  7.2447E-04
 24 2.5523E-03 1.4284E+01  6.7610E+01 -8.5695E+04  1.2060E+03  8.6901E+04  8.5763E+04  1.0290E+05  1.7141E+04  7.7801E-04
 25 2.8977E-03 1.4027E+01  6.7828E+01 -8.5619E+04  1.3560E+03  8.6975E+04  8.5687E+04  1.0283E+05  1.7141E+04  7.7986E-04
 26 3.2860E-03 1.3771E+01  6.4331E+01 -8.5538E+04  1.5119E+03  8.7050E+04  8.5602E+04  1.0274E+05  1.7140E+04  7.3901E-04
 27 3.7221E-03 1.3515E+01  5.6430E+01 -8.5453E+04  1.6680E+03  8.7121E+04  8.5509E+04  1.0265E+05  1.7140E+04  6.4772E-04
 28 4.2111E-03 1.3260E+01  4.5223E+01 -8.5364E+04  1.8216E+03  8.7185E+04  8.5409E+04  1.0255E+05  1.7140E+04  5.1870E-04
 29 4.7588E-03 1.3005E+01  3.2256E+01 -8.5270E+04  1.9717E+03  8.7242E+04  8.5302E+04  1.0244E+05  1.7139E+04  3.6973E-04
 30 5.3715E-03 1.2752E+01  1.9527E+01 -8.5172E+04  2.1193E+03  8.7291E+04  8.5192E+04  1.0233E+05  1.7139E+04  2.2370E-04
 31 6.0561E-03 1.2501E+01  9.0998E+00 -8.5069E+04  2.2662E+03  8.7335E+04  8.5078E+04  1.0222E+05  1.7139E+04  1.0419E-04
 32 6.8200E-03 1.2250E+01 -1.9014E-01 -8.4964E+04  2.4112E+03  8.7375E+04  8.4963E+04  1.0210E+05  1.7138E+04 -2.1762E-06
 33 7.6714E-03 1.2002E+01 -4.9970E+00 -8.4854E+04  2.5590E+03  8.7413E+04  8.4849E+04  1.0199E+05  1.7138E+04 -5.7165E-05
 34 8.6190E-03 1.1756E+01 -8.7363E+00 -8.4744E+04  2.7068E+03  8.7451E+04  8.4735E+04  1.0187E+05  1.7137E+04 -9.9900E-05
 35 9.6724E-03 1.1512E+01 -9.4649E+00 -8.4631E+04  2.8580E+03  8.7489E+04  8.4622E+04  1.0176E+05  1.7136E+04 -1.0818E-04
 36 1.0842E-02 1.1269E+01 -8.8794E+00 -8.4516E+04  3.0154E+03  8.7531E+04  8.4507E+04  1.0164E+05  1.7136E+04 -1.0144E-04
 37 1.2139E-02 1.1029E+01 -8.0389E-01 -8.4383E+04  3.1990E+03  8.7582E+04  8.4382E+04  1.0152E+05  1.7135E+04 -9.1787E-06
 38 1.3575E-02 1.0790E+01  9.2000E+00 -8.4239E+04  3.4018E+03  8.7641E+04  8.4248E+04  1.0138E+05  1.7134E+04  1.0497E-04
 39 1.5164E-02 1.0553E+01  1.1550E+01 -8.4096E+04  3.6103E+03  8.7706E+04  8.4108E+04  1.0124E+05  1.7133E+04  1.3169E-04
 40 1.6919E-02 1.0318E+01  1.0294E+01 -8.3950E+04  3.8264E+03  8.7776E+04  8.3960E+04  1.0109E+05  1.7132E+04  1.1727E-04
 41 1.8855E-02 1.0085E+01  4.5085E+00 -8.3804E+04  4.0457E+03  8.7849E+04  8.3808E+04  1.0094E+05  1.7131E+04  5.1321E-05
 42 2.0988E-02 9.8534E+00  3.5425E+00 -8.3650E+04  4.2778E+03  8.7928E+04  8.3654E+04  1.0078E+05  1.7130E+04  4.0288E-05
 43 2.3336E-02 9.6239E+00  5.7926E+00 -8.3494E+04  4.5199E+03  8.8014E+04  8.3500E+04  1.0063E+05  1.7128E+04  6.5815E-05
 44 2.5916E-02 9.3963E+00  1.6884E+01 -8.3330E+04  4.7800E+03  8.8110E+04  8.3347E+04  1.0047E+05  1.7127E+04  1.9163E-04
 45 2.8748E-02 9.1705E+00  3.0044E+01 -8.3166E+04  5.0504E+03  8.8216E+04  8.3196E+04  1.0032E+05  1.7125E+04  3.4058E-04
 46 3.1852E-02 8.9464E+00  4.7371E+01 -8.2999E+04  5.3357E+03  8.8335E+04  8.3046E+04  1.0017E+05  1.7124E+04  5.3626E-04
 47 3.5251E-02 8.7241E+00  6.0618E+01 -8.2837E+04  5.6260E+03  8.8463E+04  8.2898E+04  1.0002E+05  1.7122E+04  6.8524E-04
 48 3.8966E-02 8.5034E+00  7.2442E+01 -8.2676E+04  5.9262E+03  8.8602E+04  8.2749E+04  9.9868E+04  1.7120E+04  8.1761E-04
 49 4.3024E-02 8.2844E+00  8.0224E+01 -8.2516E+04  6.2345E+03  8.8750E+04  8.2596E+04  9.9713E+04  1.7117E+04  9.0392E-04
 50 4.7449E-02 8.0672E+00  7.9291E+01 -8.2359E+04  6.5446E+03  8.8903E+04  8.2438E+04  9.9553E+04  1.7115E+04  8.9188E-04
 51 5.2269E-02 7.8516E+00  7.5062E+01 -8.2197E+04  6.8644E+03  8.9062E+04  8.2272E+04  9.9384E+04  1.7112E+04  8.4281E-04
 52 5.7511E-02 7.6377E+00  6.7241E+01 -8.2029E+04  7.1948E+03  8.9224E+04  8.2097E+04  9.9206E+04  1.7109E+04  7.5362E-04
 53 6.3206E-02 7.4256E+00  5.2154E+01 -8.1858E+04  7.5298E+03  8.9388E+04  8.1910E+04  9.9016E+04  1.7106E+04  5.8345E-04
 54 6.9384E-02 7.2152E+00  3.5141E+01 -8.1676E+04  7.8765E+03  8.9553E+04  8.1711E+04  9.8814E+04  1.7102E+04  3.9241E-04
 55 7.6077E-02 7.0067E+00  1.5118E+01 -8.1486E+04  8.2332E+03  8.9719E+04  8.1501E+04  9.8600E+04  1.7099E+04  1.6850E-04
 56 8.3319E-02 6.8001E+00 -9.2744E+00 -8.1288E+04  8.5971E+03  8.9885E+04  8.1278E+04  9.8373E+04  1.7095E+04 -1.0318E-04
 57 9.1145E-02 6.5954E+00 -4.2862E+01 -8.1088E+04  8.9589E+03  9.0047E+04  8.1045E+04  9.8136E+04  1.7090E+04 -4.7600E-04
 58 9.9590E-02 6.3926E+00 -8.0222E+01 -8.0883E+04  9.3220E+03  9.0205E+04  8.0803E+04  9.7888E+04  1.7086E+04 -8.8933E-04
 59 1.0869E-01 6.1919E+00 -1.3087E+02 -8.0674E+04  9.6821E+03  9.0356E+04  8.0543E+04  9.7624E+04  1.7081E+04 -1.4484E-03
 60 1.1849E-01 5.9933E+00 -1.9840E+02 -8.0457E+04  1.0044E+04  9.0500E+04  8.0258E+04  9.7334E+04  1.7076E+04 -2.1922E-03
 61 1.2902E-01 5.7968E+00 -2.8778E+02 -8.0242E+04  1.0391E+04  9.0634E+04  7.9955E+04  9.7025E+04  1.7070E+04 -3.1752E-03
 62 1.4032E-01 5.6026E+00 -3.9167E+02 -8.0030E+04  1.0725E+04  9.0755E+04  7.9638E+04  9.6703E+04  1.7064E+04 -4.3157E-03
 63 1.5243E-01 5.4107E+00 -5.0813E+02 -7.9824E+04  1.1038E+04  9.0862E+04  7.9316E+04  9.6374E+04  1.7058E+04 -5.5923E-03
 64 1.6540E-01 5.2212E+00 -6.2652E+02 -7.9620E+04  1.1337E+04  9.0957E+04  7.8994E+04  9.6046E+04  1.7052E+04 -6.8881E-03
 65 1.7926E-01 5.0342E+00 -7.4170E+02 -7.9418E+04  1.1622E+04  9.1040E+04  7.8677E+04  9.5722E+04  1.7045E+04 -8.1470E-03
 66 1.9406E-01 4.8497E+00 -8.4552E+02 -7.9214E+04  1.1902E+04  9.1116E+04  7.8368E+04  9.5406E+04  1.7038E+04 -9.2796E-03
 67 2.0984E-01 4.6678E+00 -9.3206E+02 -7.9003E+04  1.2184E+04  9.1187E+04  7.8071E+04  9.5102E+04  1.7031E+04 -1.0221E-02
 68 2.2664E-01 4.4886E+00 -9.9790E+02 -7.8783E+04  1.2476E+04  9.1259E+04  7.7785E+04  9.4808E+04  1.7023E+04 -1.0935E-02
 69 2.4449E-01 4.3119E+00 -1.0420E+03 -7.8552E+04  1.2781E+04  9.1333E+04  7.7510E+04  9.4525E+04  1.7015E+04 -1.1409E-02
 70 2.6345E-01 4.1379E+00 -1.0632E+03 -7.8308E+04  1.3109E+04  9.1417E+04  7.7245E+04  9.4252E+04  1.7007E+04 -1.1630E-02
 71 2.8355E-01 3.9666E+00 -1.0660E+03 -7.8052E+04  1.3459E+04  9.1511E+04  7.6986E+04  9.3984E+04  1.6999E+04 -1.1649E-02
 72 3.0483E-01 3.7979E+00 -1.0535E+03 -7.7785E+04  1.3833E+04  9.1617E+04  7.6731E+04  9.3721E+04  1.6990E+04 -1.1499E-02
 73 3.2732E-01 3.6318E+00 -1.0292E+03 -7.7508E+04  1.4231E+04  9.1739E+04  7.6479E+04  9.3459E+04  1.6981E+04 -1.1219E-02
 74 3.5107E-01 3.4683E+00 -9.9695E+02 -7.7223E+04  1.4653E+04  9.1876E+04  7.6226E+04  9.3197E+04  1.6971E+04 -1.0851E-02
 75 3.7610E-01 3.3074E+00 -9.6026E+02 -7.6931E+04  1.5100E+04  9.2030E+04  7.5971E+04  9.2932E+04  1.6961E+04 -1.0434E-02
 76 4.0245E-01 3.1491E+00 -9.2242E+02 -7.6634E+04  1.5568E+04  9.2202E+04  7.5711E+04  9.2663E+04  1.6952E+04 -1.0004E-02
 77 4.3015E-01 2.9933E+00 -8.8619E+02 -7.6333E+04  1.6058E+04  9.2391E+04  7.5447E+04  9.2388E+04  1.6941E+04 -9.5917E-03
 78 4.5922E-01 2.8401E+00 -8.5175E+02 -7.6029E+04  1.6573E+04  9.2602E+04  7.5177E+04  9.2108E+04  1.6931E+04 -9.1980E-03
 79 4.8969E-01 2.6894E+00 -8.2419E+02 -7.5725E+04  1.7106E+04  9.2832E+04  7.4901E+04  9.1821E+04  1.6921E+04 -8.8784E-03
 80 5.2157E-01 2.5412E+00 -8.0531E+02 -7.5425E+04  1.7656E+04  9.3080E+04  7.4620E+04  9.1529E+04  1.6910E+04 -8.6517E-03
 81 5.5488E-01 2.3955E+00 -7.9683E+02 -7.5130E+04  1.8219E+04  9.3349E+04  7.4333E+04  9.1232E+04  1.6899E+04 -8.5360E-03
 82 5.8964E-01 2.2524E+00 -7.9890E+02 -7.4840E+04  1.8801E+04  9.3641E+04  7.4042E+04  9.0930E+04  1.6888E+04 -8.5315E-03
 83 6.2584E-01 2.1118E+00 -8.1705E+02 -7.4563E+04  1.9392E+04  9.3955E+04  7.3746E+04  9.0624E+04  1.6877E+04 -8.6962E-03
 84 6.6350E-01 1.9737E+00 -8.5444E+02 -7.4303E+04  1.9990E+04  9.4292E+04  7.3448E+04  9.0314E+04  1.6866E+04 -9.0616E-03
 85 7.0261E-01 1.8382E+00 -9.1424E+02 -7.4062E+04  2.0599E+04  9.4661E+04  7.3148E+04  9.0003E+04  1.6855E+04 -9.6580E-03
 86 7.4316E-01 1.7052E+00 -1.0043E+03 -7.3850E+04  2.1212E+04  9.5062E+04  7.2845E+04  8.9690E+04  1.6845E+04 -1.0564E-02
 87 7.8513E-01 1.5748E+00 -1.1324E+03 -7.3674E+04  2.1824E+04  9.5498E+04  7.2542E+04  8.9376E+04  1.6834E+04 -1.1858E-02
 88 8.2852E-01 1.4469E+00 -1.3112E+03 -7.3550E+04  2.2442E+04  9.5992E+04  7.2239E+04  8.9062E+04  1.6823E+04 -1.3659E-02
 89 8.7329E-01 1.3216E+00 -1.5585E+03 -7.3494E+04  2.3077E+04  9.6571E+04  7.1936E+04  8.8749E+04  1.6813E+04 -1.6138E-02
 90 9.1941E-01 1.1988E+00 -1.9065E+03 -7.3540E+04  2.3798E+04  9.7338E+04  7.1633E+04  8.8437E+04  1.6804E+04 -1.9587E-02
 91 9.6684E-01 1.0778E+00 -2.2281E+03 -7.3560E+04  2.5241E+04  9.8801E+04  7.1332E+04  8.8126E+04  1.6794E+04 -2.2551E-02
 92 1.0155E+00 9.5790E-01 -2.3676E+03 -7.3399E+04  2.6936E+04  1.0034E+05  7.1031E+04  8.7817E+04  1.6786E+04 -2.3597E-02
 93 1.0655E+00 8.3932E-01 -2.5345E+03 -7.3055E+04  2.8865E+04  1.0192E+05  7.0521E+04  8.7299E+04  1.6778E+04 -2.4867E-02
 94 1.1165E+00 7.2211E-01 -2.4249E+03 -7.2489E+04  3.1079E+04  1.0357E+05  7.0064E+04  8.6837E+04  1.6773E+04 -2.3414E-02
 95 1.1687E+00 6.0637E-01 -2.0604E+03 -7.1665E+04  3.3591E+04  1.0526E+05  6.9605E+04  8.6374E+04  1.6769E+04 -1.9576E-02
 96 1.2219E+00 4.9221E-01 -1.3617E+03 -7.0532E+04  3.6444E+04  1.0698E+05  6.9171E+04  8.5939E+04  1.6768E+04 -1.2729E-02
 97 1.2760E+00 3.7970E-01 -2.7010E+02 -6.9040E+04  3.9689E+04  1.0873E+05  6.8770E+04  8.5540E+04  1.6770E+04 -2.4842E-03
 98 1.3310E+00 2.6896E-01  1.3143E+03 -6.7078E+04  4.3455E+04  1.1053E+05  6.8393E+04  8.5167E+04  1.6775E+04  1.1891E-02
 99 1.3867E+00 1.6006E-01  3.3725E+03 -6.4651E+04  4.7630E+04  1.1228E+05  6.8024E+04  8.4807E+04  1.6783E+04  3.0036E-02
100 1.4431E+00 5.3114E-02  6.0144E+03 -6.1638E+04  5.2185E+04  1.1382E+05  6.7652E+04  8.4450E+04  1.6797E+04  5.2840E-02
101 1.5000E+00 0.0000E+00  9.1873E+03 -5.8083E+04  5.6447E+04  1.1453E+05  6.7270E+04  8.4088E+04  1.6818E+04  8.0217E-02
 
