     ALT          P          T          FH2O           O3           THEAT        TCOOL        PSATCO2        FCO2
4.7207E+01  1.0774E-04 1.1928E+02    7.8670E-11    0.0000E+00    1.2947E+00   -2.1092E+00    3.5857E-05    6.8191E-02
4.6684E+01  1.2499E-04 1.2361E+02    7.8670E-11    0.0000E+00    1.4022E+00   -8.3647E-01    9.2007E-05    6.8191E-02
4.6148E+01  1.4484E-04 1.2734E+02    7.8670E-11    0.0000E+00    1.5069E+00   -1.1719E+00    1.9615E-04    6.8191E-02
4.5601E+01  1.6765E-04 1.3037E+02    7.8670E-11    0.0000E+00    1.6062E+00   -1.4245E+00    3.5100E-04    6.8191E-02
4.5048E+01  1.9384E-04 1.3274E+02    7.8670E-11    0.0000E+00    1.6976E+00   -1.6429E+00    5.4380E-04    6.8191E-02
4.4490E+01  2.2386E-04 1.3458E+02    7.8670E-11    0.0000E+00    1.7785E+00   -1.7837E+00    7.5429E-04    6.8191E-02
4.3929E+01  2.5824E-04 1.3599E+02    7.8670E-11    0.0000E+00    1.8444E+00   -1.8646E+00    9.6321E-04    6.8191E-02
4.3368E+01  2.9757E-04 1.3706E+02    7.8670E-11    0.0000E+00    1.8902E+00   -1.9098E+00    1.1568E-03    6.8191E-02
4.2807E+01  3.4250E-04 1.3788E+02    7.8670E-11    0.0000E+00    1.9098E+00   -1.9132E+00    1.3272E-03    6.8191E-02
4.2248E+01  3.9378E-04 1.3851E+02    7.8670E-11    0.0000E+00    1.8978E+00   -1.8973E+00    1.4730E-03    6.8191E-02
4.1692E+01  4.5222E-04 1.3901E+02    7.8670E-11    0.0000E+00    1.8519E+00   -1.8616E+00    1.6006E-03    6.8191E-02
4.1138E+01  5.1874E-04 1.3945E+02    7.8670E-11    0.0000E+00    1.7748E+00   -1.8005E+00    1.7197E-03    6.8191E-02
4.0586E+01  5.9439E-04 1.3988E+02    7.8670E-11    0.0000E+00    1.6760E+00   -1.7165E+00    1.8434E-03    6.8191E-02
4.0038E+01  6.8030E-04 1.4030E+02    7.8824E-11    0.0000E+00    1.5721E+00   -1.5942E+00    1.9756E-03    6.8191E-02
3.9493E+01  7.7775E-04 1.4075E+02    7.9439E-11    0.0000E+00    1.4819E+00   -1.4950E+00    2.1227E-03    6.8191E-02
3.8949E+01  8.8815E-04 1.4146E+02    8.3234E-11    0.0000E+00    1.4230E+00   -1.4521E+00    2.3758E-03    6.8191E-02
3.8408E+01  1.0131E-03 1.4221E+02    9.1703E-11    0.0000E+00    1.3987E+00   -1.3178E+00    2.6762E-03    6.8191E-02
3.7869E+01  1.1543E-03 1.4268E+02    9.6466E-11    0.0000E+00    1.4017E+00   -1.4248E+00    2.8772E-03    6.8191E-02
3.7332E+01  1.3137E-03 1.4355E+02    1.1317E-10    0.0000E+00    1.4220E+00   -1.4437E+00    3.2915E-03    6.8191E-02
3.6796E+01  1.4935E-03 1.4473E+02    1.4592E-10    0.0000E+00    1.4461E+00   -1.4474E+00    3.9399E-03    6.8191E-02
3.6260E+01  1.6959E-03 1.4604E+02    1.9581E-10    0.0000E+00    1.4639E+00   -1.4560E+00    4.7971E-03    6.8191E-02
3.5724E+01  1.9236E-03 1.4741E+02    2.6510E-10    0.0000E+00    1.4699E+00   -1.4609E+00    5.8627E-03    6.8191E-02
3.5188E+01  2.1794E-03 1.4881E+02    3.5949E-10    0.0000E+00    1.4606E+00   -1.4535E+00    7.1786E-03    6.8191E-02
3.4652E+01  2.4664E-03 1.5029E+02    4.9153E-10    0.0000E+00    1.4353E+00   -1.4361E+00    8.8427E-03    6.8191E-02
3.4115E+01  2.7882E-03 1.5187E+02    6.8030E-10    0.0000E+00    1.3978E+00   -1.3960E+00    1.1003E-02    6.8191E-02
3.3577E+01  3.1483E-03 1.5351E+02    9.4888E-10    0.0000E+00    1.3412E+00   -1.3380E+00    1.3733E-02    6.8191E-02
3.3038E+01  3.5509E-03 1.5518E+02    1.3218E-09    0.0000E+00    1.2698E+00   -1.2695E+00    1.7143E-02    6.8191E-02
3.2499E+01  4.0006E-03 1.5683E+02    1.8057E-09    0.0000E+00    1.1906E+00   -1.1807E+00    2.1228E-02    6.8191E-02
3.1959E+01  4.5021E-03 1.5840E+02    2.3935E-09    0.0000E+00    1.1119E+00   -1.1104E+00    2.5884E-02    6.8191E-02
3.1419E+01  5.0607E-03 1.5986E+02    3.0709E-09    0.0000E+00    1.0413E+00   -1.0300E+00    3.1043E-02    6.8191E-02
3.0880E+01  5.6823E-03 1.6118E+02    3.7928E-09    0.0000E+00    9.8290E-01   -9.7845E-01    3.6483E-02    6.8191E-02
3.0342E+01  6.3730E-03 1.6240E+02    4.5247E-09    0.0000E+00    9.3874E-01   -9.3734E-01    4.2203E-02    6.8191E-02
2.9805E+01  7.1396E-03 1.6353E+02    5.2439E-09    0.0000E+00    9.0830E-01   -8.9864E-01    4.8250E-02    6.8191E-02
2.9270E+01  7.9895E-03 1.6453E+02    5.8751E-09    0.0000E+00    8.8865E-01   -8.8855E-01    5.4241E-02    6.8191E-02
2.8737E+01  8.9305E-03 1.6554E+02    6.5838E-09    0.0000E+00    8.7629E-01   -8.9658E-01    6.0934E-02    6.8191E-02
2.8207E+01  9.9710E-03 1.6639E+02    7.0329E-09    0.0000E+00    8.6507E-01   -8.0255E-01    6.7135E-02    6.8191E-02
2.7680E+01  1.1120E-02 1.6695E+02    7.2715E-09    0.0000E+00    8.4294E-01   -8.6497E-01    7.1542E-02    6.8191E-02
2.7156E+01  1.2388E-02 1.6782E+02    7.6575E-09    0.0000E+00    8.1873E-01   -8.2747E-01    7.8842E-02    6.8191E-02
2.6634E+01  1.3785E-02 1.6889E+02    8.6028E-09    0.0000E+00    7.9116E-01   -7.8997E-01    8.8729E-02    6.8191E-02
2.6115E+01  1.5322E-02 1.7015E+02    1.0168E-08    0.0000E+00    7.6062E-01   -7.6568E-01    1.0190E-01    6.8191E-02
2.5597E+01  1.7011E-02 1.7157E+02    1.2281E-08    0.0000E+00    7.2818E-01   -7.1994E-01    1.1860E-01    6.8191E-02
2.5080E+01  1.8865E-02 1.7300E+02    1.5229E-08    0.0000E+00    6.9543E-01   -6.9430E-01    1.3802E-01    6.8191E-02
2.4564E+01  2.0897E-02 1.7442E+02    1.8543E-08    0.0000E+00    6.6467E-01   -6.5741E-01    1.5990E-01    6.8191E-02
2.4051E+01  2.3123E-02 1.7577E+02    2.2600E-08    0.0000E+00    6.3782E-01   -6.2618E-01    1.8358E-01    6.8191E-02
2.3539E+01  2.5557E-02 1.7707E+02    2.7207E-08    0.0000E+00    6.1606E-01   -6.1613E-01    2.0912E-01    6.8191E-02
2.3029E+01  2.8215E-02 1.7839E+02    3.2200E-08    0.0000E+00    5.9954E-01   -5.9825E-01    2.3852E-01    6.8191E-02
2.2521E+01  3.1114E-02 1.7975E+02    3.8731E-08    0.0000E+00    5.8703E-01   -5.8273E-01    2.7236E-01    6.8191E-02
2.2015E+01  3.4273E-02 1.8117E+02    4.6917E-08    0.0000E+00    5.7692E-01   -5.7960E-01    3.1201E-01    6.8191E-02
2.1511E+01  3.7710E-02 1.8266E+02    5.7100E-08    0.0000E+00    5.6769E-01   -5.6414E-01    3.5906E-01    6.8191E-02
2.1008E+01  4.1445E-02 1.8417E+02    7.0499E-08    0.0000E+00    5.5807E-01   -5.5917E-01    4.1324E-01    6.8191E-02
2.0508E+01  4.5499E-02 1.8569E+02    8.6636E-08    0.0000E+00    5.4741E-01   -5.4226E-01    4.7463E-01    6.8191E-02
2.0010E+01  4.9893E-02 1.8715E+02    1.0651E-07    0.0000E+00    5.3538E-01   -5.3568E-01    5.4143E-01    6.8191E-02
1.9514E+01  5.4649E-02 1.8856E+02    1.2871E-07    0.0000E+00    5.2121E-01   -5.1872E-01    6.1328E-01    6.8191E-02
1.9020E+01  5.9792E-02 1.8987E+02    1.5417E-07    0.0000E+00    5.0488E-01   -5.0062E-01    6.8720E-01    6.8191E-02
1.8530E+01  6.5345E-02 1.9107E+02    1.8012E-07    0.0000E+00    4.8825E-01   -4.8761E-01    7.6206E-01    6.8191E-02
1.8043E+01  7.1333E-02 1.9220E+02    2.0927E-07    0.0000E+00    4.7169E-01   -4.7096E-01    8.3870E-01    6.8191E-02
1.7559E+01  7.7782E-02 1.9329E+02    2.3581E-07    0.0000E+00    4.5552E-01   -4.6761E-01    9.1914E-01    6.8191E-02
1.7079E+01  8.4719E-02 1.9433E+02    2.6801E-07    0.0000E+00    4.3992E-01   -4.4110E-01    1.0020E+00    6.8191E-02
1.6603E+01  9.2171E-02 1.9509E+02    2.9452E-07    0.0000E+00    4.2470E-01   -3.6129E-01    1.0666E+00    6.8191E-02
1.6132E+01  1.0017E-01 1.9570E+02    3.0191E-07    0.0000E+00    4.0994E-01   -4.8513E-01    1.1207E+00    6.8191E-02
1.5665E+01  1.0873E-01 1.9691E+02    3.4927E-07    0.0000E+00    3.8575E-01   -3.7059E-01    1.2362E+00    6.8191E-02
1.5201E+01  1.1789E-01 1.9809E+02    4.0558E-07    0.0000E+00    3.6425E-01   -3.5685E-01    1.3584E+00    6.8191E-02
1.4742E+01  1.2769E-01 1.9919E+02    4.6251E-07    0.0000E+00    3.4512E-01   -3.4313E-01    1.4819E+00    6.8191E-02
1.4286E+01  1.3814E-01 2.0014E+02    5.3922E-07    0.0000E+00    3.2815E-01   -3.2588E-01    1.5959E+00    6.8191E-02
1.3835E+01  1.4928E-01 2.0094E+02    6.4512E-07    0.0000E+00    3.1312E-01   -3.1369E-01    1.6974E+00    6.8191E-02
1.3389E+01  1.6113E-01 2.0168E+02    7.6127E-07    0.0000E+00    2.9982E-01   -2.9920E-01    1.7973E+00    6.8191E-02
1.2948E+01  1.7373E-01 2.0233E+02    8.7582E-07    0.0000E+00    2.8790E-01   -2.8987E-01    1.8886E+00    6.8191E-02
1.2512E+01  1.8711E-01 2.0313E+02    1.0148E-06    0.0000E+00    2.7729E-01   -2.7799E-01    2.0065E+00    6.8191E-02
1.2081E+01  2.0128E-01 2.0377E+02    1.1366E-06    0.0000E+00    2.6740E-01   -2.5614E-01    2.1045E+00    6.8191E-02
1.1655E+01  2.1629E-01 2.0463E+02    1.3211E-06    0.0000E+00    2.5842E-01   -2.7962E-01    2.2447E+00    6.8191E-02
1.1234E+01  2.3215E-01 2.0575E+02    1.5430E-06    0.0000E+00    2.5016E-01   -2.3766E-01    2.4385E+00    6.8191E-02
1.0818E+01  2.4890E-01 2.0634E+02    1.7599E-06    0.0000E+00    2.4175E-01   -2.4075E-01    2.5460E+00    6.8191E-02
1.0406E+01  2.6656E-01 2.0846E+02    2.3972E-06    0.0000E+00    2.3534E-01   -2.3474E-01    2.9662E+00    6.8191E-02
9.9977E+00  2.8514E-01 2.0941E+02    2.6982E-06    0.0000E+00    2.2802E-01   -2.5372E-01    3.1738E+00    6.8191E-02
9.5914E+00  3.0468E-01 2.1338E+02    4.7294E-06    0.0000E+00    2.2567E-01   -6.5494E-01    4.1831E+00    6.8191E-02
9.1846E+00  3.2519E-01 2.1734E+02    8.1133E-06    0.0000E+00    2.2524E-01   -1.0005E+00    5.3582E+00    6.8191E-02
8.7774E+00  3.4670E-01 2.2129E+02    1.3635E-05    0.0000E+00    2.2640E-01   -1.3087E+00    6.3289E+00    6.8191E-02
8.3702E+00  3.6920E-01 2.2522E+02    2.2451E-05    0.0000E+00    2.2871E-01   -1.5436E+00    7.4199E+00    6.8191E-02
7.9633E+00  3.9273E-01 2.2911E+02    3.6222E-05    0.0000E+00    2.3252E-01   -1.7197E+00    8.6344E+00    6.8191E-02
7.5571E+00  4.1728E-01 2.3294E+02    5.7249E-05    0.0000E+00    2.3969E-01   -1.8616E+00    9.9725E+00    6.8191E-02
7.1518E+00  4.4287E-01 2.3671E+02    8.8612E-05    0.0000E+00    2.4933E-01   -1.9628E+00    1.1431E+01    6.8191E-02
6.7478E+00  4.6950E-01 2.4040E+02    1.3427E-04    0.0000E+00    2.5685E-01   -1.9773E+00    1.3003E+01    6.8191E-02
6.3457E+00  4.9717E-01 2.4398E+02    1.9907E-04    0.0000E+00    2.5914E-01   -1.9172E+00    1.4678E+01    6.8191E-02
5.9456E+00  5.2588E-01 2.4744E+02    2.8871E-04    0.0000E+00    2.5872E-01   -1.8637E+00    1.6441E+01    6.8191E-02
5.5482E+00  5.5562E-01 2.5076E+02    4.0949E-04    0.0000E+00    2.6162E-01   -1.8164E+00    1.8277E+01    6.8191E-02
5.1538E+00  5.8638E-01 2.5394E+02    5.6804E-04    0.0000E+00    2.7025E-01   -1.8443E+00    2.0170E+01    6.8191E-02
4.7629E+00  6.1815E-01 2.5697E+02    7.7097E-04    0.0000E+00    2.8157E-01   -1.8156E+00    2.2101E+01    6.8191E-02
4.3759E+00  6.5091E-01 2.5984E+02    1.0245E-03    0.0000E+00    2.9180E-01   -1.7303E+00    2.4057E+01    6.8191E-02
3.9931E+00  6.8463E-01 2.6257E+02    1.3343E-03    0.0000E+00    2.9892E-01   -1.5959E+00    2.6024E+01    6.8191E-02
3.6151E+00  7.1928E-01 2.6514E+02    1.7052E-03    0.0000E+00    3.0251E-01   -1.4276E+00    2.7992E+01    6.8191E-02
3.2421E+00  7.5484E-01 2.6758E+02    2.1410E-03    0.0000E+00    3.0298E-01   -1.2349E+00    2.9951E+01    6.8191E-02
2.8745E+00  7.9127E-01 2.6989E+02    2.6448E-03    0.0000E+00    3.0095E-01   -1.0670E+00    3.1895E+01    6.8191E-02
2.5126E+00  8.2851E-01 2.7207E+02    3.2188E-03    0.0000E+00    2.9753E-01   -9.5762E-01    3.3819E+01    6.8191E-02
2.1566E+00  8.6654E-01 2.7425E+02    3.8642E-03    0.0000E+00    2.9555E-01   -8.9409E-01    3.5836E+01    6.8191E-02
1.8068E+00  9.0529E-01 2.7642E+02    4.6279E-03    0.0000E+00    2.9258E-01   -8.6635E-01    3.7916E+01    6.8191E-02
1.4632E+00  9.4471E-01 2.7849E+02    5.4263E-03    0.0000E+00    2.9083E-01   -8.6588E-01    3.9993E+01    6.8191E-02
1.1261E+00  9.8473E-01 2.8047E+02    6.1935E-03    0.0000E+00    2.9452E-01   -9.2551E-01    4.2056E+01    6.8191E-02
7.9584E-01  1.0253E+00 2.8235E+02    7.1877E-03    0.0000E+00    3.1906E-01   -1.1212E+00    4.4094E+01    6.8191E-02
4.7255E-01  1.0663E+00 2.8417E+02    8.1339E-03    0.0000E+00    3.1468E-01   -1.1496E+00    4.6124E+01    6.8191E-02
1.5646E-01  1.1078E+00 2.8589E+02    9.1535E-03    0.0000E+00    3.2252E-01   -1.2228E+00    4.8117E+01    6.8191E-02
0.0000E+00  1.1288E+00 2.8676E+02    9.7666E-03    0.0000E+00    5.7823E+00   -1.3071E+00    4.9148E+01    6.8191E-02
