     ALT          P          T          FH2O           O3           THEAT        TCOOL        PSATCO2        FCO2
4.2569E+01  1.0773E-04 1.1475E+02    3.1494E-12    0.0000E+00    5.6623E-01   -2.0428E+00    1.2397E-05    6.8191E-02
4.2074E+01  1.2497E-04 1.1536E+02    3.1494E-12    0.0000E+00    6.3454E-01   -6.1600E-01    1.4380E-05    6.8191E-02
4.1579E+01  1.4481E-04 1.1647E+02    3.1494E-12    0.0000E+00    7.0648E-01   -5.0395E-01    1.8756E-05    6.8191E-02
4.1082E+01  1.6760E-04 1.1808E+02    3.1494E-12    0.0000E+00    7.8020E-01   -5.4786E-01    2.7296E-05    6.8191E-02
4.0582E+01  1.9377E-04 1.1981E+02    3.1494E-12    0.0000E+00    8.5293E-01   -6.4443E-01    4.0460E-05    6.8191E-02
4.0079E+01  2.2376E-04 1.2145E+02    3.1494E-12    0.0000E+00    9.2074E-01   -7.7062E-01    5.7992E-05    6.8191E-02
3.9573E+01  2.5811E-04 1.2286E+02    3.1494E-12    0.0000E+00    9.7843E-01   -8.7429E-01    7.8483E-05    6.8191E-02
3.9066E+01  2.9740E-04 1.2399E+02    3.1494E-12    0.0000E+00    1.0198E+00   -9.4792E-01    9.9579E-05    6.8191E-02
3.8559E+01  3.4228E-04 1.2484E+02    3.1494E-12    0.0000E+00    1.0381E+00   -9.8609E-01    1.1874E-04    6.8191E-02
3.8054E+01  3.9349E-04 1.2544E+02    3.1494E-12    0.0000E+00    1.0275E+00   -9.8800E-01    1.3413E-04    6.8191E-02
3.7550E+01  4.5185E-04 1.2583E+02    3.1494E-12    0.0000E+00    9.8497E-01   -9.5844E-01    1.4514E-04    6.8191E-02
3.7049E+01  5.1829E-04 1.2608E+02    3.1494E-12    0.0000E+00    9.1271E-01   -9.1154E-01    1.5281E-04    6.8191E-02
3.6552E+01  5.9382E-04 1.2628E+02    3.1494E-12    0.0000E+00    8.1998E-01   -8.4851E-01    1.5887E-04    6.8191E-02
3.6058E+01  6.7960E-04 1.2647E+02    3.1494E-12    0.0000E+00    7.2291E-01   -7.7634E-01    1.6520E-04    6.8191E-02
3.5567E+01  7.7690E-04 1.2672E+02    3.1494E-12    0.0000E+00    6.4077E-01   -7.0035E-01    1.7359E-04    6.8191E-02
3.5079E+01  8.8712E-04 1.2701E+02    3.1528E-12    0.0000E+00    5.8911E-01   -6.1483E-01    1.8389E-04    6.8191E-02
3.4594E+01  1.0118E-03 1.2738E+02    3.1663E-12    0.0000E+00    5.7358E-01   -5.4136E-01    1.9799E-04    6.8191E-02
3.4111E+01  1.1528E-03 1.2779E+02    3.1952E-12    0.0000E+00    5.9142E-01   -5.9706E-01    2.1448E-04    6.8191E-02
3.3631E+01  1.3119E-03 1.2849E+02    3.7837E-12    0.0000E+00    6.2527E-01   -6.1875E-01    2.4547E-04    6.8191E-02
3.3152E+01  1.4913E-03 1.2959E+02    4.8578E-12    0.0000E+00    6.6225E-01   -6.6349E-01    3.0315E-04    6.8191E-02
3.2672E+01  1.6933E-03 1.3077E+02    6.5084E-12    0.0000E+00    6.9360E-01   -6.8995E-01    3.7828E-04    6.8191E-02
3.2193E+01  1.9206E-03 1.3198E+02    8.8058E-12    0.0000E+00    7.1409E-01   -7.1003E-01    4.7318E-04    6.8191E-02
3.1713E+01  2.1758E-03 1.3320E+02    1.1890E-11    0.0000E+00    7.2018E-01   -7.1885E-01    5.9016E-04    6.8191E-02
3.1234E+01  2.4622E-03 1.3444E+02    1.6041E-11    0.0000E+00    7.0947E-01   -7.1008E-01    7.3556E-04    6.8191E-02
3.0754E+01  2.7832E-03 1.3570E+02    2.1679E-11    0.0000E+00    6.8117E-01   -6.8275E-01    9.1719E-04    6.8191E-02
3.0274E+01  3.1425E-03 1.3699E+02    2.9230E-11    0.0000E+00    6.3678E-01   -6.3697E-01    1.1419E-03    6.8191E-02
2.9794E+01  3.5442E-03 1.3825E+02    3.8941E-11    0.0000E+00    5.8026E-01   -5.8065E-01    1.4122E-03    6.8191E-02
2.9315E+01  3.9927E-03 1.3948E+02    5.0759E-11    0.0000E+00    5.1761E-01   -5.1698E-01    1.7278E-03    6.8191E-02
2.8836E+01  4.4929E-03 1.4063E+02    6.4274E-11    0.0000E+00    4.5559E-01   -4.5450E-01    2.0802E-03    6.8191E-02
2.8357E+01  5.0501E-03 1.4167E+02    7.8620E-11    0.0000E+00    4.0017E-01   -3.9891E-01    2.4581E-03    6.8191E-02
2.7880E+01  5.6700E-03 1.4262E+02    9.2854E-11    0.0000E+00    3.5549E-01   -3.5454E-01    2.8498E-03    6.8191E-02
2.7405E+01  6.3589E-03 1.4346E+02    1.0638E-10    0.0000E+00    3.2352E-01   -3.2280E-01    3.2481E-03    6.8191E-02
2.6931E+01  7.1234E-03 1.4422E+02    1.1886E-10    0.0000E+00    3.0415E-01   -3.0418E-01    3.6498E-03    6.8191E-02
2.6460E+01  7.9709E-03 1.4493E+02    1.3024E-10    0.0000E+00    2.9531E-01   -2.9732E-01    4.0610E-03    6.8191E-02
2.5992E+01  8.9091E-03 1.4559E+02    1.4027E-10    0.0000E+00    2.9324E-01   -2.9788E-01    4.4845E-03    6.8191E-02
2.5526E+01  9.9466E-03 1.4614E+02    1.4598E-10    0.0000E+00    2.9340E-01   -2.8050E-01    4.8692E-03    6.8191E-02
2.5064E+01  1.1092E-02 1.4654E+02    1.4611E-10    0.0000E+00    2.9112E-01   -2.9266E-01    5.1658E-03    6.8191E-02
2.4605E+01  1.2356E-02 1.4696E+02    1.4813E-10    0.0000E+00    2.8475E-01   -2.9138E-01    5.4875E-03    6.8191E-02
2.4149E+01  1.3749E-02 1.4745E+02    1.5187E-10    0.0000E+00    2.7349E-01   -2.7169E-01    5.8975E-03    6.8191E-02
2.3697E+01  1.5281E-02 1.4806E+02    1.6208E-10    0.0000E+00    2.5767E-01   -2.5783E-01    6.4411E-03    6.8191E-02
2.3247E+01  1.6964E-02 1.4902E+02    1.8784E-10    0.0000E+00    2.3848E-01   -2.3871E-01    7.3905E-03    6.8191E-02
2.2799E+01  1.8812E-02 1.4988E+02    2.1335E-10    0.0000E+00    2.1769E-01   -2.1821E-01    8.3543E-03    6.8191E-02
2.2353E+01  2.0838E-02 1.5100E+02    2.5680E-10    0.0000E+00    1.9816E-01   -2.0382E-01    9.7608E-03    6.8191E-02
2.1909E+01  2.3056E-02 1.5181E+02    2.9110E-10    0.0000E+00    1.8039E-01   -1.7822E-01    1.0914E-02    6.8191E-02
2.1467E+01  2.5481E-02 1.5294E+02    3.4500E-10    0.0000E+00    1.6628E-01   -1.6336E-01    1.2723E-02    6.8191E-02
2.1028E+01  2.8130E-02 1.5370E+02    3.9207E-10    0.0000E+00    1.5590E-01   -1.5472E-01    1.4085E-02    6.8191E-02
2.0590E+01  3.1019E-02 1.5490E+02    4.6893E-10    0.0000E+00    1.4940E-01   -1.4745E-01    1.6512E-02    6.8191E-02
2.0155E+01  3.4167E-02 1.5568E+02    5.3859E-10    0.0000E+00    1.4518E-01   -1.4414E-01    1.8283E-02    6.8191E-02
1.9723E+01  3.7591E-02 1.5699E+02    6.5577E-10    0.0000E+00    1.4247E-01   -1.4122E-01    2.1642E-02    6.8191E-02
1.9292E+01  4.1312E-02 1.5784E+02    7.6941E-10    0.0000E+00    1.3963E-01   -1.3836E-01    2.4122E-02    6.8191E-02
1.8863E+01  4.5350E-02 1.5929E+02    9.6508E-10    0.0000E+00    1.3649E-01   -1.3587E-01    2.8941E-02    6.8191E-02
1.8437E+01  4.9728E-02 1.6026E+02    1.1645E-09    0.0000E+00    1.3218E-01   -1.3088E-01    3.2587E-02    6.8191E-02
1.8011E+01  5.4466E-02 1.6200E+02    1.4963E-09    0.0000E+00    1.2744E-01   -1.2816E-01    4.0255E-02    6.8191E-02
1.7588E+01  5.9588E-02 1.6308E+02    1.8366E-09    0.0000E+00    1.2170E-01   -1.1916E-01    4.5782E-02    6.8191E-02
1.7166E+01  6.5119E-02 1.6500E+02    2.4431E-09    0.0000E+00    1.1617E-01   -1.1496E-01    5.7278E-02    6.8191E-02
1.6745E+01  7.1084E-02 1.6612E+02    3.0010E-09    0.0000E+00    1.1024E-01   -1.0683E-01    6.5141E-02    6.8191E-02
1.6327E+01  7.7507E-02 1.6800E+02    4.0272E-09    0.0000E+00    1.0502E-01   -1.0305E-01    8.0457E-02    6.8191E-02
1.5909E+01  8.4415E-02 1.6919E+02    4.8359E-09    0.0000E+00    9.9795E-02   -9.8608E-02    9.1732E-02    6.8191E-02
1.5494E+01  9.1836E-02 1.7101E+02    6.4583E-09    0.0000E+00    9.5315E-02   -9.4937E-02    1.1174E-01    6.8191E-02
1.5080E+01  9.9797E-02 1.7221E+02    7.5459E-09    0.0000E+00    9.0863E-02   -8.9659E-02    1.2695E-01    6.8191E-02
1.4669E+01  1.0833E-01 1.7408E+02    9.9650E-09    0.0000E+00    8.5718E-02   -8.4046E-02    1.5445E-01    6.8191E-02
1.4259E+01  1.1745E-01 1.7561E+02    1.2070E-08    0.0000E+00    8.0910E-02   -7.9619E-02    1.8055E-01    6.8191E-02
1.3851E+01  1.2720E-01 1.7745E+02    1.5946E-08    0.0000E+00    7.6904E-02   -7.5093E-02    2.1737E-01    6.8191E-02
1.3445E+01  1.3761E-01 1.7906E+02    2.0971E-08    0.0000E+00    7.3563E-02   -7.1967E-02    2.5464E-01    6.8191E-02
1.3040E+01  1.4870E-01 1.8114E+02    3.1231E-08    0.0000E+00    7.1262E-02   -6.9764E-02    3.1103E-01    6.8191E-02
1.2637E+01  1.6050E-01 1.8288E+02    4.3950E-08    0.0000E+00    6.9661E-02   -6.7709E-02    3.6660E-01    6.8191E-02
1.2236E+01  1.7304E-01 1.8506E+02    6.6726E-08    0.0000E+00    6.8981E-02   -6.7392E-02    4.4852E-01    6.8191E-02
1.1836E+01  1.8636E-01 1.8673E+02    9.2606E-08    0.0000E+00    6.8658E-02   -6.6954E-02    5.2135E-01    6.8191E-02
1.1439E+01  2.0047E-01 1.8891E+02    1.3792E-07    0.0000E+00    6.8896E-02   -6.7049E-02    6.3244E-01    6.8191E-02
1.1044E+01  2.1541E-01 1.9025E+02    1.8161E-07    0.0000E+00    6.8924E-02   -6.7453E-02    7.1058E-01    6.8191E-02
1.0652E+01  2.3120E-01 1.9236E+02    2.6023E-07    0.0000E+00    6.9288E-02   -6.7861E-02    8.5027E-01    6.8191E-02
1.0263E+01  2.4787E-01 1.9339E+02    3.2169E-07    0.0000E+00    6.9065E-02   -6.7920E-02    9.2659E-01    6.8191E-02
9.8763E+00  2.6544E-01 1.9569E+02    4.6318E-07    0.0000E+00    6.9290E-02   -6.8168E-02    1.1204E+00    6.8191E-02
9.4932E+00  2.8394E-01 1.9667E+02    5.6471E-07    0.0000E+00    6.8685E-02   -6.7716E-02    1.2128E+00    6.8191E-02
9.1122E+00  3.0338E-01 2.0021E+02    9.4177E-07    0.0000E+00    6.9575E-02   -2.7815E-01    1.6042E+00    6.8191E-02
8.7308E+00  3.2380E-01 2.0396E+02    1.6703E-06    0.0000E+00    7.1230E-02   -4.8401E-01    2.1357E+00    6.8191E-02
8.3490E+00  3.4519E-01 2.0772E+02    2.9018E-06    0.0000E+00    7.4009E-02   -6.8005E-01    2.8138E+00    6.8191E-02
7.9671E+00  3.6759E-01 2.1147E+02    4.9404E-06    0.0000E+00    7.8516E-02   -8.7143E-01    3.6695E+00    6.8191E-02
7.5853E+00  3.9100E-01 2.1522E+02    8.2475E-06    0.0000E+00    8.5215E-02   -1.0659E+00    4.7382E+00    6.8191E-02
7.2039E+00  4.1543E-01 2.1895E+02    1.3505E-05    0.0000E+00    9.4074E-02   -1.2475E+00    5.7395E+00    6.8191E-02
6.8232E+00  4.4089E-01 2.2267E+02    2.1700E-05    0.0000E+00    1.0469E-01   -1.3875E+00    6.6962E+00    6.8191E-02
6.4434E+00  4.6739E-01 2.2635E+02    3.4217E-05    0.0000E+00    1.1765E-01   -1.4918E+00    7.7597E+00    6.8191E-02
6.0648E+00  4.9492E-01 2.3000E+02    5.2953E-05    0.0000E+00    1.3541E-01   -1.5872E+00    8.9322E+00    6.8191E-02
5.6878E+00  5.2349E-01 2.3359E+02    8.0422E-05    0.0000E+00    1.5825E-01   -1.6704E+00    1.0214E+01    6.8191E-02
5.3127E+00  5.5307E-01 2.3713E+02    1.1985E-04    0.0000E+00    1.8046E-01   -1.6957E+00    1.1601E+01    6.8191E-02
4.9398E+00  5.8368E-01 2.4059E+02    1.7520E-04    0.0000E+00    1.9554E-01   -1.6574E+00    1.3090E+01    6.8191E-02
4.5695E+00  6.1528E-01 2.4397E+02    2.5121E-04    0.0000E+00    2.0309E-01   -1.6090E+00    1.4672E+01    6.8191E-02
4.2021E+00  6.4787E-01 2.4724E+02    3.5320E-04    0.0000E+00    2.1041E-01   -1.5881E+00    1.6336E+01    6.8191E-02
3.8380E+00  6.8141E-01 2.5040E+02    4.8697E-04    0.0000E+00    2.2499E-01   -1.5718E+00    1.8069E+01    6.8191E-02
3.4775E+00  7.1588E-01 2.5344E+02    6.5846E-04    0.0000E+00    2.4633E-01   -1.6111E+00    1.9859E+01    6.8191E-02
3.1211E+00  7.5126E-01 2.5634E+02    8.7350E-04    0.0000E+00    2.6875E-01   -1.5940E+00    2.1691E+01    6.8191E-02
2.7691E+00  7.8749E-01 2.5912E+02    1.1375E-03    0.0000E+00    2.8746E-01   -1.5247E+00    2.3550E+01    6.8191E-02
2.4219E+00  8.2454E-01 2.6175E+02    1.4551E-03    0.0000E+00    3.0054E-01   -1.3975E+00    2.5425E+01    6.8191E-02
2.0797E+00  8.6236E-01 2.6426E+02    1.8304E-03    0.0000E+00    3.0873E-01   -1.2874E+00    2.7304E+01    6.8191E-02
1.7431E+00  9.0090E-01 2.6663E+02    2.2662E-03    0.0000E+00    3.1360E-01   -1.1561E+00    2.9177E+01    6.8191E-02
1.4121E+00  9.4011E-01 2.6888E+02    2.7644E-03    0.0000E+00    3.1617E-01   -1.0571E+00    3.1036E+01    6.8191E-02
1.0873E+00  9.7992E-01 2.7101E+02    3.3260E-03    0.0000E+00    3.1711E-01   -9.9921E-01    3.2873E+01    6.8191E-02
7.6875E-01  1.0203E+00 2.7301E+02    3.9508E-03    0.0000E+00    3.5658E-01   -1.0432E+00    3.4683E+01    6.8191E-02
4.5670E-01  1.0611E+00 2.7510E+02    4.6794E-03    0.0000E+00    3.4337E-01   -1.1576E+00    3.6637E+01    6.8191E-02
1.5129E-01  1.1023E+00 2.7707E+02    5.4303E-03    0.0000E+00    3.4922E-01   -1.2202E+00    3.8562E+01    6.8191E-02
0.0000E+00  1.1231E+00 2.7806E+02    5.8071E-03    0.0000E+00    6.2295E+00   -1.8695E+00    3.9558E+01    6.8191E-02
